\relax 
\providecommand\hyper@newdestlabel[2]{}
\providecommand*\new@tpo@label[2]{}
\@nameuse{bbl@beforestart}
\providecommand\HyperFirstAtBeginDocument{\AtBeginDocument}
\HyperFirstAtBeginDocument{\ifx\hyper@anchor\@undefined
\global\let\oldcontentsline\contentsline
\gdef\contentsline#1#2#3#4{\oldcontentsline{#1}{#2}{#3}}
\global\let\oldnewlabel\newlabel
\gdef\newlabel#1#2{\newlabelxx{#1}#2}
\gdef\newlabelxx#1#2#3#4#5#6{\oldnewlabel{#1}{{#2}{#3}}}
\AtEndDocument{\ifx\hyper@anchor\@undefined
\let\contentsline\oldcontentsline
\let\newlabel\oldnewlabel
\fi}
\fi}
\global\let\hyper@last\relax 
\gdef\HyperFirstAtBeginDocument#1{#1}
\providecommand\HyField@AuxAddToFields[1]{}
\providecommand\HyField@AuxAddToCoFields[2]{}
\providecommand\BKM@entry[2]{}
\babel@aux{UKenglish}{}
\BKM@entry{id=1,dest={73656374696F6E2E31},srcline={98}}{496E6E657220547261636B6572}
\BKM@entry{id=2,dest={73756273656374696F6E2E312E31},srcline={22}}{73696C69636F6E206465746563746F7273}
\@writefile{toc}{\contentsline {section}{\numberline {1}Inner Tracker}{2}{section.1}\protected@file@percent }
\newlabel{sec:ITk}{{1}{2}{Inner Tracker}{section.1}{}}
\newlabel{sec:ITk@cref}{{[section][1][]1}{[1][2][]2}}
\@writefile{lof}{\contentsline {figure}{\numberline {1}{\ignorespaces Expected shape of the Inner Tracker. The fine inner layer of detectors are called pixels, the coarser outer layer of detectors are called strips. The barrel region will have rectangular staves placed in cylindrical layers, the endcap region will have detectors placed in a petal geometry.}}{2}{figure.1}\protected@file@percent }
\newlabel{fig:itk_cartoon}{{1}{2}{Expected shape of the Inner Tracker. The fine inner layer of detectors are called pixels, the coarser outer layer of detectors are called strips. The barrel region will have rectangular staves placed in cylindrical layers, the endcap region will have detectors placed in a petal geometry}{figure.1}{}}
\newlabel{fig:itk_cartoon@cref}{{[figure][1][]1}{[1][2][]2}}
\@writefile{lof}{\contentsline {figure}{\numberline {2}{\ignorespaces  The expected luminosity of the High Luminosity LHC (right) compared with the current luminosity (left). The HL-LHC luminosty is expected to be 7-10 times larger}}{2}{figure.2}\protected@file@percent }
\newlabel{fig:expected_pileup}{{2}{2}{The expected luminosity of the High Luminosity LHC (right) compared with the current luminosity (left). The HL-LHC luminosty is expected to be 7-10 times larger}{figure.2}{}}
\newlabel{fig:expected_pileup@cref}{{[figure][2][]2}{[1][2][]2}}
\@writefile{toc}{\contentsline {subsection}{\numberline {1.1}silicon detectors}{2}{subsection.1.1}\protected@file@percent }
\BKM@entry{id=3,dest={73756273656374696F6E2E312E32},srcline={42}}{6C61796F7574}
\citation{ITKTDR}
\@writefile{lof}{\contentsline {figure}{\numberline {3}{\ignorespaces Expected timeline of LHC upgrades, leading to the High Luminosity LHC (pre-pandemic expectations)}}{3}{figure.3}\protected@file@percent }
\newlabel{fig:HL_timeline}{{3}{3}{Expected timeline of LHC upgrades, leading to the High Luminosity LHC (pre-pandemic expectations)}{figure.3}{}}
\newlabel{fig:HL_timeline@cref}{{[figure][3][]3}{[1][2][]3}}
\@writefile{lof}{\contentsline {figure}{\numberline {4}{\ignorespaces Example of doped silicon lattice. N doped lattice contains an element with one more valence electron, p doped contains elements with one less valence electron}}{3}{figure.4}\protected@file@percent }
\newlabel{fig:doped_sillicon}{{4}{3}{Example of doped silicon lattice. N doped lattice contains an element with one more valence electron, p doped contains elements with one less valence electron}{figure.4}{}}
\newlabel{fig:doped_sillicon@cref}{{[figure][4][]4}{[1][3][]3}}
\@writefile{lof}{\contentsline {figure}{\numberline {5}{\ignorespaces Ionizing particle through a silion detector. The ionizing particle creates an electron hole pair in the depeletion region. The electrons drift onto the charge collection strips at the top}}{4}{figure.5}\protected@file@percent }
\newlabel{fig:silicon_detector_example}{{5}{4}{Ionizing particle through a silion detector. The ionizing particle creates an electron hole pair in the depeletion region. The electrons drift onto the charge collection strips at the top}{figure.5}{}}
\newlabel{fig:silicon_detector_example@cref}{{[figure][5][]5}{[1][3][]4}}
\@writefile{toc}{\contentsline {subsection}{\numberline {1.2}layout}{4}{subsection.1.2}\protected@file@percent }
\@writefile{lof}{\contentsline {figure}{\numberline {6}{\ignorespaces ITK strips and pixels layout}}{4}{figure.6}\protected@file@percent }
\newlabel{fig:itk_layout}{{6}{4}{ITK strips and pixels layout}{figure.6}{}}
\newlabel{fig:itk_layout@cref}{{[figure][6][]6}{[1][3][]4}}
\citation{itk_ichep}
\@writefile{lof}{\contentsline {figure}{\numberline {7}{\ignorespaces Barrel staves and endcap petals. The staves are layed out in a rectangular geomtry, the petals are layed out like a flower in the endcaps. Both use the same module readout systems and same support structures.}}{5}{figure.7}\protected@file@percent }
\newlabel{fig:stave_patel_show}{{7}{5}{Barrel staves and endcap petals. The staves are layed out in a rectangular geomtry, the petals are layed out like a flower in the endcaps. Both use the same module readout systems and same support structures}{figure.7}{}}
\newlabel{fig:stave_patel_show@cref}{{[figure][7][]7}{[1][4][]5}}
\@writefile{lof}{\contentsline {figure}{\numberline {8}{\ignorespaces ITk Strips Barrel Stave}}{5}{figure.8}\protected@file@percent }
\newlabel{fig:stave}{{8}{5}{ITk Strips Barrel Stave}{figure.8}{}}
\newlabel{fig:stave@cref}{{[figure][8][]8}{[1][5][]5}}
\@writefile{lof}{\contentsline {figure}{\numberline {9}{\ignorespaces End of substructure (EOS) card for staves}}{6}{figure.9}\protected@file@percent }
\newlabel{fig:eos_card}{{9}{6}{End of substructure (EOS) card for staves}{figure.9}{}}
\newlabel{fig:eos_card@cref}{{[figure][9][]9}{[1][5][]6}}
\@writefile{lof}{\contentsline {figure}{\numberline {10}{\ignorespaces Module power board, contains the DC-DC converter, HV mulitplixer and AMAC control chip}}{6}{figure.10}\protected@file@percent }
\newlabel{fig:power_board}{{10}{6}{Module power board, contains the DC-DC converter, HV mulitplixer and AMAC control chip}{figure.10}{}}
\newlabel{fig:power_board@cref}{{[figure][10][]10}{[1][5][]6}}
\@writefile{lof}{\contentsline {figure}{\numberline {11}{\ignorespaces High voltage bus scheme for modules on a stave, where each four modules share a bus and can be turned on and off with the HV mux}}{7}{figure.11}\protected@file@percent }
\newlabel{fig:hv_bus}{{11}{7}{High voltage bus scheme for modules on a stave, where each four modules share a bus and can be turned on and off with the HV mux}{figure.11}{}}
\newlabel{fig:hv_bus@cref}{{[figure][11][]11}{[1][5][]7}}
\@writefile{lof}{\contentsline {figure}{\numberline {12}{\ignorespaces Silicon Strip Module diagram. The hybrid and power board are glued onto the silicon strips, the readout chips ABC and HCC, are then glued on top of the hybrids}}{7}{figure.12}\protected@file@percent }
\newlabel{fig:module}{{12}{7}{Silicon Strip Module diagram. The hybrid and power board are glued onto the silicon strips, the readout chips ABC and HCC, are then glued on top of the hybrids}{figure.12}{}}
\newlabel{fig:module@cref}{{[figure][12][]12}{[1][7][]7}}
\@writefile{lof}{\contentsline {figure}{\numberline {13}{\ignorespaces ABCStar schematics. Data is digitized with a one bit discriminator, then buffered in the L0 buffer}}{8}{figure.13}\protected@file@percent }
\newlabel{fig:abcstar_diagram}{{13}{8}{ABCStar schematics. Data is digitized with a one bit discriminator, then buffered in the L0 buffer}{figure.13}{}}
\newlabel{fig:abcstar_diagram@cref}{{[figure][13][]13}{[1][7][]8}}
\@writefile{lof}{\contentsline {figure}{\numberline {14}{\ignorespaces data flow from modules to stave to EOS card to data acquisition system. The EOS card collects data, provides the clock (TTC) and power, and reads out the module sensors (DCS)}}{8}{figure.14}\protected@file@percent }
\newlabel{fig:stave_data_diagram}{{14}{8}{data flow from modules to stave to EOS card to data acquisition system. The EOS card collects data, provides the clock (TTC) and power, and reads out the module sensors (DCS)}{figure.14}{}}
\newlabel{fig:stave_data_diagram@cref}{{[figure][14][]14}{[1][7][]8}}
\BKM@entry{id=4,dest={73656374696F6E2E32},srcline={104}}{44617461204163717569736974696F6E}
\@writefile{toc}{\contentsline {section}{\numberline {2}Data Acquisition}{9}{section.2}\protected@file@percent }
\newlabel{sec:DAQ Test}{{2}{9}{Data Acquisition}{section.2}{}}
\newlabel{sec:DAQ Test@cref}{{[section][2][]2}{[1][9][]9}}
\@writefile{lof}{\contentsline {figure}{\numberline {15}{\ignorespaces Threshold scan}}{9}{figure.15}\protected@file@percent }
\newlabel{fig:s_curve}{{15}{9}{Threshold scan}{figure.15}{}}
\newlabel{fig:s_curve@cref}{{[figure][15][]15}{[1][9][]9}}
\@writefile{lof}{\contentsline {figure}{\numberline {16}{\ignorespaces strobe delay values for each of the ten chips in a hybrid. The chosen delay values}}{10}{figure.16}\protected@file@percent }
\newlabel{fig:hybrid_strobe_delay}{{16}{10}{strobe delay values for each of the ten chips in a hybrid. The chosen delay values}{figure.16}{}}
\newlabel{fig:hybrid_strobe_delay@cref}{{[figure][16][]16}{[1][9][]10}}
\@writefile{lof}{\contentsline {figure}{\numberline {17}{\ignorespaces Strobe delay for a single channel}}{10}{figure.17}\protected@file@percent }
\newlabel{fig:strobe}{{17}{10}{Strobe delay for a single channel}{figure.17}{}}
\newlabel{fig:strobe@cref}{{[figure][17][]17}{[1][10][]10}}
\@writefile{lof}{\contentsline {figure}{\numberline {18}{\ignorespaces Three point gain test for a single channel}}{10}{figure.18}\protected@file@percent }
\newlabel{fig:three_point_gain}{{18}{10}{Three point gain test for a single channel}{figure.18}{}}
\newlabel{fig:three_point_gain@cref}{{[figure][18][]18}{[1][10][]10}}
\BKM@entry{id=5,dest={73756273656374696F6E2E322E31},srcline={61}}{73746176652074657374}
\@writefile{lof}{\contentsline {figure}{\numberline {19}{\ignorespaces effect of trim range on DAQ tests. The Vt50 (top plot) of all the channels are brought into aligment. The gain (middle plots) and noise of the channles (bottom plot) remain unaffected}}{11}{figure.19}\protected@file@percent }
\newlabel{fig:trim_range_plot}{{19}{11}{effect of trim range on DAQ tests. The Vt50 (top plot) of all the channels are brought into aligment. The gain (middle plots) and noise of the channles (bottom plot) remain unaffected}{figure.19}{}}
\newlabel{fig:trim_range_plot@cref}{{[figure][19][]19}{[1][11][]11}}
\@writefile{lof}{\contentsline {figure}{\numberline {20}{\ignorespaces cold chuck for module testing}}{11}{figure.20}\protected@file@percent }
\newlabel{fig:cold_chuck}{{20}{11}{cold chuck for module testing}{figure.20}{}}
\newlabel{fig:cold_chuck@cref}{{[figure][20][]20}{[1][11][]11}}
\@writefile{toc}{\contentsline {subsection}{\numberline {2.1}stave test}{12}{subsection.2.1}\protected@file@percent }
\@writefile{lof}{\contentsline {figure}{\numberline {21}{\ignorespaces first full electrical stave produced at BNL. The end of substructure card is on the bottom , connected to the fiber optic connection. The microscope was used to find broken or mis-bonded wire bonds}}{12}{figure.21}\protected@file@percent }
\newlabel{fig:full_stave_setup}{{21}{12}{first full electrical stave produced at BNL. The end of substructure card is on the bottom , connected to the fiber optic connection. The microscope was used to find broken or mis-bonded wire bonds}{figure.21}{}}
\newlabel{fig:full_stave_setup@cref}{{[figure][21][]21}{[1][12][]12}}
\@writefile{lof}{\contentsline {figure}{\numberline {22}{\ignorespaces Stave DCS setup. Data from the fiber optics is read out by a GLIB FPGA }}{12}{figure.22}\protected@file@percent }
\newlabel{fig:stave_glib}{{22}{12}{Stave DCS setup. Data from the fiber optics is read out by a GLIB FPGA}{figure.22}{}}
\newlabel{fig:stave_glib@cref}{{[figure][22][]22}{[1][12][]12}}
\@writefile{lof}{\contentsline {figure}{\numberline {23}{\ignorespaces  EOS card with GBTx chip that drives the optical signal}}{13}{figure.23}\protected@file@percent }
\newlabel{fig:gbtx}{{23}{13}{EOS card with GBTx chip that drives the optical signal}{figure.23}{}}
\newlabel{fig:gbtx@cref}{{[figure][23][]23}{[1][12][]13}}
\@writefile{lof}{\contentsline {figure}{\numberline {24}{\ignorespaces Comparison of output noise between stave and single module tests}}{13}{figure.24}\protected@file@percent }
\newlabel{fig:output_noise}{{24}{13}{Comparison of output noise between stave and single module tests}{figure.24}{}}
\newlabel{fig:output_noise@cref}{{[figure][24][]24}{[1][13][]13}}
\@writefile{lof}{\contentsline {figure}{\numberline {25}{\ignorespaces Comparison of Input noise between stave and single module tests}}{14}{figure.25}\protected@file@percent }
\newlabel{fig:input_noise}{{25}{14}{Comparison of Input noise between stave and single module tests}{figure.25}{}}
\newlabel{fig:input_noise@cref}{{[figure][25][]25}{[1][13][]14}}
\@writefile{lof}{\contentsline {figure}{\numberline {26}{\ignorespaces  Comparison of the gain between stave and single module tests}}{14}{figure.26}\protected@file@percent }
\newlabel{fig:stave_gain}{{26}{14}{Comparison of the gain between stave and single module tests}{figure.26}{}}
\newlabel{fig:stave_gain@cref}{{[figure][26][]26}{[1][13][]14}}
\@writefile{lof}{\contentsline {figure}{\numberline {27}{\ignorespaces Noise increase in the stave test relative to single module tests}}{15}{figure.27}\protected@file@percent }
\newlabel{fig:dcdc_bump}{{27}{15}{Noise increase in the stave test relative to single module tests}{figure.27}{}}
\newlabel{fig:dcdc_bump@cref}{{[figure][27][]27}{[1][13][]15}}
\@writefile{lof}{\contentsline {figure}{\numberline {28}{\ignorespaces  Confocal microscope used for module metrology}}{16}{figure.28}\protected@file@percent }
\newlabel{fig:laser_metrology}{{28}{16}{Confocal microscope used for module metrology}{figure.28}{}}
\newlabel{fig:laser_metrology@cref}{{[figure][28][]28}{[1][13][]16}}
\@writefile{lof}{\contentsline {figure}{\numberline {29}{\ignorespaces Results of module metrology, module bowing is within 100 $\mu m$}}{17}{figure.29}\protected@file@percent }
\newlabel{fig:metrology}{{29}{17}{Results of module metrology, module bowing is within 100 $\mu m$}{figure.29}{}}
\newlabel{fig:metrology@cref}{{[figure][29][]29}{[1][13][]17}}
\BKM@entry{id=6,dest={73656374696F6E2E33},srcline={109}}{4D6F64756C65205175616C69747920436F6E74726F6C}
\@writefile{toc}{\contentsline {section}{\numberline {3}Module Quality Control}{18}{section.3}\protected@file@percent }
\newlabel{sec:Modulq QC}{{3}{18}{Module Quality Control}{section.3}{}}
\newlabel{sec:Modulq QC@cref}{{[section][3][]3}{[1][18][]18}}
\@writefile{lof}{\contentsline {figure}{\numberline {30}{\ignorespaces BNL/Harvard four module cold box}}{18}{figure.30}\protected@file@percent }
\newlabel{fig:cold_box}{{30}{18}{BNL/Harvard four module cold box}{figure.30}{}}
\newlabel{fig:cold_box@cref}{{[figure][30][]30}{[1][18][]18}}
\@writefile{lof}{\contentsline {figure}{\numberline {31}{\ignorespaces Schematic of electrical connections for the four module box}}{19}{figure.31}\protected@file@percent }
\newlabel{fig:qc_box_schematic}{{31}{19}{Schematic of electrical connections for the four module box}{figure.31}{}}
\newlabel{fig:qc_box_schematic@cref}{{[figure][31][]31}{[1][18][]19}}
\@writefile{lof}{\contentsline {figure}{\numberline {32}{\ignorespaces Outline of Software Framework for QC Tests}}{20}{figure.32}\protected@file@percent }
\newlabel{fig:outline}{{32}{20}{Outline of Software Framework for QC Tests}{figure.32}{}}
\newlabel{fig:outline@cref}{{[figure][32][]32}{[1][19][]20}}
\@writefile{lof}{\contentsline {figure}{\numberline {33}{\ignorespaces Setup for cold box DAQ}}{20}{figure.33}\protected@file@percent }
\newlabel{fig:daq_setup}{{33}{20}{Setup for cold box DAQ}{figure.33}{}}
\newlabel{fig:daq_setup@cref}{{[figure][33][]33}{[1][19][]20}}
\@writefile{lof}{\contentsline {figure}{\numberline {34}{\ignorespaces Temperature sensor outputs from the first DAQ test}}{21}{figure.34}\protected@file@percent }
\newlabel{fig:first_qc_test}{{34}{21}{Temperature sensor outputs from the first DAQ test}{figure.34}{}}
\newlabel{fig:first_qc_test@cref}{{[figure][34][]34}{[1][19][]21}}
\@writefile{lof}{\contentsline {figure}{\numberline {35}{\ignorespaces Top plot is the first cycle where the trim range was run, the second plot is the second thermal cycle where only strobe delay and three point gain were run. The times each test took is on the x axis. SD is strobe delay, 3PG is thee point gain, 32T-3PG is three point gain with low statistics. }}{21}{figure.35}\protected@file@percent }
\newlabel{fig:first_qc_test_daq_tests}{{35}{21}{Top plot is the first cycle where the trim range was run, the second plot is the second thermal cycle where only strobe delay and three point gain were run. The times each test took is on the x axis. SD is strobe delay, 3PG is thee point gain, 32T-3PG is three point gain with low statistics}{figure.35}{}}
\newlabel{fig:first_qc_test_daq_tests@cref}{{[figure][35][]35}{[1][19][]21}}
\@writefile{lof}{\contentsline {figure}{\numberline {36}{\ignorespaces  Cooldown and warm up rate for the four module box with the SPS chiller. Warmup is slightly faster as expected but its close to 20 minutes each. }}{21}{figure.36}\protected@file@percent }
\newlabel{fig:chiller_rate}{{36}{21}{Cooldown and warm up rate for the four module box with the SPS chiller. Warmup is slightly faster as expected but its close to 20 minutes each}{figure.36}{}}
\newlabel{fig:chiller_rate@cref}{{[figure][36][]36}{[1][19][]21}}
\@writefile{lof}{\contentsline {figure}{\numberline {37}{\ignorespaces Sensor recordings from thermal cycle}}{22}{figure.37}\protected@file@percent }
\newlabel{fig:thermal_cycle}{{37}{22}{Sensor recordings from thermal cycle}{figure.37}{}}
\newlabel{fig:thermal_cycle@cref}{{[figure][37][]37}{[1][22][]22}}
\@writefile{lof}{\contentsline {figure}{\numberline {38}{\ignorespaces Vacuum pressure vs. temperature for vacuum chucks in the four module box. The path on the left is the plot as the box cools down, the path on the right is the plot as the box warms up}}{22}{figure.38}\protected@file@percent }
\newlabel{fig:vacuum_pressure}{{38}{22}{Vacuum pressure vs. temperature for vacuum chucks in the four module box. The path on the left is the plot as the box cools down, the path on the right is the plot as the box warms up}{figure.38}{}}
\newlabel{fig:vacuum_pressure@cref}{{[figure][38][]38}{[1][22][]22}}
\@writefile{lof}{\contentsline {figure}{\numberline {39}{\ignorespaces DAQ test result for four module box with all four modules and the full thermal cycle at the warm and cool part of the cycle. The top plot is the Vt50 of each channel, the two middle plots is the estimate of the gain, the bottom plot is input noise}}{23}{figure.39}\protected@file@percent }
\newlabel{fig:four_module_box_itsdaq}{{39}{23}{DAQ test result for four module box with all four modules and the full thermal cycle at the warm and cool part of the cycle. The top plot is the Vt50 of each channel, the two middle plots is the estimate of the gain, the bottom plot is input noise}{figure.39}{}}
\newlabel{fig:four_module_box_itsdaq@cref}{{[figure][39][]39}{[1][22][]23}}
\@writefile{lof}{\contentsline {figure}{\numberline {40}{\ignorespaces Distribution of the input noise for all four modules in the warm and cold part of the thermal cycle. Room temperature expectations are 600-700 ENC, so the noise in the warm up cycle }}{23}{figure.40}\protected@file@percent }
\newlabel{fig:thermal_cycle_input_noise}{{40}{23}{Distribution of the input noise for all four modules in the warm and cold part of the thermal cycle. Room temperature expectations are 600-700 ENC, so the noise in the warm up cycle}{figure.40}{}}
\newlabel{fig:thermal_cycle_input_noise@cref}{{[figure][40][]40}{[1][22][]23}}
\@writefile{lof}{\contentsline {figure}{\numberline {41}{\ignorespaces Distribution of the output noise for all four modules in the warm and cold part of the thermal cycle }}{24}{figure.41}\protected@file@percent }
\newlabel{fig:thermal_cycle_output_noise}{{41}{24}{Distribution of the output noise for all four modules in the warm and cold part of the thermal cycle}{figure.41}{}}
\newlabel{fig:thermal_cycle_output_noise@cref}{{[figure][41][]41}{[1][22][]24}}
\@writefile{lof}{\contentsline {figure}{\numberline {42}{\ignorespaces Average Input noise for all modules for each of the ten thermal cycles }}{24}{figure.42}\protected@file@percent }
\newlabel{fig:average_input_noise}{{42}{24}{Average Input noise for all modules for each of the ten thermal cycles}{figure.42}{}}
\newlabel{fig:average_input_noise@cref}{{[figure][42][]42}{[1][22][]24}}
\BKM@entry{id=7,dest={73656374696F6E2E34},srcline={114}}{41424353746172204972726164696174696F6E}
\citation{TIDBump}
\BKM@entry{id=8,dest={73756273656374696F6E2E342E31},srcline={35}}{50687973696373204D6F64656C}
\@writefile{toc}{\contentsline {section}{\numberline {4}ABCStar Irradiation}{25}{section.4}\protected@file@percent }
\newlabel{sec:ABCStar Rad}{{4}{25}{ABCStar Irradiation}{section.4}{}}
\newlabel{sec:ABCStar Rad@cref}{{[section][4][]4}{[1][25][]25}}
\@writefile{lof}{\contentsline {figure}{\numberline {43}{\ignorespaces Bump in the digital current vs. total ionising dose}}{25}{figure.43}\protected@file@percent }
\newlabel{fig:bump_example}{{43}{25}{Bump in the digital current vs. total ionising dose}{figure.43}{}}
\newlabel{fig:bump_example@cref}{{[figure][43][]43}{[1][25][]25}}
\@writefile{lof}{\contentsline {figure}{\numberline {44}{\ignorespaces Setup of the four ABCStar boxes relative to the Co-60 source. }}{26}{figure.44}\protected@file@percent }
\newlabel{fig:TID_box_setup}{{44}{26}{Setup of the four ABCStar boxes relative to the Co-60 source}{figure.44}{}}
\newlabel{fig:TID_box_setup@cref}{{[figure][44][]44}{[1][25][]26}}
\@writefile{lof}{\contentsline {figure}{\numberline {45}{\ignorespaces Orientation of each ABCStar chip relative to the source (The HCCStar is a seperate co-operating experiment)}}{26}{figure.45}\protected@file@percent }
\newlabel{fig:TID_box_orientation}{{45}{26}{Orientation of each ABCStar chip relative to the source (The HCCStar is a seperate co-operating experiment)}{figure.45}{}}
\newlabel{fig:TID_box_orientation@cref}{{[figure][45][]45}{[1][25][]26}}
\@writefile{lof}{\contentsline {figure}{\numberline {46}{\ignorespaces Schematics of the electrical connections between the boxes containing the ABCStar chips, DAQ readout, thermo-electric chiller (all in the source room) with the controls outside the source room}}{27}{figure.46}\protected@file@percent }
\newlabel{fig:TID_box_electrical_schematic}{{46}{27}{Schematics of the electrical connections between the boxes containing the ABCStar chips, DAQ readout, thermo-electric chiller (all in the source room) with the controls outside the source room}{figure.46}{}}
\newlabel{fig:TID_box_electrical_schematic@cref}{{[figure][46][]46}{[1][25][]27}}
\@writefile{toc}{\contentsline {subsection}{\numberline {4.1}Physics Model}{27}{subsection.4.1}\protected@file@percent }
\@writefile{lof}{\contentsline {figure}{\numberline {47}{\ignorespaces Diagram of parasitic transistors in a CMOSFET on an isolation layer }}{27}{figure.47}\protected@file@percent }
\newlabel{fig:fet_cartoon}{{47}{27}{Diagram of parasitic transistors in a CMOSFET on an isolation layer}{figure.47}{}}
\newlabel{fig:fet_cartoon@cref}{{[figure][47][]47}{[1][27][]27}}
\@writefile{lof}{\contentsline {figure}{\numberline {48}{\ignorespaces Diagram of the process of positive states trapped in the interface of silicon/ silicon oxide isolation, creating parasitic transistors}}{28}{figure.48}\protected@file@percent }
\newlabel{fig:TID_cartoon}{{48}{28}{Diagram of the process of positive states trapped in the interface of silicon/ silicon oxide isolation, creating parasitic transistors}{figure.48}{}}
\newlabel{fig:TID_cartoon@cref}{{[figure][48][]48}{[1][28][]28}}
\BKM@entry{id=9,dest={73656374696F6E2E35},srcline={88}}{526573756C7473}
\@writefile{lof}{\contentsline {figure}{\numberline {49}{\ignorespaces  Results of RAL annealing studies. The bump is the initial TID bump, the other lines show the bump doesn't return}}{29}{figure.49}\protected@file@percent }
\newlabel{fig:anneal}{{49}{29}{Results of RAL annealing studies. The bump is the initial TID bump, the other lines show the bump doesn't return}{figure.49}{}}
\newlabel{fig:anneal@cref}{{[figure][49][]49}{[1][28][]29}}
\@writefile{toc}{\contentsline {section}{\numberline {5}Results}{29}{section.5}\protected@file@percent }
\@writefile{lof}{\contentsline {figure}{\numberline {50}{\ignorespaces ABCStar irradation results of the digital leakage current vs. total ionizing dose}}{30}{figure.50}\protected@file@percent }
\newlabel{fig:TID_ABCSTAR_results}{{50}{30}{ABCStar irradation results of the digital leakage current vs. total ionizing dose}{figure.50}{}}
\newlabel{fig:TID_ABCSTAR_results@cref}{{[figure][50][]50}{[1][29][]30}}
\@writefile{lof}{\contentsline {figure}{\numberline {51}{\ignorespaces ABC130 irradation results from 2016 (bottom) and 2017 (top) campaigns}}{30}{figure.51}\protected@file@percent }
\newlabel{fig:TID_ABC130_results}{{51}{30}{ABC130 irradation results from 2016 (bottom) and 2017 (top) campaigns}{figure.51}{}}
\newlabel{fig:TID_ABC130_results@cref}{{[figure][51][]51}{[1][29][]30}}
\@writefile{lof}{\contentsline {figure}{\numberline {52}{\ignorespaces Model fit to the digital Leakage current vs. total ionizing dose data}}{31}{figure.52}\protected@file@percent }
\newlabel{fig:Leakage_Current}{{52}{31}{Model fit to the digital Leakage current vs. total ionizing dose data}{figure.52}{}}
\newlabel{fig:Leakage_Current@cref}{{[figure][52][]52}{[1][29][]31}}
\@writefile{lot}{\contentsline {table}{\numberline {1}{\ignorespaces Results of the fit parameters for each of the ABCStars irradiated}}{31}{table.1}\protected@file@percent }
\newlabel{tab:fit parameters}{{1}{31}{Results of the fit parameters for each of the ABCStars irradiated}{table.1}{}}
\newlabel{tab:fit parameters@cref}{{[table][1][]1}{[1][29][]31}}
\@writefile{lof}{\contentsline {figure}{\numberline {53}{\ignorespaces ABC130 irradation results from 2016 (bottom) and 2017 (top) campaigns}}{32}{figure.53}\protected@file@percent }
\newlabel{fig:RAL_batch_to_batch}{{53}{32}{ABC130 irradation results from 2016 (bottom) and 2017 (top) campaigns}{figure.53}{}}
\newlabel{fig:RAL_batch_to_batch@cref}{{[figure][53][]53}{[1][31][]32}}
\@writefile{lof}{\contentsline {figure}{\numberline {54}{\ignorespaces Leakage current fall for different temperatures}}{32}{figure.54}\protected@file@percent }
\newlabel{fig:Fall_Time}{{54}{32}{Leakage current fall for different temperatures}{figure.54}{}}
\newlabel{fig:Fall_Time@cref}{{[figure][54][]54}{[1][31][]32}}
\@writefile{lof}{\contentsline {figure}{\numberline {55}{\ignorespaces TID Fall time vs. Temperature}}{32}{figure.55}\protected@file@percent }
\newlabel{fig:TID_vs_temp}{{55}{32}{TID Fall time vs. Temperature}{figure.55}{}}
\newlabel{fig:TID_vs_temp@cref}{{[figure][55][]55}{[1][31][]32}}
