This is pdfTeX, Version 3.14159265-2.6-1.40.20 (TeX Live 2019/Debian) (preloaded format=pdflatex 2021.1.18)  31 DEC 2021 19:49
entering extended mode
 restricted \write18 enabled.
 %&-line parsing enabled.
**main_itk.tex
(./main_itk.tex
LaTeX2e <2020-02-02> patch level 2
L3 programming layer <2020-02-14> (./latex/atlasdoc.cls
Document Class: latex/atlasdoc 2018/01/10 v.05-07-00 ATLAS document class
(/usr/share/texlive/texmf-dist/tex/latex/base/ifthen.sty
Package: ifthen 2014/09/29 v1.1c Standard LaTeX ifthen package (DPC)
)
(/usr/share/texlive/texmf-dist/tex/latex/kvoptions/kvoptions.sty
Package: kvoptions 2019/11/29 v3.13 Key value format for package options (HO)

(/usr/share/texlive/texmf-dist/tex/latex/graphics/keyval.sty
Package: keyval 2014/10/28 v1.15 key=value parser (DPC)
\KV@toks@=\toks14
)
(/usr/share/texlive/texmf-dist/tex/generic/ltxcmds/ltxcmds.sty
Package: ltxcmds 2019/12/15 v1.24 LaTeX kernel commands for general use (HO)
)
(/usr/share/texlive/texmf-dist/tex/generic/kvsetkeys/kvsetkeys.sty
Package: kvsetkeys 2019/12/15 v1.18 Key value parser (HO)
))
atlasdoc: ATLAS Note
atlasdoc: use KOMA-script scrartcl class
atlasdoc: paper size set to default A4
\ADOC@skipbeforetitle=\dimen134
(/usr/share/texlive/texmf-dist/tex/latex/koma-script/scrartcl.cls
Document Class: scrartcl 2020/01/24 v3.29 KOMA-Script document class (article)
(/usr/share/texlive/texmf-dist/tex/latex/koma-script/scrkbase.sty
Package: scrkbase 2020/01/24 v3.29 KOMA-Script package (KOMA-Script-dependent b
asics and keyval usage)

(/usr/share/texlive/texmf-dist/tex/latex/koma-script/scrbase.sty
Package: scrbase 2020/01/24 v3.29 KOMA-Script package (KOMA-Script-independent 
basics and keyval usage)

(/usr/share/texlive/texmf-dist/tex/latex/koma-script/scrlfile.sty
Package: scrlfile 2020/01/24 v3.29 KOMA-Script package (loading files)
)))
(/usr/share/texlive/texmf-dist/tex/latex/koma-script/tocbasic.sty
Package: tocbasic 2020/01/24 v3.29 KOMA-Script package (handling toc-files)
\scr@dte@tocline@numberwidth=\skip47
\scr@dte@tocline@numbox=\box45
)
Package tocbasic Info: omitting babel extension for `toc'
(tocbasic)             because of feature `nobabel' available
(tocbasic)             for `toc' on input line 137.
Package scrartcl Info: You've used standard option `11pt'.
(scrartcl)             This is correct!
(scrartcl)             Internally I'm using `fontsize=11pt'.
(scrartcl)             If you'd like to set the option with \KOMAoptions,
(scrartcl)             you'd have to use `fontsize=11pt' there
(scrartcl)             instead of `11pt', too.
Class scrartcl Info: File `scrsize11pt.clo' used to setup font sizes on input l
ine 2212.

(/usr/share/texlive/texmf-dist/tex/latex/koma-script/scrsize11pt.clo
File: scrsize11pt.clo 2020/01/24 v3.29 KOMA-Script font size class option (11pt
)
)
(/usr/share/texlive/texmf-dist/tex/latex/koma-script/typearea.sty
Package: typearea 2020/01/24 v3.29 KOMA-Script package (type area)
\ta@bcor=\skip48
\ta@div=\count167
\ta@hblk=\skip49
\ta@vblk=\skip50
\ta@temp=\skip51
\footheight=\skip52
Package typearea Info: These are the values describing the layout:
(typearea)             DIV  = 10
(typearea)             BCOR = 0.0pt
(typearea)             \paperwidth      = 597.50793pt
(typearea)              \textwidth      = 418.25555pt
(typearea)              DIV departure   = -6%
(typearea)              \evensidemargin = 17.3562pt
(typearea)              \oddsidemargin  = 17.3562pt
(typearea)             \paperheight     = 845.04694pt
(typearea)              \textheight     = 595.80026pt
(typearea)              \topmargin      = -25.16531pt
(typearea)              \headheight     = 17.0pt
(typearea)              \headsep        = 20.40001pt
(typearea)              \topskip        = 11.0pt
(typearea)              \footskip       = 47.6pt
(typearea)              \baselineskip   = 13.6pt
(typearea)              on input line 1719.
)
\c@part=\count168
\c@section=\count169
\c@subsection=\count170
\c@subsubsection=\count171
\c@paragraph=\count172
\c@subparagraph=\count173
\scr@dte@section@maxnumwidth=\skip53
Class scrartcl Info: using compatibility default `runin=bysign'
(scrartcl)           for `\section on input line 4723.
Class scrartcl Info: using compatibility default `afterindent=bysign'
(scrartcl)           for `\section on input line 4723.
\scr@dte@part@maxnumwidth=\skip54
Class scrartcl Info: using compatibility default `afterindent=false'
(scrartcl)           for `\part on input line 4731.
\scr@dte@subsection@maxnumwidth=\skip55
Class scrartcl Info: using compatibility default `runin=bysign'
(scrartcl)           for `\subsection on input line 4741.
Class scrartcl Info: using compatibility default `afterindent=bysign'
(scrartcl)           for `\subsection on input line 4741.
\scr@dte@subsubsection@maxnumwidth=\skip56
Class scrartcl Info: using compatibility default `runin=bysign'
(scrartcl)           for `\subsubsection on input line 4751.
Class scrartcl Info: using compatibility default `afterindent=bysign'
(scrartcl)           for `\subsubsection on input line 4751.
\scr@dte@paragraph@maxnumwidth=\skip57
Class scrartcl Info: using compatibility default `runin=bysign'
(scrartcl)           for `\paragraph on input line 4761.
Class scrartcl Info: using compatibility default `afterindent=bysign'
(scrartcl)           for `\paragraph on input line 4761.
\scr@dte@subparagraph@maxnumwidth=\skip58
Class scrartcl Info: using compatibility default `runin=bysign'
(scrartcl)           for `\subparagraph on input line 4771.
Class scrartcl Info: using compatibility default `afterindent=bysign'
(scrartcl)           for `\subparagraph on input line 4771.
\abovecaptionskip=\skip59
\belowcaptionskip=\skip60
\c@pti@nb@sid@b@x=\box46
Package tocbasic Info: omitting babel extension for `lof'
(tocbasic)             because of feature `nobabel' available
(tocbasic)             for `lof' on input line 6002.
\scr@dte@figure@maxnumwidth=\skip61
\c@figure=\count174
Package tocbasic Info: omitting babel extension for `lot'
(tocbasic)             because of feature `nobabel' available
(tocbasic)             for `lot' on input line 6014.
\scr@dte@table@maxnumwidth=\skip62
\c@table=\count175
Class scrartcl Info: Redefining `\numberline' on input line 6178.
\bibindent=\dimen135
)

Package typearea Warning: Bad type area settings!
(typearea)                The detected line width is about 20%
(typearea)                larger than the heuristically estimated maximum
(typearea)                limit of typographical good line width.
(typearea)                You should e.g. decrease DIV, increase fontsize
(typearea)                or change papersize.

Package typearea Info: These are the values describing the layout:
(typearea)             DIV  = 14
(typearea)             BCOR = 0.0pt
(typearea)             \paperwidth      = 597.50793pt
(typearea)              \textwidth      = 469.47052pt
(typearea)              DIV departure   = -20%
(typearea)              \evensidemargin = -8.25128pt
(typearea)              \oddsidemargin  = -8.25128pt
(typearea)             \paperheight     = 845.04694pt
(typearea)              \textheight     = 636.60028pt
(typearea)              \topmargin      = -11.9095pt
(typearea)              \headheight     = 17.0pt
(typearea)              \headsep        = 20.40001pt
(typearea)              \topskip        = 11.0pt
(typearea)              \footskip       = 47.6pt
(typearea)              \baselineskip   = 13.6pt
(typearea)              on input line 337.

Package typearea Warning: Bad type area settings!
(typearea)                The detected line width is about 17%
(typearea)                larger than the heuristically estimated maximum
(typearea)                limit of typographical good line width.
(typearea)                You should e.g. decrease DIV, increase fontsize
(typearea)                or change papersize.

Package typearea Info: These are the values describing the layout:
(typearea)             DIV  = 14
(typearea)             BCOR = 14.22636pt
(typearea)             \paperwidth      = 597.50793pt
(typearea)              \textwidth      = 458.29268pt
(typearea)              DIV departure   = -17%
(typearea)              \evensidemargin = 4.45082pt
(typearea)              \oddsidemargin  = 4.45082pt
(typearea)             \paperheight     = 845.04694pt
(typearea)              \textheight     = 636.60028pt
(typearea)              \topmargin      = -11.9095pt
(typearea)              \headheight     = 17.0pt
(typearea)              \headsep        = 20.40001pt
(typearea)              \topskip        = 11.0pt
(typearea)              \footskip       = 47.6pt
(typearea)              \baselineskip   = 13.6pt
(typearea)              on input line 337.
Package scrkbase Info: You've told me to redefine the font selection of the
(scrkbase)             element `pagehead' that is an alias of element
(scrkbase)             `pageheadfoot' on input line 352.
(/usr/share/texlive/texmf-dist/tex/latex/xpatch/xpatch.sty
(/usr/share/texlive/texmf-dist/tex/latex/l3kernel/expl3.sty
Package: expl3 2020-02-14 L3 programming layer (loader) 

(/usr/share/texlive/texmf-dist/tex/latex/l3backend/l3backend-pdfmode.def
File: l3backend-pdfmode.def 2020-02-03 L3 backend support: PDF mode
\l__kernel_color_stack_int=\count176
\l__pdf_internal_box=\box47
))
Package: xpatch 2012/10/02 v0.3 Extending etoolbox patching commands

(/usr/share/texlive/texmf-dist/tex/latex/l3packages/xparse/xparse.sty
Package: xparse 2020-02-14 L3 Experimental document command parser
\l__xparse_current_arg_int=\count177
\g__xparse_grabber_int=\count178
\l__xparse_m_args_int=\count179
\l__xparse_v_nesting_int=\count180
)
(/usr/share/texlive/texmf-dist/tex/latex/etoolbox/etoolbox.sty
Package: etoolbox 2019/09/21 v2.5h e-TeX tools for LaTeX (JAW)
\etb@tempcnta=\count181
))
atlasdoc xpatch: OK! Title size changed!
atlasdoc xpatch: OK! Date font adjusted!
(/usr/share/texlive/texmf-dist/tex/latex/graphics/graphicx.sty
Package: graphicx 2019/11/30 v1.2a Enhanced LaTeX Graphics (DPC,SPQR)

(/usr/share/texlive/texmf-dist/tex/latex/graphics/graphics.sty
Package: graphics 2019/11/30 v1.4a Standard LaTeX Graphics (DPC,SPQR)

(/usr/share/texlive/texmf-dist/tex/latex/graphics/trig.sty
Package: trig 2016/01/03 v1.10 sin cos tan (DPC)
)
(/usr/share/texlive/texmf-dist/tex/latex/graphics-cfg/graphics.cfg
File: graphics.cfg 2016/06/04 v1.11 sample graphics configuration
)
Package graphics Info: Driver file: pdftex.def on input line 105.

(/usr/share/texlive/texmf-dist/tex/latex/graphics-def/pdftex.def
File: pdftex.def 2018/01/08 v1.0l Graphics/color driver for pdftex
))
\Gin@req@height=\dimen136
\Gin@req@width=\dimen137
)
(/usr/share/texlive/texmf-dist/tex/latex/xcolor/xcolor.sty
Package: xcolor 2016/05/11 v2.12 LaTeX color extensions (UK)

(/usr/share/texlive/texmf-dist/tex/latex/graphics-cfg/color.cfg
File: color.cfg 2016/01/02 v1.6 sample color configuration
)
Package xcolor Info: Driver file: pdftex.def on input line 225.
Package xcolor Info: Model `cmy' substituted by `cmy0' on input line 1348.
Package xcolor Info: Model `hsb' substituted by `rgb' on input line 1352.
Package xcolor Info: Model `RGB' extended on input line 1364.
Package xcolor Info: Model `HTML' substituted by `rgb' on input line 1366.
Package xcolor Info: Model `Hsb' substituted by `hsb' on input line 1367.
Package xcolor Info: Model `tHsb' substituted by `hsb' on input line 1368.
Package xcolor Info: Model `HSB' substituted by `hsb' on input line 1369.
Package xcolor Info: Model `Gray' substituted by `gray' on input line 1370.
Package xcolor Info: Model `wave' substituted by `hsb' on input line 1371.
)
(/usr/share/texlive/texmf-dist/tex/generic/babel/babel.sty
Package: babel 2020/02/14 3.40 The Babel package

(/usr/share/texlive/texmf-dist/tex/generic/babel/switch.def
File: switch.def 2020/02/14 3.40 Babel switching mechanism
)
(/usr/share/texlive/texmf-dist/tex/generic/babel-english/UKenglish.ldf
Language: UKenglish 2017/06/06 v3.3r English support from the babel system

(/usr/share/texlive/texmf-dist/tex/generic/babel-english/english.ldf
Language: english 2017/06/06 v3.3r English support from the babel system

(/usr/share/texlive/texmf-dist/tex/generic/babel/babel.def
File: babel.def 2020/02/14 3.40 Babel common definitions
\babel@savecnt=\count182
\U@D=\dimen138

(/usr/share/texlive/texmf-dist/tex/generic/babel/txtbabel.def)
\bbl@readstream=\read2
\bbl@dirlevel=\count183
)
Package babel Info: \l@canadian = using hyphenrules for english
(babel)             (\language0) on input line 102.
Package babel Info: \l@australian = using hyphenrules for ukenglish
(babel)             (\language11) on input line 105.
Package babel Info: \l@newzealand = using hyphenrules for ukenglish
(babel)             (\language11) on input line 108.
)))
(/usr/share/texlive/texmf-dist/tex/latex/hyperref/hyperref.sty
Package: hyperref 2020/01/14 v7.00d Hypertext links for LaTeX

(/usr/share/texlive/texmf-dist/tex/generic/iftex/iftex.sty
Package: iftex 2019/11/07 v1.0c TeX engine tests
)
(/usr/share/texlive/texmf-dist/tex/latex/pdftexcmds/pdftexcmds.sty
Package: pdftexcmds 2019/11/24 v0.31 Utility functions of pdfTeX for LuaTeX (HO
)

(/usr/share/texlive/texmf-dist/tex/generic/infwarerr/infwarerr.sty
Package: infwarerr 2019/12/03 v1.5 Providing info/warning/error messages (HO)
)
Package pdftexcmds Info: \pdf@primitive is available.
Package pdftexcmds Info: \pdf@ifprimitive is available.
Package pdftexcmds Info: \pdfdraftmode found.
)
(/usr/share/texlive/texmf-dist/tex/generic/kvdefinekeys/kvdefinekeys.sty
Package: kvdefinekeys 2019-12-19 v1.6 Define keys (HO)
)
(/usr/share/texlive/texmf-dist/tex/generic/pdfescape/pdfescape.sty
Package: pdfescape 2019/12/09 v1.15 Implements pdfTeX's escape features (HO)
)
(/usr/share/texlive/texmf-dist/tex/latex/hycolor/hycolor.sty
Package: hycolor 2020-01-27 v1.10 Color options for hyperref/bookmark (HO)
)
(/usr/share/texlive/texmf-dist/tex/latex/letltxmacro/letltxmacro.sty
Package: letltxmacro 2019/12/03 v1.6 Let assignment for LaTeX macros (HO)
)
(/usr/share/texlive/texmf-dist/tex/latex/auxhook/auxhook.sty
Package: auxhook 2019-12-17 v1.6 Hooks for auxiliary files (HO)
)
\@linkdim=\dimen139
\Hy@linkcounter=\count184
\Hy@pagecounter=\count185

(/usr/share/texlive/texmf-dist/tex/latex/hyperref/pd1enc.def
File: pd1enc.def 2020/01/14 v7.00d Hyperref: PDFDocEncoding definition (HO)
Now handling font encoding PD1 ...
... no UTF-8 mapping file for font encoding PD1
)
(/usr/share/texlive/texmf-dist/tex/generic/intcalc/intcalc.sty
Package: intcalc 2019/12/15 v1.3 Expandable calculations with integers (HO)
)
(/usr/share/texlive/texmf-dist/tex/generic/etexcmds/etexcmds.sty
Package: etexcmds 2019/12/15 v1.7 Avoid name clashes with e-TeX commands (HO)
)
\Hy@SavedSpaceFactor=\count186
\pdfmajorversion=\count187
Package hyperref Info: Hyper figures OFF on input line 4547.
Package hyperref Info: Link nesting OFF on input line 4552.
Package hyperref Info: Hyper index ON on input line 4555.
Package hyperref Info: Plain pages OFF on input line 4562.
Package hyperref Info: Backreferencing OFF on input line 4567.
Package hyperref Info: Implicit mode ON; LaTeX internals redefined.
Package hyperref Info: Bookmarks ON on input line 4800.
\c@Hy@tempcnt=\count188

(/usr/share/texlive/texmf-dist/tex/latex/url/url.sty
\Urlmuskip=\muskip16
Package: url 2013/09/16  ver 3.4  Verb mode for urls, etc.
)
LaTeX Info: Redefining \url on input line 5159.
\XeTeXLinkMargin=\dimen140

(/usr/share/texlive/texmf-dist/tex/generic/bitset/bitset.sty
Package: bitset 2019/12/09 v1.3 Handle bit-vector datatype (HO)

(/usr/share/texlive/texmf-dist/tex/generic/bigintcalc/bigintcalc.sty
Package: bigintcalc 2019/12/15 v1.5 Expandable calculations on big integers (HO
)
))
\Fld@menulength=\count189
\Field@Width=\dimen141
\Fld@charsize=\dimen142
Package hyperref Info: Hyper figures OFF on input line 6430.
Package hyperref Info: Link nesting OFF on input line 6435.
Package hyperref Info: Hyper index ON on input line 6438.
Package hyperref Info: backreferencing OFF on input line 6445.
Package hyperref Info: Link coloring OFF on input line 6450.
Package hyperref Info: Link coloring with OCG OFF on input line 6455.
Package hyperref Info: PDF/A mode OFF on input line 6460.
LaTeX Info: Redefining \ref on input line 6500.
LaTeX Info: Redefining \pageref on input line 6504.

(/usr/share/texlive/texmf-dist/tex/generic/atbegshi/atbegshi.sty
Package: atbegshi 2019/12/05 v1.19 At begin shipout hook (HO)
)
\Hy@abspage=\count190
\c@Item=\count191
\c@Hfootnote=\count192
)
Package hyperref Info: Driver (autodetected): hpdftex.

(/usr/share/texlive/texmf-dist/tex/latex/hyperref/hpdftex.def
File: hpdftex.def 2020/01/14 v7.00d Hyperref driver for pdfTeX

(/usr/share/texlive/texmf-dist/tex/latex/atveryend/atveryend.sty
Package: atveryend 2019-12-11 v1.11 Hooks at the very end of document (HO)
)
\Fld@listcount=\count193
\c@bookmark@seq@number=\count194

(/usr/share/texlive/texmf-dist/tex/latex/rerunfilecheck/rerunfilecheck.sty
Package: rerunfilecheck 2019/12/05 v1.9 Rerun checks for auxiliary files (HO)

(/usr/share/texlive/texmf-dist/tex/generic/uniquecounter/uniquecounter.sty
Package: uniquecounter 2019/12/15 v1.4 Provide unlimited unique counter (HO)
)
Package uniquecounter Info: New unique counter `rerunfilecheck' on input line 2
86.
)
\Hy@SectionHShift=\skip63
)
atlasdoc: using newtx fonts package
(/usr/share/texlive/texmf-dist/tex/latex/newtx/newtxtext.sty
Package: newtxtext 2018/03/27 v1.531

`newtxtext' v1.531, 2018/03/27 Text macros taking advantage of TeX-Gyre Termes 
fonts (msharpe) (/usr/share/texlive/texmf-dist/tex/latex/fontaxes/fontaxes.sty
Package: fontaxes 2014/03/23 v1.0d Font selection axes
LaTeX Info: Redefining \upshape on input line 29.
LaTeX Info: Redefining \itshape on input line 31.
LaTeX Info: Redefining \slshape on input line 33.
LaTeX Info: Redefining \swshape on input line 35.
LaTeX Info: Redefining \scshape on input line 37.
LaTeX Info: Redefining \sscshape on input line 39.
LaTeX Info: Redefining \ulcshape on input line 41.
LaTeX Info: Redefining \textsw on input line 47.
LaTeX Info: Redefining \textssc on input line 48.
LaTeX Info: Redefining \textulc on input line 49.
)
\ntx@fs=\dimen143
(/usr/share/texlive/texmf-dist/tex/latex/xkeyval/xkeyval.sty
Package: xkeyval 2014/12/03 v2.7a package option processing (HA)

(/usr/share/texlive/texmf-dist/tex/generic/xkeyval/xkeyval.tex
(/usr/share/texlive/texmf-dist/tex/generic/xkeyval/xkvutils.tex
\XKV@toks=\toks15
\XKV@tempa@toks=\toks16
)
\XKV@depth=\count195
File: xkeyval.tex 2014/12/03 v2.7a key=value parser (HA)
))
(/usr/share/texlive/texmf-dist/tex/latex/base/fontenc.sty
Package: fontenc 2020/02/11 v2.0o Standard LaTeX package
LaTeX Font Info:    Trying to load font information for T1+ntxtlf on input line
 112.

(/usr/share/texlive/texmf-dist/tex/latex/newtx/t1ntxtlf.fd
File: t1ntxtlf.fd 2015/01/17 v1.0 font definition file for T1/ntx/tlf
)
LaTeX Font Info:    Font shape `T1/ntxtlf/m/n' will be
(Font)              scaled to size 10.95pt on input line 112.
)
(/usr/share/texlive/texmf-dist/tex/latex/base/textcomp.sty
Package: textcomp 2020/02/02 v2.0n Standard LaTeX package
LaTeX Font Info:    Changing ? sub-encoding to TS1/0 on input line 75.
)
LaTeX Font Info:    Redeclaring math symbol \mathsterling on input line 234.
)
(/usr/share/texlive/texmf-dist/tex/latex/newtx/newtxmath.sty
Package: newtxmath 2020/01/25 v1.624

`newtxmath' v1.624, 2020/01/25 Math macros based originally on txfonts (msharpe
) (/usr/share/texlive/texmf-dist/tex/latex/amsmath/amsmath.sty
Package: amsmath 2020/01/20 v2.17e AMS math features
\@mathmargin=\skip64

For additional information on amsmath, use the `?' option.
(/usr/share/texlive/texmf-dist/tex/latex/amsmath/amstext.sty
Package: amstext 2000/06/29 v2.01 AMS text

(/usr/share/texlive/texmf-dist/tex/latex/amsmath/amsgen.sty
File: amsgen.sty 1999/11/30 v2.0 generic functions
\@emptytoks=\toks17
\ex@=\dimen144
))
(/usr/share/texlive/texmf-dist/tex/latex/amsmath/amsbsy.sty
Package: amsbsy 1999/11/29 v1.2d Bold Symbols
\pmbraise@=\dimen145
)
(/usr/share/texlive/texmf-dist/tex/latex/amsmath/amsopn.sty
Package: amsopn 2016/03/08 v2.02 operator names
)
\inf@bad=\count196
LaTeX Info: Redefining \frac on input line 227.
\uproot@=\count197
\leftroot@=\count198
LaTeX Info: Redefining \overline on input line 389.
\classnum@=\count199
\DOTSCASE@=\count266
LaTeX Info: Redefining \ldots on input line 486.
LaTeX Info: Redefining \dots on input line 489.
LaTeX Info: Redefining \cdots on input line 610.
\Mathstrutbox@=\box48
\strutbox@=\box49
\big@size=\dimen146
LaTeX Font Info:    Redeclaring font encoding OML on input line 733.
LaTeX Font Info:    Redeclaring font encoding OMS on input line 734.
\macc@depth=\count267
\c@MaxMatrixCols=\count268
\dotsspace@=\muskip17
\c@parentequation=\count269
\dspbrk@lvl=\count270
\tag@help=\toks18
\row@=\count271
\column@=\count272
\maxfields@=\count273
\andhelp@=\toks19
\eqnshift@=\dimen147
\alignsep@=\dimen148
\tagshift@=\dimen149
\tagwidth@=\dimen150
\totwidth@=\dimen151
\lineht@=\dimen152
\@envbody=\toks20
\multlinegap=\skip65
\multlinetaggap=\skip66
\mathdisplay@stack=\toks21
LaTeX Info: Redefining \[ on input line 2859.
LaTeX Info: Redefining \] on input line 2860.
)
(/usr/share/texlive/texmf-dist/tex/generic/iftex/ifxetex.sty
Package: ifxetex 2019/10/25 v0.7 ifxetex legacy package. Use iftex instead.
)
(/usr/share/texlive/texmf-dist/tex/generic/iftex/ifluatex.sty
Package: ifluatex 2019/10/25 v1.5 ifluatex legacy package. Use iftex instead.
)
(/usr/share/texlive/texmf-dist/tex/latex/oberdiek/centernot.sty
Package: centernot 2016/05/16 v1.4 Centers the not symbol horizontally (HO)
)
\tx@cntz=\count274

(/usr/share/texlive/texmf-dist/tex/generic/kastrup/binhex.tex)
\tx@Isdigit=\count275
\tx@IsAlNum=\count276
\tx@tA=\toks22
\tx@tB=\toks23
\tx@su=\read3
LaTeX Font Info:    Redeclaring symbol font `operators' on input line 317.
LaTeX Font Info:    Overwriting symbol font `operators' in version `normal'
(Font)                  OT1/cmr/m/n --> OT1/ntxtlf/m/n on input line 317.
LaTeX Font Info:    Overwriting symbol font `operators' in version `bold'
(Font)                  OT1/cmr/bx/n --> OT1/ntxtlf/m/n on input line 317.
LaTeX Font Info:    Overwriting symbol font `operators' in version `bold'
(Font)                  OT1/ntxtlf/m/n --> OT1/ntxtlf/b/n on input line 318.
LaTeX Font Info:    Redeclaring math alphabet \mathsf on input line 326.
LaTeX Font Info:    Overwriting math alphabet `\mathsf' in version `normal'
(Font)                  OT1/cmss/m/n --> T1/qhv/m/n on input line 326.
LaTeX Font Info:    Overwriting math alphabet `\mathsf' in version `bold'
(Font)                  OT1/cmss/bx/n --> T1/qhv/m/n on input line 326.
LaTeX Font Info:    Redeclaring math alphabet \mathit on input line 327.
LaTeX Font Info:    Overwriting math alphabet `\mathit' in version `normal'
(Font)                  OT1/cmr/m/it --> OT1/ntxtlf/m/it on input line 327.
LaTeX Font Info:    Overwriting math alphabet `\mathit' in version `bold'
(Font)                  OT1/cmr/bx/it --> OT1/ntxtlf/m/it on input line 327.
LaTeX Font Info:    Redeclaring math alphabet \mathtt on input line 328.
LaTeX Font Info:    Overwriting math alphabet `\mathtt' in version `normal'
(Font)                  OT1/cmtt/m/n --> T1/ntxtt/m/n on input line 328.
LaTeX Font Info:    Overwriting math alphabet `\mathtt' in version `bold'
(Font)                  OT1/cmtt/m/n --> T1/ntxtt/m/n on input line 328.
LaTeX Font Info:    Redeclaring math alphabet \mathbf on input line 330.
LaTeX Font Info:    Overwriting math alphabet `\mathbf' in version `normal'
(Font)                  OT1/cmr/bx/n --> OT1/ntxtlf/b/n on input line 330.
LaTeX Font Info:    Overwriting math alphabet `\mathbf' in version `bold'
(Font)                  OT1/cmr/bx/n --> OT1/ntxtlf/b/n on input line 330.
LaTeX Font Info:    Overwriting math alphabet `\mathit' in version `bold'
(Font)                  OT1/ntxtlf/m/it --> OT1/ntxtlf/b/it on input line 331.
LaTeX Font Info:    Overwriting math alphabet `\mathsf' in version `bold'
(Font)                  T1/qhv/m/n --> T1/qhv/b/n on input line 332.
LaTeX Font Info:    Overwriting math alphabet `\mathtt' in version `bold'
(Font)                  T1/ntxtt/m/n --> T1/ntxtt/b/n on input line 333.
LaTeX Font Info:    Redeclaring symbol font `letters' on input line 422.
LaTeX Font Info:    Overwriting symbol font `letters' in version `normal'
(Font)                  OML/cmm/m/it --> OML/ntxmi/m/it on input line 422.
LaTeX Font Info:    Overwriting symbol font `letters' in version `bold'
(Font)                  OML/cmm/b/it --> OML/ntxmi/m/it on input line 422.
LaTeX Font Info:    Overwriting symbol font `letters' in version `bold'
(Font)                  OML/ntxmi/m/it --> OML/ntxmi/b/it on input line 423.
\symlettersA=\mathgroup4
LaTeX Font Info:    Overwriting symbol font `lettersA' in version `bold'
(Font)                  U/ntxmia/m/it --> U/ntxmia/b/it on input line 476.
Now handling font encoding LMS ...
... no UTF-8 mapping file for font encoding LMS
LaTeX Font Info:    Redeclaring symbol font `symbols' on input line 497.
LaTeX Font Info:    Encoding `OMS' has changed to `LMS' for symbol font
(Font)              `symbols' in the math version `normal' on input line 497.
LaTeX Font Info:    Overwriting symbol font `symbols' in version `normal'
(Font)                  OMS/cmsy/m/n --> LMS/ntxsy/m/n on input line 497.
LaTeX Font Info:    Encoding `OMS' has changed to `LMS' for symbol font
(Font)              `symbols' in the math version `bold' on input line 497.
LaTeX Font Info:    Overwriting symbol font `symbols' in version `bold'
(Font)                  OMS/cmsy/b/n --> LMS/ntxsy/m/n on input line 497.
LaTeX Font Info:    Overwriting symbol font `symbols' in version `bold'
(Font)                  LMS/ntxsy/m/n --> LMS/ntxsy/b/n on input line 498.
\symAMSm=\mathgroup5
LaTeX Font Info:    Overwriting symbol font `AMSm' in version `bold'
(Font)                  U/ntxsym/m/n --> U/ntxsym/b/n on input line 521.
\symsymbolsC=\mathgroup6
LaTeX Font Info:    Overwriting symbol font `symbolsC' in version `bold'
(Font)                  U/ntxsyc/m/n --> U/ntxsyc/b/n on input line 542.
Now handling font encoding LMX ...
... no UTF-8 mapping file for font encoding LMX
LaTeX Font Info:    Redeclaring symbol font `largesymbols' on input line 555.
LaTeX Font Info:    Encoding `OMX' has changed to `LMX' for symbol font
(Font)              `largesymbols' in the math version `normal' on input line 5
55.
LaTeX Font Info:    Overwriting symbol font `largesymbols' in version `normal'
(Font)                  OMX/cmex/m/n --> LMX/ntxexx/m/n on input line 555.
LaTeX Font Info:    Encoding `OMX' has changed to `LMX' for symbol font
(Font)              `largesymbols' in the math version `bold' on input line 555
.
LaTeX Font Info:    Overwriting symbol font `largesymbols' in version `bold'
(Font)                  OMX/cmex/m/n --> LMX/ntxexx/m/n on input line 555.
LaTeX Font Info:    Overwriting symbol font `largesymbols' in version `bold'
(Font)                  LMX/ntxexx/m/n --> LMX/ntxexx/b/n on input line 556.
\symlargesymbolsTXA=\mathgroup7
LaTeX Font Info:    Overwriting symbol font `largesymbolsTXA' in version `bold'

(Font)                  U/ntxexa/m/n --> U/ntxexa/b/n on input line 570.
\tx@sbptoks=\toks24
LaTeX Font Info:    Redeclaring math delimiter \lfloor on input line 792.
LaTeX Font Info:    Redeclaring math delimiter \rfloor on input line 793.
LaTeX Font Info:    Redeclaring math delimiter \lceil on input line 794.
LaTeX Font Info:    Redeclaring math delimiter \rceil on input line 795.
LaTeX Font Info:    Redeclaring math delimiter \lbrace on input line 796.
LaTeX Font Info:    Redeclaring math delimiter \rbrace on input line 797.
LaTeX Font Info:    Redeclaring math delimiter \langle on input line 798.
LaTeX Font Info:    Redeclaring math delimiter \rangle on input line 800.
LaTeX Font Info:    Redeclaring math delimiter \arrowvert on input line 804.
LaTeX Font Info:    Redeclaring math delimiter \vert on input line 805.
LaTeX Font Info:    Redeclaring math symbol \hbar on input line 851.
LaTeX Font Info:    Redeclaring math accent \dot on input line 876.
LaTeX Font Info:    Redeclaring math accent \ddot on input line 877.
LaTeX Font Info:    Redeclaring math accent \vec on input line 1940.
\ntx@numstart=\count277
\ntx@UCstart=\count278
\ntx@lcstart=\count279
\ntx@tmpc=\count280
\ntx@imath=\count281
\ntx@jmath=\count282
LaTeX Info: Redefining \Bbbk on input line 2449.
LaTeX Info: Redefining \not on input line 2598.
)
(/usr/share/texlive/texmf-dist/tex/latex/lineno/lineno.sty
Package: lineno 2005/11/02 line numbers on paragraphs v4.41
\linenopenalty=\count283
\output=\toks25
\linenoprevgraf=\count284
\linenumbersep=\dimen153
\linenumberwidth=\dimen154
\c@linenumber=\count285
\c@pagewiselinenumber=\count286
\c@LN@truepage=\count287
\c@internallinenumber=\count288
\c@internallinenumbers=\count289
\quotelinenumbersep=\dimen155
\bframerule=\dimen156
\bframesep=\dimen157
\bframebox=\box50
LaTeX Info: Redefining \\ on input line 3056.
)
\timehh=\count290
\timemm=\count291
\titlepageparbox=\skip67

atlasdoc: defining ATLAS document title page
\abstractparbox=\skip68
\abstractheight=\skip69
\copyrightoffset=\skip70
) (/usr/share/texlive/texmf-dist/tex/latex/pdfpages/pdfpages.sty
Package: pdfpages 2020/01/28 v0.5q Insert pages of external PDF documents (AM)

(/usr/share/texlive/texmf-dist/tex/latex/tools/calc.sty
Package: calc 2017/05/25 v4.3 Infix arithmetic (KKT,FJ)
\calc@Acount=\count292
\calc@Bcount=\count293
\calc@Adimen=\dimen158
\calc@Bdimen=\dimen159
\calc@Askip=\skip71
\calc@Bskip=\skip72
LaTeX Info: Redefining \setlength on input line 80.
LaTeX Info: Redefining \addtolength on input line 81.
\calc@Ccount=\count294
\calc@Cskip=\skip73
)
(/usr/share/texlive/texmf-dist/tex/latex/eso-pic/eso-pic.sty
Package: eso-pic 2018/04/12 v2.0h eso-pic (RN)
)
\AM@pagewidth=\dimen160
\AM@pageheight=\dimen161

(/usr/share/texlive/texmf-dist/tex/latex/pdfpages/pppdftex.def
File: pppdftex.def 2020/01/28 v0.5q Pdfpages driver for pdfTeX (AM)
)
\AM@pagebox=\box51
\AM@global@opts=\toks26
\AM@pagecnt=\count295
\AM@toc@title=\toks27
\c@AM@survey=\count296
\AM@templatesizebox=\box52
)
(/usr/share/texlive/texmf-dist/tex/latex/float/float.sty
Package: float 2001/11/08 v1.3d Float enhancements (AL)
\c@float@type=\count297
\float@exts=\toks28
\float@box=\box53
\@float@everytoks=\toks29
\@floatcapt=\box54
)
(/usr/share/texlive/texmf-dist/tex/latex/tools/multicol.sty
Package: multicol 2019/12/09 v1.8y multicolumn formatting (FMi)
\c@tracingmulticols=\count298
\mult@box=\box55
\multicol@leftmargin=\dimen162
\c@unbalance=\count299
\c@collectmore=\count300
\doublecol@number=\count301
\multicoltolerance=\count302
\multicolpretolerance=\count303
\full@width=\dimen163
\page@free=\dimen164
\premulticols=\dimen165
\postmulticols=\dimen166
\multicolsep=\skip74
\multicolbaselineskip=\skip75
\partial@page=\box56
\last@line=\box57
\maxbalancingoverflow=\dimen167
\mult@rightbox=\box58
\mult@grightbox=\box59
\mult@gfirstbox=\box60
\mult@firstbox=\box61
\@tempa=\box62
\@tempa=\box63
\@tempa=\box64
\@tempa=\box65
\@tempa=\box66
\@tempa=\box67
\@tempa=\box68
\@tempa=\box69
\@tempa=\box70
\@tempa=\box71
\@tempa=\box72
\@tempa=\box73
\@tempa=\box74
\@tempa=\box75
\@tempa=\box76
\@tempa=\box77
\@tempa=\box78
\@tempa=\box79
\@tempa=\box80
\@tempa=\box81
\@tempa=\box82
\@tempa=\box83
\@tempa=\box84
\@tempa=\box85
\@tempa=\box86
\@tempa=\box87
\@tempa=\box88
\@tempa=\box89
\@tempa=\box90
\@tempa=\box91
\@tempa=\box92
\@tempa=\box93
\@tempa=\box94
\@tempa=\box95
\@tempa=\box96
\@tempa=\box97
\@tempa=\box98
\c@minrows=\count304
\c@columnbadness=\count305
\c@finalcolumnbadness=\count306
\last@try=\dimen168
\multicolovershoot=\dimen169
\multicolundershoot=\dimen170
\mult@nat@firstbox=\box99
\colbreak@box=\box100
\mc@col@check@num=\count307
)
(/usr/share/texlive/texmf-dist/tex/latex/cleveref/cleveref.sty
Package: cleveref 2018/03/27 v0.21.4 Intelligent cross-referencing
Package cleveref Info: `hyperref' support loaded on input line 2370.
LaTeX Info: Redefining \cref on input line 2370.
LaTeX Info: Redefining \Cref on input line 2370.
LaTeX Info: Redefining \crefrange on input line 2370.
LaTeX Info: Redefining \Crefrange on input line 2370.
LaTeX Info: Redefining \cpageref on input line 2370.
LaTeX Info: Redefining \Cpageref on input line 2370.
LaTeX Info: Redefining \cpagerefrange on input line 2370.
LaTeX Info: Redefining \Cpagerefrange on input line 2370.
LaTeX Info: Redefining \labelcref on input line 2370.
LaTeX Info: Redefining \labelcpageref on input line 2370.
Package cleveref Info: always capitalise cross-reference names on input line 78
30.
Package cleveref Info: always capitalise cross-reference names on input line 78
52.
) (./main_itk.aux

LaTeX Warning: Label `fig:dcdc_bump' multiply defined.


LaTeX Warning: Label `fig:dcdc_bump@cref' multiply defined.

)
\openout1 = `main_itk.aux'.

LaTeX Font Info:    Checking defaults for OML/ntxmi/m/it on input line 87.
LaTeX Font Info:    Trying to load font information for OML+ntxmi on input line
 87.
 (/usr/share/texlive/texmf-dist/tex/latex/newtx/omlntxmi.fd
File: omlntxmi.fd 2015/08/25 Fontinst v1.933 font definitions for OML/ntxmi.
)
LaTeX Font Info:    ... okay on input line 87.
LaTeX Font Info:    Checking defaults for OMS/cmsy/m/n on input line 87.
LaTeX Font Info:    ... okay on input line 87.
LaTeX Font Info:    Checking defaults for OT1/cmr/m/n on input line 87.
LaTeX Font Info:    ... okay on input line 87.
LaTeX Font Info:    Checking defaults for T1/cmr/m/n on input line 87.
LaTeX Font Info:    ... okay on input line 87.
LaTeX Font Info:    Checking defaults for TS1/cmr/m/n on input line 87.
LaTeX Font Info:    ... okay on input line 87.
LaTeX Font Info:    Checking defaults for OMX/cmex/m/n on input line 87.
LaTeX Font Info:    ... okay on input line 87.
LaTeX Font Info:    Checking defaults for U/ntxexa/m/n on input line 87.
LaTeX Font Info:    Trying to load font information for U+ntxexa on input line 
87.

(/usr/share/texlive/texmf-dist/tex/latex/newtx/untxexa.fd
File: untxexa.fd 2012/04/16 Fontinst v1.933 font definitions for U/ntxexa.
)
LaTeX Font Info:    ... okay on input line 87.
LaTeX Font Info:    Checking defaults for PD1/pdf/m/n on input line 87.
LaTeX Font Info:    ... okay on input line 87.
LaTeX Font Info:    Checking defaults for LMS/ntxsy/m/n on input line 87.
LaTeX Font Info:    Trying to load font information for LMS+ntxsy on input line
 87.

(/usr/share/texlive/texmf-dist/tex/latex/newtx/lmsntxsy.fd
File: lmsntxsy.fd 2016/07/02 Fontinst v1.933 font definitions for LMS/ntxsy.
)
LaTeX Font Info:    ... okay on input line 87.
LaTeX Font Info:    Checking defaults for LMX/ntxexx/m/n on input line 87.
LaTeX Font Info:    Trying to load font information for LMX+ntxexx on input lin
e 87.

(/usr/share/texlive/texmf-dist/tex/latex/newtx/lmxntxexx.fd
File: lmxntxexx.fd 2016/07/03 Fontinst v1.933 font definitions for LMX/ntxexx.
)
LaTeX Font Info:    ... okay on input line 87.
Package scrbase Info: activating UKenglish \contentsname on input line 87.
Package scrbase Info: activating UKenglish \listfigurename on input line 87.
Package scrbase Info: activating UKenglish \listtablename on input line 87.

(/usr/share/texlive/texmf-dist/tex/context/base/mkii/supp-pdf.mkii
[Loading MPS to PDF converter (version 2006.09.02).]
\scratchcounter=\count308
\scratchdimen=\dimen171
\scratchbox=\box101
\nofMPsegments=\count309
\nofMParguments=\count310
\everyMPshowfont=\toks30
\MPscratchCnt=\count311
\MPscratchDim=\dimen172
\MPnumerator=\count312
\makeMPintoPDFobject=\count313
\everyMPtoPDFconversion=\toks31
) (/usr/share/texlive/texmf-dist/tex/latex/epstopdf-pkg/epstopdf-base.sty
Package: epstopdf-base 2020-01-24 v2.11 Base part for package epstopdf

(/usr/share/texlive/texmf-dist/tex/latex/grfext/grfext.sty
Package: grfext 2019/12/03 v1.3 Manage graphics extensions (HO)
)
Package epstopdf-base Info: Redefining graphics rule for `.eps' on input line 4
85.
Package grfext Info: Graphics extension search list:
(grfext)             [.pdf,.png,.jpg,.mps,.jpeg,.jbig2,.jb2,.PDF,.PNG,.JPG,.JPE
G,.JBIG2,.JB2,.eps]
(grfext)             \AppendGraphicsExtensions on input line 504.

(/usr/share/texlive/texmf-dist/tex/latex/latexconfig/epstopdf-sys.cfg
File: epstopdf-sys.cfg 2010/07/13 v1.3 Configuration of (r)epstopdf for TeX Liv
e
))
\AtBeginShipoutBox=\box102
Package hyperref Info: Link coloring OFF on input line 87.

(/usr/share/texlive/texmf-dist/tex/latex/hyperref/nameref.sty
Package: nameref 2019/09/16 v2.46 Cross-referencing by name of section

(/usr/share/texlive/texmf-dist/tex/latex/refcount/refcount.sty
Package: refcount 2019/12/15 v3.6 Data extraction from label references (HO)
)
(/usr/share/texlive/texmf-dist/tex/generic/gettitlestring/gettitlestring.sty
Package: gettitlestring 2019/12/15 v1.6 Cleanup title references (HO)
)
\c@section@level=\count314
)
LaTeX Info: Redefining \ref on input line 87.
LaTeX Info: Redefining \pageref on input line 87.
LaTeX Info: Redefining \nameref on input line 87.

(./main_itk.out) (./main_itk.out)
\@outlinefile=\write3
\openout3 = `main_itk.out'.

Class scrartcl Info: loading recommended package `bookmark'.
(scrartcl)           Using `bookmark' together with `hyperref' is recommended,
(scrartcl)           because of handling of possible bookmark level gaps.
(scrartcl)           You can avoid loading `bookmark' with KOMA-Script option
(scrartcl)           `bookmarkpackage=false' before \begin{document} and
(scrartcl)           you can avoid this message adding:
(scrartcl)             \usepackage{bookmark}
(scrartcl)           before \begin{document} on input line 87.

(/usr/share/texlive/texmf-dist/tex/latex/bookmark/bookmark.sty
Package: bookmark 2019/12/03 v1.28 PDF bookmarks (HO)

(/usr/share/texlive/texmf-dist/tex/latex/bookmark/bkm-pdftex.def
File: bkm-pdftex.def 2019/12/03 v1.28 bookmark driver for pdfTeX (HO)
Package auxhook Info: \AddLineBeginMainAux comes a little late,
(auxhook)             because the main .aux file is already opened on input lin
e 168.
\BKM@id=\count315
))
\c@mv@tabular=\count316
\c@mv@boldtabular=\count317

*** atlasdoc: this ATLAS draft document does not have a version number!
(/usr/share/texlive/texmf-dist/tex/latex/pdflscape/pdflscape.sty
Package: pdflscape 2019/12/05 v0.12 Display of landscape pages in PDF (HO)

(/usr/share/texlive/texmf-dist/tex/latex/graphics/lscape.sty
Package: lscape 2000/10/22 v3.01 Landscape Pages (DPC)
)
Package pdflscape Info: Auto-detected driver: pdftex on input line 81.
)
<logos/AT_atlaslogo_2015.pdf, id=4, 259.97125pt x 259.97125pt>
File: logos/AT_atlaslogo_2015.pdf Graphic file (type pdf)
<use logos/AT_atlaslogo_2015.pdf>
Package pdftex.def Info: logos/AT_atlaslogo_2015.pdf  used on input line 90.
(pdftex.def)             Requested size: 71.12935pt x 71.13188pt.
LaTeX Font Info:    Trying to load font information for T1+qhv on input line 90
.

(/usr/share/texmf/tex/latex/tex-gyre/t1qhv.fd
File: t1qhv.fd 2009/09/25 v1.2 font definition file for T1/qhv
)
LaTeX Font Info:    Font shape `T1/qhv/m/n' will be
(Font)              scaled to size 9.85492pt on input line 90.
LaTeX Font Info:    Font shape `T1/qhv/b/n' will be
(Font)              scaled to size 9.85492pt on input line 90.
LaTeX Font Info:    Font shape `T1/qhv/b/n' will be
(Font)              scaled to size 17.99988pt on input line 90.
LaTeX Font Info:    Trying to load font information for OT1+ntxtlf on input lin
e 90.

(/usr/share/texlive/texmf-dist/tex/latex/newtx/ot1ntxtlf.fd
File: ot1ntxtlf.fd 2015/01/17 v1.0 font definition file for OT1/ntx/tlf
)
LaTeX Font Info:    Font shape `OT1/ntxtlf/m/n' will be
(Font)              scaled to size 10.95pt on input line 90.
LaTeX Font Info:    Font shape `OT1/ntxtlf/m/n' will be
(Font)              scaled to size 8.0pt on input line 90.
LaTeX Font Info:    Font shape `OT1/ntxtlf/m/n' will be
(Font)              scaled to size 6.1pt on input line 90.
LaTeX Font Info:    Trying to load font information for U+ntxmia on input line 
90.

(/usr/share/texlive/texmf-dist/tex/latex/newtx/untxmia.fd
File: untxmia.fd 2018/04/14 Fontinst v1.933 font definitions for U/ntxmia.
)
LaTeX Font Info:    Trying to load font information for U+ntxsym on input line 
90.

(/usr/share/texlive/texmf-dist/tex/latex/newtx/untxsym.fd
File: untxsym.fd 2015/03/20 Fontinst v1.933 font definitions for U/ntxsym.
)
LaTeX Font Info:    Trying to load font information for U+ntxsyc on input line 
90.

(/usr/share/texlive/texmf-dist/tex/latex/newtx/untxsyc.fd
File: untxsyc.fd 2012/04/12 Fontinst v1.933 font definitions for U/ntxsyc.
)
<logos/AT_cernlogo.pdf, id=5, 85.31876pt x 83.31125pt>
File: logos/AT_cernlogo.pdf Graphic file (type pdf)
<use logos/AT_cernlogo.pdf>
Package pdftex.def Info: logos/AT_cernlogo.pdf  used on input line 90.
(pdftex.def)             Requested size: 72.85063pt x 71.13188pt.
LaTeX Font Info:    Font shape `T1/ntxtlf/b/n' will be
(Font)              scaled to size 10.95pt on input line 90.
LaTeX Font Info:    Font shape `T1/ntxtlf/b/n' will be
(Font)              scaled to size 20.74pt on input line 90.
LaTeX Font Info:    Font shape `T1/ntxtlf/m/n' will be
(Font)              scaled to size 14.4pt on input line 90.
LaTeX Font Info:    Font shape `OT1/ntxtlf/m/n' will be
(Font)              scaled to size 14.4pt on input line 90.
LaTeX Font Info:    Font shape `OT1/ntxtlf/m/n' will be
(Font)              scaled to size 10.5pt on input line 90.
LaTeX Font Info:    Font shape `OT1/ntxtlf/m/n' will be
(Font)              scaled to size 7.9pt on input line 90.
LaTeX Font Info:    Font shape `T1/ntxtlf/m/n' will be
(Font)              scaled to size 10.0pt on input line 90.
LaTeX Font Info:    Trying to load font information for TS1+ntxtlf on input lin
e 90.

(/usr/share/texlive/texmf-dist/tex/latex/newtx/ts1ntxtlf.fd
File: ts1ntxtlf.fd 2015/01/18 v1.0 fd file for TS1/ntxtlf
)
LaTeX Font Info:    Font shape `TS1/ntxtlf/m/n' will be
(Font)              scaled to size 10.0pt on input line 90.

Overfull \hbox (5.28877pt too wide) in paragraph at lines 90--90
[]\T1/ntxtlf/m/n/10.95 
[] [] 
 []

[1

{/var/lib/texmf/fonts/map/pdftex/updmap/pdftex.map} <./logos/AT_atlaslogo_2015.
pdf> <./logos/AT_cernlogo.pdf>]
LaTeX Font Info:    Font shape `T1/ntxtlf/b/n' will be
(Font)              scaled to size 14.4pt on input line 98.
 (./sections/itk_intro_section.tex
<figures/itk_cartoon.png, id=30, 741.52031pt x 426.09187pt>
File: figures/itk_cartoon.png Graphic file (type png)
<use figures/itk_cartoon.png>
Package pdftex.def Info: figures/itk_cartoon.png  used on input line 6.
(pdftex.def)             Requested size: 296.60286pt x 170.43372pt.
<figures/luminosity_increase.pdf, id=31, 770.88pt x 292.84406pt>
File: figures/luminosity_increase.pdf Graphic file (type pdf)
<use figures/luminosity_increase.pdf>
Package pdftex.def Info: figures/luminosity_increase.pdf  used on input line 12
.
(pdftex.def)             Requested size: 346.89279pt x 131.7786pt.
<figures/HL-timeline.pdf, id=32, 750.55406pt x 316.18124pt>
File: figures/HL-timeline.pdf Graphic file (type pdf)
<use figures/HL-timeline.pdf>
Package pdftex.def Info: figures/HL-timeline.pdf  used on input line 18.
(pdftex.def)             Requested size: 337.7462pt x 142.28024pt.
LaTeX Font Info:    Font shape `T1/ntxtlf/b/n' will be
(Font)              scaled to size 12.0pt on input line 22.
 [2pdfTeX warning (ext4): destination with the same identifier (name{figure.1})
 has been already used, duplicate ignored

\AtBegShi@Output ...ipout \box \AtBeginShipoutBox 
                                                  \fi \fi 
l.24 
     pdfTeX warning (ext4): destination with the same identifier (name{figure.2
}) has been already used, duplicate ignored

\AtBegShi@Output ...ipout \box \AtBeginShipoutBox 
                                                  \fi \fi 
l.24 
      <./figures/itk_cartoon.png (PNG copy)> <./figures/luminosity_increase.pdf
 (PNG copy)>]
<figures/DOPING.pdf, id=44, 819.8128pt x 405.76593pt>
File: figures/DOPING.pdf Graphic file (type pdf)
<use figures/DOPING.pdf>
Package pdftex.def Info: figures/DOPING.pdf  used on input line 28.
(pdftex.def)             Requested size: 286.93877pt x 142.0202pt.
<figures/silicon_detector_p_n_doped.pdf, id=46, 308.65312pt x 222.8325pt>
File: figures/silicon_detector_p_n_doped.pdf Graphic file (type pdf)
<use figures/silicon_detector_p_n_doped.pdf>
Package pdftex.def Info: figures/silicon_detector_p_n_doped.pdf  used on input 
line 38.
(pdftex.def)             Requested size: 262.35638pt x 189.40851pt.


LaTeX Warning: Citation `ITKTDR' on page 3 undefined on input line 43.

<figures/itk_layout.png, id=50, 1202.4925pt x 776.9025pt>
File: figures/itk_layout.png Graphic file (type png)
<use figures/itk_layout.png>
Package pdftex.def Info: figures/itk_layout.png  used on input line 46.
(pdftex.def)             Requested size: 300.62239pt x 194.22514pt.
[3pdfTeX warning (ext4): destination with the same identifier (name{figure.3}) 
has been already used, duplicate ignored

\AtBegShi@Output ...ipout \box \AtBeginShipoutBox 
                                                  \fi \fi 
l.49 
     pdfTeX warning (ext4): destination with the same identifier (name{figure.4
}) has been already used, duplicate ignored

\AtBegShi@Output ...ipout \box \AtBeginShipoutBox 
                                                  \fi \fi 
l.49 
      <./figures/HL-timeline.pdf (PNG copy)> <./figures/DOPING.pdf (PNG copy)>]
<figures/stave_and_petal.pdf, id=56, 408.77719pt x 256.70906pt>
File: figures/stave_and_petal.pdf Graphic file (type pdf)
<use figures/stave_and_petal.pdf>
Package pdftex.def Info: figures/stave_and_petal.pdf  used on input line 52.
(pdftex.def)             Requested size: 306.58214pt x 192.53131pt.
[4pdfTeX warning (ext4): destination with the same identifier (name{figure.5}) 
has been already used, duplicate ignored

\AtBegShi@Output ...ipout \box \AtBeginShipoutBox 
                                                  \fi \fi 
l.57 
     pdfTeX warning (ext4): destination with the same identifier (name{figure.6
}) has been already used, duplicate ignored

\AtBegShi@Output ...ipout \box \AtBeginShipoutBox 
                                                  \fi \fi 
l.57 
      <./figures/silicon_detector_p_n_doped.pdf (PNG copy)> <./figures/itk_layo
ut.png>]
<figures/stave_cartoon.jpg, id=68, 2164.33594pt x 487.06969pt>
File: figures/stave_cartoon.jpg Graphic file (type jpg)
<use figures/stave_cartoon.jpg>
Package pdftex.def Info: figures/stave_cartoon.jpg  used on input line 59.
(pdftex.def)             Requested size: 458.29268pt x 103.1349pt.
<figures/gbtx.pdf, id=69, 353.06906pt x 260.76804pt>
File: figures/gbtx.pdf Graphic file (type pdf)
<use figures/gbtx.pdf>
Package pdftex.def Info: figures/gbtx.pdf  used on input line 65.
(pdftex.def)             Requested size: 458.29268pt x 338.48509pt.
<figures/power_board.pdf, id=72, 805.50937pt x 222.07968pt>
File: figures/power_board.pdf Graphic file (type pdf)
<use figures/power_board.pdf>
Package pdftex.def Info: figures/power_board.pdf  used on input line 73.
(pdftex.def)             Requested size: 458.29268pt x 126.34952pt.
<figures/hv_bus.pdf, id=74, 612.78937pt x 124.96687pt>
File: figures/hv_bus.pdf Graphic file (type pdf)
<use figures/hv_bus.pdf>
Package pdftex.def Info: figures/hv_bus.pdf  used on input line 81.
(pdftex.def)             Requested size: 458.29268pt x 93.45987pt.


LaTeX Warning: Citation `itk_ichep' on page 5 undefined on input line 85.

[5pdfTeX warning (ext4): destination with the same identifier (name{figure.7}) 
has been already used, duplicate ignored

\AtBegShi@Output ...ipout \box \AtBeginShipoutBox 
                                                  \fi \fi 
l.86 
     pdfTeX warning (ext4): destination with the same identifier (name{figure.8
}) has been already used, duplicate ignored

\AtBegShi@Output ...ipout \box \AtBeginShipoutBox 
                                                  \fi \fi 
l.86 
      <./figures/stave_and_petal.pdf (PNG copy)> <./figures/stave_cartoon.jpg>]
[6pdfTeX warning (ext4): destination with the same identifier (name{figure.9}) 
has been already used, duplicate ignored

\AtBegShi@Output ...ipout \box \AtBeginShipoutBox 
                                                  \fi \fi 
l.86 
     pdfTeX warning (ext4): destination with the same identifier (name{figure.1
0}) has been already used, duplicate ignored

\AtBegShi@Output ...ipout \box \AtBeginShipoutBox 
                                                  \fi \fi 
l.86 
      <./figures/gbtx.pdf (PNG copy)> <./figures/power_board.pdf (PNG copy)>]
<figures/module_cartoon.jpg, id=89, 770.88pt x 578.16pt>
File: figures/module_cartoon.jpg Graphic file (type jpg)
<use figures/module_cartoon.jpg>
Package pdftex.def Info: figures/module_cartoon.jpg  used on input line 91.
(pdftex.def)             Requested size: 231.26578pt x 173.44933pt.
<figures/ABCStar_diagram.pdf, id=90, 728.7225pt x 318.43968pt>
File: figures/ABCStar_diagram.pdf Graphic file (type pdf)
<use figures/ABCStar_diagram.pdf>
Package pdftex.def Info: figures/ABCStar_diagram.pdf  used on input line 97.
(pdftex.def)             Requested size: 458.29268pt x 200.26335pt.
<figures/stave_data_circuit_diagram.pdf, id=91, 797.22844pt x 453.94594pt>
File: figures/stave_data_circuit_diagram.pdf Graphic file (type pdf)
<use figures/stave_data_circuit_diagram.pdf>
Package pdftex.def Info: figures/stave_data_circuit_diagram.pdf  used on input 
line 103.
(pdftex.def)             Requested size: 458.29268pt x 260.95454pt.
)
[7pdfTeX warning (ext4): destination with the same identifier (name{figure.11})
 has been already used, duplicate ignored

\AtBegShi@Output ...ipout \box \AtBeginShipoutBox 
                                                  \fi \fi 
l.101 \clearpage
                pdfTeX warning (ext4): destination with the same identifier (na
me{figure.12}) has been already used, duplicate ignored

\AtBegShi@Output ...ipout \box \AtBeginShipoutBox 
                                                  \fi \fi 
l.101 \clearpage
                 <./figures/hv_bus.pdf (PNG copy)> <./figures/module_cartoon.jp
g>] [8pdfTeX warning (ext4): destination with the same identifier (name{figure.
13}) has been already used, duplicate ignored

\AtBegShi@Output ...ipout \box \AtBeginShipoutBox 
                                                  \fi \fi 
l.101 \clearpage
                pdfTeX warning (ext4): destination with the same identifier (na
me{figure.14}) has been already used, duplicate ignored

\AtBegShi@Output ...ipout \box \AtBeginShipoutBox 
                                                  \fi \fi 
l.101 \clearpage
                 <./figures/ABCStar_diagram.pdf (PNG copy)> <./figures/stave_da
ta_circuit_diagram.pdf (PNG copy)>] (./sections/daq_testing_itk_section.tex
<figures/s_curve.png, id=105, 432.86719pt x 353.06906pt>
File: figures/s_curve.png Graphic file (type png)
<use figures/s_curve.png>
Package pdftex.def Info: figures/s_curve.png  used on input line 9.
(pdftex.def)             Requested size: 259.7223pt x 211.84306pt.
<figures/module_strobe_delay.pdf, id=108, 811.53188pt x 159.44102pt>
File: figures/module_strobe_delay.pdf Graphic file (type pdf)
<use figures/module_strobe_delay.pdf>
Package pdftex.def Info: figures/module_strobe_delay.pdf  used on input line 19
.
(pdftex.def)             Requested size: 405.76494pt x 79.7203pt.

[9

pdfTeX warning (ext4): destination with the same identifier (name{figure.15}) h
as been already used, duplicate ignored

\AtBegShi@Output ...ipout \box \AtBeginShipoutBox 
                                                  \fi \fi 
l.26 
      <./figures/s_curve.png (PNG copy)>]

LaTeX Warning: Reference `fig:noise' on page 10 undefined on input line 27.

<figures/strobe_delay.png, id=119, 834.86906pt x 370.38374pt>
File: figures/strobe_delay.png Graphic file (type png)
<use figures/strobe_delay.png>
Package pdftex.def Info: figures/strobe_delay.png  used on input line 30.
(pdftex.def)             Requested size: 333.94171pt x 148.15086pt.
<figures/three_point_gain.png, id=120, 393.72093pt x 245.41687pt>
File: figures/three_point_gain.png Graphic file (type png)
<use figures/three_point_gain.png>
Package pdftex.def Info: figures/three_point_gain.png  used on input line 36.
(pdftex.def)             Requested size: 236.23438pt x 147.25125pt.
[10pdfTeX warning (ext4): destination with the same identifier (name{figure.16}
) has been already used, duplicate ignored

\AtBegShi@Output ...ipout \box \AtBeginShipoutBox 
                                                  \fi \fi 
l.41 
     pdfTeX warning (ext4): destination with the same identifier (name{figure.1
7}) has been already used, duplicate ignored

\AtBegShi@Output ...ipout \box \AtBeginShipoutBox 
                                                  \fi \fi 
l.41 
     pdfTeX warning (ext4): destination with the same identifier (name{figure.1
8}) has been already used, duplicate ignored

\AtBegShi@Output ...ipout \box \AtBeginShipoutBox 
                                                  \fi \fi 
l.41 
      <./figures/module_strobe_delay.pdf (PNG copy)> <./figures/strobe_delay.pn
g (PNG copy)> <./figures/three_point_gain.png (PNG copy)>]
<figures/trim_range.pdf, id=127, 776.14969pt x 232.45609pt>
File: figures/trim_range.pdf Graphic file (type pdf)
<use figures/trim_range.pdf>
Package pdftex.def Info: figures/trim_range.pdf  used on input line 44.
(pdftex.def)             Requested size: 426.88365pt x 127.85123pt.
<figures/chuck_design.png, id=129, 767.86874pt x 575.14874pt>
File: figures/chuck_design.png Graphic file (type png)
<use figures/chuck_design.png>
Package pdftex.def Info: figures/chuck_design.png  used on input line 56.
(pdftex.def)             Requested size: 230.3624pt x 172.54594pt.
 [11pdfTeX warning (ext4): destination with the same identifier (name{figure.19
}) has been already used, duplicate ignored

\AtBegShi@Output ...ipout \box \AtBeginShipoutBox 
                                                  \fi \fi 
l.63 
     pdfTeX warning (ext4): destination with the same identifier (name{figure.2
0}) has been already used, duplicate ignored

\AtBegShi@Output ...ipout \box \AtBeginShipoutBox 
                                                  \fi \fi 
l.63 
      <./figures/trim_range.pdf (PNG copy)> <./figures/chuck_design.png (PNG co
py)>]
<figures/stave_microscope_setup.pdf, id=139, 362.85562pt x 479.8132pt>
File: figures/stave_microscope_setup.pdf Graphic file (type pdf)
<use figures/stave_microscope_setup.pdf>
Package pdftex.def Info: figures/stave_microscope_setup.pdf  used on input line
 67.
(pdftex.def)             Requested size: 181.42737pt x 239.906pt.
<figures/stave_glib_fpga.pdf, id=140, 392.21532pt x 238.64156pt>
File: figures/stave_glib_fpga.pdf Graphic file (type pdf)
<use figures/stave_glib_fpga.pdf>
Package pdftex.def Info: figures/stave_glib_fpga.pdf  used on input line 73.
(pdftex.def)             Requested size: 196.10718pt x 119.32048pt.
File: figures/gbtx.pdf Graphic file (type pdf)
<use figures/gbtx.pdf>
Package pdftex.def Info: figures/gbtx.pdf  used on input line 79.
(pdftex.def)             Requested size: 176.53409pt x 130.38368pt.
 [12pdfTeX warning (ext4): destination with the same identifier (name{figure.21
}) has been already used, duplicate ignored

\AtBegShi@Output ...ipout \box \AtBeginShipoutBox 
                                                  \fi \fi 
l.84 
     pdfTeX warning (ext4): destination with the same identifier (name{figure.2
2}) has been already used, duplicate ignored

\AtBegShi@Output ...ipout \box \AtBeginShipoutBox 
                                                  \fi \fi 
l.84 
      <./figures/stave_microscope_setup.pdf (PNG copy)> <./figures/stave_glib_f
pga.pdf (PNG copy)>]
<figures/stave_output_noise.png, id=156, 835.62187pt x 219.82124pt>
File: figures/stave_output_noise.png Graphic file (type png)
<use figures/stave_output_noise.png>
Package pdftex.def Info: figures/stave_output_noise.png  used on input line 87.

(pdftex.def)             Requested size: 8.3516pt x 2.19699pt.
<figures/stave_input_noise.pdf, id=157, 765.6103pt x 427.65959pt>
File: figures/stave_input_noise.pdf Graphic file (type pdf)
<use figures/stave_input_noise.pdf>
Package pdftex.def Info: figures/stave_input_noise.pdf  used on input line 93.
(pdftex.def)             Requested size: 7.65187pt x 4.27423pt.

Overfull \hbox (1.61491pt too wide) in paragraph at lines 93--94
[][]
 []

<figures/stave_gain.pdf, id=158, 727.21687pt x 431.38484pt>
File: figures/stave_gain.pdf Graphic file (type pdf)
<use figures/stave_gain.pdf>
Package pdftex.def Info: figures/stave_gain.pdf  used on input line 100.
(pdftex.def)             Requested size: 363.60754pt x 215.69188pt.
<figures/dcdc_noise_bump.png, id=159, 812.28468pt x 474.27188pt>
File: figures/dcdc_noise_bump.png Graphic file (type png)
<use figures/dcdc_noise_bump.png>
Package pdftex.def Info: figures/dcdc_noise_bump.png  used on input line 107.
(pdftex.def)             Requested size: 8.11836pt x 4.7401pt.

Overfull \hbox (1.3936pt too wide) in paragraph at lines 107--108
[][]
 []

<figures/confocal_microscope.pdf, id=163, 371.13657pt x 283.0575pt>
File: figures/confocal_microscope.pdf Graphic file (type pdf)
<use figures/confocal_microscope.pdf>
Package pdftex.def Info: figures/confocal_microscope.pdf  used on input line 12
0.
(pdftex.def)             Requested size: 18.5579pt x 14.1537pt.

Overfull \hbox (0.659pt too wide) in paragraph at lines 120--121
[][]
 []

<figures/metrology.pdf, id=164, 555.57562pt x 436.63126pt>
File: figures/metrology.pdf Graphic file (type pdf)
<use figures/metrology.pdf>
Package pdftex.def Info: figures/metrology.pdf  used on input line 125.
(pdftex.def)             Requested size: 27.7804pt x 21.83284pt.

Overfull \hbox (0.5018pt too wide) in paragraph at lines 125--126
[][]
 []

LaTeX Font Info:    Font shape `OT1/ntxtlf/m/n' will be
(Font)              scaled to size 10.0pt on input line 126.
LaTeX Font Info:    Font shape `OT1/ntxtlf/m/n' will be
(Font)              scaled to size 7.3pt on input line 126.
LaTeX Font Info:    Font shape `OT1/ntxtlf/m/n' will be
(Font)              scaled to size 5.5pt on input line 126.
) [13pdfTeX warning (ext4): destination with the same identifier (name{figure.2
3}) has been already used, duplicate ignored

\AtBegShi@Output ...ipout \box \AtBeginShipoutBox 
                                                  \fi \fi 
l.107 \clearpage
                pdfTeX warning (ext4): destination with the same identifier (na
me{figure.24}) has been already used, duplicate ignored

\AtBegShi@Output ...ipout \box \AtBeginShipoutBox 
                                                  \fi \fi 
l.107 \clearpage
                 <./figures/stave_output_noise.png>] [14pdfTeX warning (ext4): 
destination with the same identifier (name{figure.25}) has been already used, d
uplicate ignored

\AtBegShi@Output ...ipout \box \AtBeginShipoutBox 
                                                  \fi \fi 
l.107 \clearpage
                pdfTeX warning (ext4): destination with the same identifier (na
me{figure.26}) has been already used, duplicate ignored

\AtBegShi@Output ...ipout \box \AtBeginShipoutBox 
                                                  \fi \fi 
l.107 \clearpage
                 <./figures/stave_input_noise.pdf (PNG copy)> <./figures/stave_
gain.pdf (PNG copy)>] [15pdfTeX warning (ext4): destination with the same ident
ifier (name{figure.27}) has been already used, duplicate ignored

\AtBegShi@Output ...ipout \box \AtBeginShipoutBox 
                                                  \fi \fi 
l.107 \clearpage
                 <./figures/dcdc_noise_bump.png (PNG copy)>] [16pdfTeX warning 
(ext4): destination with the same identifier (name{figure.28}) has been already
 used, duplicate ignored

\AtBegShi@Output ...ipout \box \AtBeginShipoutBox 
                                                  \fi \fi 
l.107 \clearpage
                 <./figures/confocal_microscope.pdf (PNG copy)>] [17pdfTeX warn
ing (ext4): destination with the same identifier (name{figure.29}) has been alr
eady used, duplicate ignored

\AtBegShi@Output ...ipout \box \AtBeginShipoutBox 
                                                  \fi \fi 
l.107 \clearpage
                 <./figures/metrology.pdf (PNG copy)>]
(./sections/qc_test_itk_section.tex
<figures/four_module_box.jpg, id=192, 2601.72pt x 1461.46pt>
File: figures/four_module_box.jpg Graphic file (type jpg)
<use figures/four_module_box.jpg>
Package pdftex.def Info: figures/four_module_box.jpg  used on input line 11.
(pdftex.def)             Requested size: 208.14185pt x 116.91919pt.
<figures/qc_box_electrical_schematic.pdf, id=194, 373.395pt x 368.80052pt>
File: figures/qc_box_electrical_schematic.pdf Graphic file (type pdf)
<use figures/qc_box_electrical_schematic.pdf>
Package pdftex.def Info: figures/qc_box_electrical_schematic.pdf  used on input
 line 19.
(pdftex.def)             Requested size: 298.7164pt x 295.0408pt.
 [18

pdfTeX warning (ext4): destination with the same identifier (name{figure.30}) h
as been already used, duplicate ignored

\AtBegShi@Output ...ipout \box \AtBeginShipoutBox 
                                                  \fi \fi 
l.24 
      <./figures/four_module_box.jpg>]
<figures/dcsdaq_scheme.png, id=205, 752.8125pt x 877.77937pt>
File: figures/dcsdaq_scheme.png Graphic file (type png)
<use figures/dcsdaq_scheme.png>
Package pdftex.def Info: figures/dcsdaq_scheme.png  used on input line 28.
(pdftex.def)             Requested size: 301.11966pt x 351.10553pt.


LaTeX Warning: Reference `qc_box_daq_setup.pdf' on page 19 undefined on input l
ine 33.

<figures/qc_box_daq_setup.pdf, id=206, 382.42876pt x 267.47351pt>
File: figures/qc_box_daq_setup.pdf Graphic file (type pdf)
<use figures/qc_box_daq_setup.pdf>
Package pdftex.def Info: figures/qc_box_daq_setup.pdf  used on input line 38.
(pdftex.def)             Requested size: 248.57573pt x 173.85571pt.
<figures/first_qc_test.pdf, id=212, 348.55219pt x 172.85196pt>
File: figures/first_qc_test.pdf Graphic file (type pdf)
<use figures/first_qc_test.pdf>
Package pdftex.def Info: figures/first_qc_test.pdf  used on input line 46.
(pdftex.def)             Requested size: 243.98485pt x 120.99554pt.
<figures/first_qc_test_daq_test.pdf, id=213, 397.485pt x 195.94856pt>
File: figures/first_qc_test_daq_test.pdf Graphic file (type pdf)
<use figures/first_qc_test_daq_test.pdf>
Package pdftex.def Info: figures/first_qc_test_daq_test.pdf  used on input line
 52.
(pdftex.def)             Requested size: 258.36218pt x 127.36505pt.
<figures/first_qc_test_daq_test_2.pdf, id=214, 307.90031pt x 162.42123pt>
File: figures/first_qc_test_daq_test_2.pdf Graphic file (type pdf)
<use figures/first_qc_test_daq_test_2.pdf>
Package pdftex.def Info: figures/first_qc_test_daq_test_2.pdf  used on input li
ne 53.
(pdftex.def)             Requested size: 215.52873pt x 113.69408pt.
<figures/qc_box_temperature_rate.pdf, id=215, 760.34062pt x 276.41412pt>
File: figures/qc_box_temperature_rate.pdf Graphic file (type pdf)
<use figures/qc_box_temperature_rate.pdf>
Package pdftex.def Info: figures/qc_box_temperature_rate.pdf  used on input lin
e 59.
(pdftex.def)             Requested size: 380.16937pt x 138.20671pt.
[19pdfTeX warning (ext4): destination with the same identifier (name{figure.31}
) has been already used, duplicate ignored

\AtBegShi@Output ...ipout \box \AtBeginShipoutBox 
                                                  \fi \fi 
l.65 
      <./figures/qc_box_electrical_schematic.pdf (PNG copy)>] [20pdfTeX warning
 (ext4): destination with the same identifier (name{figure.32}) has been alread
y used, duplicate ignored

\AtBegShi@Output ...ipout \box \AtBeginShipoutBox 
                                                  \fi \fi 
l.65 
     pdfTeX warning (ext4): destination with the same identifier (name{figure.3
3}) has been already used, duplicate ignored

\AtBegShi@Output ...ipout \box \AtBeginShipoutBox 
                                                  \fi \fi 
l.65 
      <./figures/dcsdaq_scheme.png (PNG copy)> <./figures/qc_box_daq_setup.pdf 
(PNG copy)>] [21pdfTeX warning (ext4): destination with the same identifier (na
me{figure.34}) has been already used, duplicate ignored

\AtBegShi@Output ...ipout \box \AtBeginShipoutBox 
                                                  \fi \fi 
l.65 
     pdfTeX warning (ext4): destination with the same identifier (name{figure.3
5}) has been already used, duplicate ignored

\AtBegShi@Output ...ipout \box \AtBeginShipoutBox 
                                                  \fi \fi 
l.65 
     pdfTeX warning (ext4): destination with the same identifier (name{figure.3
6}) has been already used, duplicate ignored

\AtBegShi@Output ...ipout \box \AtBeginShipoutBox 
                                                  \fi \fi 
l.65 
      <./figures/first_qc_test.pdf (PNG copy)> <./figures/first_qc_test_daq_tes
t.pdf (PNG copy)> <./figures/first_qc_test_daq_test_2.pdf (PNG copy)> <./figure
s/qc_box_temperature_rate.pdf (PNG copy)>]
<figures/thermal_cycle.png, id=236, 1379.1525pt x 758.08218pt>
File: figures/thermal_cycle.png Graphic file (type png)
<use figures/thermal_cycle.png>
Package pdftex.def Info: figures/thermal_cycle.png  used on input line 68.
(pdftex.def)             Requested size: 386.16006pt x 212.26155pt.
<figures/daq_box_vacuum_pressure.pdf, id=237, 771.63281pt x 357.62474pt>
File: figures/daq_box_vacuum_pressure.pdf Graphic file (type pdf)
<use figures/daq_box_vacuum_pressure.pdf>
Package pdftex.def Info: figures/daq_box_vacuum_pressure.pdf  used on input lin
e 75.
(pdftex.def)             Requested size: 308.64764pt x 143.04735pt.
<figures/qc_box_daq_tests_results.pdf, id=239, 278.54062pt x 448.52103pt>
File: figures/qc_box_daq_tests_results.pdf Graphic file (type pdf)
<use figures/qc_box_daq_tests_results.pdf>
Package pdftex.def Info: figures/qc_box_daq_tests_results.pdf  used on input li
ne 84.
(pdftex.def)             Requested size: 222.8328pt x 358.8173pt.
<figures/qc_box_output_input_noise_comparison.pdf, id=243, 407.27156pt x 182.53
763pt>
File: figures/qc_box_output_input_noise_comparison.pdf Graphic file (type pdf)
<use figures/qc_box_output_input_noise_comparison.pdf>
Package pdftex.def Info: figures/qc_box_output_input_noise_comparison.pdf  used
 on input line 93.
(pdftex.def)             Requested size: 285.08813pt x 127.77545pt.
<figures/qc_box_output_noise_comparison.pdf, id=244, 367.3725pt x 178.81238pt>
File: figures/qc_box_output_noise_comparison.pdf Graphic file (type pdf)
<use figures/qc_box_output_noise_comparison.pdf>
Package pdftex.def Info: figures/qc_box_output_noise_comparison.pdf  used on in
put line 100.
(pdftex.def)             Requested size: 257.15898pt x 125.16779pt.
<figures/average_input_noise_thermal_cycle.pdf, id=245, 688.82344pt x 325.58752
pt>
File: figures/average_input_noise_thermal_cycle.pdf Graphic file (type pdf)
<use figures/average_input_noise_thermal_cycle.pdf>
Package pdftex.def Info: figures/average_input_noise_thermal_cycle.pdf  used on
 input line 106.
(pdftex.def)             Requested size: 344.41087pt x 162.79337pt.
) [22pdfTeX warning (ext4): destination with the same identifier (name{figure.3
7}) has been already used, duplicate ignored

\AtBegShi@Output ...ipout \box \AtBeginShipoutBox 
                                                  \fi \fi 
l.112 \clearpage
                pdfTeX warning (ext4): destination with the same identifier (na
me{figure.38}) has been already used, duplicate ignored

\AtBegShi@Output ...ipout \box \AtBeginShipoutBox 
                                                  \fi \fi 
l.112 \clearpage
                 <./figures/thermal_cycle.png> <./figures/daq_box_vacuum_pressu
re.pdf (PNG copy)>] [23pdfTeX warning (ext4): destination with the same identif
ier (name{figure.39}) has been already used, duplicate ignored

\AtBegShi@Output ...ipout \box \AtBeginShipoutBox 
                                                  \fi \fi 
l.112 \clearpage
                pdfTeX warning (ext4): destination with the same identifier (na
me{figure.40}) has been already used, duplicate ignored

\AtBegShi@Output ...ipout \box \AtBeginShipoutBox 
                                                  \fi \fi 
l.112 \clearpage
                 <./figures/qc_box_daq_tests_results.pdf (PNG copy)> <./figures
/qc_box_output_input_noise_comparison.pdf (PNG copy)>] [24pdfTeX warning (ext4)
: destination with the same identifier (name{figure.41}) has been already used,
 duplicate ignored

\AtBegShi@Output ...ipout \box \AtBeginShipoutBox 
                                                  \fi \fi 
l.112 \clearpage
                pdfTeX warning (ext4): destination with the same identifier (na
me{figure.42}) has been already used, duplicate ignored

\AtBegShi@Output ...ipout \box \AtBeginShipoutBox 
                                                  \fi \fi 
l.112 \clearpage
                 <./figures/qc_box_output_noise_comparison.pdf (PNG copy)> <./f
igures/average_input_noise_thermal_cycle.pdf (PNG copy)>]
(./sections/itk_abc_star_radiation_section.tex

LaTeX Warning: Citation `TIDBump' on page 25 undefined on input line 2.

<figures/tid_bump_example.pdf, id=264, 374.14781pt x 292.09125pt>
File: figures/tid_bump_example.pdf Graphic file (type pdf)
<use figures/tid_bump_example.pdf>
Package pdftex.def Info: figures/tid_bump_example.pdf  used on input line 6.
(pdftex.def)             Requested size: 243.19318pt x 189.85704pt.
<figures/irradiation_setup.pdf, id=266, 322.95656pt x 243.91125pt>
File: figures/irradiation_setup.pdf Graphic file (type pdf)
<use figures/irradiation_setup.pdf>
Package pdftex.def Info: figures/irradiation_setup.pdf  used on input line 16.
(pdftex.def)             Requested size: 209.91927pt x 158.54042pt.
<figures/TID_abcstar_box_orientaion.pdf, id=267, 788.9475pt x 580.41844pt>
File: figures/TID_abcstar_box_orientaion.pdf Graphic file (type pdf)
<use figures/TID_abcstar_box_orientaion.pdf>
Package pdftex.def Info: figures/TID_abcstar_box_orientaion.pdf  used on input 
line 23.
(pdftex.def)             Requested size: 355.02309pt x 261.18588pt.
<figures/irradiationStar.pdf, id=269, 1027.84pt x 770.88pt>
File: figures/irradiationStar.pdf Graphic file (type pdf)
<use figures/irradiationStar.pdf>
Package pdftex.def Info: figures/irradiationStar.pdf  used on input line 31.
(pdftex.def)             Requested size: 359.74939pt x 269.81204pt.
[25

pdfTeX warning (ext4): destination with the same identifier (name{figure.43}) h
as been already used, duplicate ignored

\AtBegShi@Output ...ipout \box \AtBeginShipoutBox 
                                                  \fi \fi 
l.37 
      <./figures/tid_bump_example.pdf (PNG copy)>] [26pdfTeX warning (ext4): de
stination with the same identifier (name{figure.44}) has been already used, dup
licate ignored

\AtBegShi@Output ...ipout \box \AtBeginShipoutBox 
                                                  \fi \fi 
l.37 
     pdfTeX warning (ext4): destination with the same identifier (name{figure.4
5}) has been already used, duplicate ignored

\AtBegShi@Output ...ipout \box \AtBeginShipoutBox 
                                                  \fi \fi 
l.37 
      <./figures/irradiation_setup.pdf (PNG copy)> <./figures/TID_abcstar_box_o
rientaion.pdf (PNG copy)>]
<figures/fet_transistors.pdf, id=285, 380.92313pt x 169.1267pt>
File: figures/fet_transistors.pdf Graphic file (type pdf)
<use figures/fet_transistors.pdf>
Package pdftex.def Info: figures/fet_transistors.pdf  used on input line 40.
(pdftex.def)             Requested size: 304.73889pt x 135.30153pt.
 [27pdfTeX warning (ext4): destination with the same identifier (name{figure.46
}) has been already used, duplicate ignored

\AtBegShi@Output ...ipout \box \AtBeginShipoutBox 
                                                  \fi \fi 
l.47 
     pdfTeX warning (ext4): destination with the same identifier (name{figure.4
7}) has been already used, duplicate ignored

\AtBegShi@Output ...ipout \box \AtBeginShipoutBox 
                                                  \fi \fi 
l.47 
      <./figures/irradiationStar.pdf> <./figures/fet_transistors.pdf (PNG copy)
>]
<figures/tid_physics_cartoon.pdf, id=326, 736.25063pt x 255.95625pt>
File: figures/tid_physics_cartoon.pdf Graphic file (type pdf)
<use figures/tid_physics_cartoon.pdf>
Package pdftex.def Info: figures/tid_physics_cartoon.pdf  used on input line 51
.
(pdftex.def)             Requested size: 368.1244pt x 127.9778pt.
<figures/annealing_studies.png, id=328, 694.595pt x 518.93875pt>
File: figures/annealing_studies.png Graphic file (type png)
<use figures/annealing_studies.png>
Package pdftex.def Info: figures/annealing_studies.png  used on input line 84.
(pdftex.def)             Requested size: 347.29665pt x 259.46873pt.
 [28pdfTeX warning (ext4): destination with the same identifier (name{figure.48
}) has been already used, duplicate ignored

\AtBegShi@Output ...ipout \box \AtBeginShipoutBox 
                                                  \fi \fi 
l.87 
      <./figures/tid_physics_cartoon.pdf (PNG copy)>]
<figures/irradation_results.pdf, id=344, 423.08063pt x 341.77687pt>
File: figures/irradation_results.pdf Graphic file (type pdf)
<use figures/irradation_results.pdf>
Package pdftex.def Info: figures/irradation_results.pdf  used on input line 93.

(pdftex.def)             Requested size: 211.5398pt x 170.88802pt.
<figures/2017_tid_bump_results.pdf, id=345, 339.51843pt x 221.32687pt>
File: figures/2017_tid_bump_results.pdf Graphic file (type pdf)
<use figures/2017_tid_bump_results.pdf>
Package pdftex.def Info: figures/2017_tid_bump_results.pdf  used on input line 
99.
(pdftex.def)             Requested size: 203.71262pt x 132.79713pt.
<figures/2016_tid_bump_results.pdf, id=346, 1063.72406pt x 588.69937pt>
File: figures/2016_tid_bump_results.pdf Graphic file (type pdf)
<use figures/2016_tid_bump_results.pdf>
Package pdftex.def Info: figures/2016_tid_bump_results.pdf  used on input line 
100.
(pdftex.def)             Requested size: 319.11967pt x 176.61116pt.
<figures/radiation_fits.png, id=349, 452.4403pt x 328.97906pt>
File: figures/radiation_fits.png Graphic file (type png)
<use figures/radiation_fits.png>
Package pdftex.def Info: figures/radiation_fits.png  used on input line 111.
(pdftex.def)             Requested size: 271.46628pt x 197.38895pt.
<figures/tid_bump_fit_results_parameter_table.pdf, id=350, 754.31813pt x 166.89
154pt>
File: figures/tid_bump_fit_results_parameter_table.pdf Graphic file (type pdf)
<use figures/tid_bump_fit_results_parameter_table.pdf>
Package pdftex.def Info: figures/tid_bump_fit_results_parameter_table.pdf  used
 on input line 117.
(pdftex.def)             Requested size: 377.15814pt x 83.44556pt.
 [29pdfTeX warning (ext4): destination with the same identifier (name{figure.49
}) has been already used, duplicate ignored

\AtBegShi@Output ...ipout \box \AtBeginShipoutBox 
                                                  \fi \fi 
l.123 
       <./figures/annealing_studies.png>] [30pdfTeX warning (ext4): destination
 with the same identifier (name{figure.50}) has been already used, duplicate ig
nored

\AtBegShi@Output ...ipout \box \AtBeginShipoutBox 
                                                  \fi \fi 
l.123 
      pdfTeX warning (ext4): destination with the same identifier (name{figure.
51}) has been already used, duplicate ignored

\AtBegShi@Output ...ipout \box \AtBeginShipoutBox 
                                                  \fi \fi 
l.123 
       <./figures/irradation_results.pdf (PNG copy)> <./figures/2017_tid_bump_r
esults.pdf (PNG copy)> <./figures/2016_tid_bump_results.pdf (PNG copy)>]
<figures/batch_to_batch_variations.pdf, id=367, 786.68906pt x 612.03656pt>
File: figures/batch_to_batch_variations.pdf Graphic file (type pdf)
<use figures/batch_to_batch_variations.pdf>
Package pdftex.def Info: figures/batch_to_batch_variations.pdf  used on input l
ine 126.
(pdftex.def)             Requested size: 236.00853pt x 183.61238pt.
<figures/tid_bump_temp.pdf, id=370, 796.67719pt x 448.1309pt>
File: figures/tid_bump_temp.pdf Graphic file (type pdf)
<use figures/tid_bump_temp.pdf>
Package pdftex.def Info: figures/tid_bump_temp.pdf  used on input line 134.
(pdftex.def)             Requested size: 358.50142pt x 201.65703pt.
<figures/increase_temp.png, id=371, 830.35219pt x 374.90062pt>
File: figures/increase_temp.png Graphic file (type png)
<use figures/increase_temp.png>
Package pdftex.def Info: figures/increase_temp.png  used on input line 140.
(pdftex.def)             Requested size: 332.135pt x 149.95758pt.
)
[31pdfTeX warning (ext4): destination with the same identifier (name{figure.52}
) has been already used, duplicate ignored

\AtBegShi@Output ...ipout \box \AtBeginShipoutBox 
                                                  \fi \fi 
l.117 \clearpage
                pdfTeX warning (ext4): destination with the same identifier (na
me{table.1}) has been already used, duplicate ignored

\AtBegShi@Output ...ipout \box \AtBeginShipoutBox 
                                                  \fi \fi 
l.117 \clearpage
                 <./figures/Radiation_fits.png (PNG copy)> <./figures/tid_bump_
fit_results_parameter_table.pdf (PNG copy)>] [32pdfTeX warning (ext4): destinat
ion with the same identifier (name{figure.53}) has been already used, duplicate
 ignored

\AtBegShi@Output ...ipout \box \AtBeginShipoutBox 
                                                  \fi \fi 
l.117 \clearpage
                pdfTeX warning (ext4): destination with the same identifier (na
me{figure.54}) has been already used, duplicate ignored

\AtBegShi@Output ...ipout \box \AtBeginShipoutBox 
                                                  \fi \fi 
l.117 \clearpage
                pdfTeX warning (ext4): destination with the same identifier (na
me{figure.55}) has been already used, duplicate ignored

\AtBegShi@Output ...ipout \box \AtBeginShipoutBox 
                                                  \fi \fi 
l.117 \clearpage
                 <./figures/batch_to_batch_variations.pdf (PNG copy)> <./figure
s/tid_bump_temp.pdf> <./figures/increase_temp.png (PNG copy)>]
Package atveryend Info: Empty hook `BeforeClearDocument' on input line 120.
Package atveryend Info: Empty hook `AfterLastShipout' on input line 120.
 (./main_itk.aux)
Package atveryend Info: Executing hook `AtVeryEndDocument' on input line 120.
Package atveryend Info: Executing hook `AtEndAfterFileList' on input line 120.
Package rerunfilecheck Info: File `main_itk.out' has not changed.
(rerunfilecheck)             Checksum: D41D8CD98F00B204E9800998ECF8427E;0.

LaTeX Warning: There were undefined references.


LaTeX Warning: There were multiply-defined labels.

 ) 
Here is how much of TeX's memory you used:
 16948 strings out of 481239
 291983 string characters out of 5920377
 686512 words of memory out of 5000000
 31745 multiletter control sequences out of 15000+600000
 601903 words of font info for 125 fonts, out of 8000000 for 9000
 1141 hyphenation exceptions out of 8191
 52i,10n,60p,10107b,424s stack positions out of 5000i,500n,10000p,200000b,80000s
pdfTeX warning (dest): name{figure.56} has been referenced but does not exist
, replaced by a fixed one

{/usr/share/texlive/texmf-dist/fonts/enc/dvips/newtx/ntx-ot1-tlf.enc}{/usr/shar
e/texmf/fonts/enc/dvips/tex-gyre/q-ts1.enc}{/usr/share/texlive/texmf-dist/fonts
/enc/dvips/newtx/ntx-ec-tlf.enc}{/usr/share/texmf/fonts/enc/dvips/tex-gyre/q-ec
.enc}</usr/share/texlive/texmf-dist/fonts/type1/public/newtx/NewTXMI.pfb></usr/
share/texlive/texmf-dist/fonts/type1/public/newtx/NewTXMI5.pfb></usr/share/texl
ive/texmf-dist/fonts/type1/public/newtx/NewTXMI7.pfb></usr/share/texmf/fonts/ty
pe1/public/tex-gyre/qhvb.pfb></usr/share/texmf/fonts/type1/public/tex-gyre/qtmb
.pfb></usr/share/texmf/fonts/type1/public/tex-gyre/qtmr.pfb></usr/share/texlive
/texmf-dist/fonts/type1/public/newtx/txmiaX.pfb></usr/share/texlive/texmf-dist/
fonts/type1/public/newtx/txsys.pfb>
Output written on main_itk.pdf (32 pages, 9402685 bytes).
PDF statistics:
 483 PDF objects out of 1000 (max. 8388607)
 361 compressed objects within 4 object streams
 103 named destinations out of 1000 (max. 500000)
 368 words of extra memory for PDF output out of 10000 (max. 10000000)

