%!PS-Adobe-2.0 EPSF-2.0
%%BoundingBox:  0 0 567 244
%%Title: cCNp2_matrix_DYll.eps: 
%%Creator: ROOT Version 6.24/06
%%CreationDate: Mon Jan  3 21:08:44 2022
%%DocumentNeededResources: ProcSet (FontSetInit)
%%EndComments
%%BeginProlog
80 dict begin
/s {stroke} def /l {lineto} def /m {moveto} def /t {translate} def
/r {rotate} def /rl {roll}  def /R {repeat} def
/d {rlineto} def /rm {rmoveto} def /gr {grestore} def /f {eofill} def
/c {setrgbcolor} def /black {0 setgray} def /sd {setdash} def
/cl {closepath} def /sf {scalefont setfont} def /lw {setlinewidth} def
/box {m dup 0 exch d exch 0 d 0 exch neg d cl} def
/NC{systemdict begin initclip end}def/C{NC box clip newpath}def
/bl {box s} def /bf {gsave box gsave f grestore 1 lw [] 0 sd s grestore} def /Y { 0 exch d} def /X { 0 d} def 
/K {{pop pop 0 moveto} exch kshow} bind def
/ita {/ang 15 def gsave [1 0 ang dup sin exch cos div 1 0 0] concat} def 
/mp {newpath /y exch def /x exch def} def
/side {[w .77 mul w .23 mul] .385 w mul sd w 0 l currentpoint t -144 r} def
/mr {mp x y w2 0 360 arc} def /m24 {mr s} def /m20 {mr f} def
/mb {mp x y w2 add m w2 neg 0 d 0 w neg d w 0 d 0 w d cl} def
/mt {mp x y w2 add m w2 neg w neg d w 0 d cl} def
/w4 {w 4 div} def
/w6 {w 6 div} def
/w8 {w 8 div} def
/m21 {mb f} def /m25 {mb s} def /m22 {mt f} def /m26{mt s} def
/m23 {mp x y w2 sub m w2 w d w neg 0 d cl f} def
/m27 {mp x y w2 add m w3 neg w2 neg d w3 w2 neg d w3 w2 d cl s} def
/m28 {mp x w2 sub y w2 sub w3 add m w3 0 d  0 w3 neg d w3 0 d 0 w3 d w3 0 d  0 w3 d w3 neg 0 d 0 w3 d w3 neg 0 d 0 w3 neg d w3 neg 0 d cl s } def
/m29 {mp gsave x w2 sub y w2 add w3 sub m currentpoint t 4 {side} repeat cl fill gr} def
/m30 {mp gsave x w2 sub y w2 add w3 sub m currentpoint t 4 {side} repeat cl s gr} def
/m31 {mp x y w2 sub m 0 w d x w2 sub y m w 0 d x w2 .707 mul sub y w2 .707 mul add m w 1.44 div w 1.44 div neg d x w2 .707 mul sub y w2 .707 mul sub m w 1.44 div w 1.44 div d s} def
/m32 {mp x y w2 sub m w2 w d w neg 0 d cl s} def
/m33 {mp x y w2 add m w3 neg w2 neg d w3 w2 neg d w3 w2 d cl f} def
/m34 {mp x w2 sub y w2 sub w3 add m w3 0 d  0 w3 neg d w3 0 d 0 w3 d w3 0 d  0 w3 d w3 neg 0 d 0 w3 d w3 neg 0 d 0 w3 neg d w3 neg 0 d cl f } def
/m35 {mp x y w2 add m w2 neg w2 neg d w2 w2 neg d w2 w2 d w2 neg w2 d x y w2 sub m 0 w d x w2 sub y m w 0 d s} def
/m36 {mb x w2 sub y w2 add m w w neg d x w2 sub y w2 sub m w w d s} def
/m37 {mp x y m w4 neg w2 d w4 neg w2 neg d w2 0 d  w4 neg w2 neg d w2 0 d w4 neg w2 d w2 0 d w4 neg w2 d w4 neg w2 neg d cl s} def
/m38 {mp x w4 sub y w2 add m w4 neg w4 neg d 0 w2 neg d w4 w4 neg d w2 0 d w4 w4 d 0 w2 d w4 neg w4 d w2 neg 0 d x y w2 sub m 0 w d x w2 sub y m w 0 d cl s} def
/m39 {mp x y m w4 neg w2 d w4 neg w2 neg d w2 0 d  w4 neg w2 neg d w2 0 d w4 neg w2 d w2 0 d w4 neg w2 d w4 neg w2 neg d cl f} def
/m40 {mp x y m w4 w2 d w4 w4 neg d w2 neg w4 neg d w2 w4 neg d w4 neg w4 neg d w4 neg w2 d w4 neg w2 neg d w4 neg w4 d w2 w4 d w2 neg w4 d w4 w4 d w4 w2 neg d cl s} def
/m41 {mp x y m w4 w2 d w4 w4 neg d w2 neg w4 neg d w2 w4 neg d w4 neg w4 neg d w4 neg w2 d w4 neg w2 neg d w4 neg w4 d w2 w4 d w2 neg w4 d w4 w4 d w4 w2 neg d cl f} def
/m42 {mp x y w2 add m w8 neg w2 -3 4 div mul d w2 -3 4 div mul w8 neg d w2 3 4 div mul w8 neg d w8 w2 -3 4 div mul d w8 w2 3 4 div mul d w2 3 4 div mul w8 d w2 -3 4 div mul w8 d w8 neg w2 3 4 div mul d cl s} def
/m43 {mp x y w2 add m w8 neg w2 -3 4 div mul d w2 -3 4 div mul w8 neg d w2 3 4 div mul w8 neg d w8 w2 -3 4 div mul d w8 w2 3 4 div mul d w2 3 4 div mul w8 d w2 -3 4 div mul w8 d w8 neg w2 3 4 div mul d cl f} def
/m44 {mp x y m w6 neg w2 d w2 2 3 div mul 0 d w6 neg w2 neg d w2 w6 d 0 w2 -2 3 div mul d w2 neg w6 d w6 w2 neg d w2 -2 3 div mul 0 d w6 w2 d w2 neg w6 neg d 0 w2 2 3 div mul d w2 w6 neg d cl s} def
/m45 {mp x y m w6 neg w2 d w2 2 3 div mul 0 d w6 neg w2 neg d w2 w6 d 0 w2 -2 3 div mul d w2 neg w6 d w6 w2 neg d w2 -2 3 div mul 0 d w6 w2 d w2 neg w6 neg d 0 w2 2 3 div mul d w2 w6 neg d cl f} def
/m46 {mp x y w4 add m w4 neg w4 d w4 neg w4 neg d  w4 w4 neg d w4 neg w4 neg d w4 w4 neg d w4 w4 d w4 w4 neg d w4 w4 d w4 neg w4 d w4 w4 d w4 neg w4 d w4 neg w4 neg d cl s} def
/m47 {mp x y w4 add m w4 neg w4 d w4 neg w4 neg d w4 w4 neg d w4 neg w4 neg d  w4 w4 neg d w4 w4 d w4 w4 neg d w4 w4 d w4 neg w4 d w4 w4 d w4 neg w4 d w4 neg w4 neg d cl f} def
/m48 {mp x y w4 add m w4 neg w4 d w4 neg w4 neg d w4 w4 neg d  w4 neg w4 neg d w4 w4 neg d w4 w4 d w4 w4 neg d w4 w4 d w4 neg w4 d w4 w4 d w4 neg w4 d w4 neg w4 neg d  w4 w4 neg d w4 neg w4 neg d w4 neg w4 d w4 w4 d cl f} def
/m49 {mp x w2 sub w3 add y w2 sub w3 add m  0 w3 neg d w3 0 d 0 w3 d w3 0 d 0 w3 d w3 neg 0 d 0 w3 d w3 neg 0 d 0 w3 neg d w3 neg 0 d 0 w3 neg d w3 0 d 0 w3 d w3 0 d 0 w3 neg d w3 neg 0 d cl f } def
/m2 {mp x y w2 sub m 0 w d x w2 sub y m w 0 d s} def
/m5 {mp x w2 .707 mul sub y w2 .707 mul sub m w 1.44 div w 1.44 div d x w2 .707 mul sub y w2 .707 mul add m w 1.44 div w 1.44 div neg d s} def
%%IncludeResource: ProcSet (FontSetInit)
%%IncludeResource: font Times-Roman
%%IncludeResource: font Times-Italic
%%IncludeResource: font Times-Bold
%%IncludeResource: font Times-BoldItalic
%%IncludeResource: font Helvetica
%%IncludeResource: font Helvetica-Oblique
%%IncludeResource: font Helvetica-Bold
%%IncludeResource: font Helvetica-BoldOblique
%%IncludeResource: font Courier
%%IncludeResource: font Courier-Oblique
%%IncludeResource: font Courier-Bold
%%IncludeResource: font Courier-BoldOblique
%%IncludeResource: font Symbol
%%IncludeResource: font ZapfDingbats
/reEncode {exch findfont dup length dict begin {1 index /FID eq  {pop pop} {def} ifelse } forall /Encoding exch def currentdict end dup /FontName get exch definefont pop } def [/Times-Bold /Times-Italic /Times-BoldItalic /Helvetica /Helvetica-Oblique
 /Helvetica-Bold /Helvetica-BoldOblique /Courier /Courier-Oblique /Courier-Bold /Courier-BoldOblique /Times-Roman /AvantGarde-Book /AvantGarde-BookOblique /AvantGarde-Demi /AvantGarde-DemiOblique /Bookman-Demi /Bookman-DemiItalic /Bookman-Light
 /Bookman-LightItalic /Helvetica-Narrow /Helvetica-Narrow-Bold /Helvetica-Narrow-BoldOblique /Helvetica-Narrow-Oblique /NewCenturySchlbk-Roman /NewCenturySchlbk-Bold /NewCenturySchlbk-BoldItalic /NewCenturySchlbk-Italic /Palatino-Bold
 /Palatino-BoldItalic /Palatino-Italic /Palatino-Roman ] {ISOLatin1Encoding reEncode } forall
%%EndProlog
%%BeginSetup
%%EndSetup
newpath  gsave  .25 .25 scale  gsave  0 0 t black[  ] 0 sd 3 lw 1 1 1 c 2268 975 0 0 bf black 1 1 1 c 2177 375 45 585 bf black 2177 375 45 585 bl 6 lw 1 1 1 c black 45 773 m 2177 X s 3 lw 45 585 m 2177 X s
 gsave  2268 975 0 0 C 64.3951 304.298 t 90 r /Helvetica findfont 23.9903 sf 0 0 m (JET_Pileup_RhoTopology) show NC gr 
 gsave  2268 975 0 0 C 90.9107 291.672 t 90 r /Helvetica findfont 23.9903 sf 0 0 m (JET_PunchThrough_MC16) show NC gr 
 gsave  2268 975 0 0 C 118.689 320.713 t 90 r /Helvetica findfont 23.9903 sf 0 0 m (MET_SoftTrk_ResoPara) show NC gr 
 gsave  2268 975 0 0 C 143.942 320.713 t 90 r /Helvetica findfont 23.9903 sf 0 0 m (MET_SoftTrk_ResoPerp) show NC gr 
 gsave  2268 975 0 0 C 171.72 366.168 t 90 r /Helvetica findfont 23.9903 sf 0 0 m (MET_SoftTrk_Scale) show NC gr 
 gsave  2268 975 0 0 C 198.236 318.187 t 90 r /Helvetica findfont 23.9903 sf 0 0 m (MUON_EFF_ISO_STAT) show NC gr 
 gsave  2268 975 0 0 C 224.751 332.077 t 90 r /Helvetica findfont 23.9903 sf 0 0 m (MUON_EFF_ISO_SYS) show NC gr 
 gsave  2268 975 0 0 C 251.267 291.672 t 90 r /Helvetica findfont 23.9903 sf 0 0 m (MUON_EFF_RECO_STAT) show NC gr 
 gsave  2268 975 0 0 C 277.783 305.561 t 90 r /Helvetica findfont 23.9903 sf 0 0 m (MUON_EFF_RECO_SYS) show NC gr 
 gsave  2268 975 0 0 C 304.298 297.985 t 90 r /Helvetica findfont 23.9903 sf 0 0 m (MUON_EFF_TTVA_STAT) show NC gr 
 gsave  2268 975 0 0 C 330.814 311.874 t 90 r /Helvetica findfont 23.9903 sf 0 0 m (MUON_EFF_TTVA_SYS) show NC gr 
 gsave  2268 975 0 0 C 357.329 231.065 t 90 r /Helvetica findfont 23.9903 sf 0 0 m (MUON_EFF_TrigStatUncertainty) show NC gr 
 gsave  2268 975 0 0 C 383.845 227.277 t 90 r /Helvetica findfont 23.9903 sf 0 0 m (MUON_EFF_TrigSystUncertainty) show NC gr 
 gsave  2268 975 0 0 C 410.361 469.705 t 90 r /Helvetica findfont 23.9903 sf 0 0 m (MUON_ID) show NC gr 
 gsave  2268 975 0 0 C 436.876 457.079 t 90 r /Helvetica findfont 23.9903 sf 0 0 m (MUON_MS) show NC gr 
 gsave  2268 975 0 0 C 463.392 273.995 t 90 r /Helvetica findfont 23.9903 sf 0 0 m (MUON_SAGITTA_RESBIAS) show NC gr 
 gsave  2268 975 0 0 C 489.908 414.149 t 90 r /Helvetica findfont 23.9903 sf 0 0 m (MUON_SCALE) show NC gr 
 gsave  2268 975 0 0 C 516.423 416.674 t 90 r /Helvetica findfont 23.9903 sf 0 0 m (PRW_DATASF) show NC gr 
 gsave  2268 975 0 0 C 541.676 406.573 t 90 r /Helvetica findfont 23.9903 sf 0 0 m (theo_vbf_alphas) show NC gr 
 gsave  2268 975 0 0 C 568.192 375.007 t 90 r /Helvetica findfont 23.9903 sf 0 0 m (theo_vbf_generator) show NC gr 
 gsave  2268 975 0 0 C 594.707 398.997 t 90 r /Helvetica findfont 23.9903 sf 0 0 m (theo_vbf_pdf4lhc) show NC gr 
 gsave  2268 975 0 0 C 622.486 420.462 t 90 r /Helvetica findfont 23.9903 sf 0 0 m (theo_vbf_scale) show NC gr 
 gsave  2268 975 0 0 C 650.264 400.26 t 90 r /Helvetica findfont 23.9903 sf 0 0 m (theo_vbf_shower) show NC gr 
 gsave  2268 975 0 0 C 676.78 474.756 t 90 r /Helvetica findfont 23.9903 sf 0 0 m (atlas_lumi) show NC gr 
 gsave  2268 975 0 0 C 703.295 398.997 t 90 r /Helvetica findfont 23.9903 sf 0 0 m (EG_SCALE_AF2) show NC gr 
 gsave  2268 975 0 0 C 729.811 232.327 t 90 r /Helvetica findfont 23.9903 sf 0 0 m (EL_EFF_ID_CorrUncertaintyNP0) show NC gr 
 gsave  2268 975 0 0 C 756.326 236.115 t 90 r /Helvetica findfont 23.9903 sf 0 0 m (EL_EFF_ID_CorrUncertaintyNP1) show NC gr 
 gsave  2268 975 0 0 C 782.842 232.327 t 90 r /Helvetica findfont 23.9903 sf 0 0 m (EL_EFF_ID_CorrUncertaintyNP2) show NC gr 
 gsave  2268 975 0 0 C 809.358 61.8698 t 90 r /Helvetica findfont 23.9903 sf 0 0 m (EL_EFF_ID_SIMPLIFIED_UncorrUncertaintyNP0) show NC gr 
 gsave  2268 975 0 0 C 835.873 65.6577 t 90 r /Helvetica findfont 23.9903 sf 0 0 m (EL_EFF_ID_SIMPLIFIED_UncorrUncertaintyNP1) show NC gr 
 gsave  2268 975 0 0 C 862.389 49.2433 t 90 r /Helvetica findfont 23.9903 sf 0 0 m (EL_EFF_ID_SIMPLIFIED_UncorrUncertaintyNP10) show NC gr 
 gsave  2268 975 0 0 C 888.904 53.0312 t 90 r /Helvetica findfont 23.9903 sf 0 0 m (EL_EFF_ID_SIMPLIFIED_UncorrUncertaintyNP11) show NC gr 
 gsave  2268 975 0 0 C 915.42 61.8698 t 90 r /Helvetica findfont 23.9903 sf 0 0 m (EL_EFF_ID_SIMPLIFIED_UncorrUncertaintyNP2) show NC gr 
 gsave  2268 975 0 0 C 941.936 23.9903 t 90 r /Helvetica findfont 23.9903 sf 0 0 m (EL_EFF_Trigger_TOTAL_1NPCOR_PLUS_UNCOR) show NC gr 
 gsave  2268 975 0 0 C 968.451 294.197 t 90 r /Helvetica findfont 23.9903 sf 0 0 m (JET_SingleParticle_HighPt) show NC gr 
 gsave  2268 975 0 0 C 994.967 191.923 t 90 r /Helvetica findfont 23.9903 sf 0 0 m (MUON_EFF_RECO_STAT_LOWPT) show NC gr 
 gsave  2268 975 0 0 C 1021.48 207.074 t 90 r /Helvetica findfont 23.9903 sf 0 0 m (MUON_EFF_RECO_SYS_LOWPT) show NC gr 
 gsave  2268 975 0 0 C 1048 323.238 t 90 r /Helvetica findfont 23.9903 sf 0 0 m (MUON_SAGITTA_RHO) show NC gr 
 gsave  2268 975 0 0 C 1073.25 397.734 t 90 r /Helvetica findfont 23.9903 sf 0 0 m (theo_ggF_alphas) show NC gr 
 gsave  2268 975 0 0 C 1099.77 390.158 t 90 r /Helvetica findfont 23.9903 sf 0 0 m (theo_ggF_pdf4lhc) show NC gr 
 gsave  2268 975 0 0 C 1126.28 296.722 t 90 r /Helvetica findfont 23.9903 sf 0 0 m (theo_ggF_qcd_wg1_mig01) show NC gr 
 gsave  2268 975 0 0 C 1152.8 292.934 t 90 r /Helvetica findfont 23.9903 sf 0 0 m (theo_ggF_qcd_wg1_mig12) show NC gr 
 gsave  2268 975 0 0 C 1179.31 325.763 t 90 r /Helvetica findfont 23.9903 sf 0 0 m (theo_ggF_qcd_wg1_mu) show NC gr 
 gsave  2268 975 0 0 C 1205.83 313.137 t 90 r /Helvetica findfont 23.9903 sf 0 0 m (theo_ggF_qcd_wg1_pTH) show NC gr 
 gsave  2268 975 0 0 C 1232.34 304.298 t 90 r /Helvetica findfont 23.9903 sf 0 0 m (theo_ggF_qcd_wg1_qm_t) show NC gr 
 gsave  2268 975 0 0 C 1258.86 324.501 t 90 r /Helvetica findfont 23.9903 sf 0 0 m (theo_ggF_qcd_wg1_res) show NC gr 
 gsave  2268 975 0 0 C 1285.38 306.824 t 90 r /Helvetica findfont 23.9903 sf 0 0 m (theo_ggF_qcd_wg1_vbf2j) show NC gr 
 gsave  2268 975 0 0 C 1311.89 306.824 t 90 r /Helvetica findfont 23.9903 sf 0 0 m (theo_ggF_qcd_wg1_vbf3j) show NC gr 
 gsave  2268 975 0 0 C 1338.41 391.421 t 90 r /Helvetica findfont 23.9903 sf 0 0 m (theo_ggF_shower) show NC gr 
 gsave  2268 975 0 0 C 1364.92 362.38 t 90 r /Helvetica findfont 23.9903 sf 0 0 m (theo_ztautau_alphas) show NC gr 
 gsave  2268 975 0 0 C 1391.44 247.479 t 90 r /Helvetica findfont 23.9903 sf 0 0 m (theo_ztautau_generatortotNorm) show NC gr 
 gsave  2268 975 0 0 C 1417.95 397.734 t 90 r /Helvetica findfont 23.9903 sf 0 0 m (theo_ztautau_pdf) show NC gr 
 gsave  2268 975 0 0 C 1445.73 376.269 t 90 r /Helvetica findfont 23.9903 sf 0 0 m (theo_ztautau_scale) show NC gr 
 gsave  2268 975 0 0 C 1470.99 198.236 t 90 r /Helvetica findfont 23.9903 sf 0 0 m (theo_ztautau_generatorRegNonVBF) show NC gr 
 gsave  2268 975 0 0 C 1498.76 401.522 t 90 r /Helvetica findfont 23.9903 sf 0 0 m (theo_ww_CKKW) show NC gr 
 gsave  2268 975 0 0 C 1525.28 385.108 t 90 r /Helvetica findfont 23.9903 sf 0 0 m (theo_ww_CSSKIN) show NC gr 
 gsave  2268 975 0 0 C 1551.79 424.25 t 90 r /Helvetica findfont 23.9903 sf 0 0 m (theo_ww_QSF) show NC gr 
 gsave  2268 975 0 0 C 1577.05 404.047 t 90 r /Helvetica findfont 23.9903 sf 0 0 m (theo_ww_alphas) show NC gr 
 gsave  2268 975 0 0 C 1603.56 439.402 t 90 r /Helvetica findfont 23.9903 sf 0 0 m (theo_ww_pdf) show NC gr 
 gsave  2268 975 0 0 C 1631.34 417.937 t 90 r /Helvetica findfont 23.9903 sf 0 0 m (theo_ww_scale) show NC gr 
 gsave  2268 975 0 0 C 1659.12 397.734 t 90 r /Helvetica findfont 23.9903 sf 0 0 m (theo_ww_shower) show NC gr 
 gsave  2268 975 0 0 C 1685.64 433.088 t 90 r /Helvetica findfont 23.9903 sf 0 0 m (theo_ttbar_fsr) show NC gr 
 gsave  2268 975 0 0 C 1712.15 434.351 t 90 r /Helvetica findfont 23.9903 sf 0 0 m (theo_ttbar_isr) show NC gr 
 gsave  2268 975 0 0 C 1737.4 364.905 t 90 r /Helvetica findfont 23.9903 sf 0 0 m (theo_ttbar_matching) show NC gr 
 gsave  2268 975 0 0 C 1763.92 426.775 t 90 r /Helvetica findfont 23.9903 sf 0 0 m (theo_ttbar_pdf) show NC gr 
 gsave  2268 975 0 0 C 1791.7 405.31 t 90 r /Helvetica findfont 23.9903 sf 0 0 m (theo_ttbar_scale) show NC gr 
 gsave  2268 975 0 0 C 1818.21 383.845 t 90 r /Helvetica findfont 23.9903 sf 0 0 m (theo_ttbar_shower) show NC gr 
 gsave  2268 975 0 0 C 1844.73 351.016 t 90 r /Helvetica findfont 23.9903 sf 0 0 m (theo_ewww_EWscale) show NC gr 
 gsave  2268 975 0 0 C 1869.98 373.744 t 90 r /Helvetica findfont 23.9903 sf 0 0 m (theo_ewww_alphas) show NC gr 
 gsave  2268 975 0 0 C 1896.5 409.098 t 90 r /Helvetica findfont 23.9903 sf 0 0 m (theo_ewww_pdf) show NC gr 
 gsave  2268 975 0 0 C 1924.28 387.633 t 90 r /Helvetica findfont 23.9903 sf 0 0 m (theo_ewww_scale) show NC gr 
 gsave  2268 975 0 0 C 1950.79 367.431 t 90 r /Helvetica findfont 23.9903 sf 0 0 m (theo_ewww_shower) show NC gr 
 gsave  2268 975 0 0 C 1976.04 223.489 t 90 r /Helvetica findfont 23.9903 sf 0 0 m (theo_ztautau_generatorRegTop_1) show NC gr 
 gsave  2268 975 0 0 C 2002.56 219.701 t 90 r /Helvetica findfont 23.9903 sf 0 0 m (theo_ztautau_generatorRegTop_2) show NC gr 
 gsave  2268 975 0 0 C 2029.08 219.701 t 90 r /Helvetica findfont 23.9903 sf 0 0 m (theo_ztautau_generatorRegTop_3) show NC gr 
 gsave  2268 975 0 0 C 2055.59 219.701 t 90 r /Helvetica findfont 23.9903 sf 0 0 m (theo_ztautau_generatorRegTop_4) show NC gr 
 gsave  2268 975 0 0 C 2082.11 219.701 t 90 r /Helvetica findfont 23.9903 sf 0 0 m (theo_ztautau_generatorRegTop_5) show NC gr 
 gsave  2268 975 0 0 C 2108.62 219.701 t 90 r /Helvetica findfont 23.9903 sf 0 0 m (theo_ztautau_generatorRegVBF_1) show NC gr 
 gsave  2268 975 0 0 C 2135.14 215.913 t 90 r /Helvetica findfont 23.9903 sf 0 0 m (theo_ztautau_generatorRegVBF_2) show NC gr 
 gsave  2268 975 0 0 C 2161.65 215.913 t 90 r /Helvetica findfont 23.9903 sf 0 0 m (theo_ztautau_generatorRegVBF_3) show NC gr 
 gsave  2268 975 0 0 C 2188.17 215.913 t 90 r /Helvetica findfont 23.9903 sf 0 0 m (theo_ztautau_generatorRegVBF_4) show NC gr 
 gsave  2268 975 0 0 C 2214.69 215.913 t 90 r /Helvetica findfont 23.9903 sf 0 0 m (theo_ztautau_generatorRegVBF_5) show NC gr  45 613 m -28 Y s 72 613 m -28 Y s 98 613 m -28 Y s 125 613 m -28 Y s 152 613 m -28 Y s 178 613 m -28 Y s 205 613 m -28 Y s
 231 613 m -28 Y s 258 613 m -28 Y s 284 613 m -28 Y s 311 613 m -28 Y s 337 613 m -28 Y s 364 613 m -28 Y s 390 613 m -28 Y s 417 613 m -28 Y s 444 613 m -28 Y s 470 613 m -28 Y s 497 613 m -28 Y s 523 613 m -28 Y s 550 613 m -28 Y s 576 613 m -28 Y
 s 603 613 m -28 Y s 629 613 m -28 Y s 656 613 m -28 Y s 683 613 m -28 Y s 709 613 m -28 Y s 736 613 m -28 Y s 762 613 m -28 Y s 789 613 m -28 Y s 815 613 m -28 Y s 842 613 m -28 Y s 868 613 m -28 Y s 895 613 m -28 Y s 921 613 m -28 Y s 948 613 m -28
 Y s 975 613 m -28 Y s 1001 613 m -28 Y s 1028 613 m -28 Y s 1054 613 m -28 Y s 1081 613 m -28 Y s 1107 613 m -28 Y s 1134 613 m -28 Y s 1160 613 m -28 Y s 1187 613 m -28 Y s 1214 613 m -28 Y s 1240 613 m -28 Y s 1267 613 m -28 Y s 1293 613 m -28 Y s
 1320 613 m -28 Y s 1346 613 m -28 Y s 1373 613 m -28 Y s 1399 613 m -28 Y s 1426 613 m -28 Y s 1452 613 m -28 Y s 1479 613 m -28 Y s 1506 613 m -28 Y s 1532 613 m -28 Y s 1559 613 m -28 Y s 1585 613 m -28 Y s 1612 613 m -28 Y s 1638 613 m -28 Y s
 1665 613 m -28 Y s 1691 613 m -28 Y s 1718 613 m -28 Y s 1744 613 m -28 Y s 1771 613 m -28 Y s 1798 613 m -28 Y s 1824 613 m -28 Y s 1851 613 m -28 Y s 1877 613 m -28 Y s 1904 613 m -28 Y s 1930 613 m -28 Y s 1957 613 m -28 Y s 1983 613 m -28 Y s
 2010 613 m -28 Y s 2037 613 m -28 Y s 2063 613 m -28 Y s 2090 613 m -28 Y s 2116 613 m -28 Y s 2143 613 m -28 Y s 2169 613 m -28 Y s 2196 613 m -28 Y s 2222 613 m -28 Y s 45 960 m 2177 X s 45 932 m 28 Y s 72 932 m 28 Y s 98 932 m 28 Y s 125 932 m 28
 Y s 152 932 m 28 Y s 178 932 m 28 Y s 205 932 m 28 Y s 231 932 m 28 Y s 258 932 m 28 Y s 284 932 m 28 Y s 311 932 m 28 Y s 337 932 m 28 Y s 364 932 m 28 Y s 390 932 m 28 Y s 417 932 m 28 Y s 444 932 m 28 Y s 470 932 m 28 Y s 497 932 m 28 Y s 523 932
 m 28 Y s 550 932 m 28 Y s 576 932 m 28 Y s 603 932 m 28 Y s 629 932 m 28 Y s 656 932 m 28 Y s 683 932 m 28 Y s 709 932 m 28 Y s 736 932 m 28 Y s 762 932 m 28 Y s 789 932 m 28 Y s 815 932 m 28 Y s 842 932 m 28 Y s 868 932 m 28 Y s 895 932 m 28 Y s
 921 932 m 28 Y s 948 932 m 28 Y s 975 932 m 28 Y s 1001 932 m 28 Y s 1028 932 m 28 Y s 1054 932 m 28 Y s 1081 932 m 28 Y s 1107 932 m 28 Y s 1134 932 m 28 Y s 1160 932 m 28 Y s 1187 932 m 28 Y s 1214 932 m 28 Y s 1240 932 m 28 Y s 1267 932 m 28 Y s
 1293 932 m 28 Y s 1320 932 m 28 Y s 1346 932 m 28 Y s 1373 932 m 28 Y s 1399 932 m 28 Y s 1426 932 m 28 Y s 1452 932 m 28 Y s 1479 932 m 28 Y s 1506 932 m 28 Y s 1532 932 m 28 Y s 1559 932 m 28 Y s 1585 932 m 28 Y s 1612 932 m 28 Y s 1638 932 m 28 Y
 s 1665 932 m 28 Y s 1691 932 m 28 Y s 1718 932 m 28 Y s 1744 932 m 28 Y s 1771 932 m 28 Y s 1798 932 m 28 Y s 1824 932 m 28 Y s 1851 932 m 28 Y s 1877 932 m 28 Y s 1904 932 m 28 Y s 1930 932 m 28 Y s 1957 932 m 28 Y s 1983 932 m 28 Y s 2010 932 m 28
 Y s 2037 932 m 28 Y s 2063 932 m 28 Y s 2090 932 m 28 Y s 2116 932 m 28 Y s 2143 932 m 28 Y s 2169 932 m 28 Y s 2196 932 m 28 Y s 2222 932 m 28 Y s 45 585 m 375 Y s 72 585 m -27 X s 58 594 m -13 X s 58 604 m -13 X s 58 613 m -13 X s 58 622 m -13 X s
 72 632 m -27 X s 58 641 m -13 X s 58 651 m -13 X s 58 660 m -13 X s 58 669 m -13 X s 72 679 m -27 X s 58 688 m -13 X s 58 697 m -13 X s 58 707 m -13 X s 58 716 m -13 X s 72 726 m -27 X s 58 735 m -13 X s 58 744 m -13 X s 58 754 m -13 X s 58 763 m
 -13 X s 72 773 m -27 X s 58 782 m -13 X s 58 791 m -13 X s 58 801 m -13 X s 58 810 m -13 X s 72 819 m -27 X s 58 829 m -13 X s 58 838 m -13 X s 58 848 m -13 X s 58 857 m -13 X s 72 866 m -27 X s 58 876 m -13 X s 58 885 m -13 X s 58 894 m -13 X s 58
 904 m -13 X s 72 913 m -27 X s 58 923 m -13 X s 58 932 m -13 X s 58 941 m -13 X s 58 951 m -13 X s 72 960 m -27 X s
 gsave  2268 975 0 0 C 20.2024 575.768 t 0 r /Helvetica findfont 23.9903 sf 0 0 m (2) show NC gr 
 gsave  2268 975 0 0 C 7.57589 575.768 t 0 r /Symbol findfont 23.9903 sf 0 0 m (-) show NC gr 
 gsave  2268 975 0 0 C 0 623.748 t 0 r /Helvetica findfont 23.9903 sf 0 0 m (1.5) show NC gr 
 gsave  2268 975 0 0 C -12.6265 623.748 t 0 r /Symbol findfont 23.9903 sf 0 0 m (-) show NC gr 
 gsave  2268 975 0 0 C 23.9903 669.204 t 0 r /Helvetica findfont 23.9903 sf 0 0 m (1) show NC gr 
 gsave  2268 975 0 0 C 11.3638 669.204 t 0 r /Symbol findfont 23.9903 sf 0 0 m (-) show NC gr 
 gsave  2268 975 0 0 C 0 717.184 t 0 r /Helvetica findfont 23.9903 sf 0 0 m (0.5) show NC gr 
 gsave  2268 975 0 0 C -12.6265 717.184 t 0 r /Symbol findfont 23.9903 sf 0 0 m (-) show NC gr 
 gsave  2268 975 0 0 C 20.2024 763.902 t 0 r /Helvetica findfont 23.9903 sf 0 0 m (0) show NC gr 
 gsave  2268 975 0 0 C 0 810.62 t 0 r /Helvetica findfont 23.9903 sf 0 0 m (0.5) show NC gr 
 gsave  2268 975 0 0 C 23.9903 857.338 t 0 r /Helvetica findfont 23.9903 sf 0 0 m (1) show NC gr 
 gsave  2268 975 0 0 C 0 905.319 t 0 r /Helvetica findfont 23.9903 sf 0 0 m (1.5) show NC gr 
 gsave  2268 975 0 0 C 20.2024 950.774 t 0 r /Helvetica findfont 23.9903 sf 0 0 m (2) show NC gr 
 gsave  2268 975 0 0 C -45.4553 945.724 t 90 r /Symbol findfont 29.0409 sf 0 0 m (q) show NC gr  6 lw
 gsave  2268 975 0 0 C -45.4553 930.572 t 90 r /Symbol findfont 29.0409 sf 0 0 m (d) show NC gr 
 gsave  2268 975 0 0 C -45.4553 920.471 t 90 r /Helvetica findfont 29.0409 sf 0 0 m (/) show NC gr 
 gsave  2268 975 0 0 C -45.4553 905.319 t 90 r /Symbol findfont 29.0409 sf 0 0 m (q) show NC gr 
 gsave  2268 975 0 0 C -45.4553 896.48 t 90 r /Helvetica findfont 29.0409 sf 0 0 m (\255) show NC gr 
 gsave  2268 975 0 0 C -45.4553 881.329 t 90 r /Symbol findfont 29.0409 sf 0 0 m (q) show NC gr  3 lw 2222 585 m 375 Y s 2196 585 m 26 X s 2209 594 m 13 X s 2209 604 m 13 X s 2209 613 m 13 X s 2209 622 m 13 X s 2196 632 m 26 X s 2209 641 m 13 X s
 2209 651 m 13 X s 2209 660 m 13 X s 2209 669 m 13 X s 2196 679 m 26 X s 2209 688 m 13 X s 2209 697 m 13 X s 2209 707 m 13 X s 2209 716 m 13 X s 2196 726 m 26 X s 2209 735 m 13 X s 2209 744 m 13 X s 2209 754 m 13 X s 2209 763 m 13 X s 2196 773 m 26 X
 s 2209 782 m 13 X s 2209 791 m 13 X s 2209 801 m 13 X s 2209 810 m 13 X s 2196 819 m 26 X s 2209 829 m 13 X s 2209 838 m 13 X s 2209 848 m 13 X s 2209 857 m 13 X s 2196 866 m 26 X s 2209 876 m 13 X s 2209 885 m 13 X s 2209 894 m 13 X s 2209 904 m 13
 X s 2196 913 m 26 X s 2209 923 m 13 X s 2209 932 m 13 X s 2209 941 m 13 X s 2209 951 m 13 X s 2196 960 m 26 X s 59 739 m 90 Y s 56 829 m 5 X s 59 739 m -91 Y s 56 648 m 5 X s 85 772 m 93 Y s 83 865 m 5 X s 85 772 m -93 Y s 83 679 m 5 X s 112 804 m
 88 Y s 109 892 m 5 X s 112 804 m -88 Y s 109 716 m 5 X s 138 744 m 85 Y s 136 829 m 5 X s 138 744 m -86 Y s 136 658 m 5 X s 165 766 m 91 Y s 162 857 m 5 X s 165 766 m -92 Y s 162 674 m 5 X s 191 773 m 93 Y s 189 866 m 5 X s 191 773 m -93 Y s 189 680
 m 5 X s 218 774 m 94 Y s 215 868 m 5 X s 218 774 m -93 Y s 215 681 m 5 X s 244 773 m 93 Y s 242 866 m 5 X s 244 773 m -94 Y s 242 679 m 5 X s 271 774 m 93 Y s 268 867 m 6 X s 271 774 m -94 Y s 268 680 m 6 X s 298 773 m 93 Y s 295 866 m 5 X s 298 773
 m -94 Y s 295 679 m 5 X s 324 773 m 93 Y s 322 866 m 5 X s 324 773 m -94 Y s 322 679 m 5 X s 351 773 m 93 Y s 348 866 m 5 X s 351 773 m -93 Y s 348 680 m 5 X s 377 764 m 93 Y s 375 857 m 5 X s 377 764 m -93 Y s 375 671 m 5 X s 404 765 m 93 Y s 401
 858 m 5 X s 404 765 m -92 Y s 401 673 m 5 X s 430 773 m 93 Y s 428 866 m 5 X s 430 773 m -93 Y s 428 680 m 5 X s 457 772 m 93 Y s 454 865 m 5 X s 457 772 m -93 Y s 454 679 m 5 X s 483 780 m 91 Y s 481 871 m 5 X s 483 780 m -92 Y s 481 688 m 5 X s
 510 782 m 92 Y s 507 874 m 5 X s 510 782 m -93 Y s 507 689 m 5 X s 537 773 m 93 Y s 534 866 m 5 X s 537 773 m -93 Y s 534 680 m 5 X s 563 766 m 92 Y s 561 858 m 5 X s 563 766 m -93 Y s 561 673 m 5 X s 590 771 m 93 Y s 587 864 m 5 X s 590 771 m -93 Y
 s 587 678 m 5 X s 616 771 m 93 Y s 614 864 m 5 X s 616 771 m -93 Y s 614 678 m 5 X s 643 771 m 93 Y s 640 864 m 5 X s 643 771 m -93 Y s 640 678 m 5 X s 669 775 m 93 Y s 667 868 m 5 X s 669 775 m -93 Y s 667 682 m 5 X s 696 773 m 93 Y s 693 866 m 5 X
 s 696 773 m -94 Y s 693 679 m 5 X s 722 773 m 93 Y s 720 866 m 5 X s 722 773 m -94 Y s 720 679 m 5 X s 749 773 m 93 Y s 746 866 m 5 X s 749 773 m -94 Y s 746 679 m 5 X s 775 773 m 93 Y s 773 866 m 5 X s 775 773 m -94 Y s 773 679 m 5 X s 802 773 m 93
 Y s 799 866 m 6 X s 802 773 m -94 Y s 799 679 m 6 X s 829 773 m 93 Y s 826 866 m 5 X s 829 773 m -94 Y s 826 679 m 5 X s 855 773 m 93 Y s 853 866 m 5 X s 855 773 m -94 Y s 853 679 m 5 X s 882 773 m 93 Y s 879 866 m 5 X s 882 773 m -94 Y s 879 679 m
 5 X s 908 773 m 93 Y s 906 866 m 5 X s 908 773 m -94 Y s 906 679 m 5 X s 935 773 m 93 Y s 932 866 m 5 X s 935 773 m -94 Y s 932 679 m 5 X s 961 772 m 94 Y s 959 866 m 5 X s 961 772 m -93 Y s 959 679 m 5 X s 988 773 m 93 Y s 985 866 m 5 X s 988 773 m
 -94 Y s 985 679 m 5 X s 1014 773 m 93 Y s 1012 866 m 5 X s 1014 773 m -94 Y s 1012 679 m 5 X s 1041 773 m 93 Y s 1038 866 m 5 X s 1041 773 m -94 Y s 1038 679 m 5 X s 1067 772 m 93 Y s 1065 865 m 5 X s 1067 772 m -94 Y s 1065 678 m 5 X s 1094 772 m
 93 Y s 1092 865 m 5 X s 1094 772 m -94 Y s 1092 678 m 5 X s 1121 767 m 94 Y s 1118 861 m 5 X s 1121 767 m -93 Y s 1118 674 m 5 X s 1147 753 m 93 Y s 1145 846 m 5 X s 1147 753 m -92 Y s 1145 661 m 5 X s 1174 762 m 93 Y s 1171 855 m 5 X s 1174 762 m
 -93 Y s 1171 669 m 5 X s 1200 775 m 93 Y s 1198 868 m 5 X s 1200 775 m -94 Y s 1198 681 m 5 X s 1227 774 m 93 Y s 1224 867 m 5 X s 1227 774 m -93 Y s 1224 681 m 5 X s 1253 763 m 93 Y s 1251 856 m 5 X s 1253 763 m -93 Y s 1251 670 m 5 X s 1280 797 m
 93 Y s 1277 890 m 5 X s 1280 797 m -92 Y s 1277 705 m 5 X s 1306 754 m 92 Y s 1304 846 m 5 X s 1306 754 m -93 Y s 1304 661 m 5 X s 1333 725 m 92 Y s 1330 817 m 6 X s 1333 725 m -92 Y s 1330 633 m 6 X s 1360 772 m 93 Y s 1357 865 m 5 X s 1360 772 m
 -93 Y s 1357 679 m 5 X s 1386 742 m 93 Y s 1384 835 m 5 X s 1386 742 m -93 Y s 1384 649 m 5 X s 1413 772 m 93 Y s 1410 865 m 5 X s 1413 772 m -93 Y s 1410 679 m 5 X s 1439 842 m 88 Y s 1437 930 m 5 X s 1439 842 m -87 Y s 1437 755 m 5 X s 1466 828 m
 86 Y s 1463 914 m 5 X s 1466 828 m -86 Y s 1463 742 m 5 X s 1492 775 m 93 Y s 1490 868 m 5 X s 1492 775 m -93 Y s 1490 682 m 5 X s 1519 787 m 92 Y s 1516 879 m 5 X s 1519 787 m -92 Y s 1516 695 m 5 X s 1545 790 m 89 Y s 1543 879 m 5 X s 1545 790 m
 -89 Y s 1543 701 m 5 X s 1572 774 m 93 Y s 1569 867 m 5 X s 1572 774 m -93 Y s 1569 681 m 5 X s 1598 773 m 94 Y s 1596 867 m 5 X s 1598 773 m -93 Y s 1596 680 m 5 X s 1625 773 m 91 Y s 1622 864 m 6 X s 1625 773 m -92 Y s 1622 681 m 6 X s 1652 741 m
 92 Y s 1649 833 m 5 X s 1652 741 m -92 Y s 1649 649 m 5 X s 1678 767 m 92 Y s 1676 859 m 5 X s 1678 767 m -93 Y s 1676 674 m 5 X s 1705 767 m 93 Y s 1702 860 m 5 X s 1705 767 m -93 Y s 1702 674 m 5 X s 1731 780 m 82 Y s 1729 862 m 5 X s 1731 780 m
 -83 Y s 1729 697 m 5 X s 1758 775 m 94 Y s 1755 869 m 5 X s 1758 775 m -93 Y s 1755 682 m 5 X s 1784 814 m 90 Y s 1782 904 m 5 X s 1784 814 m -90 Y s 1782 724 m 5 X s 1811 812 m 90 Y s 1808 902 m 5 X s 1811 812 m -89 Y s 1808 723 m 5 X s 1837 780 m
 93 Y s 1835 873 m 5 X s 1837 780 m -93 Y s 1835 687 m 5 X s 1864 773 m 93 Y s 1861 866 m 5 X s 1864 773 m -94 Y s 1861 679 m 5 X s 1891 773 m 94 Y s 1888 867 m 5 X s 1891 773 m -93 Y s 1888 680 m 5 X s 1917 776 m 94 Y s 1915 870 m 5 X s 1917 776 m
 -93 Y s 1915 683 m 5 X s 1944 773 m 94 Y s 1941 867 m 5 X s 1944 773 m -93 Y s 1941 680 m 5 X s 1970 787 m 93 Y s 1968 880 m 5 X s 1970 787 m -92 Y s 1968 695 m 5 X s 1997 774 m 92 Y s 1994 866 m 5 X s 1997 774 m -93 Y s 1994 681 m 5 X s 2023 778 m
 92 Y s 2021 870 m 5 X s 2023 778 m -92 Y s 2021 686 m 5 X s 2050 770 m 92 Y s 2047 862 m 5 X s 2050 770 m -92 Y s 2047 678 m 5 X s 2076 751 m 86 Y s 2074 837 m 5 X s 2076 751 m -85 Y s 2074 666 m 5 X s 2103 755 m 84 Y s 2100 839 m 5 X s 2103 755 m
 -84 Y s 2100 671 m 5 X s 2129 783 m 77 Y s 2127 860 m 5 X s 2129 783 m -77 Y s 2127 706 m 5 X s 2156 753 m 77 Y s 2153 830 m 6 X s 2156 753 m -76 Y s 2153 677 m 6 X s 2183 747 m 80 Y s 2180 827 m 5 X s 2183 747 m -81 Y s 2180 666 m 5 X s 2209 767 m
 85 Y s 2207 852 m 5 X s 2209 767 m -85 Y s 2207 682 m 5 X s 1 1 1 c black /w 10 def /w2 {w 2 div} def /w3 {w 3 div} def 59 739 85 772 112 804 138 744 165 766 191 773 218 774 244 773 271 774 298 773 324 773 351 773 377 764 404 765 430 773 457 772 483
 780 510 782 537 773 563 766 590 771 616 771 643 771 669 775 696 773 722 773 749 773 775 773 802 773 829 773 855 773 882 773 908 773 935 773 961 772 988 773 1014 773 1041 773 1067 772 1094 772 1121 767 1147 753 1174 762 1200 775 1227 774 1253 763
 1280 797 1306 754 1333 725 1360 772 1386 742 1413 772 1439 842 1466 828 1492 775 1519 787 1545 790 1572 774 1598 773 1625 773 1652 741 1678 767 1705 767 1731 780 1758 775 1784 814 1811 812 1837 780 1864 773 1891 773 1917 776 1944 773 1970 787 1997
 774 2023 778 2050 770 2076 751 2103 755 2129 783 2156 753 2183 747 2209 767 82 { m20} R
 gr  gr showpage
end
%%EOF
