%!PS-Adobe-2.0 EPSF-2.0
%%BoundingBox:  0 0 567 244
%%Title: cCNp2_matrix_lep1_pt.eps: 
%%Creator: ROOT Version 6.24/06
%%CreationDate: Tue Jan  4 10:19:08 2022
%%DocumentNeededResources: ProcSet (FontSetInit)
%%EndComments
%%BeginProlog
80 dict begin
/s {stroke} def /l {lineto} def /m {moveto} def /t {translate} def
/r {rotate} def /rl {roll}  def /R {repeat} def
/d {rlineto} def /rm {rmoveto} def /gr {grestore} def /f {eofill} def
/c {setrgbcolor} def /black {0 setgray} def /sd {setdash} def
/cl {closepath} def /sf {scalefont setfont} def /lw {setlinewidth} def
/box {m dup 0 exch d exch 0 d 0 exch neg d cl} def
/NC{systemdict begin initclip end}def/C{NC box clip newpath}def
/bl {box s} def /bf {gsave box gsave f grestore 1 lw [] 0 sd s grestore} def /Y { 0 exch d} def /X { 0 d} def 
/K {{pop pop 0 moveto} exch kshow} bind def
/ita {/ang 15 def gsave [1 0 ang dup sin exch cos div 1 0 0] concat} def 
/mp {newpath /y exch def /x exch def} def
/side {[w .77 mul w .23 mul] .385 w mul sd w 0 l currentpoint t -144 r} def
/mr {mp x y w2 0 360 arc} def /m24 {mr s} def /m20 {mr f} def
/mb {mp x y w2 add m w2 neg 0 d 0 w neg d w 0 d 0 w d cl} def
/mt {mp x y w2 add m w2 neg w neg d w 0 d cl} def
/w4 {w 4 div} def
/w6 {w 6 div} def
/w8 {w 8 div} def
/m21 {mb f} def /m25 {mb s} def /m22 {mt f} def /m26{mt s} def
/m23 {mp x y w2 sub m w2 w d w neg 0 d cl f} def
/m27 {mp x y w2 add m w3 neg w2 neg d w3 w2 neg d w3 w2 d cl s} def
/m28 {mp x w2 sub y w2 sub w3 add m w3 0 d  0 w3 neg d w3 0 d 0 w3 d w3 0 d  0 w3 d w3 neg 0 d 0 w3 d w3 neg 0 d 0 w3 neg d w3 neg 0 d cl s } def
/m29 {mp gsave x w2 sub y w2 add w3 sub m currentpoint t 4 {side} repeat cl fill gr} def
/m30 {mp gsave x w2 sub y w2 add w3 sub m currentpoint t 4 {side} repeat cl s gr} def
/m31 {mp x y w2 sub m 0 w d x w2 sub y m w 0 d x w2 .707 mul sub y w2 .707 mul add m w 1.44 div w 1.44 div neg d x w2 .707 mul sub y w2 .707 mul sub m w 1.44 div w 1.44 div d s} def
/m32 {mp x y w2 sub m w2 w d w neg 0 d cl s} def
/m33 {mp x y w2 add m w3 neg w2 neg d w3 w2 neg d w3 w2 d cl f} def
/m34 {mp x w2 sub y w2 sub w3 add m w3 0 d  0 w3 neg d w3 0 d 0 w3 d w3 0 d  0 w3 d w3 neg 0 d 0 w3 d w3 neg 0 d 0 w3 neg d w3 neg 0 d cl f } def
/m35 {mp x y w2 add m w2 neg w2 neg d w2 w2 neg d w2 w2 d w2 neg w2 d x y w2 sub m 0 w d x w2 sub y m w 0 d s} def
/m36 {mb x w2 sub y w2 add m w w neg d x w2 sub y w2 sub m w w d s} def
/m37 {mp x y m w4 neg w2 d w4 neg w2 neg d w2 0 d  w4 neg w2 neg d w2 0 d w4 neg w2 d w2 0 d w4 neg w2 d w4 neg w2 neg d cl s} def
/m38 {mp x w4 sub y w2 add m w4 neg w4 neg d 0 w2 neg d w4 w4 neg d w2 0 d w4 w4 d 0 w2 d w4 neg w4 d w2 neg 0 d x y w2 sub m 0 w d x w2 sub y m w 0 d cl s} def
/m39 {mp x y m w4 neg w2 d w4 neg w2 neg d w2 0 d  w4 neg w2 neg d w2 0 d w4 neg w2 d w2 0 d w4 neg w2 d w4 neg w2 neg d cl f} def
/m40 {mp x y m w4 w2 d w4 w4 neg d w2 neg w4 neg d w2 w4 neg d w4 neg w4 neg d w4 neg w2 d w4 neg w2 neg d w4 neg w4 d w2 w4 d w2 neg w4 d w4 w4 d w4 w2 neg d cl s} def
/m41 {mp x y m w4 w2 d w4 w4 neg d w2 neg w4 neg d w2 w4 neg d w4 neg w4 neg d w4 neg w2 d w4 neg w2 neg d w4 neg w4 d w2 w4 d w2 neg w4 d w4 w4 d w4 w2 neg d cl f} def
/m42 {mp x y w2 add m w8 neg w2 -3 4 div mul d w2 -3 4 div mul w8 neg d w2 3 4 div mul w8 neg d w8 w2 -3 4 div mul d w8 w2 3 4 div mul d w2 3 4 div mul w8 d w2 -3 4 div mul w8 d w8 neg w2 3 4 div mul d cl s} def
/m43 {mp x y w2 add m w8 neg w2 -3 4 div mul d w2 -3 4 div mul w8 neg d w2 3 4 div mul w8 neg d w8 w2 -3 4 div mul d w8 w2 3 4 div mul d w2 3 4 div mul w8 d w2 -3 4 div mul w8 d w8 neg w2 3 4 div mul d cl f} def
/m44 {mp x y m w6 neg w2 d w2 2 3 div mul 0 d w6 neg w2 neg d w2 w6 d 0 w2 -2 3 div mul d w2 neg w6 d w6 w2 neg d w2 -2 3 div mul 0 d w6 w2 d w2 neg w6 neg d 0 w2 2 3 div mul d w2 w6 neg d cl s} def
/m45 {mp x y m w6 neg w2 d w2 2 3 div mul 0 d w6 neg w2 neg d w2 w6 d 0 w2 -2 3 div mul d w2 neg w6 d w6 w2 neg d w2 -2 3 div mul 0 d w6 w2 d w2 neg w6 neg d 0 w2 2 3 div mul d w2 w6 neg d cl f} def
/m46 {mp x y w4 add m w4 neg w4 d w4 neg w4 neg d  w4 w4 neg d w4 neg w4 neg d w4 w4 neg d w4 w4 d w4 w4 neg d w4 w4 d w4 neg w4 d w4 w4 d w4 neg w4 d w4 neg w4 neg d cl s} def
/m47 {mp x y w4 add m w4 neg w4 d w4 neg w4 neg d w4 w4 neg d w4 neg w4 neg d  w4 w4 neg d w4 w4 d w4 w4 neg d w4 w4 d w4 neg w4 d w4 w4 d w4 neg w4 d w4 neg w4 neg d cl f} def
/m48 {mp x y w4 add m w4 neg w4 d w4 neg w4 neg d w4 w4 neg d  w4 neg w4 neg d w4 w4 neg d w4 w4 d w4 w4 neg d w4 w4 d w4 neg w4 d w4 w4 d w4 neg w4 d w4 neg w4 neg d  w4 w4 neg d w4 neg w4 neg d w4 neg w4 d w4 w4 d cl f} def
/m49 {mp x w2 sub w3 add y w2 sub w3 add m  0 w3 neg d w3 0 d 0 w3 d w3 0 d 0 w3 d w3 neg 0 d 0 w3 d w3 neg 0 d 0 w3 neg d w3 neg 0 d 0 w3 neg d w3 0 d 0 w3 d w3 0 d 0 w3 neg d w3 neg 0 d cl f } def
/m2 {mp x y w2 sub m 0 w d x w2 sub y m w 0 d s} def
/m5 {mp x w2 .707 mul sub y w2 .707 mul sub m w 1.44 div w 1.44 div d x w2 .707 mul sub y w2 .707 mul add m w 1.44 div w 1.44 div neg d s} def
%%IncludeResource: ProcSet (FontSetInit)
%%IncludeResource: font Times-Roman
%%IncludeResource: font Times-Italic
%%IncludeResource: font Times-Bold
%%IncludeResource: font Times-BoldItalic
%%IncludeResource: font Helvetica
%%IncludeResource: font Helvetica-Oblique
%%IncludeResource: font Helvetica-Bold
%%IncludeResource: font Helvetica-BoldOblique
%%IncludeResource: font Courier
%%IncludeResource: font Courier-Oblique
%%IncludeResource: font Courier-Bold
%%IncludeResource: font Courier-BoldOblique
%%IncludeResource: font Symbol
%%IncludeResource: font ZapfDingbats
/reEncode {exch findfont dup length dict begin {1 index /FID eq  {pop pop} {def} ifelse } forall /Encoding exch def currentdict end dup /FontName get exch definefont pop } def [/Times-Bold /Times-Italic /Times-BoldItalic /Helvetica /Helvetica-Oblique
 /Helvetica-Bold /Helvetica-BoldOblique /Courier /Courier-Oblique /Courier-Bold /Courier-BoldOblique /Times-Roman /AvantGarde-Book /AvantGarde-BookOblique /AvantGarde-Demi /AvantGarde-DemiOblique /Bookman-Demi /Bookman-DemiItalic /Bookman-Light
 /Bookman-LightItalic /Helvetica-Narrow /Helvetica-Narrow-Bold /Helvetica-Narrow-BoldOblique /Helvetica-Narrow-Oblique /NewCenturySchlbk-Roman /NewCenturySchlbk-Bold /NewCenturySchlbk-BoldItalic /NewCenturySchlbk-Italic /Palatino-Bold
 /Palatino-BoldItalic /Palatino-Italic /Palatino-Roman ] {ISOLatin1Encoding reEncode } forall
%%EndProlog
%%BeginSetup
%%EndSetup
newpath  gsave  .25 .25 scale  gsave  0 0 t black[  ] 0 sd 3 lw 1 1 1 c 2268 975 0 0 bf black 1 1 1 c 2177 375 45 585 bf black 2177 375 45 585 bl 6 lw 1 1 1 c black 45 773 m 2177 X s 3 lw 45 585 m 2177 X s
 gsave  2268 975 0 0 C 60.6071 474.756 t 90 r /Helvetica findfont 23.9903 sf 0 0 m (atlas_lumi) show NC gr 
 gsave  2268 975 0 0 C 80.8095 398.997 t 90 r /Helvetica findfont 23.9903 sf 0 0 m (EG_SCALE_AF2) show NC gr 
 gsave  2268 975 0 0 C 98.4866 232.327 t 90 r /Helvetica findfont 23.9903 sf 0 0 m (EL_EFF_ID_CorrUncertaintyNP0) show NC gr 
 gsave  2268 975 0 0 C 117.426 236.115 t 90 r /Helvetica findfont 23.9903 sf 0 0 m (EL_EFF_ID_CorrUncertaintyNP1) show NC gr 
 gsave  2268 975 0 0 C 136.366 232.327 t 90 r /Helvetica findfont 23.9903 sf 0 0 m (EL_EFF_ID_CorrUncertaintyNP2) show NC gr 
 gsave  2268 975 0 0 C 156.568 61.8698 t 90 r /Helvetica findfont 23.9903 sf 0 0 m (EL_EFF_ID_SIMPLIFIED_UncorrUncertaintyNP0) show NC gr 
 gsave  2268 975 0 0 C 175.508 65.6577 t 90 r /Helvetica findfont 23.9903 sf 0 0 m (EL_EFF_ID_SIMPLIFIED_UncorrUncertaintyNP1) show NC gr 
 gsave  2268 975 0 0 C 194.448 49.2433 t 90 r /Helvetica findfont 23.9903 sf 0 0 m (EL_EFF_ID_SIMPLIFIED_UncorrUncertaintyNP10) show NC gr 
 gsave  2268 975 0 0 C 213.388 53.0312 t 90 r /Helvetica findfont 23.9903 sf 0 0 m (EL_EFF_ID_SIMPLIFIED_UncorrUncertaintyNP11) show NC gr 
 gsave  2268 975 0 0 C 232.327 61.8698 t 90 r /Helvetica findfont 23.9903 sf 0 0 m (EL_EFF_ID_SIMPLIFIED_UncorrUncertaintyNP2) show NC gr 
 gsave  2268 975 0 0 C 251.267 23.9903 t 90 r /Helvetica findfont 23.9903 sf 0 0 m (EL_EFF_Trigger_TOTAL_1NPCOR_PLUS_UNCOR) show NC gr 
 gsave  2268 975 0 0 C 270.207 207.074 t 90 r /Helvetica findfont 23.9903 sf 0 0 m (FT_EFF_extrapolation_from_charm) show NC gr 
 gsave  2268 975 0 0 C 290.409 294.197 t 90 r /Helvetica findfont 23.9903 sf 0 0 m (JET_SingleParticle_HighPt) show NC gr 
 gsave  2268 975 0 0 C 310.612 191.923 t 90 r /Helvetica findfont 23.9903 sf 0 0 m (MUON_EFF_RECO_STAT_LOWPT) show NC gr 
 gsave  2268 975 0 0 C 329.551 207.074 t 90 r /Helvetica findfont 23.9903 sf 0 0 m (MUON_EFF_RECO_SYS_LOWPT) show NC gr 
 gsave  2268 975 0 0 C 348.491 323.238 t 90 r /Helvetica findfont 23.9903 sf 0 0 m (MUON_SAGITTA_RHO) show NC gr 
 gsave  2268 975 0 0 C 366.168 397.734 t 90 r /Helvetica findfont 23.9903 sf 0 0 m (theo_ggF_alphas) show NC gr 
 gsave  2268 975 0 0 C 385.108 390.158 t 90 r /Helvetica findfont 23.9903 sf 0 0 m (theo_ggF_pdf4lhc) show NC gr 
 gsave  2268 975 0 0 C 404.047 296.722 t 90 r /Helvetica findfont 23.9903 sf 0 0 m (theo_ggF_qcd_wg1_mig01) show NC gr 
 gsave  2268 975 0 0 C 422.987 292.934 t 90 r /Helvetica findfont 23.9903 sf 0 0 m (theo_ggF_qcd_wg1_mig12) show NC gr 
 gsave  2268 975 0 0 C 441.927 325.763 t 90 r /Helvetica findfont 23.9903 sf 0 0 m (theo_ggF_qcd_wg1_mu) show NC gr 
 gsave  2268 975 0 0 C 462.129 313.137 t 90 r /Helvetica findfont 23.9903 sf 0 0 m (theo_ggF_qcd_wg1_pTH) show NC gr 
 gsave  2268 975 0 0 C 481.069 304.298 t 90 r /Helvetica findfont 23.9903 sf 0 0 m (theo_ggF_qcd_wg1_qm_t) show NC gr 
 gsave  2268 975 0 0 C 500.009 324.501 t 90 r /Helvetica findfont 23.9903 sf 0 0 m (theo_ggF_qcd_wg1_res) show NC gr 
 gsave  2268 975 0 0 C 518.948 306.824 t 90 r /Helvetica findfont 23.9903 sf 0 0 m (theo_ggF_qcd_wg1_vbf2j) show NC gr 
 gsave  2268 975 0 0 C 537.888 306.824 t 90 r /Helvetica findfont 23.9903 sf 0 0 m (theo_ggF_qcd_wg1_vbf3j) show NC gr 
 gsave  2268 975 0 0 C 556.828 391.421 t 90 r /Helvetica findfont 23.9903 sf 0 0 m (theo_ggF_shower) show NC gr 
 gsave  2268 975 0 0 C 575.768 362.38 t 90 r /Helvetica findfont 23.9903 sf 0 0 m (theo_ztautau_alphas) show NC gr 
 gsave  2268 975 0 0 C 594.707 247.479 t 90 r /Helvetica findfont 23.9903 sf 0 0 m (theo_ztautau_generatortotNorm) show NC gr 
 gsave  2268 975 0 0 C 614.91 397.734 t 90 r /Helvetica findfont 23.9903 sf 0 0 m (theo_ztautau_pdf) show NC gr 
 gsave  2268 975 0 0 C 635.112 376.269 t 90 r /Helvetica findfont 23.9903 sf 0 0 m (theo_ztautau_scale) show NC gr 
 gsave  2268 975 0 0 C 652.789 198.236 t 90 r /Helvetica findfont 23.9903 sf 0 0 m (theo_ztautau_generatorRegNonVBF) show NC gr 
 gsave  2268 975 0 0 C 672.992 458.341 t 90 r /Helvetica findfont 23.9903 sf 0 0 m (el_FF_Com) show NC gr 
 gsave  2268 975 0 0 C 691.931 387.633 t 90 r /Helvetica findfont 23.9903 sf 0 0 m (el_FF_EWSUBTR) show NC gr 
 gsave  2268 975 0 0 C 710.871 328.289 t 90 r /Helvetica findfont 23.9903 sf 0 0 m (el_FF_STAT_2015_1_1) show NC gr 
 gsave  2268 975 0 0 C 729.811 261.368 t 90 r /Helvetica findfont 23.9903 sf 0 0 m (el_FF_STAT_2015_2018_1_1) show NC gr 
 gsave  2268 975 0 0 C 748.75 261.368 t 90 r /Helvetica findfont 23.9903 sf 0 0 m (el_FF_STAT_2015_2018_2_1) show NC gr 
 gsave  2268 975 0 0 C 768.953 261.368 t 90 r /Helvetica findfont 23.9903 sf 0 0 m (el_FF_STAT_2015_2018_3_1) show NC gr 
 gsave  2268 975 0 0 C 787.893 261.368 t 90 r /Helvetica findfont 23.9903 sf 0 0 m (el_FF_STAT_2015_2018_4_1) show NC gr 
 gsave  2268 975 0 0 C 806.832 328.289 t 90 r /Helvetica findfont 23.9903 sf 0 0 m (el_FF_STAT_2015_2_1) show NC gr 
 gsave  2268 975 0 0 C 825.772 328.289 t 90 r /Helvetica findfont 23.9903 sf 0 0 m (el_FF_STAT_2015_3_1) show NC gr 
 gsave  2268 975 0 0 C 844.712 328.289 t 90 r /Helvetica findfont 23.9903 sf 0 0 m (el_FF_STAT_2015_4_1) show NC gr 
 gsave  2268 975 0 0 C 863.651 328.289 t 90 r /Helvetica findfont 23.9903 sf 0 0 m (el_FF_STAT_2016_1_1) show NC gr 
 gsave  2268 975 0 0 C 882.591 328.289 t 90 r /Helvetica findfont 23.9903 sf 0 0 m (el_FF_STAT_2016_2_1) show NC gr 
 gsave  2268 975 0 0 C 901.531 328.289 t 90 r /Helvetica findfont 23.9903 sf 0 0 m (el_FF_STAT_2016_3_1) show NC gr 
 gsave  2268 975 0 0 C 921.733 328.289 t 90 r /Helvetica findfont 23.9903 sf 0 0 m (el_FF_STAT_2016_4_1) show NC gr 
 gsave  2268 975 0 0 C 940.673 328.289 t 90 r /Helvetica findfont 23.9903 sf 0 0 m (el_FF_STAT_2017_1_1) show NC gr 
 gsave  2268 975 0 0 C 959.613 328.289 t 90 r /Helvetica findfont 23.9903 sf 0 0 m (el_FF_STAT_2017_2_1) show NC gr 
 gsave  2268 975 0 0 C 978.552 328.289 t 90 r /Helvetica findfont 23.9903 sf 0 0 m (el_FF_STAT_2017_3_1) show NC gr 
 gsave  2268 975 0 0 C 997.492 328.289 t 90 r /Helvetica findfont 23.9903 sf 0 0 m (el_FF_STAT_2017_4_1) show NC gr 
 gsave  2268 975 0 0 C 1016.43 328.289 t 90 r /Helvetica findfont 23.9903 sf 0 0 m (el_FF_STAT_2018_1_1) show NC gr 
 gsave  2268 975 0 0 C 1035.37 328.289 t 90 r /Helvetica findfont 23.9903 sf 0 0 m (el_FF_STAT_2018_2_1) show NC gr 
 gsave  2268 975 0 0 C 1054.31 328.289 t 90 r /Helvetica findfont 23.9903 sf 0 0 m (el_FF_STAT_2018_3_1) show NC gr 
 gsave  2268 975 0 0 C 1074.51 328.289 t 90 r /Helvetica findfont 23.9903 sf 0 0 m (el_FF_STAT_2018_4_1) show NC gr 
 gsave  2268 975 0 0 C 1093.45 443.19 t 90 r /Helvetica findfont 23.9903 sf 0 0 m (mu_FF_Com) show NC gr 
 gsave  2268 975 0 0 C 1112.39 373.744 t 90 r /Helvetica findfont 23.9903 sf 0 0 m (mu_FF_EWSUBTR) show NC gr 
 gsave  2268 975 0 0 C 1131.33 314.399 t 90 r /Helvetica findfont 23.9903 sf 0 0 m (mu_FF_STAT_2015_1_1) show NC gr 
 gsave  2268 975 0 0 C 1150.27 309.349 t 90 r /Helvetica findfont 23.9903 sf 0 0 m (mu_FF_STAT_2015_1_2) show NC gr 
 gsave  2268 975 0 0 C 1169.21 247.479 t 90 r /Helvetica findfont 23.9903 sf 0 0 m (mu_FF_STAT_2015_2018_1_1) show NC gr 
 gsave  2268 975 0 0 C 1188.15 243.691 t 90 r /Helvetica findfont 23.9903 sf 0 0 m (mu_FF_STAT_2015_2018_1_2) show NC gr 
 gsave  2268 975 0 0 C 1207.09 247.479 t 90 r /Helvetica findfont 23.9903 sf 0 0 m (mu_FF_STAT_2015_2018_2_1) show NC gr 
 gsave  2268 975 0 0 C 1227.29 243.691 t 90 r /Helvetica findfont 23.9903 sf 0 0 m (mu_FF_STAT_2015_2018_2_2) show NC gr 
 gsave  2268 975 0 0 C 1246.23 247.479 t 90 r /Helvetica findfont 23.9903 sf 0 0 m (mu_FF_STAT_2015_2018_3_1) show NC gr 
 gsave  2268 975 0 0 C 1265.17 243.691 t 90 r /Helvetica findfont 23.9903 sf 0 0 m (mu_FF_STAT_2015_2018_3_2) show NC gr 
 gsave  2268 975 0 0 C 1284.11 314.399 t 90 r /Helvetica findfont 23.9903 sf 0 0 m (mu_FF_STAT_2015_2_1) show NC gr 
 gsave  2268 975 0 0 C 1303.05 309.349 t 90 r /Helvetica findfont 23.9903 sf 0 0 m (mu_FF_STAT_2015_2_2) show NC gr 
 gsave  2268 975 0 0 C 1321.99 314.399 t 90 r /Helvetica findfont 23.9903 sf 0 0 m (mu_FF_STAT_2015_3_1) show NC gr 
 gsave  2268 975 0 0 C 1340.93 309.349 t 90 r /Helvetica findfont 23.9903 sf 0 0 m (mu_FF_STAT_2015_3_2) show NC gr 
 gsave  2268 975 0 0 C 1359.87 314.399 t 90 r /Helvetica findfont 23.9903 sf 0 0 m (mu_FF_STAT_2016_1_1) show NC gr 
 gsave  2268 975 0 0 C 1380.07 309.349 t 90 r /Helvetica findfont 23.9903 sf 0 0 m (mu_FF_STAT_2016_1_2) show NC gr 
 gsave  2268 975 0 0 C 1399.01 314.399 t 90 r /Helvetica findfont 23.9903 sf 0 0 m (mu_FF_STAT_2016_2_1) show NC gr 
 gsave  2268 975 0 0 C 1417.95 309.349 t 90 r /Helvetica findfont 23.9903 sf 0 0 m (mu_FF_STAT_2016_2_2) show NC gr 
 gsave  2268 975 0 0 C 1436.89 314.399 t 90 r /Helvetica findfont 23.9903 sf 0 0 m (mu_FF_STAT_2016_3_1) show NC gr 
 gsave  2268 975 0 0 C 1455.83 309.349 t 90 r /Helvetica findfont 23.9903 sf 0 0 m (mu_FF_STAT_2016_3_2) show NC gr 
 gsave  2268 975 0 0 C 1474.77 314.399 t 90 r /Helvetica findfont 23.9903 sf 0 0 m (mu_FF_STAT_2017_1_1) show NC gr 
 gsave  2268 975 0 0 C 1493.71 309.349 t 90 r /Helvetica findfont 23.9903 sf 0 0 m (mu_FF_STAT_2017_1_2) show NC gr 
 gsave  2268 975 0 0 C 1512.65 314.399 t 90 r /Helvetica findfont 23.9903 sf 0 0 m (mu_FF_STAT_2017_2_1) show NC gr 
 gsave  2268 975 0 0 C 1532.86 309.349 t 90 r /Helvetica findfont 23.9903 sf 0 0 m (mu_FF_STAT_2017_2_2) show NC gr 
 gsave  2268 975 0 0 C 1551.79 314.399 t 90 r /Helvetica findfont 23.9903 sf 0 0 m (mu_FF_STAT_2017_3_1) show NC gr 
 gsave  2268 975 0 0 C 1570.73 309.349 t 90 r /Helvetica findfont 23.9903 sf 0 0 m (mu_FF_STAT_2017_3_2) show NC gr 
 gsave  2268 975 0 0 C 1589.67 314.399 t 90 r /Helvetica findfont 23.9903 sf 0 0 m (mu_FF_STAT_2018_1_1) show NC gr 
 gsave  2268 975 0 0 C 1608.61 309.349 t 90 r /Helvetica findfont 23.9903 sf 0 0 m (mu_FF_STAT_2018_1_2) show NC gr 
 gsave  2268 975 0 0 C 1627.55 314.399 t 90 r /Helvetica findfont 23.9903 sf 0 0 m (mu_FF_STAT_2018_2_1) show NC gr 
 gsave  2268 975 0 0 C 1646.49 309.349 t 90 r /Helvetica findfont 23.9903 sf 0 0 m (mu_FF_STAT_2018_2_2) show NC gr 
 gsave  2268 975 0 0 C 1665.43 314.399 t 90 r /Helvetica findfont 23.9903 sf 0 0 m (mu_FF_STAT_2018_3_1) show NC gr 
 gsave  2268 975 0 0 C 1685.64 309.349 t 90 r /Helvetica findfont 23.9903 sf 0 0 m (mu_FF_STAT_2018_3_2) show NC gr 
 gsave  2268 975 0 0 C 1704.58 351.016 t 90 r /Helvetica findfont 23.9903 sf 0 0 m (theo_ewww_EWscale) show NC gr 
 gsave  2268 975 0 0 C 1722.25 373.744 t 90 r /Helvetica findfont 23.9903 sf 0 0 m (theo_ewww_alphas) show NC gr 
 gsave  2268 975 0 0 C 1741.19 409.098 t 90 r /Helvetica findfont 23.9903 sf 0 0 m (theo_ewww_pdf) show NC gr 
 gsave  2268 975 0 0 C 1761.39 387.633 t 90 r /Helvetica findfont 23.9903 sf 0 0 m (theo_ewww_scale) show NC gr 
 gsave  2268 975 0 0 C 1780.33 367.431 t 90 r /Helvetica findfont 23.9903 sf 0 0 m (theo_ewww_shower) show NC gr 
 gsave  2268 975 0 0 C 1799.27 401.522 t 90 r /Helvetica findfont 23.9903 sf 0 0 m (theo_ww_CKKW) show NC gr 
 gsave  2268 975 0 0 C 1818.21 385.108 t 90 r /Helvetica findfont 23.9903 sf 0 0 m (theo_ww_CSSKIN) show NC gr 
 gsave  2268 975 0 0 C 1838.42 424.25 t 90 r /Helvetica findfont 23.9903 sf 0 0 m (theo_ww_QSF) show NC gr 
 gsave  2268 975 0 0 C 1856.09 404.047 t 90 r /Helvetica findfont 23.9903 sf 0 0 m (theo_ww_alphas) show NC gr 
 gsave  2268 975 0 0 C 1875.03 439.402 t 90 r /Helvetica findfont 23.9903 sf 0 0 m (theo_ww_pdf) show NC gr 
 gsave  2268 975 0 0 C 1895.24 417.937 t 90 r /Helvetica findfont 23.9903 sf 0 0 m (theo_ww_scale) show NC gr 
 gsave  2268 975 0 0 C 1914.17 397.734 t 90 r /Helvetica findfont 23.9903 sf 0 0 m (theo_ww_shower) show NC gr 
 gsave  2268 975 0 0 C 1933.11 433.088 t 90 r /Helvetica findfont 23.9903 sf 0 0 m (theo_ttbar_fsr) show NC gr 
 gsave  2268 975 0 0 C 1952.05 434.351 t 90 r /Helvetica findfont 23.9903 sf 0 0 m (theo_ttbar_isr) show NC gr 
 gsave  2268 975 0 0 C 1969.73 364.905 t 90 r /Helvetica findfont 23.9903 sf 0 0 m (theo_ttbar_matching) show NC gr 
 gsave  2268 975 0 0 C 1989.93 426.775 t 90 r /Helvetica findfont 23.9903 sf 0 0 m (theo_ttbar_pdf) show NC gr 
 gsave  2268 975 0 0 C 2010.14 405.31 t 90 r /Helvetica findfont 23.9903 sf 0 0 m (theo_ttbar_scale) show NC gr 
 gsave  2268 975 0 0 C 2029.08 383.845 t 90 r /Helvetica findfont 23.9903 sf 0 0 m (theo_ttbar_shower) show NC gr 
 gsave  2268 975 0 0 C 2046.75 223.489 t 90 r /Helvetica findfont 23.9903 sf 0 0 m (theo_ztautau_generatorRegTop_1) show NC gr 
 gsave  2268 975 0 0 C 2065.69 219.701 t 90 r /Helvetica findfont 23.9903 sf 0 0 m (theo_ztautau_generatorRegTop_2) show NC gr 
 gsave  2268 975 0 0 C 2084.63 219.701 t 90 r /Helvetica findfont 23.9903 sf 0 0 m (theo_ztautau_generatorRegTop_3) show NC gr 
 gsave  2268 975 0 0 C 2103.57 219.701 t 90 r /Helvetica findfont 23.9903 sf 0 0 m (theo_ztautau_generatorRegTop_4) show NC gr 
 gsave  2268 975 0 0 C 2122.51 219.701 t 90 r /Helvetica findfont 23.9903 sf 0 0 m (theo_ztautau_generatorRegTop_5) show NC gr 
 gsave  2268 975 0 0 C 2142.71 219.701 t 90 r /Helvetica findfont 23.9903 sf 0 0 m (theo_ztautau_generatorRegVBF_1) show NC gr 
 gsave  2268 975 0 0 C 2161.65 215.913 t 90 r /Helvetica findfont 23.9903 sf 0 0 m (theo_ztautau_generatorRegVBF_2) show NC gr 
 gsave  2268 975 0 0 C 2180.59 215.913 t 90 r /Helvetica findfont 23.9903 sf 0 0 m (theo_ztautau_generatorRegVBF_3) show NC gr 
 gsave  2268 975 0 0 C 2199.53 215.913 t 90 r /Helvetica findfont 23.9903 sf 0 0 m (theo_ztautau_generatorRegVBF_4) show NC gr 
 gsave  2268 975 0 0 C 2218.47 215.913 t 90 r /Helvetica findfont 23.9903 sf 0 0 m (theo_ztautau_generatorRegVBF_5) show NC gr  45 613 m -28 Y s 201 613 m -28 Y s 356 613 m -28 Y s 512 613 m -28 Y s 667 613 m -28 Y s 823 613 m -28 Y s 978 613 m -28 Y
 s 1134 613 m -28 Y s 1289 613 m -28 Y s 1445 613 m -28 Y s 1600 613 m -28 Y s 1756 613 m -28 Y s 1911 613 m -28 Y s 2067 613 m -28 Y s 2222 613 m -28 Y s 45 960 m 2177 X s 45 932 m 28 Y s 201 932 m 28 Y s 356 932 m 28 Y s 512 932 m 28 Y s 667 932 m
 28 Y s 823 932 m 28 Y s 978 932 m 28 Y s 1134 932 m 28 Y s 1289 932 m 28 Y s 1445 932 m 28 Y s 1600 932 m 28 Y s 1756 932 m 28 Y s 1911 932 m 28 Y s 2067 932 m 28 Y s 2222 932 m 28 Y s 45 585 m 375 Y s 72 585 m -27 X s 58 594 m -13 X s 58 604 m -13
 X s 58 613 m -13 X s 58 622 m -13 X s 72 632 m -27 X s 58 641 m -13 X s 58 651 m -13 X s 58 660 m -13 X s 58 669 m -13 X s 72 679 m -27 X s 58 688 m -13 X s 58 697 m -13 X s 58 707 m -13 X s 58 716 m -13 X s 72 726 m -27 X s 58 735 m -13 X s 58 744
 m -13 X s 58 754 m -13 X s 58 763 m -13 X s 72 773 m -27 X s 58 782 m -13 X s 58 791 m -13 X s 58 801 m -13 X s 58 810 m -13 X s 72 819 m -27 X s 58 829 m -13 X s 58 838 m -13 X s 58 848 m -13 X s 58 857 m -13 X s 72 866 m -27 X s 58 876 m -13 X s
 58 885 m -13 X s 58 894 m -13 X s 58 904 m -13 X s 72 913 m -27 X s 58 923 m -13 X s 58 932 m -13 X s 58 941 m -13 X s 58 951 m -13 X s 72 960 m -27 X s
 gsave  2268 975 0 0 C 20.2024 575.768 t 0 r /Helvetica findfont 23.9903 sf 0 0 m (2) show NC gr 
 gsave  2268 975 0 0 C 7.57589 575.768 t 0 r /Symbol findfont 23.9903 sf 0 0 m (-) show NC gr 
 gsave  2268 975 0 0 C 0 623.748 t 0 r /Helvetica findfont 23.9903 sf 0 0 m (1.5) show NC gr 
 gsave  2268 975 0 0 C -12.6265 623.748 t 0 r /Symbol findfont 23.9903 sf 0 0 m (-) show NC gr 
 gsave  2268 975 0 0 C 23.9903 669.204 t 0 r /Helvetica findfont 23.9903 sf 0 0 m (1) show NC gr 
 gsave  2268 975 0 0 C 11.3638 669.204 t 0 r /Symbol findfont 23.9903 sf 0 0 m (-) show NC gr 
 gsave  2268 975 0 0 C 0 717.184 t 0 r /Helvetica findfont 23.9903 sf 0 0 m (0.5) show NC gr 
 gsave  2268 975 0 0 C -12.6265 717.184 t 0 r /Symbol findfont 23.9903 sf 0 0 m (-) show NC gr 
 gsave  2268 975 0 0 C 20.2024 763.902 t 0 r /Helvetica findfont 23.9903 sf 0 0 m (0) show NC gr 
 gsave  2268 975 0 0 C 0 810.62 t 0 r /Helvetica findfont 23.9903 sf 0 0 m (0.5) show NC gr 
 gsave  2268 975 0 0 C 23.9903 857.338 t 0 r /Helvetica findfont 23.9903 sf 0 0 m (1) show NC gr 
 gsave  2268 975 0 0 C 0 905.319 t 0 r /Helvetica findfont 23.9903 sf 0 0 m (1.5) show NC gr 
 gsave  2268 975 0 0 C 20.2024 950.774 t 0 r /Helvetica findfont 23.9903 sf 0 0 m (2) show NC gr 
 gsave  2268 975 0 0 C -45.4553 945.724 t 90 r /Symbol findfont 29.0409 sf 0 0 m (q) show NC gr  6 lw
 gsave  2268 975 0 0 C -45.4553 930.572 t 90 r /Symbol findfont 29.0409 sf 0 0 m (d) show NC gr 
 gsave  2268 975 0 0 C -45.4553 920.471 t 90 r /Helvetica findfont 29.0409 sf 0 0 m (/) show NC gr 
 gsave  2268 975 0 0 C -45.4553 905.319 t 90 r /Symbol findfont 29.0409 sf 0 0 m (q) show NC gr 
 gsave  2268 975 0 0 C -45.4553 896.48 t 90 r /Helvetica findfont 29.0409 sf 0 0 m (\255) show NC gr 
 gsave  2268 975 0 0 C -45.4553 881.329 t 90 r /Symbol findfont 29.0409 sf 0 0 m (q) show NC gr  3 lw 2222 585 m 375 Y s 2196 585 m 26 X s 2209 594 m 13 X s 2209 604 m 13 X s 2209 613 m 13 X s 2209 622 m 13 X s 2196 632 m 26 X s 2209 641 m 13 X s
 2209 651 m 13 X s 2209 660 m 13 X s 2209 669 m 13 X s 2196 679 m 26 X s 2209 688 m 13 X s 2209 697 m 13 X s 2209 707 m 13 X s 2209 716 m 13 X s 2196 726 m 26 X s 2209 735 m 13 X s 2209 744 m 13 X s 2209 754 m 13 X s 2209 763 m 13 X s 2196 773 m 26 X
 s 2209 782 m 13 X s 2209 791 m 13 X s 2209 801 m 13 X s 2209 810 m 13 X s 2196 819 m 26 X s 2209 829 m 13 X s 2209 838 m 13 X s 2209 848 m 13 X s 2209 857 m 13 X s 2196 866 m 26 X s 2209 876 m 13 X s 2209 885 m 13 X s 2209 894 m 13 X s 2209 904 m 13
 X s 2196 913 m 26 X s 2209 923 m 13 X s 2209 932 m 13 X s 2209 941 m 13 X s 2209 951 m 13 X s 2196 960 m 26 X s 55 773 m 93 Y s 52 866 m 5 X s 55 773 m -93 Y s 52 680 m 5 X s 74 772 m 93 Y s 71 865 m 6 X s 74 772 m -93 Y s 71 679 m 6 X s 93 772 m 93
 Y s 91 865 m 5 X s 93 772 m -93 Y s 91 679 m 5 X s 112 772 m 93 Y s 110 865 m 5 X s 112 772 m -93 Y s 110 679 m 5 X s 131 772 m 93 Y s 129 865 m 5 X s 131 772 m -93 Y s 129 679 m 5 X s 150 772 m 93 Y s 148 865 m 5 X s 150 772 m -93 Y s 148 679 m 5 X
 s 169 772 m 93 Y s 167 865 m 5 X s 169 772 m -93 Y s 167 679 m 5 X s 189 772 m 93 Y s 186 865 m 5 X s 189 772 m -93 Y s 186 679 m 5 X s 208 772 m 93 Y s 205 865 m 5 X s 208 772 m -93 Y s 205 679 m 5 X s 227 772 m 93 Y s 224 865 m 5 X s 227 772 m -93
 Y s 224 679 m 5 X s 246 772 m 93 Y s 243 865 m 5 X s 246 772 m -93 Y s 243 679 m 5 X s 265 772 m 93 Y s 262 865 m 5 X s 265 772 m -93 Y s 262 679 m 5 X s 284 772 m 93 Y s 282 865 m 5 X s 284 772 m -93 Y s 282 679 m 5 X s 303 772 m 93 Y s 301 865 m 5
 X s 303 772 m -93 Y s 301 679 m 5 X s 322 772 m 93 Y s 320 865 m 5 X s 322 772 m -93 Y s 320 679 m 5 X s 341 772 m 93 Y s 339 865 m 5 X s 341 772 m -93 Y s 339 679 m 5 X s 360 772 m 93 Y s 358 865 m 5 X s 360 772 m -93 Y s 358 679 m 5 X s 380 772 m
 93 Y s 377 865 m 5 X s 380 772 m -93 Y s 377 679 m 5 X s 399 772 m 93 Y s 396 865 m 5 X s 399 772 m -93 Y s 396 679 m 5 X s 418 774 m 93 Y s 415 867 m 5 X s 418 774 m -93 Y s 415 681 m 5 X s 437 772 m 93 Y s 434 865 m 5 X s 437 772 m -94 Y s 434 678
 m 5 X s 456 774 m 94 Y s 453 868 m 5 X s 456 774 m -93 Y s 453 681 m 5 X s 475 774 m 93 Y s 473 867 m 5 X s 475 774 m -94 Y s 473 680 m 5 X s 494 772 m 93 Y s 492 865 m 5 X s 494 772 m -93 Y s 492 679 m 5 X s 513 777 m 93 Y s 511 870 m 5 X s 513 777
 m -93 Y s 511 684 m 5 X s 532 768 m 93 Y s 530 861 m 5 X s 532 768 m -93 Y s 530 675 m 5 X s 551 763 m 92 Y s 549 855 m 5 X s 551 763 m -91 Y s 549 672 m 5 X s 571 772 m 94 Y s 568 866 m 5 X s 571 772 m -93 Y s 568 679 m 5 X s 590 769 m 93 Y s 587
 862 m 5 X s 590 769 m -93 Y s 587 676 m 5 X s 609 773 m 93 Y s 606 866 m 5 X s 609 773 m -93 Y s 606 680 m 5 X s 628 823 m 87 Y s 625 910 m 5 X s 628 823 m -87 Y s 625 736 m 5 X s 647 825 m 87 Y s 644 912 m 5 X s 647 825 m -88 Y s 644 737 m 5 X s
 666 773 m 93 Y s 663 866 m 6 X s 666 773 m -94 Y s 663 679 m 6 X s 685 773 m 93 Y s 683 866 m 5 X s 685 773 m -94 Y s 683 679 m 5 X s 704 773 m 93 Y s 702 866 m 5 X s 704 773 m -94 Y s 702 679 m 5 X s 723 773 m 93 Y s 721 866 m 5 X s 723 773 m -94 Y
 s 721 679 m 5 X s 742 773 m 93 Y s 740 866 m 5 X s 742 773 m -94 Y s 740 679 m 5 X s 761 773 m 93 Y s 759 866 m 5 X s 761 773 m -94 Y s 759 679 m 5 X s 781 773 m 93 Y s 778 866 m 5 X s 781 773 m -94 Y s 778 679 m 5 X s 800 773 m 93 Y s 797 866 m 5 X
 s 800 773 m -94 Y s 797 679 m 5 X s 819 773 m 93 Y s 816 866 m 5 X s 819 773 m -94 Y s 816 679 m 5 X s 838 773 m 93 Y s 835 866 m 5 X s 838 773 m -94 Y s 835 679 m 5 X s 857 773 m 93 Y s 854 866 m 5 X s 857 773 m -94 Y s 854 679 m 5 X s 876 773 m 93
 Y s 874 866 m 5 X s 876 773 m -94 Y s 874 679 m 5 X s 895 773 m 93 Y s 893 866 m 5 X s 895 773 m -94 Y s 893 679 m 5 X s 914 773 m 93 Y s 912 866 m 5 X s 914 773 m -94 Y s 912 679 m 5 X s 933 773 m 93 Y s 931 866 m 5 X s 933 773 m -94 Y s 931 679 m
 5 X s 952 773 m 93 Y s 950 866 m 5 X s 952 773 m -94 Y s 950 679 m 5 X s 972 773 m 93 Y s 969 866 m 5 X s 972 773 m -94 Y s 969 679 m 5 X s 991 773 m 93 Y s 988 866 m 5 X s 991 773 m -94 Y s 988 679 m 5 X s 1010 773 m 93 Y s 1007 866 m 5 X s 1010
 773 m -94 Y s 1007 679 m 5 X s 1029 773 m 93 Y s 1026 866 m 5 X s 1029 773 m -94 Y s 1026 679 m 5 X s 1048 773 m 93 Y s 1045 866 m 5 X s 1048 773 m -94 Y s 1045 679 m 5 X s 1067 773 m 93 Y s 1064 866 m 6 X s 1067 773 m -94 Y s 1064 679 m 6 X s 1086
 773 m 93 Y s 1084 866 m 5 X s 1086 773 m -94 Y s 1084 679 m 5 X s 1105 773 m 93 Y s 1103 866 m 5 X s 1105 773 m -94 Y s 1103 679 m 5 X s 1124 773 m 93 Y s 1122 866 m 5 X s 1124 773 m -94 Y s 1122 679 m 5 X s 1143 773 m 93 Y s 1141 866 m 5 X s 1143
 773 m -94 Y s 1141 679 m 5 X s 1163 773 m 93 Y s 1160 866 m 5 X s 1163 773 m -94 Y s 1160 679 m 5 X s 1182 773 m 93 Y s 1179 866 m 5 X s 1182 773 m -94 Y s 1179 679 m 5 X s 1201 773 m 93 Y s 1198 866 m 5 X s 1201 773 m -94 Y s 1198 679 m 5 X s 1220
 773 m 93 Y s 1217 866 m 5 X s 1220 773 m -94 Y s 1217 679 m 5 X s 1239 773 m 93 Y s 1236 866 m 5 X s 1239 773 m -94 Y s 1236 679 m 5 X s 1258 773 m 93 Y s 1255 866 m 6 X s 1258 773 m -94 Y s 1255 679 m 6 X s 1277 773 m 93 Y s 1275 866 m 5 X s 1277
 773 m -94 Y s 1275 679 m 5 X s 1296 773 m 93 Y s 1294 866 m 5 X s 1296 773 m -94 Y s 1294 679 m 5 X s 1315 773 m 93 Y s 1313 866 m 5 X s 1315 773 m -94 Y s 1313 679 m 5 X s 1334 773 m 93 Y s 1332 866 m 5 X s 1334 773 m -94 Y s 1332 679 m 5 X s 1353
 773 m 93 Y s 1351 866 m 5 X s 1353 773 m -94 Y s 1351 679 m 5 X s 1373 773 m 93 Y s 1370 866 m 5 X s 1373 773 m -94 Y s 1370 679 m 5 X s 1392 773 m 93 Y s 1389 866 m 5 X s 1392 773 m -94 Y s 1389 679 m 5 X s 1411 773 m 93 Y s 1408 866 m 5 X s 1411
 773 m -94 Y s 1408 679 m 5 X s 1430 773 m 93 Y s 1427 866 m 5 X s 1430 773 m -94 Y s 1427 679 m 5 X s 1449 773 m 93 Y s 1446 866 m 5 X s 1449 773 m -94 Y s 1446 679 m 5 X s 1468 773 m 93 Y s 1466 866 m 5 X s 1468 773 m -94 Y s 1466 679 m 5 X s 1487
 773 m 93 Y s 1485 866 m 5 X s 1487 773 m -94 Y s 1485 679 m 5 X s 1506 773 m 93 Y s 1504 866 m 5 X s 1506 773 m -94 Y s 1504 679 m 5 X s 1525 773 m 93 Y s 1523 866 m 5 X s 1525 773 m -94 Y s 1523 679 m 5 X s 1544 773 m 93 Y s 1542 866 m 5 X s 1544
 773 m -94 Y s 1542 679 m 5 X s 1564 773 m 93 Y s 1561 866 m 5 X s 1564 773 m -94 Y s 1561 679 m 5 X s 1583 773 m 93 Y s 1580 866 m 5 X s 1583 773 m -94 Y s 1580 679 m 5 X s 1602 773 m 93 Y s 1599 866 m 5 X s 1602 773 m -94 Y s 1599 679 m 5 X s 1621
 773 m 93 Y s 1618 866 m 5 X s 1621 773 m -94 Y s 1618 679 m 5 X s 1640 773 m 93 Y s 1637 866 m 5 X s 1640 773 m -94 Y s 1637 679 m 5 X s 1659 773 m 93 Y s 1656 866 m 6 X s 1659 773 m -94 Y s 1656 679 m 6 X s 1678 773 m 93 Y s 1676 866 m 5 X s 1678
 773 m -94 Y s 1676 679 m 5 X s 1697 774 m 93 Y s 1695 867 m 5 X s 1697 774 m -93 Y s 1695 681 m 5 X s 1716 772 m 94 Y s 1714 866 m 5 X s 1716 772 m -93 Y s 1714 679 m 5 X s 1735 773 m 93 Y s 1733 866 m 5 X s 1735 773 m -94 Y s 1733 679 m 5 X s 1754
 773 m 93 Y s 1752 866 m 5 X s 1754 773 m -93 Y s 1752 680 m 5 X s 1774 769 m 93 Y s 1771 862 m 5 X s 1774 769 m -93 Y s 1771 676 m 5 X s 1793 783 m 92 Y s 1790 875 m 5 X s 1793 783 m -93 Y s 1790 690 m 5 X s 1812 798 m 91 Y s 1809 889 m 5 X s 1812
 798 m -92 Y s 1809 706 m 5 X s 1831 783 m 93 Y s 1828 876 m 5 X s 1831 783 m -92 Y s 1828 691 m 5 X s 1850 770 m 94 Y s 1847 864 m 6 X s 1850 770 m -93 Y s 1847 677 m 6 X s 1869 772 m 94 Y s 1867 866 m 5 X s 1869 772 m -93 Y s 1867 679 m 5 X s 1888
 761 m 93 Y s 1886 854 m 5 X s 1888 761 m -93 Y s 1886 668 m 5 X s 1907 764 m 93 Y s 1905 857 m 5 X s 1907 764 m -93 Y s 1905 671 m 5 X s 1926 760 m 91 Y s 1924 851 m 5 X s 1926 760 m -91 Y s 1924 669 m 5 X s 1945 774 m 93 Y s 1943 867 m 5 X s 1945
 774 m -93 Y s 1943 681 m 5 X s 1965 746 m 84 Y s 1962 830 m 5 X s 1965 746 m -83 Y s 1962 663 m 5 X s 1984 773 m 93 Y s 1981 866 m 5 X s 1984 773 m -93 Y s 1981 680 m 5 X s 2003 808 m 91 Y s 2000 899 m 5 X s 2003 808 m -92 Y s 2000 716 m 5 X s 2022
 787 m 90 Y s 2019 877 m 5 X s 2022 787 m -90 Y s 2019 697 m 5 X s 2041 748 m 93 Y s 2038 841 m 5 X s 2041 748 m -93 Y s 2038 655 m 5 X s 2060 780 m 92 Y s 2058 872 m 5 X s 2060 780 m -93 Y s 2058 687 m 5 X s 2079 779 m 93 Y s 2077 872 m 5 X s 2079
 779 m -93 Y s 2077 686 m 5 X s 2098 772 m 94 Y s 2096 866 m 5 X s 2098 772 m -93 Y s 2096 679 m 5 X s 2117 793 m 90 Y s 2115 883 m 5 X s 2117 793 m -90 Y s 2115 703 m 5 X s 2136 772 m 93 Y s 2134 865 m 5 X s 2136 772 m -93 Y s 2134 679 m 5 X s 2156
 698 m 78 Y s 2153 776 m 5 X s 2156 698 m -77 Y s 2153 621 m 5 X s 2175 776 m 79 Y s 2172 855 m 5 X s 2175 776 m -79 Y s 2172 697 m 5 X s 2194 834 m 86 Y s 2191 920 m 5 X s 2194 834 m -85 Y s 2191 749 m 5 X s 2213 775 m 89 Y s 2210 864 m 5 X s 2213
 775 m -88 Y s 2210 687 m 5 X s 1 1 1 c black /w 10 def /w2 {w 2 div} def /w3 {w 3 div} def 55 773 74 772 93 772 112 772 131 772 150 772 169 772 189 772 208 772 227 772 246 772 265 772 284 772 303 772 322 772 341 772 360 772 380 772 399 772 418 774
 437 772 456 774 475 774 494 772 513 777 532 768 551 763 571 772 590 769 609 773 628 823 647 825 666 773 685 773 704 773 723 773 742 773 761 773 781 773 800 773 819 773 838 773 857 773 876 773 895 773 914 773 933 773 952 773 972 773 991 773 1010 773
 1029 773 1048 773 1067 773 1086 773 1105 773 1124 773 1143 773 1163 773 1182 773 1201 773 1220 773 1239 773 1258 773 1277 773 1296 773 1315 773 1334 773 1353 773 1373 773 1392 773 1411 773 1430 773 1449 773 1468 773 1487 773 1506 773 1525 773 1544
 773 1564 773 1583 773 1602 773 1621 773 1640 773 1659 773 1678 773 1697 774 1716 772 1735 773 1754 773 1774 769 1793 783 1812 798 1831 783 1850 770 1869 772 1888 761 1907 764 1926 760 1945 774 100 { m20} R 1965 746 1984 773 2003 808 2022 787 2041
 748 2060 780 2079 779 2098 772 2117 793 2136 772 2156 698 2175 776 2194 834 2213 775 14 { m20} R
 gr  gr showpage
end
%%EOF
