%!PS-Adobe-2.0 EPSF-2.0
%%BoundingBox:  0 0 567 244
%%Title: cCNp1_matrix_lep0_pt.eps: 
%%Creator: ROOT Version 6.24/06
%%CreationDate: Tue Jan  4 07:40:39 2022
%%DocumentNeededResources: ProcSet (FontSetInit)
%%EndComments
%%BeginProlog
80 dict begin
/s {stroke} def /l {lineto} def /m {moveto} def /t {translate} def
/r {rotate} def /rl {roll}  def /R {repeat} def
/d {rlineto} def /rm {rmoveto} def /gr {grestore} def /f {eofill} def
/c {setrgbcolor} def /black {0 setgray} def /sd {setdash} def
/cl {closepath} def /sf {scalefont setfont} def /lw {setlinewidth} def
/box {m dup 0 exch d exch 0 d 0 exch neg d cl} def
/NC{systemdict begin initclip end}def/C{NC box clip newpath}def
/bl {box s} def /bf {gsave box gsave f grestore 1 lw [] 0 sd s grestore} def /Y { 0 exch d} def /X { 0 d} def 
/K {{pop pop 0 moveto} exch kshow} bind def
/ita {/ang 15 def gsave [1 0 ang dup sin exch cos div 1 0 0] concat} def 
/mp {newpath /y exch def /x exch def} def
/side {[w .77 mul w .23 mul] .385 w mul sd w 0 l currentpoint t -144 r} def
/mr {mp x y w2 0 360 arc} def /m24 {mr s} def /m20 {mr f} def
/mb {mp x y w2 add m w2 neg 0 d 0 w neg d w 0 d 0 w d cl} def
/mt {mp x y w2 add m w2 neg w neg d w 0 d cl} def
/w4 {w 4 div} def
/w6 {w 6 div} def
/w8 {w 8 div} def
/m21 {mb f} def /m25 {mb s} def /m22 {mt f} def /m26{mt s} def
/m23 {mp x y w2 sub m w2 w d w neg 0 d cl f} def
/m27 {mp x y w2 add m w3 neg w2 neg d w3 w2 neg d w3 w2 d cl s} def
/m28 {mp x w2 sub y w2 sub w3 add m w3 0 d  0 w3 neg d w3 0 d 0 w3 d w3 0 d  0 w3 d w3 neg 0 d 0 w3 d w3 neg 0 d 0 w3 neg d w3 neg 0 d cl s } def
/m29 {mp gsave x w2 sub y w2 add w3 sub m currentpoint t 4 {side} repeat cl fill gr} def
/m30 {mp gsave x w2 sub y w2 add w3 sub m currentpoint t 4 {side} repeat cl s gr} def
/m31 {mp x y w2 sub m 0 w d x w2 sub y m w 0 d x w2 .707 mul sub y w2 .707 mul add m w 1.44 div w 1.44 div neg d x w2 .707 mul sub y w2 .707 mul sub m w 1.44 div w 1.44 div d s} def
/m32 {mp x y w2 sub m w2 w d w neg 0 d cl s} def
/m33 {mp x y w2 add m w3 neg w2 neg d w3 w2 neg d w3 w2 d cl f} def
/m34 {mp x w2 sub y w2 sub w3 add m w3 0 d  0 w3 neg d w3 0 d 0 w3 d w3 0 d  0 w3 d w3 neg 0 d 0 w3 d w3 neg 0 d 0 w3 neg d w3 neg 0 d cl f } def
/m35 {mp x y w2 add m w2 neg w2 neg d w2 w2 neg d w2 w2 d w2 neg w2 d x y w2 sub m 0 w d x w2 sub y m w 0 d s} def
/m36 {mb x w2 sub y w2 add m w w neg d x w2 sub y w2 sub m w w d s} def
/m37 {mp x y m w4 neg w2 d w4 neg w2 neg d w2 0 d  w4 neg w2 neg d w2 0 d w4 neg w2 d w2 0 d w4 neg w2 d w4 neg w2 neg d cl s} def
/m38 {mp x w4 sub y w2 add m w4 neg w4 neg d 0 w2 neg d w4 w4 neg d w2 0 d w4 w4 d 0 w2 d w4 neg w4 d w2 neg 0 d x y w2 sub m 0 w d x w2 sub y m w 0 d cl s} def
/m39 {mp x y m w4 neg w2 d w4 neg w2 neg d w2 0 d  w4 neg w2 neg d w2 0 d w4 neg w2 d w2 0 d w4 neg w2 d w4 neg w2 neg d cl f} def
/m40 {mp x y m w4 w2 d w4 w4 neg d w2 neg w4 neg d w2 w4 neg d w4 neg w4 neg d w4 neg w2 d w4 neg w2 neg d w4 neg w4 d w2 w4 d w2 neg w4 d w4 w4 d w4 w2 neg d cl s} def
/m41 {mp x y m w4 w2 d w4 w4 neg d w2 neg w4 neg d w2 w4 neg d w4 neg w4 neg d w4 neg w2 d w4 neg w2 neg d w4 neg w4 d w2 w4 d w2 neg w4 d w4 w4 d w4 w2 neg d cl f} def
/m42 {mp x y w2 add m w8 neg w2 -3 4 div mul d w2 -3 4 div mul w8 neg d w2 3 4 div mul w8 neg d w8 w2 -3 4 div mul d w8 w2 3 4 div mul d w2 3 4 div mul w8 d w2 -3 4 div mul w8 d w8 neg w2 3 4 div mul d cl s} def
/m43 {mp x y w2 add m w8 neg w2 -3 4 div mul d w2 -3 4 div mul w8 neg d w2 3 4 div mul w8 neg d w8 w2 -3 4 div mul d w8 w2 3 4 div mul d w2 3 4 div mul w8 d w2 -3 4 div mul w8 d w8 neg w2 3 4 div mul d cl f} def
/m44 {mp x y m w6 neg w2 d w2 2 3 div mul 0 d w6 neg w2 neg d w2 w6 d 0 w2 -2 3 div mul d w2 neg w6 d w6 w2 neg d w2 -2 3 div mul 0 d w6 w2 d w2 neg w6 neg d 0 w2 2 3 div mul d w2 w6 neg d cl s} def
/m45 {mp x y m w6 neg w2 d w2 2 3 div mul 0 d w6 neg w2 neg d w2 w6 d 0 w2 -2 3 div mul d w2 neg w6 d w6 w2 neg d w2 -2 3 div mul 0 d w6 w2 d w2 neg w6 neg d 0 w2 2 3 div mul d w2 w6 neg d cl f} def
/m46 {mp x y w4 add m w4 neg w4 d w4 neg w4 neg d  w4 w4 neg d w4 neg w4 neg d w4 w4 neg d w4 w4 d w4 w4 neg d w4 w4 d w4 neg w4 d w4 w4 d w4 neg w4 d w4 neg w4 neg d cl s} def
/m47 {mp x y w4 add m w4 neg w4 d w4 neg w4 neg d w4 w4 neg d w4 neg w4 neg d  w4 w4 neg d w4 w4 d w4 w4 neg d w4 w4 d w4 neg w4 d w4 w4 d w4 neg w4 d w4 neg w4 neg d cl f} def
/m48 {mp x y w4 add m w4 neg w4 d w4 neg w4 neg d w4 w4 neg d  w4 neg w4 neg d w4 w4 neg d w4 w4 d w4 w4 neg d w4 w4 d w4 neg w4 d w4 w4 d w4 neg w4 d w4 neg w4 neg d  w4 w4 neg d w4 neg w4 neg d w4 neg w4 d w4 w4 d cl f} def
/m49 {mp x w2 sub w3 add y w2 sub w3 add m  0 w3 neg d w3 0 d 0 w3 d w3 0 d 0 w3 d w3 neg 0 d 0 w3 d w3 neg 0 d 0 w3 neg d w3 neg 0 d 0 w3 neg d w3 0 d 0 w3 d w3 0 d 0 w3 neg d w3 neg 0 d cl f } def
/m2 {mp x y w2 sub m 0 w d x w2 sub y m w 0 d s} def
/m5 {mp x w2 .707 mul sub y w2 .707 mul sub m w 1.44 div w 1.44 div d x w2 .707 mul sub y w2 .707 mul add m w 1.44 div w 1.44 div neg d s} def
%%IncludeResource: ProcSet (FontSetInit)
%%IncludeResource: font Times-Roman
%%IncludeResource: font Times-Italic
%%IncludeResource: font Times-Bold
%%IncludeResource: font Times-BoldItalic
%%IncludeResource: font Helvetica
%%IncludeResource: font Helvetica-Oblique
%%IncludeResource: font Helvetica-Bold
%%IncludeResource: font Helvetica-BoldOblique
%%IncludeResource: font Courier
%%IncludeResource: font Courier-Oblique
%%IncludeResource: font Courier-Bold
%%IncludeResource: font Courier-BoldOblique
%%IncludeResource: font Symbol
%%IncludeResource: font ZapfDingbats
/reEncode {exch findfont dup length dict begin {1 index /FID eq  {pop pop} {def} ifelse } forall /Encoding exch def currentdict end dup /FontName get exch definefont pop } def [/Times-Bold /Times-Italic /Times-BoldItalic /Helvetica /Helvetica-Oblique
 /Helvetica-Bold /Helvetica-BoldOblique /Courier /Courier-Oblique /Courier-Bold /Courier-BoldOblique /Times-Roman /AvantGarde-Book /AvantGarde-BookOblique /AvantGarde-Demi /AvantGarde-DemiOblique /Bookman-Demi /Bookman-DemiItalic /Bookman-Light
 /Bookman-LightItalic /Helvetica-Narrow /Helvetica-Narrow-Bold /Helvetica-Narrow-BoldOblique /Helvetica-Narrow-Oblique /NewCenturySchlbk-Roman /NewCenturySchlbk-Bold /NewCenturySchlbk-BoldItalic /NewCenturySchlbk-Italic /Palatino-Bold
 /Palatino-BoldItalic /Palatino-Italic /Palatino-Roman ] {ISOLatin1Encoding reEncode } forall
%%EndProlog
%%BeginSetup
%%EndSetup
newpath  gsave  .25 .25 scale  gsave  0 0 t black[  ] 0 sd 3 lw 1 1 1 c 2268 975 0 0 bf black 1 1 1 c 2177 375 45 585 bf black 2177 375 45 585 bl 6 lw 1 1 1 c black 45 773 m 2177 X s 3 lw 45 585 m 2177 X s
 gsave  2268 975 0 0 C 61.8698 320.713 t 90 r /Helvetica findfont 23.9903 sf 0 0 m (EG_RESOLUTION_ALL) show NC gr 
 gsave  2268 975 0 0 C 82.0721 398.997 t 90 r /Helvetica findfont 23.9903 sf 0 0 m (EG_SCALE_ALL) show NC gr 
 gsave  2268 975 0 0 C 101.012 219.701 t 90 r /Helvetica findfont 23.9903 sf 0 0 m (EL_EFF_ID_CorrUncertaintyNP10) show NC gr 
 gsave  2268 975 0 0 C 119.952 223.489 t 90 r /Helvetica findfont 23.9903 sf 0 0 m (EL_EFF_ID_CorrUncertaintyNP11) show NC gr 
 gsave  2268 975 0 0 C 140.154 219.701 t 90 r /Helvetica findfont 23.9903 sf 0 0 m (EL_EFF_ID_CorrUncertaintyNP12) show NC gr 
 gsave  2268 975 0 0 C 160.356 219.701 t 90 r /Helvetica findfont 23.9903 sf 0 0 m (EL_EFF_ID_CorrUncertaintyNP13) show NC gr 
 gsave  2268 975 0 0 C 179.296 218.438 t 90 r /Helvetica findfont 23.9903 sf 0 0 m (EL_EFF_ID_CorrUncertaintyNP14) show NC gr 
 gsave  2268 975 0 0 C 199.498 218.438 t 90 r /Helvetica findfont 23.9903 sf 0 0 m (EL_EFF_ID_CorrUncertaintyNP15) show NC gr 
 gsave  2268 975 0 0 C 219.701 232.327 t 90 r /Helvetica findfont 23.9903 sf 0 0 m (EL_EFF_ID_CorrUncertaintyNP3) show NC gr 
 gsave  2268 975 0 0 C 238.641 232.327 t 90 r /Helvetica findfont 23.9903 sf 0 0 m (EL_EFF_ID_CorrUncertaintyNP4) show NC gr 
 gsave  2268 975 0 0 C 258.843 232.327 t 90 r /Helvetica findfont 23.9903 sf 0 0 m (EL_EFF_ID_CorrUncertaintyNP5) show NC gr 
 gsave  2268 975 0 0 C 279.045 232.327 t 90 r /Helvetica findfont 23.9903 sf 0 0 m (EL_EFF_ID_CorrUncertaintyNP6) show NC gr 
 gsave  2268 975 0 0 C 297.985 232.327 t 90 r /Helvetica findfont 23.9903 sf 0 0 m (EL_EFF_ID_CorrUncertaintyNP7) show NC gr 
 gsave  2268 975 0 0 C 318.187 232.327 t 90 r /Helvetica findfont 23.9903 sf 0 0 m (EL_EFF_ID_CorrUncertaintyNP8) show NC gr 
 gsave  2268 975 0 0 C 339.652 232.327 t 90 r /Helvetica findfont 23.9903 sf 0 0 m (EL_EFF_ID_CorrUncertaintyNP9) show NC gr 
 gsave  2268 975 0 0 C 358.592 49.2433 t 90 r /Helvetica findfont 23.9903 sf 0 0 m (EL_EFF_ID_SIMPLIFIED_UncorrUncertaintyNP12) show NC gr 
 gsave  2268 975 0 0 C 378.795 49.2433 t 90 r /Helvetica findfont 23.9903 sf 0 0 m (EL_EFF_ID_SIMPLIFIED_UncorrUncertaintyNP13) show NC gr 
 gsave  2268 975 0 0 C 398.997 47.9806 t 90 r /Helvetica findfont 23.9903 sf 0 0 m (EL_EFF_ID_SIMPLIFIED_UncorrUncertaintyNP14) show NC gr 
 gsave  2268 975 0 0 C 417.937 47.9806 t 90 r /Helvetica findfont 23.9903 sf 0 0 m (EL_EFF_ID_SIMPLIFIED_UncorrUncertaintyNP15) show NC gr 
 gsave  2268 975 0 0 C 438.139 47.9806 t 90 r /Helvetica findfont 23.9903 sf 0 0 m (EL_EFF_ID_SIMPLIFIED_UncorrUncertaintyNP16) show NC gr 
 gsave  2268 975 0 0 C 458.341 47.9806 t 90 r /Helvetica findfont 23.9903 sf 0 0 m (EL_EFF_ID_SIMPLIFIED_UncorrUncertaintyNP17) show NC gr 
 gsave  2268 975 0 0 C 477.281 61.8698 t 90 r /Helvetica findfont 23.9903 sf 0 0 m (EL_EFF_ID_SIMPLIFIED_UncorrUncertaintyNP3) show NC gr 
 gsave  2268 975 0 0 C 497.483 61.8698 t 90 r /Helvetica findfont 23.9903 sf 0 0 m (EL_EFF_ID_SIMPLIFIED_UncorrUncertaintyNP4) show NC gr 
 gsave  2268 975 0 0 C 517.686 61.8698 t 90 r /Helvetica findfont 23.9903 sf 0 0 m (EL_EFF_ID_SIMPLIFIED_UncorrUncertaintyNP5) show NC gr 
 gsave  2268 975 0 0 C 536.626 61.8698 t 90 r /Helvetica findfont 23.9903 sf 0 0 m (EL_EFF_ID_SIMPLIFIED_UncorrUncertaintyNP6) show NC gr 
 gsave  2268 975 0 0 C 556.828 61.8698 t 90 r /Helvetica findfont 23.9903 sf 0 0 m (EL_EFF_ID_SIMPLIFIED_UncorrUncertaintyNP7) show NC gr 
 gsave  2268 975 0 0 C 577.03 61.8698 t 90 r /Helvetica findfont 23.9903 sf 0 0 m (EL_EFF_ID_SIMPLIFIED_UncorrUncertaintyNP8) show NC gr 
 gsave  2268 975 0 0 C 595.97 68.183 t 90 r /Helvetica findfont 23.9903 sf 0 0 m (EL_EFF_Iso_TOTAL_1NPCOR_PLUS_UNCOR) show NC gr 
 gsave  2268 975 0 0 C 616.172 44.1927 t 90 r /Helvetica findfont 23.9903 sf 0 0 m (EL_EFF_Reco_TOTAL_1NPCOR_PLUS_UNCOR) show NC gr 
 gsave  2268 975 0 0 C 636.375 -5.05059 t 90 r /Helvetica findfont 23.9903 sf 0 0 m (EL_EFF_TriggerEff_TOTAL_1NPCOR_PLUS_UNCOR) show NC gr 
 gsave  2268 975 0 0 C 654.052 364.905 t 90 r /Helvetica findfont 23.9903 sf 0 0 m (FT_EFF_Eigen_B_0) show NC gr 
 gsave  2268 975 0 0 C 674.254 368.693 t 90 r /Helvetica findfont 23.9903 sf 0 0 m (FT_EFF_Eigen_B_1) show NC gr 
 gsave  2268 975 0 0 C 694.457 364.905 t 90 r /Helvetica findfont 23.9903 sf 0 0 m (FT_EFF_Eigen_B_2) show NC gr 
 gsave  2268 975 0 0 C 715.922 363.643 t 90 r /Helvetica findfont 23.9903 sf 0 0 m (FT_EFF_Eigen_C_0) show NC gr 
 gsave  2268 975 0 0 C 734.861 367.431 t 90 r /Helvetica findfont 23.9903 sf 0 0 m (FT_EFF_Eigen_C_1) show NC gr 
 gsave  2268 975 0 0 C 755.064 363.643 t 90 r /Helvetica findfont 23.9903 sf 0 0 m (FT_EFF_Eigen_C_2) show NC gr 
 gsave  2268 975 0 0 C 774.003 329.551 t 90 r /Helvetica findfont 23.9903 sf 0 0 m (FT_EFF_Eigen_Light_0) show NC gr 
 gsave  2268 975 0 0 C 792.943 333.339 t 90 r /Helvetica findfont 23.9903 sf 0 0 m (FT_EFF_Eigen_Light_1) show NC gr 
 gsave  2268 975 0 0 C 813.146 328.289 t 90 r /Helvetica findfont 23.9903 sf 0 0 m (FT_EFF_Eigen_Light_2) show NC gr 
 gsave  2268 975 0 0 C 833.348 329.551 t 90 r /Helvetica findfont 23.9903 sf 0 0 m (FT_EFF_Eigen_Light_3) show NC gr 
 gsave  2268 975 0 0 C 852.288 345.966 t 90 r /Helvetica findfont 23.9903 sf 0 0 m (FT_EFF_extrapolation) show NC gr 
 gsave  2268 975 0 0 C 872.49 207.074 t 90 r /Helvetica findfont 23.9903 sf 0 0 m (FT_EFF_extrapolation_from_charm) show NC gr 
 gsave  2268 975 0 0 C 893.955 344.703 t 90 r /Helvetica findfont 23.9903 sf 0 0 m (JET_BJES_Response) show NC gr 
 gsave  2268 975 0 0 C 912.895 289.146 t 90 r /Helvetica findfont 23.9903 sf 0 0 m (JET_EffectiveNP_Detector1) show NC gr 
 gsave  2268 975 0 0 C 933.097 285.359 t 90 r /Helvetica findfont 23.9903 sf 0 0 m (JET_EffectiveNP_Detector2) show NC gr 
 gsave  2268 975 0 0 C 953.3 314.399 t 90 r /Helvetica findfont 23.9903 sf 0 0 m (JET_EffectiveNP_Mixed1) show NC gr 
 gsave  2268 975 0 0 C 972.239 310.612 t 90 r /Helvetica findfont 23.9903 sf 0 0 m (JET_EffectiveNP_Mixed2) show NC gr 
 gsave  2268 975 0 0 C 992.442 310.612 t 90 r /Helvetica findfont 23.9903 sf 0 0 m (JET_EffectiveNP_Mixed3) show NC gr 
 gsave  2268 975 0 0 C 1011.38 276.52 t 90 r /Helvetica findfont 23.9903 sf 0 0 m (JET_EffectiveNP_Modelling1) show NC gr 
 gsave  2268 975 0 0 C 1030.32 272.732 t 90 r /Helvetica findfont 23.9903 sf 0 0 m (JET_EffectiveNP_Modelling2) show NC gr 
 gsave  2268 975 0 0 C 1050.52 272.732 t 90 r /Helvetica findfont 23.9903 sf 0 0 m (JET_EffectiveNP_Modelling3) show NC gr 
 gsave  2268 975 0 0 C 1070.73 272.732 t 90 r /Helvetica findfont 23.9903 sf 0 0 m (JET_EffectiveNP_Modelling4) show NC gr 
 gsave  2268 975 0 0 C 1090.93 275.257 t 90 r /Helvetica findfont 23.9903 sf 0 0 m (JET_EffectiveNP_Statistical1) show NC gr 
 gsave  2268 975 0 0 C 1111.13 271.469 t 90 r /Helvetica findfont 23.9903 sf 0 0 m (JET_EffectiveNP_Statistical2) show NC gr 
 gsave  2268 975 0 0 C 1131.33 271.469 t 90 r /Helvetica findfont 23.9903 sf 0 0 m (JET_EffectiveNP_Statistical3) show NC gr 
 gsave  2268 975 0 0 C 1150.27 271.469 t 90 r /Helvetica findfont 23.9903 sf 0 0 m (JET_EffectiveNP_Statistical4) show NC gr 
 gsave  2268 975 0 0 C 1170.48 271.469 t 90 r /Helvetica findfont 23.9903 sf 0 0 m (JET_EffectiveNP_Statistical5) show NC gr 
 gsave  2268 975 0 0 C 1190.68 271.469 t 90 r /Helvetica findfont 23.9903 sf 0 0 m (JET_EffectiveNP_Statistical6) show NC gr 
 gsave  2268 975 0 0 C 1208.35 219.701 t 90 r /Helvetica findfont 23.9903 sf 0 0 m (JET_EtaIntercalibration_Modelling) show NC gr 
 gsave  2268 975 0 0 C 1229.82 123.74 t 90 r /Helvetica findfont 23.9903 sf 0 0 m (JET_EtaIntercalibration_NonClosure_highE) show NC gr 
 gsave  2268 975 0 0 C 1250.02 109.85 t 90 r /Helvetica findfont 23.9903 sf 0 0 m (JET_EtaIntercalibration_NonClosure_negEta) show NC gr 
 gsave  2268 975 0 0 C 1268.96 109.85 t 90 r /Helvetica findfont 23.9903 sf 0 0 m (JET_EtaIntercalibration_NonClosure_posEta) show NC gr 
 gsave  2268 975 0 0 C 1289.16 224.751 t 90 r /Helvetica findfont 23.9903 sf 0 0 m (JET_EtaIntercalibration_TotalStat) show NC gr 
 gsave  2268 975 0 0 C 1309.37 315.662 t 90 r /Helvetica findfont 23.9903 sf 0 0 m (JET_Flavor_Composition) show NC gr 
 gsave  2268 975 0 0 C 1327.04 339.652 t 90 r /Helvetica findfont 23.9903 sf 0 0 m (JET_Flavor_Response) show NC gr 
 gsave  2268 975 0 0 C 1348.51 273.995 t 90 r /Helvetica findfont 23.9903 sf 0 0 m (JET_JER_DataVsMC_MC16) show NC gr 
 gsave  2268 975 0 0 C 1368.71 301.773 t 90 r /Helvetica findfont 23.9903 sf 0 0 m (JET_JER_EffectiveNP_10) show NC gr 
 gsave  2268 975 0 0 C 1387.65 305.561 t 90 r /Helvetica findfont 23.9903 sf 0 0 m (JET_JER_EffectiveNP_11) show NC gr 
 gsave  2268 975 0 0 C 1407.85 207.074 t 90 r /Helvetica findfont 23.9903 sf 0 0 m (JET_JER_EffectiveNP_12restTerm) show NC gr 
 gsave  2268 975 0 0 C 1428.06 319.45 t 90 r /Helvetica findfont 23.9903 sf 0 0 m (JET_JER_EffectiveNP_1) show NC gr 
 gsave  2268 975 0 0 C 1447 315.662 t 90 r /Helvetica findfont 23.9903 sf 0 0 m (JET_JER_EffectiveNP_2) show NC gr 
 gsave  2268 975 0 0 C 1467.2 315.662 t 90 r /Helvetica findfont 23.9903 sf 0 0 m (JET_JER_EffectiveNP_3) show NC gr 
 gsave  2268 975 0 0 C 1487.4 315.662 t 90 r /Helvetica findfont 23.9903 sf 0 0 m (JET_JER_EffectiveNP_4) show NC gr 
 gsave  2268 975 0 0 C 1506.34 315.662 t 90 r /Helvetica findfont 23.9903 sf 0 0 m (JET_JER_EffectiveNP_5) show NC gr 
 gsave  2268 975 0 0 C 1526.54 315.662 t 90 r /Helvetica findfont 23.9903 sf 0 0 m (JET_JER_EffectiveNP_6) show NC gr 
 gsave  2268 975 0 0 C 1546.74 315.662 t 90 r /Helvetica findfont 23.9903 sf 0 0 m (JET_JER_EffectiveNP_7) show NC gr 
 gsave  2268 975 0 0 C 1565.68 315.662 t 90 r /Helvetica findfont 23.9903 sf 0 0 m (JET_JER_EffectiveNP_8) show NC gr 
 gsave  2268 975 0 0 C 1585.89 315.662 t 90 r /Helvetica findfont 23.9903 sf 0 0 m (JET_JER_EffectiveNP_9) show NC gr 
 gsave  2268 975 0 0 C 1604.83 391.421 t 90 r /Helvetica findfont 23.9903 sf 0 0 m (JET_JvtEfficiency) show NC gr 
 gsave  2268 975 0 0 C 1626.29 348.491 t 90 r /Helvetica findfont 23.9903 sf 0 0 m (JET_Pileup_OffsetMu) show NC gr 
 gsave  2268 975 0 0 C 1645.23 332.077 t 90 r /Helvetica findfont 23.9903 sf 0 0 m (JET_Pileup_OffsetNPV) show NC gr 
 gsave  2268 975 0 0 C 1664.17 367.431 t 90 r /Helvetica findfont 23.9903 sf 0 0 m (JET_Pileup_PtTerm) show NC gr 
 gsave  2268 975 0 0 C 1684.37 304.298 t 90 r /Helvetica findfont 23.9903 sf 0 0 m (JET_Pileup_RhoTopology) show NC gr 
 gsave  2268 975 0 0 C 1704.58 291.672 t 90 r /Helvetica findfont 23.9903 sf 0 0 m (JET_PunchThrough_MC16) show NC gr 
 gsave  2268 975 0 0 C 1724.78 320.713 t 90 r /Helvetica findfont 23.9903 sf 0 0 m (MET_SoftTrk_ResoPara) show NC gr 
 gsave  2268 975 0 0 C 1744.98 320.713 t 90 r /Helvetica findfont 23.9903 sf 0 0 m (MET_SoftTrk_ResoPerp) show NC gr 
 gsave  2268 975 0 0 C 1763.92 366.168 t 90 r /Helvetica findfont 23.9903 sf 0 0 m (MET_SoftTrk_Scale) show NC gr 
 gsave  2268 975 0 0 C 1784.12 318.187 t 90 r /Helvetica findfont 23.9903 sf 0 0 m (MUON_EFF_ISO_STAT) show NC gr 
 gsave  2268 975 0 0 C 1804.32 332.077 t 90 r /Helvetica findfont 23.9903 sf 0 0 m (MUON_EFF_ISO_SYS) show NC gr 
 gsave  2268 975 0 0 C 1823.26 291.672 t 90 r /Helvetica findfont 23.9903 sf 0 0 m (MUON_EFF_RECO_STAT) show NC gr 
 gsave  2268 975 0 0 C 1843.47 305.561 t 90 r /Helvetica findfont 23.9903 sf 0 0 m (MUON_EFF_RECO_SYS) show NC gr 
 gsave  2268 975 0 0 C 1863.67 297.985 t 90 r /Helvetica findfont 23.9903 sf 0 0 m (MUON_EFF_TTVA_STAT) show NC gr 
 gsave  2268 975 0 0 C 1882.61 311.874 t 90 r /Helvetica findfont 23.9903 sf 0 0 m (MUON_EFF_TTVA_SYS) show NC gr 
 gsave  2268 975 0 0 C 1902.81 231.065 t 90 r /Helvetica findfont 23.9903 sf 0 0 m (MUON_EFF_TrigStatUncertainty) show NC gr 
 gsave  2268 975 0 0 C 1923.01 227.277 t 90 r /Helvetica findfont 23.9903 sf 0 0 m (MUON_EFF_TrigSystUncertainty) show NC gr 
 gsave  2268 975 0 0 C 1941.95 469.705 t 90 r /Helvetica findfont 23.9903 sf 0 0 m (MUON_ID) show NC gr 
 gsave  2268 975 0 0 C 1962.16 457.079 t 90 r /Helvetica findfont 23.9903 sf 0 0 m (MUON_MS) show NC gr 
 gsave  2268 975 0 0 C 1982.36 273.995 t 90 r /Helvetica findfont 23.9903 sf 0 0 m (MUON_SAGITTA_RESBIAS) show NC gr 
 gsave  2268 975 0 0 C 2001.3 414.149 t 90 r /Helvetica findfont 23.9903 sf 0 0 m (MUON_SCALE) show NC gr 
 gsave  2268 975 0 0 C 2021.5 416.674 t 90 r /Helvetica findfont 23.9903 sf 0 0 m (PRW_DATASF) show NC gr 
 gsave  2268 975 0 0 C 2040.44 406.573 t 90 r /Helvetica findfont 23.9903 sf 0 0 m (theo_vbf_alphas) show NC gr 
 gsave  2268 975 0 0 C 2059.38 375.007 t 90 r /Helvetica findfont 23.9903 sf 0 0 m (theo_vbf_generator) show NC gr 
 gsave  2268 975 0 0 C 2079.58 398.997 t 90 r /Helvetica findfont 23.9903 sf 0 0 m (theo_vbf_pdf4lhc) show NC gr 
 gsave  2268 975 0 0 C 2101.05 420.462 t 90 r /Helvetica findfont 23.9903 sf 0 0 m (theo_vbf_scale) show NC gr 
 gsave  2268 975 0 0 C 2119.99 400.26 t 90 r /Helvetica findfont 23.9903 sf 0 0 m (theo_vbf_shower) show NC gr 
 gsave  2268 975 0 0 C 2140.19 474.756 t 90 r /Helvetica findfont 23.9903 sf 0 0 m (atlas_lumi) show NC gr 
 gsave  2268 975 0 0 C 2160.39 398.997 t 90 r /Helvetica findfont 23.9903 sf 0 0 m (EG_SCALE_AF2) show NC gr 
 gsave  2268 975 0 0 C 2179.33 232.327 t 90 r /Helvetica findfont 23.9903 sf 0 0 m (EL_EFF_ID_CorrUncertaintyNP0) show NC gr 
 gsave  2268 975 0 0 C 2199.53 236.115 t 90 r /Helvetica findfont 23.9903 sf 0 0 m (EL_EFF_ID_CorrUncertaintyNP1) show NC gr 
 gsave  2268 975 0 0 C 2219.74 232.327 t 90 r /Helvetica findfont 23.9903 sf 0 0 m (EL_EFF_ID_CorrUncertaintyNP2) show NC gr  45 613 m -28 Y s 263 613 m -28 Y s 481 613 m -28 Y s 698 613 m -28 Y s 916 613 m -28 Y s 1134 613 m -28 Y s 1352 613 m -28 Y
 s 1569 613 m -28 Y s 1787 613 m -28 Y s 2005 613 m -28 Y s 2222 613 m -28 Y s 45 960 m 2177 X s 45 932 m 28 Y s 263 932 m 28 Y s 481 932 m 28 Y s 698 932 m 28 Y s 916 932 m 28 Y s 1134 932 m 28 Y s 1352 932 m 28 Y s 1569 932 m 28 Y s 1787 932 m 28 Y
 s 2005 932 m 28 Y s 2222 932 m 28 Y s 45 585 m 375 Y s 72 585 m -27 X s 58 594 m -13 X s 58 604 m -13 X s 58 613 m -13 X s 58 622 m -13 X s 72 632 m -27 X s 58 641 m -13 X s 58 651 m -13 X s 58 660 m -13 X s 58 669 m -13 X s 72 679 m -27 X s 58 688
 m -13 X s 58 697 m -13 X s 58 707 m -13 X s 58 716 m -13 X s 72 726 m -27 X s 58 735 m -13 X s 58 744 m -13 X s 58 754 m -13 X s 58 763 m -13 X s 72 773 m -27 X s 58 782 m -13 X s 58 791 m -13 X s 58 801 m -13 X s 58 810 m -13 X s 72 819 m -27 X s
 58 829 m -13 X s 58 838 m -13 X s 58 848 m -13 X s 58 857 m -13 X s 72 866 m -27 X s 58 876 m -13 X s 58 885 m -13 X s 58 894 m -13 X s 58 904 m -13 X s 72 913 m -27 X s 58 923 m -13 X s 58 932 m -13 X s 58 941 m -13 X s 58 951 m -13 X s 72 960 m
 -27 X s
 gsave  2268 975 0 0 C 20.2024 575.768 t 0 r /Helvetica findfont 23.9903 sf 0 0 m (2) show NC gr 
 gsave  2268 975 0 0 C 7.57589 575.768 t 0 r /Symbol findfont 23.9903 sf 0 0 m (-) show NC gr 
 gsave  2268 975 0 0 C 0 623.748 t 0 r /Helvetica findfont 23.9903 sf 0 0 m (1.5) show NC gr 
 gsave  2268 975 0 0 C -12.6265 623.748 t 0 r /Symbol findfont 23.9903 sf 0 0 m (-) show NC gr 
 gsave  2268 975 0 0 C 23.9903 669.204 t 0 r /Helvetica findfont 23.9903 sf 0 0 m (1) show NC gr 
 gsave  2268 975 0 0 C 11.3638 669.204 t 0 r /Symbol findfont 23.9903 sf 0 0 m (-) show NC gr 
 gsave  2268 975 0 0 C 0 717.184 t 0 r /Helvetica findfont 23.9903 sf 0 0 m (0.5) show NC gr 
 gsave  2268 975 0 0 C -12.6265 717.184 t 0 r /Symbol findfont 23.9903 sf 0 0 m (-) show NC gr 
 gsave  2268 975 0 0 C 20.2024 763.902 t 0 r /Helvetica findfont 23.9903 sf 0 0 m (0) show NC gr 
 gsave  2268 975 0 0 C 0 810.62 t 0 r /Helvetica findfont 23.9903 sf 0 0 m (0.5) show NC gr 
 gsave  2268 975 0 0 C 23.9903 857.338 t 0 r /Helvetica findfont 23.9903 sf 0 0 m (1) show NC gr 
 gsave  2268 975 0 0 C 0 905.319 t 0 r /Helvetica findfont 23.9903 sf 0 0 m (1.5) show NC gr 
 gsave  2268 975 0 0 C 20.2024 950.774 t 0 r /Helvetica findfont 23.9903 sf 0 0 m (2) show NC gr 
 gsave  2268 975 0 0 C -45.4553 945.724 t 90 r /Symbol findfont 29.0409 sf 0 0 m (q) show NC gr  6 lw
 gsave  2268 975 0 0 C -45.4553 930.572 t 90 r /Symbol findfont 29.0409 sf 0 0 m (d) show NC gr 
 gsave  2268 975 0 0 C -45.4553 920.471 t 90 r /Helvetica findfont 29.0409 sf 0 0 m (/) show NC gr 
 gsave  2268 975 0 0 C -45.4553 905.319 t 90 r /Symbol findfont 29.0409 sf 0 0 m (q) show NC gr 
 gsave  2268 975 0 0 C -45.4553 896.48 t 90 r /Helvetica findfont 29.0409 sf 0 0 m (\255) show NC gr 
 gsave  2268 975 0 0 C -45.4553 881.329 t 90 r /Symbol findfont 29.0409 sf 0 0 m (q) show NC gr  3 lw 2222 585 m 375 Y s 2196 585 m 26 X s 2209 594 m 13 X s 2209 604 m 13 X s 2209 613 m 13 X s 2209 622 m 13 X s 2196 632 m 26 X s 2209 641 m 13 X s
 2209 651 m 13 X s 2209 660 m 13 X s 2209 669 m 13 X s 2196 679 m 26 X s 2209 688 m 13 X s 2209 697 m 13 X s 2209 707 m 13 X s 2209 716 m 13 X s 2196 726 m 26 X s 2209 735 m 13 X s 2209 744 m 13 X s 2209 754 m 13 X s 2209 763 m 13 X s 2196 773 m 26 X
 s 2209 782 m 13 X s 2209 791 m 13 X s 2209 801 m 13 X s 2209 810 m 13 X s 2196 819 m 26 X s 2209 829 m 13 X s 2209 838 m 13 X s 2209 848 m 13 X s 2209 857 m 13 X s 2196 866 m 26 X s 2209 876 m 13 X s 2209 885 m 13 X s 2209 894 m 13 X s 2209 904 m 13
 X s 2196 913 m 26 X s 2209 923 m 13 X s 2209 932 m 13 X s 2209 941 m 13 X s 2209 951 m 13 X s 2196 960 m 26 X s 55 767 m 93 Y s 53 860 m 5 X s 55 767 m -93 Y s 53 674 m 5 X s 75 774 m 85 Y s 73 859 m 5 X s 75 774 m -86 Y s 73 688 m 5 X s 95 769 m 93
 Y s 92 862 m 5 X s 95 769 m -94 Y s 92 675 m 5 X s 115 769 m 93 Y s 112 862 m 5 X s 115 769 m -93 Y s 112 676 m 5 X s 134 769 m 93 Y s 132 862 m 5 X s 134 769 m -93 Y s 132 676 m 5 X s 154 767 m 93 Y s 152 860 m 5 X s 154 767 m -93 Y s 152 674 m 5 X
 s 174 766 m 94 Y s 171 860 m 6 X s 174 766 m -93 Y s 171 673 m 6 X s 194 766 m 93 Y s 191 859 m 5 X s 194 766 m -93 Y s 191 673 m 5 X s 214 768 m 93 Y s 211 861 m 5 X s 214 768 m -93 Y s 211 675 m 5 X s 233 768 m 93 Y s 231 861 m 5 X s 233 768 m -93
 Y s 231 675 m 5 X s 253 768 m 93 Y s 251 861 m 5 X s 253 768 m -93 Y s 251 675 m 5 X s 273 768 m 93 Y s 270 861 m 5 X s 273 768 m -93 Y s 270 675 m 5 X s 293 768 m 93 Y s 290 861 m 5 X s 293 768 m -93 Y s 290 675 m 5 X s 313 768 m 93 Y s 310 861 m 5
 X s 313 768 m -93 Y s 310 675 m 5 X s 332 770 m 93 Y s 330 863 m 5 X s 332 770 m -94 Y s 330 676 m 5 X s 352 769 m 93 Y s 350 862 m 5 X s 352 769 m -93 Y s 350 676 m 5 X s 372 768 m 94 Y s 369 862 m 5 X s 372 768 m -93 Y s 369 675 m 5 X s 392 768 m
 93 Y s 389 861 m 5 X s 392 768 m -93 Y s 389 675 m 5 X s 411 768 m 93 Y s 409 861 m 5 X s 411 768 m -94 Y s 409 674 m 5 X s 431 767 m 94 Y s 429 861 m 5 X s 431 767 m -93 Y s 429 674 m 5 X s 451 769 m 93 Y s 449 862 m 5 X s 451 769 m -93 Y s 449 676
 m 5 X s 471 769 m 93 Y s 468 862 m 5 X s 471 769 m -94 Y s 468 675 m 5 X s 491 768 m 94 Y s 488 862 m 5 X s 491 768 m -93 Y s 488 675 m 5 X s 510 768 m 93 Y s 508 861 m 5 X s 510 768 m -93 Y s 508 675 m 5 X s 530 768 m 93 Y s 528 861 m 5 X s 530 768
 m -94 Y s 528 674 m 5 X s 550 766 m 94 Y s 547 860 m 6 X s 550 766 m -93 Y s 547 673 m 6 X s 570 773 m 93 Y s 567 866 m 5 X s 570 773 m -94 Y s 567 679 m 5 X s 590 770 m 93 Y s 587 863 m 5 X s 590 770 m -93 Y s 587 677 m 5 X s 609 770 m 93 Y s 607
 863 m 5 X s 609 770 m -93 Y s 607 677 m 5 X s 629 768 m 93 Y s 627 861 m 5 X s 629 768 m -93 Y s 627 675 m 5 X s 649 762 m 93 Y s 646 855 m 6 X s 649 762 m -93 Y s 646 669 m 6 X s 669 767 m 93 Y s 666 860 m 5 X s 669 767 m -93 Y s 666 674 m 5 X s
 689 772 m 93 Y s 686 865 m 5 X s 689 772 m -94 Y s 686 678 m 5 X s 708 767 m 93 Y s 706 860 m 5 X s 708 767 m -93 Y s 706 674 m 5 X s 728 769 m 93 Y s 726 862 m 5 X s 728 769 m -94 Y s 726 675 m 5 X s 748 768 m 93 Y s 745 861 m 5 X s 748 768 m -93 Y
 s 745 675 m 5 X s 768 772 m 93 Y s 765 865 m 5 X s 768 772 m -93 Y s 765 679 m 5 X s 788 768 m 93 Y s 785 861 m 5 X s 788 768 m -93 Y s 785 675 m 5 X s 807 769 m 93 Y s 805 862 m 5 X s 807 769 m -93 Y s 805 676 m 5 X s 827 768 m 93 Y s 825 861 m 5 X
 s 827 768 m -93 Y s 825 675 m 5 X s 847 767 m 93 Y s 844 860 m 5 X s 847 767 m -93 Y s 844 674 m 5 X s 867 768 m 93 Y s 864 861 m 5 X s 867 768 m -93 Y s 864 675 m 5 X s 886 771 m 93 Y s 884 864 m 5 X s 886 771 m -93 Y s 884 678 m 5 X s 906 763 m 94
 Y s 904 857 m 5 X s 906 763 m -93 Y s 904 670 m 5 X s 926 767 m 93 Y s 924 860 m 5 X s 926 767 m -93 Y s 924 674 m 5 X s 946 773 m 93 Y s 943 866 m 5 X s 946 773 m -93 Y s 943 680 m 5 X s 966 772 m 93 Y s 963 865 m 5 X s 966 772 m -93 Y s 963 679 m
 5 X s 985 767 m 94 Y s 983 861 m 5 X s 985 767 m -93 Y s 983 674 m 5 X s 1005 775 m 91 Y s 1003 866 m 5 X s 1005 775 m -91 Y s 1003 684 m 5 X s 1025 761 m 93 Y s 1022 854 m 6 X s 1025 761 m -94 Y s 1022 667 m 6 X s 1045 762 m 93 Y s 1042 855 m 5 X s
 1045 762 m -93 Y s 1042 669 m 5 X s 1065 769 m 93 Y s 1062 862 m 5 X s 1065 769 m -93 Y s 1062 676 m 5 X s 1084 768 m 94 Y s 1082 862 m 5 X s 1084 768 m -93 Y s 1082 675 m 5 X s 1104 772 m 94 Y s 1102 866 m 5 X s 1104 772 m -93 Y s 1102 679 m 5 X s
 1124 768 m 93 Y s 1121 861 m 5 X s 1124 768 m -93 Y s 1121 675 m 5 X s 1144 766 m 94 Y s 1141 860 m 5 X s 1144 766 m -93 Y s 1141 673 m 5 X s 1164 763 m 94 Y s 1161 857 m 5 X s 1164 763 m -93 Y s 1161 670 m 5 X s 1183 768 m 93 Y s 1181 861 m 5 X s
 1183 768 m -93 Y s 1181 675 m 5 X s 1203 764 m 90 Y s 1201 854 m 5 X s 1203 764 m -90 Y s 1201 674 m 5 X s 1223 768 m 93 Y s 1220 861 m 5 X s 1223 768 m -93 Y s 1220 675 m 5 X s 1243 756 m 93 Y s 1240 849 m 5 X s 1243 756 m -93 Y s 1240 663 m 5 X s
 1262 767 m 93 Y s 1260 860 m 5 X s 1262 767 m -93 Y s 1260 674 m 5 X s 1282 779 m 92 Y s 1280 871 m 5 X s 1282 779 m -93 Y s 1280 686 m 5 X s 1302 691 m 88 Y s 1300 779 m 5 X s 1302 691 m -89 Y s 1300 602 m 5 X s 1322 764 m 91 Y s 1319 855 m 5 X s
 1322 764 m -90 Y s 1319 674 m 5 X s 1342 705 m 86 Y s 1339 791 m 5 X s 1342 705 m -86 Y s 1339 619 m 5 X s 1361 754 m 91 Y s 1359 845 m 5 X s 1361 754 m -92 Y s 1359 662 m 5 X s 1381 721 m 92 Y s 1379 813 m 5 X s 1381 721 m -92 Y s 1379 629 m 5 X s
 1401 741 m 90 Y s 1399 831 m 5 X s 1401 741 m -90 Y s 1399 651 m 5 X s 1421 689 m 82 Y s 1418 771 m 5 X s 1421 689 m -83 Y s 1418 606 m 5 X s 1441 816 m 82 Y s 1438 898 m 5 X s 1441 816 m -82 Y s 1438 734 m 5 X s 1460 750 m 86 Y s 1458 836 m 5 X s
 1460 750 m -87 Y s 1458 663 m 5 X s 1480 754 m 84 Y s 1478 838 m 5 X s 1480 754 m -84 Y s 1478 670 m 5 X s 1500 748 m 87 Y s 1497 835 m 6 X s 1500 748 m -87 Y s 1497 661 m 6 X s 1520 807 m 89 Y s 1517 896 m 5 X s 1520 807 m -89 Y s 1517 718 m 5 X s
 1540 734 m 88 Y s 1537 822 m 5 X s 1540 734 m -88 Y s 1537 646 m 5 X s 1559 724 m 91 Y s 1557 815 m 5 X s 1559 724 m -91 Y s 1557 633 m 5 X s 1579 699 m 89 Y s 1577 788 m 5 X s 1579 699 m -89 Y s 1577 610 m 5 X s 1599 767 m 93 Y s 1596 860 m 5 X s
 1599 767 m -93 Y s 1596 674 m 5 X s 1619 758 m 89 Y s 1616 847 m 5 X s 1619 758 m -89 Y s 1616 669 m 5 X s 1639 755 m 91 Y s 1636 846 m 5 X s 1639 755 m -91 Y s 1636 664 m 5 X s 1658 766 m 93 Y s 1656 859 m 5 X s 1658 766 m -93 Y s 1656 673 m 5 X s
 1678 754 m 90 Y s 1676 844 m 5 X s 1678 754 m -90 Y s 1676 664 m 5 X s 1698 768 m 93 Y s 1695 861 m 5 X s 1698 768 m -93 Y s 1695 675 m 5 X s 1718 879 m 81 Y s 1715 960 m 5 X s 1718 879 m -88 Y s 1715 791 m 5 X s 1737 792 m 86 Y s 1735 878 m 5 X s
 1737 792 m -85 Y s 1735 707 m 5 X s 1757 775 m 92 Y s 1755 867 m 5 X s 1757 775 m -92 Y s 1755 683 m 5 X s 1777 768 m 94 Y s 1775 862 m 5 X s 1777 768 m -93 Y s 1775 675 m 5 X s 1797 770 m 93 Y s 1794 863 m 5 X s 1797 770 m -94 Y s 1794 676 m 5 X s
 1817 768 m 93 Y s 1814 861 m 5 X s 1817 768 m -93 Y s 1814 675 m 5 X s 1836 769 m 93 Y s 1834 862 m 5 X s 1836 769 m -93 Y s 1834 676 m 5 X s 1856 768 m 93 Y s 1854 861 m 5 X s 1856 768 m -93 Y s 1854 675 m 5 X s 1876 768 m 93 Y s 1873 861 m 6 X s
 1876 768 m -93 Y s 1873 675 m 6 X s 1896 768 m 94 Y s 1893 862 m 5 X s 1896 768 m -93 Y s 1893 675 m 5 X s 1916 761 m 93 Y s 1913 854 m 5 X s 1916 761 m -93 Y s 1913 668 m 5 X s 1935 776 m 92 Y s 1933 868 m 5 X s 1935 776 m -93 Y s 1933 683 m 5 X s
 1955 781 m 92 Y s 1953 873 m 5 X s 1955 781 m -93 Y s 1953 688 m 5 X s 1975 768 m 93 Y s 1972 861 m 6 X s 1975 768 m -93 Y s 1972 675 m 6 X s 1995 776 m 80 Y s 1992 856 m 5 X s 1995 776 m -81 Y s 1992 695 m 5 X s 2015 751 m 92 Y s 2012 843 m 5 X s
 2015 751 m -93 Y s 2012 658 m 5 X s 2034 772 m 94 Y s 2032 866 m 5 X s 2034 772 m -93 Y s 2032 679 m 5 X s 2054 756 m 92 Y s 2052 848 m 5 X s 2054 756 m -92 Y s 2052 664 m 5 X s 2074 771 m 93 Y s 2071 864 m 5 X s 2074 771 m -93 Y s 2071 678 m 5 X s
 2094 772 m 93 Y s 2091 865 m 5 X s 2094 772 m -94 Y s 2091 678 m 5 X s 2114 767 m 93 Y s 2111 860 m 5 X s 2114 767 m -93 Y s 2111 674 m 5 X s 2133 778 m 93 Y s 2131 871 m 5 X s 2133 778 m -93 Y s 2131 685 m 5 X s 2153 768 m 93 Y s 2151 861 m 5 X s
 2153 768 m -93 Y s 2151 675 m 5 X s 2173 768 m 93 Y s 2170 861 m 5 X s 2173 768 m -93 Y s 2170 675 m 5 X s 2193 768 m 93 Y s 2190 861 m 5 X s 2193 768 m -93 Y s 2190 675 m 5 X s 2212 768 m 93 Y s 2210 861 m 5 X s 2212 768 m -93 Y s 2210 675 m 5 X s
 1 1 1 c black /w 10 def /w2 {w 2 div} def /w3 {w 3 div} def 55 767 75 774 95 769 115 769 134 769 154 767 174 766 194 766 214 768 233 768 253 768 273 768 293 768 313 768 332 770 352 769 372 768 392 768 411 768 431 767 451 769 471 769 491 768 510 768
 530 768 550 766 570 773 590 770 609 770 629 768 649 762 669 767 689 772 708 767 728 769 748 768 768 772 788 768 807 769 827 768 847 767 867 768 886 771 906 763 926 767 946 773 966 772 985 767 1005 775 1025 761 1045 762 1065 769 1084 768 1104 772
 1124 768 1144 766 1164 763 1183 768 1203 764 1223 768 1243 756 1262 767 1282 779 1302 691 1322 764 1342 705 1361 754 1381 721 1401 741 1421 689 1441 816 1460 750 1480 754 1500 748 1520 807 1540 734 1559 724 1579 699 1599 767 1619 758 1639 755 1658
 766 1678 754 1698 768 1718 879 1737 792 1757 775 1777 768 1797 770 1817 768 1836 769 1856 768 1876 768 1896 768 1916 761 1935 776 1955 781 1975 768 1995 776 2015 751 100 { m20} R 2034 772 2054 756 2074 771 2094 772 2114 767 2133 778 2153 768 2173
 768 2193 768 2212 768 10 { m20} R
 gr  gr showpage
end
%%EOF
