%!PS-Adobe-2.0 EPSF-2.0
%%BoundingBox:  0 0 567 244
%%Title: cCNp1_matrix_DYjj.eps: 
%%Creator: ROOT Version 6.24/06
%%CreationDate: Mon Jan  3 21:49:45 2022
%%DocumentNeededResources: ProcSet (FontSetInit)
%%EndComments
%%BeginProlog
80 dict begin
/s {stroke} def /l {lineto} def /m {moveto} def /t {translate} def
/r {rotate} def /rl {roll}  def /R {repeat} def
/d {rlineto} def /rm {rmoveto} def /gr {grestore} def /f {eofill} def
/c {setrgbcolor} def /black {0 setgray} def /sd {setdash} def
/cl {closepath} def /sf {scalefont setfont} def /lw {setlinewidth} def
/box {m dup 0 exch d exch 0 d 0 exch neg d cl} def
/NC{systemdict begin initclip end}def/C{NC box clip newpath}def
/bl {box s} def /bf {gsave box gsave f grestore 1 lw [] 0 sd s grestore} def /Y { 0 exch d} def /X { 0 d} def 
/K {{pop pop 0 moveto} exch kshow} bind def
/ita {/ang 15 def gsave [1 0 ang dup sin exch cos div 1 0 0] concat} def 
/mp {newpath /y exch def /x exch def} def
/side {[w .77 mul w .23 mul] .385 w mul sd w 0 l currentpoint t -144 r} def
/mr {mp x y w2 0 360 arc} def /m24 {mr s} def /m20 {mr f} def
/mb {mp x y w2 add m w2 neg 0 d 0 w neg d w 0 d 0 w d cl} def
/mt {mp x y w2 add m w2 neg w neg d w 0 d cl} def
/w4 {w 4 div} def
/w6 {w 6 div} def
/w8 {w 8 div} def
/m21 {mb f} def /m25 {mb s} def /m22 {mt f} def /m26{mt s} def
/m23 {mp x y w2 sub m w2 w d w neg 0 d cl f} def
/m27 {mp x y w2 add m w3 neg w2 neg d w3 w2 neg d w3 w2 d cl s} def
/m28 {mp x w2 sub y w2 sub w3 add m w3 0 d  0 w3 neg d w3 0 d 0 w3 d w3 0 d  0 w3 d w3 neg 0 d 0 w3 d w3 neg 0 d 0 w3 neg d w3 neg 0 d cl s } def
/m29 {mp gsave x w2 sub y w2 add w3 sub m currentpoint t 4 {side} repeat cl fill gr} def
/m30 {mp gsave x w2 sub y w2 add w3 sub m currentpoint t 4 {side} repeat cl s gr} def
/m31 {mp x y w2 sub m 0 w d x w2 sub y m w 0 d x w2 .707 mul sub y w2 .707 mul add m w 1.44 div w 1.44 div neg d x w2 .707 mul sub y w2 .707 mul sub m w 1.44 div w 1.44 div d s} def
/m32 {mp x y w2 sub m w2 w d w neg 0 d cl s} def
/m33 {mp x y w2 add m w3 neg w2 neg d w3 w2 neg d w3 w2 d cl f} def
/m34 {mp x w2 sub y w2 sub w3 add m w3 0 d  0 w3 neg d w3 0 d 0 w3 d w3 0 d  0 w3 d w3 neg 0 d 0 w3 d w3 neg 0 d 0 w3 neg d w3 neg 0 d cl f } def
/m35 {mp x y w2 add m w2 neg w2 neg d w2 w2 neg d w2 w2 d w2 neg w2 d x y w2 sub m 0 w d x w2 sub y m w 0 d s} def
/m36 {mb x w2 sub y w2 add m w w neg d x w2 sub y w2 sub m w w d s} def
/m37 {mp x y m w4 neg w2 d w4 neg w2 neg d w2 0 d  w4 neg w2 neg d w2 0 d w4 neg w2 d w2 0 d w4 neg w2 d w4 neg w2 neg d cl s} def
/m38 {mp x w4 sub y w2 add m w4 neg w4 neg d 0 w2 neg d w4 w4 neg d w2 0 d w4 w4 d 0 w2 d w4 neg w4 d w2 neg 0 d x y w2 sub m 0 w d x w2 sub y m w 0 d cl s} def
/m39 {mp x y m w4 neg w2 d w4 neg w2 neg d w2 0 d  w4 neg w2 neg d w2 0 d w4 neg w2 d w2 0 d w4 neg w2 d w4 neg w2 neg d cl f} def
/m40 {mp x y m w4 w2 d w4 w4 neg d w2 neg w4 neg d w2 w4 neg d w4 neg w4 neg d w4 neg w2 d w4 neg w2 neg d w4 neg w4 d w2 w4 d w2 neg w4 d w4 w4 d w4 w2 neg d cl s} def
/m41 {mp x y m w4 w2 d w4 w4 neg d w2 neg w4 neg d w2 w4 neg d w4 neg w4 neg d w4 neg w2 d w4 neg w2 neg d w4 neg w4 d w2 w4 d w2 neg w4 d w4 w4 d w4 w2 neg d cl f} def
/m42 {mp x y w2 add m w8 neg w2 -3 4 div mul d w2 -3 4 div mul w8 neg d w2 3 4 div mul w8 neg d w8 w2 -3 4 div mul d w8 w2 3 4 div mul d w2 3 4 div mul w8 d w2 -3 4 div mul w8 d w8 neg w2 3 4 div mul d cl s} def
/m43 {mp x y w2 add m w8 neg w2 -3 4 div mul d w2 -3 4 div mul w8 neg d w2 3 4 div mul w8 neg d w8 w2 -3 4 div mul d w8 w2 3 4 div mul d w2 3 4 div mul w8 d w2 -3 4 div mul w8 d w8 neg w2 3 4 div mul d cl f} def
/m44 {mp x y m w6 neg w2 d w2 2 3 div mul 0 d w6 neg w2 neg d w2 w6 d 0 w2 -2 3 div mul d w2 neg w6 d w6 w2 neg d w2 -2 3 div mul 0 d w6 w2 d w2 neg w6 neg d 0 w2 2 3 div mul d w2 w6 neg d cl s} def
/m45 {mp x y m w6 neg w2 d w2 2 3 div mul 0 d w6 neg w2 neg d w2 w6 d 0 w2 -2 3 div mul d w2 neg w6 d w6 w2 neg d w2 -2 3 div mul 0 d w6 w2 d w2 neg w6 neg d 0 w2 2 3 div mul d w2 w6 neg d cl f} def
/m46 {mp x y w4 add m w4 neg w4 d w4 neg w4 neg d  w4 w4 neg d w4 neg w4 neg d w4 w4 neg d w4 w4 d w4 w4 neg d w4 w4 d w4 neg w4 d w4 w4 d w4 neg w4 d w4 neg w4 neg d cl s} def
/m47 {mp x y w4 add m w4 neg w4 d w4 neg w4 neg d w4 w4 neg d w4 neg w4 neg d  w4 w4 neg d w4 w4 d w4 w4 neg d w4 w4 d w4 neg w4 d w4 w4 d w4 neg w4 d w4 neg w4 neg d cl f} def
/m48 {mp x y w4 add m w4 neg w4 d w4 neg w4 neg d w4 w4 neg d  w4 neg w4 neg d w4 w4 neg d w4 w4 d w4 w4 neg d w4 w4 d w4 neg w4 d w4 w4 d w4 neg w4 d w4 neg w4 neg d  w4 w4 neg d w4 neg w4 neg d w4 neg w4 d w4 w4 d cl f} def
/m49 {mp x w2 sub w3 add y w2 sub w3 add m  0 w3 neg d w3 0 d 0 w3 d w3 0 d 0 w3 d w3 neg 0 d 0 w3 d w3 neg 0 d 0 w3 neg d w3 neg 0 d 0 w3 neg d w3 0 d 0 w3 d w3 0 d 0 w3 neg d w3 neg 0 d cl f } def
/m2 {mp x y w2 sub m 0 w d x w2 sub y m w 0 d s} def
/m5 {mp x w2 .707 mul sub y w2 .707 mul sub m w 1.44 div w 1.44 div d x w2 .707 mul sub y w2 .707 mul add m w 1.44 div w 1.44 div neg d s} def
%%IncludeResource: ProcSet (FontSetInit)
%%IncludeResource: font Times-Roman
%%IncludeResource: font Times-Italic
%%IncludeResource: font Times-Bold
%%IncludeResource: font Times-BoldItalic
%%IncludeResource: font Helvetica
%%IncludeResource: font Helvetica-Oblique
%%IncludeResource: font Helvetica-Bold
%%IncludeResource: font Helvetica-BoldOblique
%%IncludeResource: font Courier
%%IncludeResource: font Courier-Oblique
%%IncludeResource: font Courier-Bold
%%IncludeResource: font Courier-BoldOblique
%%IncludeResource: font Symbol
%%IncludeResource: font ZapfDingbats
/reEncode {exch findfont dup length dict begin {1 index /FID eq  {pop pop} {def} ifelse } forall /Encoding exch def currentdict end dup /FontName get exch definefont pop } def [/Times-Bold /Times-Italic /Times-BoldItalic /Helvetica /Helvetica-Oblique
 /Helvetica-Bold /Helvetica-BoldOblique /Courier /Courier-Oblique /Courier-Bold /Courier-BoldOblique /Times-Roman /AvantGarde-Book /AvantGarde-BookOblique /AvantGarde-Demi /AvantGarde-DemiOblique /Bookman-Demi /Bookman-DemiItalic /Bookman-Light
 /Bookman-LightItalic /Helvetica-Narrow /Helvetica-Narrow-Bold /Helvetica-Narrow-BoldOblique /Helvetica-Narrow-Oblique /NewCenturySchlbk-Roman /NewCenturySchlbk-Bold /NewCenturySchlbk-BoldItalic /NewCenturySchlbk-Italic /Palatino-Bold
 /Palatino-BoldItalic /Palatino-Italic /Palatino-Roman ] {ISOLatin1Encoding reEncode } forall
%%EndProlog
%%BeginSetup
%%EndSetup
newpath  gsave  .25 .25 scale  gsave  0 0 t black[  ] 0 sd 3 lw 1 1 1 c 2268 975 0 0 bf black 1 1 1 c 2177 375 45 585 bf black 2177 375 45 585 bl 6 lw 1 1 1 c black 45 773 m 2177 X s 3 lw 45 585 m 2177 X s
 gsave  2268 975 0 0 C 61.8698 320.713 t 90 r /Helvetica findfont 23.9903 sf 0 0 m (EG_RESOLUTION_ALL) show NC gr 
 gsave  2268 975 0 0 C 82.0721 398.997 t 90 r /Helvetica findfont 23.9903 sf 0 0 m (EG_SCALE_ALL) show NC gr 
 gsave  2268 975 0 0 C 101.012 219.701 t 90 r /Helvetica findfont 23.9903 sf 0 0 m (EL_EFF_ID_CorrUncertaintyNP10) show NC gr 
 gsave  2268 975 0 0 C 121.214 223.489 t 90 r /Helvetica findfont 23.9903 sf 0 0 m (EL_EFF_ID_CorrUncertaintyNP11) show NC gr 
 gsave  2268 975 0 0 C 141.417 219.701 t 90 r /Helvetica findfont 23.9903 sf 0 0 m (EL_EFF_ID_CorrUncertaintyNP12) show NC gr 
 gsave  2268 975 0 0 C 160.356 219.701 t 90 r /Helvetica findfont 23.9903 sf 0 0 m (EL_EFF_ID_CorrUncertaintyNP13) show NC gr 
 gsave  2268 975 0 0 C 180.559 218.438 t 90 r /Helvetica findfont 23.9903 sf 0 0 m (EL_EFF_ID_CorrUncertaintyNP14) show NC gr 
 gsave  2268 975 0 0 C 200.761 218.438 t 90 r /Helvetica findfont 23.9903 sf 0 0 m (EL_EFF_ID_CorrUncertaintyNP15) show NC gr 
 gsave  2268 975 0 0 C 220.963 232.327 t 90 r /Helvetica findfont 23.9903 sf 0 0 m (EL_EFF_ID_CorrUncertaintyNP3) show NC gr 
 gsave  2268 975 0 0 C 241.166 232.327 t 90 r /Helvetica findfont 23.9903 sf 0 0 m (EL_EFF_ID_CorrUncertaintyNP4) show NC gr 
 gsave  2268 975 0 0 C 261.368 232.327 t 90 r /Helvetica findfont 23.9903 sf 0 0 m (EL_EFF_ID_CorrUncertaintyNP5) show NC gr 
 gsave  2268 975 0 0 C 280.308 232.327 t 90 r /Helvetica findfont 23.9903 sf 0 0 m (EL_EFF_ID_CorrUncertaintyNP6) show NC gr 
 gsave  2268 975 0 0 C 300.51 232.327 t 90 r /Helvetica findfont 23.9903 sf 0 0 m (EL_EFF_ID_CorrUncertaintyNP7) show NC gr 
 gsave  2268 975 0 0 C 320.713 232.327 t 90 r /Helvetica findfont 23.9903 sf 0 0 m (EL_EFF_ID_CorrUncertaintyNP8) show NC gr 
 gsave  2268 975 0 0 C 342.178 232.327 t 90 r /Helvetica findfont 23.9903 sf 0 0 m (EL_EFF_ID_CorrUncertaintyNP9) show NC gr 
 gsave  2268 975 0 0 C 362.38 49.2433 t 90 r /Helvetica findfont 23.9903 sf 0 0 m (EL_EFF_ID_SIMPLIFIED_UncorrUncertaintyNP12) show NC gr 
 gsave  2268 975 0 0 C 381.32 49.2433 t 90 r /Helvetica findfont 23.9903 sf 0 0 m (EL_EFF_ID_SIMPLIFIED_UncorrUncertaintyNP13) show NC gr 
 gsave  2268 975 0 0 C 401.522 47.9806 t 90 r /Helvetica findfont 23.9903 sf 0 0 m (EL_EFF_ID_SIMPLIFIED_UncorrUncertaintyNP14) show NC gr 
 gsave  2268 975 0 0 C 421.725 47.9806 t 90 r /Helvetica findfont 23.9903 sf 0 0 m (EL_EFF_ID_SIMPLIFIED_UncorrUncertaintyNP15) show NC gr 
 gsave  2268 975 0 0 C 441.927 47.9806 t 90 r /Helvetica findfont 23.9903 sf 0 0 m (EL_EFF_ID_SIMPLIFIED_UncorrUncertaintyNP16) show NC gr 
 gsave  2268 975 0 0 C 462.129 47.9806 t 90 r /Helvetica findfont 23.9903 sf 0 0 m (EL_EFF_ID_SIMPLIFIED_UncorrUncertaintyNP17) show NC gr 
 gsave  2268 975 0 0 C 482.332 61.8698 t 90 r /Helvetica findfont 23.9903 sf 0 0 m (EL_EFF_ID_SIMPLIFIED_UncorrUncertaintyNP3) show NC gr 
 gsave  2268 975 0 0 C 501.271 61.8698 t 90 r /Helvetica findfont 23.9903 sf 0 0 m (EL_EFF_ID_SIMPLIFIED_UncorrUncertaintyNP4) show NC gr 
 gsave  2268 975 0 0 C 521.474 61.8698 t 90 r /Helvetica findfont 23.9903 sf 0 0 m (EL_EFF_ID_SIMPLIFIED_UncorrUncertaintyNP5) show NC gr 
 gsave  2268 975 0 0 C 541.676 61.8698 t 90 r /Helvetica findfont 23.9903 sf 0 0 m (EL_EFF_ID_SIMPLIFIED_UncorrUncertaintyNP6) show NC gr 
 gsave  2268 975 0 0 C 561.879 61.8698 t 90 r /Helvetica findfont 23.9903 sf 0 0 m (EL_EFF_ID_SIMPLIFIED_UncorrUncertaintyNP7) show NC gr 
 gsave  2268 975 0 0 C 582.081 61.8698 t 90 r /Helvetica findfont 23.9903 sf 0 0 m (EL_EFF_ID_SIMPLIFIED_UncorrUncertaintyNP8) show NC gr 
 gsave  2268 975 0 0 C 601.021 68.183 t 90 r /Helvetica findfont 23.9903 sf 0 0 m (EL_EFF_Iso_TOTAL_1NPCOR_PLUS_UNCOR) show NC gr 
 gsave  2268 975 0 0 C 621.223 44.1927 t 90 r /Helvetica findfont 23.9903 sf 0 0 m (EL_EFF_Reco_TOTAL_1NPCOR_PLUS_UNCOR) show NC gr 
 gsave  2268 975 0 0 C 641.425 -5.05059 t 90 r /Helvetica findfont 23.9903 sf 0 0 m (EL_EFF_TriggerEff_TOTAL_1NPCOR_PLUS_UNCOR) show NC gr 
 gsave  2268 975 0 0 C 660.365 364.905 t 90 r /Helvetica findfont 23.9903 sf 0 0 m (FT_EFF_Eigen_B_0) show NC gr 
 gsave  2268 975 0 0 C 680.568 368.693 t 90 r /Helvetica findfont 23.9903 sf 0 0 m (FT_EFF_Eigen_B_1) show NC gr 
 gsave  2268 975 0 0 C 700.77 364.905 t 90 r /Helvetica findfont 23.9903 sf 0 0 m (FT_EFF_Eigen_B_2) show NC gr 
 gsave  2268 975 0 0 C 720.972 363.643 t 90 r /Helvetica findfont 23.9903 sf 0 0 m (FT_EFF_Eigen_C_0) show NC gr 
 gsave  2268 975 0 0 C 741.175 367.431 t 90 r /Helvetica findfont 23.9903 sf 0 0 m (FT_EFF_Eigen_C_1) show NC gr 
 gsave  2268 975 0 0 C 761.377 363.643 t 90 r /Helvetica findfont 23.9903 sf 0 0 m (FT_EFF_Eigen_C_2) show NC gr 
 gsave  2268 975 0 0 C 780.317 329.551 t 90 r /Helvetica findfont 23.9903 sf 0 0 m (FT_EFF_Eigen_Light_0) show NC gr 
 gsave  2268 975 0 0 C 800.519 333.339 t 90 r /Helvetica findfont 23.9903 sf 0 0 m (FT_EFF_Eigen_Light_1) show NC gr 
 gsave  2268 975 0 0 C 819.459 328.289 t 90 r /Helvetica findfont 23.9903 sf 0 0 m (FT_EFF_Eigen_Light_2) show NC gr 
 gsave  2268 975 0 0 C 839.661 329.551 t 90 r /Helvetica findfont 23.9903 sf 0 0 m (FT_EFF_Eigen_Light_3) show NC gr 
 gsave  2268 975 0 0 C 859.864 345.966 t 90 r /Helvetica findfont 23.9903 sf 0 0 m (FT_EFF_extrapolation) show NC gr 
 gsave  2268 975 0 0 C 881.329 344.703 t 90 r /Helvetica findfont 23.9903 sf 0 0 m (JET_BJES_Response) show NC gr 
 gsave  2268 975 0 0 C 901.531 289.146 t 90 r /Helvetica findfont 23.9903 sf 0 0 m (JET_EffectiveNP_Detector1) show NC gr 
 gsave  2268 975 0 0 C 921.733 285.359 t 90 r /Helvetica findfont 23.9903 sf 0 0 m (JET_EffectiveNP_Detector2) show NC gr 
 gsave  2268 975 0 0 C 940.673 314.399 t 90 r /Helvetica findfont 23.9903 sf 0 0 m (JET_EffectiveNP_Mixed1) show NC gr 
 gsave  2268 975 0 0 C 960.875 310.612 t 90 r /Helvetica findfont 23.9903 sf 0 0 m (JET_EffectiveNP_Mixed2) show NC gr 
 gsave  2268 975 0 0 C 981.078 310.612 t 90 r /Helvetica findfont 23.9903 sf 0 0 m (JET_EffectiveNP_Mixed3) show NC gr 
 gsave  2268 975 0 0 C 1000.02 276.52 t 90 r /Helvetica findfont 23.9903 sf 0 0 m (JET_EffectiveNP_Modelling1) show NC gr 
 gsave  2268 975 0 0 C 1020.22 272.732 t 90 r /Helvetica findfont 23.9903 sf 0 0 m (JET_EffectiveNP_Modelling2) show NC gr 
 gsave  2268 975 0 0 C 1039.16 272.732 t 90 r /Helvetica findfont 23.9903 sf 0 0 m (JET_EffectiveNP_Modelling3) show NC gr 
 gsave  2268 975 0 0 C 1059.36 272.732 t 90 r /Helvetica findfont 23.9903 sf 0 0 m (JET_EffectiveNP_Modelling4) show NC gr 
 gsave  2268 975 0 0 C 1080.83 275.257 t 90 r /Helvetica findfont 23.9903 sf 0 0 m (JET_EffectiveNP_Statistical1) show NC gr 
 gsave  2268 975 0 0 C 1101.03 271.469 t 90 r /Helvetica findfont 23.9903 sf 0 0 m (JET_EffectiveNP_Statistical2) show NC gr 
 gsave  2268 975 0 0 C 1121.23 271.469 t 90 r /Helvetica findfont 23.9903 sf 0 0 m (JET_EffectiveNP_Statistical3) show NC gr 
 gsave  2268 975 0 0 C 1141.43 271.469 t 90 r /Helvetica findfont 23.9903 sf 0 0 m (JET_EffectiveNP_Statistical4) show NC gr 
 gsave  2268 975 0 0 C 1160.37 271.469 t 90 r /Helvetica findfont 23.9903 sf 0 0 m (JET_EffectiveNP_Statistical5) show NC gr 
 gsave  2268 975 0 0 C 1180.58 271.469 t 90 r /Helvetica findfont 23.9903 sf 0 0 m (JET_EffectiveNP_Statistical6) show NC gr 
 gsave  2268 975 0 0 C 1199.52 219.701 t 90 r /Helvetica findfont 23.9903 sf 0 0 m (JET_EtaIntercalibration_Modelling) show NC gr 
 gsave  2268 975 0 0 C 1220.98 123.74 t 90 r /Helvetica findfont 23.9903 sf 0 0 m (JET_EtaIntercalibration_NonClosure_highE) show NC gr 
 gsave  2268 975 0 0 C 1241.18 109.85 t 90 r /Helvetica findfont 23.9903 sf 0 0 m (JET_EtaIntercalibration_NonClosure_negEta) show NC gr 
 gsave  2268 975 0 0 C 1260.12 109.85 t 90 r /Helvetica findfont 23.9903 sf 0 0 m (JET_EtaIntercalibration_NonClosure_posEta) show NC gr 
 gsave  2268 975 0 0 C 1280.33 224.751 t 90 r /Helvetica findfont 23.9903 sf 0 0 m (JET_EtaIntercalibration_TotalStat) show NC gr 
 gsave  2268 975 0 0 C 1300.53 315.662 t 90 r /Helvetica findfont 23.9903 sf 0 0 m (JET_Flavor_Composition) show NC gr 
 gsave  2268 975 0 0 C 1319.47 339.652 t 90 r /Helvetica findfont 23.9903 sf 0 0 m (JET_Flavor_Response) show NC gr 
 gsave  2268 975 0 0 C 1340.93 273.995 t 90 r /Helvetica findfont 23.9903 sf 0 0 m (JET_JER_DataVsMC_MC16) show NC gr 
 gsave  2268 975 0 0 C 1359.87 301.773 t 90 r /Helvetica findfont 23.9903 sf 0 0 m (JET_JER_EffectiveNP_10) show NC gr 
 gsave  2268 975 0 0 C 1380.07 305.561 t 90 r /Helvetica findfont 23.9903 sf 0 0 m (JET_JER_EffectiveNP_11) show NC gr 
 gsave  2268 975 0 0 C 1400.28 207.074 t 90 r /Helvetica findfont 23.9903 sf 0 0 m (JET_JER_EffectiveNP_12restTerm) show NC gr 
 gsave  2268 975 0 0 C 1420.48 319.45 t 90 r /Helvetica findfont 23.9903 sf 0 0 m (JET_JER_EffectiveNP_1) show NC gr 
 gsave  2268 975 0 0 C 1440.68 315.662 t 90 r /Helvetica findfont 23.9903 sf 0 0 m (JET_JER_EffectiveNP_2) show NC gr 
 gsave  2268 975 0 0 C 1460.88 315.662 t 90 r /Helvetica findfont 23.9903 sf 0 0 m (JET_JER_EffectiveNP_3) show NC gr 
 gsave  2268 975 0 0 C 1479.82 315.662 t 90 r /Helvetica findfont 23.9903 sf 0 0 m (JET_JER_EffectiveNP_4) show NC gr 
 gsave  2268 975 0 0 C 1500.03 315.662 t 90 r /Helvetica findfont 23.9903 sf 0 0 m (JET_JER_EffectiveNP_5) show NC gr 
 gsave  2268 975 0 0 C 1520.23 315.662 t 90 r /Helvetica findfont 23.9903 sf 0 0 m (JET_JER_EffectiveNP_6) show NC gr 
 gsave  2268 975 0 0 C 1540.43 315.662 t 90 r /Helvetica findfont 23.9903 sf 0 0 m (JET_JER_EffectiveNP_7) show NC gr 
 gsave  2268 975 0 0 C 1560.63 315.662 t 90 r /Helvetica findfont 23.9903 sf 0 0 m (JET_JER_EffectiveNP_8) show NC gr 
 gsave  2268 975 0 0 C 1579.57 315.662 t 90 r /Helvetica findfont 23.9903 sf 0 0 m (JET_JER_EffectiveNP_9) show NC gr 
 gsave  2268 975 0 0 C 1598.51 391.421 t 90 r /Helvetica findfont 23.9903 sf 0 0 m (JET_JvtEfficiency) show NC gr 
 gsave  2268 975 0 0 C 1619.98 348.491 t 90 r /Helvetica findfont 23.9903 sf 0 0 m (JET_Pileup_OffsetMu) show NC gr 
 gsave  2268 975 0 0 C 1640.18 332.077 t 90 r /Helvetica findfont 23.9903 sf 0 0 m (JET_Pileup_OffsetNPV) show NC gr 
 gsave  2268 975 0 0 C 1659.12 367.431 t 90 r /Helvetica findfont 23.9903 sf 0 0 m (JET_Pileup_PtTerm) show NC gr 
 gsave  2268 975 0 0 C 1679.32 304.298 t 90 r /Helvetica findfont 23.9903 sf 0 0 m (JET_Pileup_RhoTopology) show NC gr 
 gsave  2268 975 0 0 C 1699.52 291.672 t 90 r /Helvetica findfont 23.9903 sf 0 0 m (JET_PunchThrough_MC16) show NC gr 
 gsave  2268 975 0 0 C 1719.73 320.713 t 90 r /Helvetica findfont 23.9903 sf 0 0 m (MET_SoftTrk_ResoPara) show NC gr 
 gsave  2268 975 0 0 C 1739.93 320.713 t 90 r /Helvetica findfont 23.9903 sf 0 0 m (MET_SoftTrk_ResoPerp) show NC gr 
 gsave  2268 975 0 0 C 1760.13 366.168 t 90 r /Helvetica findfont 23.9903 sf 0 0 m (MET_SoftTrk_Scale) show NC gr 
 gsave  2268 975 0 0 C 1780.33 318.187 t 90 r /Helvetica findfont 23.9903 sf 0 0 m (MUON_EFF_ISO_STAT) show NC gr 
 gsave  2268 975 0 0 C 1799.27 332.077 t 90 r /Helvetica findfont 23.9903 sf 0 0 m (MUON_EFF_ISO_SYS) show NC gr 
 gsave  2268 975 0 0 C 1819.48 291.672 t 90 r /Helvetica findfont 23.9903 sf 0 0 m (MUON_EFF_RECO_STAT) show NC gr 
 gsave  2268 975 0 0 C 1839.68 305.561 t 90 r /Helvetica findfont 23.9903 sf 0 0 m (MUON_EFF_RECO_SYS) show NC gr 
 gsave  2268 975 0 0 C 1859.88 297.985 t 90 r /Helvetica findfont 23.9903 sf 0 0 m (MUON_EFF_TTVA_STAT) show NC gr 
 gsave  2268 975 0 0 C 1880.08 311.874 t 90 r /Helvetica findfont 23.9903 sf 0 0 m (MUON_EFF_TTVA_SYS) show NC gr 
 gsave  2268 975 0 0 C 1900.29 231.065 t 90 r /Helvetica findfont 23.9903 sf 0 0 m (MUON_EFF_TrigStatUncertainty) show NC gr 
 gsave  2268 975 0 0 C 1919.23 227.277 t 90 r /Helvetica findfont 23.9903 sf 0 0 m (MUON_EFF_TrigSystUncertainty) show NC gr 
 gsave  2268 975 0 0 C 1939.43 469.705 t 90 r /Helvetica findfont 23.9903 sf 0 0 m (MUON_ID) show NC gr 
 gsave  2268 975 0 0 C 1959.63 457.079 t 90 r /Helvetica findfont 23.9903 sf 0 0 m (MUON_MS) show NC gr 
 gsave  2268 975 0 0 C 1979.83 273.995 t 90 r /Helvetica findfont 23.9903 sf 0 0 m (MUON_SAGITTA_RESBIAS) show NC gr 
 gsave  2268 975 0 0 C 2000.04 414.149 t 90 r /Helvetica findfont 23.9903 sf 0 0 m (MUON_SCALE) show NC gr 
 gsave  2268 975 0 0 C 2018.97 416.674 t 90 r /Helvetica findfont 23.9903 sf 0 0 m (PRW_DATASF) show NC gr 
 gsave  2268 975 0 0 C 2037.91 406.573 t 90 r /Helvetica findfont 23.9903 sf 0 0 m (theo_vbf_alphas) show NC gr 
 gsave  2268 975 0 0 C 2058.12 375.007 t 90 r /Helvetica findfont 23.9903 sf 0 0 m (theo_vbf_generator) show NC gr 
 gsave  2268 975 0 0 C 2078.32 398.997 t 90 r /Helvetica findfont 23.9903 sf 0 0 m (theo_vbf_pdf4lhc) show NC gr 
 gsave  2268 975 0 0 C 2099.78 420.462 t 90 r /Helvetica findfont 23.9903 sf 0 0 m (theo_vbf_scale) show NC gr 
 gsave  2268 975 0 0 C 2119.99 400.26 t 90 r /Helvetica findfont 23.9903 sf 0 0 m (theo_vbf_shower) show NC gr 
 gsave  2268 975 0 0 C 2138.93 474.756 t 90 r /Helvetica findfont 23.9903 sf 0 0 m (atlas_lumi) show NC gr 
 gsave  2268 975 0 0 C 2159.13 398.997 t 90 r /Helvetica findfont 23.9903 sf 0 0 m (EG_SCALE_AF2) show NC gr 
 gsave  2268 975 0 0 C 2179.33 232.327 t 90 r /Helvetica findfont 23.9903 sf 0 0 m (EL_EFF_ID_CorrUncertaintyNP0) show NC gr 
 gsave  2268 975 0 0 C 2199.53 236.115 t 90 r /Helvetica findfont 23.9903 sf 0 0 m (EL_EFF_ID_CorrUncertaintyNP1) show NC gr 
 gsave  2268 975 0 0 C 2219.74 232.327 t 90 r /Helvetica findfont 23.9903 sf 0 0 m (EL_EFF_ID_CorrUncertaintyNP2) show NC gr  45 613 m -28 Y s 287 613 m -28 Y s 529 613 m -28 Y s 771 613 m -28 Y s 1013 613 m -28 Y s 1255 613 m -28 Y s 1497 613 m -28
 Y s 1739 613 m -28 Y s 1980 613 m -28 Y s 2222 613 m -28 Y s 45 960 m 2177 X s 45 932 m 28 Y s 287 932 m 28 Y s 529 932 m 28 Y s 771 932 m 28 Y s 1013 932 m 28 Y s 1255 932 m 28 Y s 1497 932 m 28 Y s 1739 932 m 28 Y s 1980 932 m 28 Y s 2222 932 m 28
 Y s 45 585 m 375 Y s 72 585 m -27 X s 58 594 m -13 X s 58 604 m -13 X s 58 613 m -13 X s 58 622 m -13 X s 72 632 m -27 X s 58 641 m -13 X s 58 651 m -13 X s 58 660 m -13 X s 58 669 m -13 X s 72 679 m -27 X s 58 688 m -13 X s 58 697 m -13 X s 58 707
 m -13 X s 58 716 m -13 X s 72 726 m -27 X s 58 735 m -13 X s 58 744 m -13 X s 58 754 m -13 X s 58 763 m -13 X s 72 773 m -27 X s 58 782 m -13 X s 58 791 m -13 X s 58 801 m -13 X s 58 810 m -13 X s 72 819 m -27 X s 58 829 m -13 X s 58 838 m -13 X s
 58 848 m -13 X s 58 857 m -13 X s 72 866 m -27 X s 58 876 m -13 X s 58 885 m -13 X s 58 894 m -13 X s 58 904 m -13 X s 72 913 m -27 X s 58 923 m -13 X s 58 932 m -13 X s 58 941 m -13 X s 58 951 m -13 X s 72 960 m -27 X s
 gsave  2268 975 0 0 C 20.2024 575.768 t 0 r /Helvetica findfont 23.9903 sf 0 0 m (2) show NC gr 
 gsave  2268 975 0 0 C 7.57589 575.768 t 0 r /Symbol findfont 23.9903 sf 0 0 m (-) show NC gr 
 gsave  2268 975 0 0 C 0 623.748 t 0 r /Helvetica findfont 23.9903 sf 0 0 m (1.5) show NC gr 
 gsave  2268 975 0 0 C -12.6265 623.748 t 0 r /Symbol findfont 23.9903 sf 0 0 m (-) show NC gr 
 gsave  2268 975 0 0 C 23.9903 669.204 t 0 r /Helvetica findfont 23.9903 sf 0 0 m (1) show NC gr 
 gsave  2268 975 0 0 C 11.3638 669.204 t 0 r /Symbol findfont 23.9903 sf 0 0 m (-) show NC gr 
 gsave  2268 975 0 0 C 0 717.184 t 0 r /Helvetica findfont 23.9903 sf 0 0 m (0.5) show NC gr 
 gsave  2268 975 0 0 C -12.6265 717.184 t 0 r /Symbol findfont 23.9903 sf 0 0 m (-) show NC gr 
 gsave  2268 975 0 0 C 20.2024 763.902 t 0 r /Helvetica findfont 23.9903 sf 0 0 m (0) show NC gr 
 gsave  2268 975 0 0 C 0 810.62 t 0 r /Helvetica findfont 23.9903 sf 0 0 m (0.5) show NC gr 
 gsave  2268 975 0 0 C 23.9903 857.338 t 0 r /Helvetica findfont 23.9903 sf 0 0 m (1) show NC gr 
 gsave  2268 975 0 0 C 0 905.319 t 0 r /Helvetica findfont 23.9903 sf 0 0 m (1.5) show NC gr 
 gsave  2268 975 0 0 C 20.2024 950.774 t 0 r /Helvetica findfont 23.9903 sf 0 0 m (2) show NC gr 
 gsave  2268 975 0 0 C -45.4553 945.724 t 90 r /Symbol findfont 29.0409 sf 0 0 m (q) show NC gr  6 lw
 gsave  2268 975 0 0 C -45.4553 930.572 t 90 r /Symbol findfont 29.0409 sf 0 0 m (d) show NC gr 
 gsave  2268 975 0 0 C -45.4553 920.471 t 90 r /Helvetica findfont 29.0409 sf 0 0 m (/) show NC gr 
 gsave  2268 975 0 0 C -45.4553 905.319 t 90 r /Symbol findfont 29.0409 sf 0 0 m (q) show NC gr 
 gsave  2268 975 0 0 C -45.4553 896.48 t 90 r /Helvetica findfont 29.0409 sf 0 0 m (\255) show NC gr 
 gsave  2268 975 0 0 C -45.4553 881.329 t 90 r /Symbol findfont 29.0409 sf 0 0 m (q) show NC gr  3 lw 2222 585 m 375 Y s 2196 585 m 26 X s 2209 594 m 13 X s 2209 604 m 13 X s 2209 613 m 13 X s 2209 622 m 13 X s 2196 632 m 26 X s 2209 641 m 13 X s
 2209 651 m 13 X s 2209 660 m 13 X s 2209 669 m 13 X s 2196 679 m 26 X s 2209 688 m 13 X s 2209 697 m 13 X s 2209 707 m 13 X s 2209 716 m 13 X s 2196 726 m 26 X s 2209 735 m 13 X s 2209 744 m 13 X s 2209 754 m 13 X s 2209 763 m 13 X s 2196 773 m 26 X
 s 2209 782 m 13 X s 2209 791 m 13 X s 2209 801 m 13 X s 2209 810 m 13 X s 2196 819 m 26 X s 2209 829 m 13 X s 2209 838 m 13 X s 2209 848 m 13 X s 2209 857 m 13 X s 2196 866 m 26 X s 2209 876 m 13 X s 2209 885 m 13 X s 2209 894 m 13 X s 2209 904 m 13
 X s 2196 913 m 26 X s 2209 923 m 13 X s 2209 932 m 13 X s 2209 941 m 13 X s 2209 951 m 13 X s 2196 960 m 26 X s 55 766 m 94 Y s 53 860 m 5 X s 55 766 m -93 Y s 53 673 m 5 X s 75 749 m 81 Y s 73 830 m 5 X s 75 749 m -82 Y s 73 667 m 5 X s 95 768 m 93
 Y s 93 861 m 5 X s 95 768 m -93 Y s 93 675 m 5 X s 115 769 m 93 Y s 113 862 m 5 X s 115 769 m -94 Y s 113 675 m 5 X s 135 769 m 93 Y s 133 862 m 5 X s 135 769 m -94 Y s 133 675 m 5 X s 155 767 m 94 Y s 153 861 m 5 X s 155 767 m -93 Y s 153 674 m 5 X
 s 175 765 m 94 Y s 173 859 m 5 X s 175 765 m -93 Y s 173 672 m 5 X s 195 768 m 93 Y s 193 861 m 5 X s 195 768 m -93 Y s 193 675 m 5 X s 215 768 m 94 Y s 213 862 m 5 X s 215 768 m -93 Y s 213 675 m 5 X s 235 768 m 94 Y s 233 862 m 5 X s 235 768 m -93
 Y s 233 675 m 5 X s 255 768 m 94 Y s 253 862 m 5 X s 255 768 m -93 Y s 253 675 m 5 X s 275 768 m 94 Y s 273 862 m 5 X s 275 768 m -93 Y s 273 675 m 5 X s 295 768 m 94 Y s 292 862 m 6 X s 295 768 m -93 Y s 292 675 m 6 X s 315 768 m 94 Y s 312 862 m 6
 X s 315 768 m -93 Y s 312 675 m 6 X s 335 769 m 93 Y s 332 862 m 5 X s 335 769 m -94 Y s 332 675 m 5 X s 355 768 m 94 Y s 352 862 m 5 X s 355 768 m -93 Y s 352 675 m 5 X s 375 769 m 93 Y s 372 862 m 5 X s 375 769 m -94 Y s 372 675 m 5 X s 395 768 m
 94 Y s 392 862 m 5 X s 395 768 m -93 Y s 392 675 m 5 X s 415 768 m 94 Y s 412 862 m 5 X s 415 768 m -93 Y s 412 675 m 5 X s 435 768 m 94 Y s 432 862 m 5 X s 435 768 m -93 Y s 432 675 m 5 X s 455 768 m 93 Y s 452 861 m 5 X s 455 768 m -93 Y s 452 675
 m 5 X s 475 770 m 93 Y s 472 863 m 5 X s 475 770 m -94 Y s 472 676 m 5 X s 495 769 m 93 Y s 492 862 m 5 X s 495 769 m -93 Y s 492 676 m 5 X s 515 769 m 93 Y s 512 862 m 5 X s 515 769 m -94 Y s 512 675 m 5 X s 535 769 m 93 Y s 532 862 m 5 X s 535 769
 m -94 Y s 532 675 m 5 X s 555 768 m 94 Y s 552 862 m 5 X s 555 768 m -93 Y s 552 675 m 5 X s 575 768 m 94 Y s 572 862 m 5 X s 575 768 m -93 Y s 572 675 m 5 X s 595 769 m 93 Y s 592 862 m 5 X s 595 769 m -93 Y s 592 676 m 5 X s 615 769 m 94 Y s 612
 863 m 5 X s 615 769 m -93 Y s 612 676 m 5 X s 635 768 m 94 Y s 632 862 m 5 X s 635 768 m -93 Y s 632 675 m 5 X s 655 757 m 93 Y s 652 850 m 5 X s 655 757 m -93 Y s 652 664 m 5 X s 674 757 m 94 Y s 672 851 m 5 X s 674 757 m -93 Y s 672 664 m 5 X s
 694 774 m 93 Y s 692 867 m 5 X s 694 774 m -94 Y s 692 680 m 5 X s 714 766 m 94 Y s 712 860 m 5 X s 714 766 m -93 Y s 712 673 m 5 X s 734 768 m 94 Y s 732 862 m 5 X s 734 768 m -93 Y s 732 675 m 5 X s 754 768 m 94 Y s 752 862 m 5 X s 754 768 m -93 Y
 s 752 675 m 5 X s 774 767 m 94 Y s 772 861 m 5 X s 774 767 m -93 Y s 772 674 m 5 X s 794 768 m 94 Y s 792 862 m 5 X s 794 768 m -93 Y s 792 675 m 5 X s 814 769 m 93 Y s 812 862 m 5 X s 814 769 m -94 Y s 812 675 m 5 X s 834 768 m 94 Y s 832 862 m 5 X
 s 834 768 m -93 Y s 832 675 m 5 X s 854 768 m 94 Y s 852 862 m 5 X s 854 768 m -93 Y s 852 675 m 5 X s 874 761 m 93 Y s 872 854 m 5 X s 874 761 m -94 Y s 872 667 m 5 X s 894 766 m 93 Y s 892 859 m 5 X s 894 766 m -93 Y s 892 673 m 5 X s 914 770 m 93
 Y s 912 863 m 5 X s 914 770 m -93 Y s 912 677 m 5 X s 934 770 m 93 Y s 932 863 m 5 X s 934 770 m -94 Y s 932 676 m 5 X s 954 772 m 93 Y s 952 865 m 5 X s 954 772 m -94 Y s 952 678 m 5 X s 974 765 m 93 Y s 972 858 m 5 X s 974 765 m -93 Y s 972 672 m
 5 X s 994 807 m 91 Y s 992 898 m 5 X s 994 807 m -91 Y s 992 716 m 5 X s 1014 770 m 94 Y s 1011 864 m 6 X s 1014 770 m -93 Y s 1011 677 m 6 X s 1034 766 m 93 Y s 1031 859 m 6 X s 1034 766 m -94 Y s 1031 672 m 6 X s 1054 771 m 93 Y s 1051 864 m 5 X s
 1054 771 m -94 Y s 1051 677 m 5 X s 1074 769 m 93 Y s 1071 862 m 5 X s 1074 769 m -93 Y s 1071 676 m 5 X s 1094 778 m 93 Y s 1091 871 m 5 X s 1094 778 m -94 Y s 1091 684 m 5 X s 1114 769 m 94 Y s 1111 863 m 5 X s 1114 769 m -93 Y s 1111 676 m 5 X s
 1134 769 m 94 Y s 1131 863 m 5 X s 1134 769 m -93 Y s 1131 676 m 5 X s 1154 764 m 93 Y s 1151 857 m 5 X s 1154 764 m -94 Y s 1151 670 m 5 X s 1174 771 m 94 Y s 1171 865 m 5 X s 1174 771 m -93 Y s 1171 678 m 5 X s 1194 783 m 91 Y s 1191 874 m 5 X s
 1194 783 m -92 Y s 1191 691 m 5 X s 1214 768 m 94 Y s 1211 862 m 5 X s 1214 768 m -93 Y s 1211 675 m 5 X s 1234 764 m 93 Y s 1231 857 m 5 X s 1234 764 m -94 Y s 1231 670 m 5 X s 1254 770 m 93 Y s 1251 863 m 5 X s 1254 770 m -93 Y s 1251 677 m 5 X s
 1274 782 m 92 Y s 1271 874 m 5 X s 1274 782 m -93 Y s 1271 689 m 5 X s 1294 749 m 86 Y s 1291 835 m 5 X s 1294 749 m -87 Y s 1291 662 m 5 X s 1314 745 m 90 Y s 1311 835 m 5 X s 1314 745 m -91 Y s 1311 654 m 5 X s 1334 763 m 89 Y s 1331 852 m 5 X s
 1334 763 m -89 Y s 1331 674 m 5 X s 1354 755 m 93 Y s 1351 848 m 5 X s 1354 755 m -93 Y s 1351 662 m 5 X s 1374 740 m 93 Y s 1371 833 m 5 X s 1374 740 m -92 Y s 1371 648 m 5 X s 1394 757 m 92 Y s 1391 849 m 5 X s 1394 757 m -91 Y s 1391 666 m 5 X s
 1413 725 m 79 Y s 1411 804 m 5 X s 1413 725 m -79 Y s 1411 646 m 5 X s 1433 764 m 85 Y s 1431 849 m 5 X s 1433 764 m -86 Y s 1431 678 m 5 X s 1453 778 m 88 Y s 1451 866 m 5 X s 1453 778 m -88 Y s 1451 690 m 5 X s 1473 716 m 85 Y s 1471 801 m 5 X s
 1473 716 m -85 Y s 1471 631 m 5 X s 1493 726 m 90 Y s 1491 816 m 5 X s 1493 726 m -89 Y s 1491 637 m 5 X s 1513 752 m 91 Y s 1511 843 m 5 X s 1513 752 m -91 Y s 1511 661 m 5 X s 1533 728 m 93 Y s 1531 821 m 5 X s 1533 728 m -92 Y s 1531 636 m 5 X s
 1553 725 m 90 Y s 1551 815 m 5 X s 1553 725 m -91 Y s 1551 634 m 5 X s 1573 679 m 90 Y s 1571 769 m 5 X s 1573 679 m -91 Y s 1571 588 m 5 X s 1593 768 m 93 Y s 1591 861 m 5 X s 1593 768 m -94 Y s 1591 674 m 5 X s 1613 763 m 90 Y s 1611 853 m 5 X s
 1613 763 m -90 Y s 1611 673 m 5 X s 1633 755 m 93 Y s 1631 848 m 5 X s 1633 755 m -92 Y s 1631 663 m 5 X s 1653 760 m 93 Y s 1651 853 m 5 X s 1653 760 m -93 Y s 1651 667 m 5 X s 1673 758 m 91 Y s 1671 849 m 5 X s 1673 758 m -91 Y s 1671 667 m 5 X s
 1693 770 m 93 Y s 1691 863 m 5 X s 1693 770 m -94 Y s 1691 676 m 5 X s 1713 888 m 72 Y s 1711 960 m 5 X s 1713 888 m -95 Y s 1711 793 m 5 X s 1733 828 m 92 Y s 1731 920 m 5 X s 1733 828 m -92 Y s 1731 736 m 5 X s 1753 805 m 93 Y s 1750 898 m 6 X s
 1753 805 m -92 Y s 1750 713 m 6 X s 1773 769 m 93 Y s 1770 862 m 6 X s 1773 769 m -94 Y s 1770 675 m 6 X s 1793 770 m 94 Y s 1790 864 m 5 X s 1793 770 m -93 Y s 1790 677 m 5 X s 1813 769 m 93 Y s 1810 862 m 5 X s 1813 769 m -94 Y s 1810 675 m 5 X s
 1833 768 m 94 Y s 1830 862 m 5 X s 1833 768 m -93 Y s 1830 675 m 5 X s 1853 768 m 94 Y s 1850 862 m 5 X s 1853 768 m -93 Y s 1850 675 m 5 X s 1873 768 m 94 Y s 1870 862 m 5 X s 1873 768 m -93 Y s 1870 675 m 5 X s 1893 769 m 93 Y s 1890 862 m 5 X s
 1893 769 m -94 Y s 1890 675 m 5 X s 1913 771 m 93 Y s 1910 864 m 5 X s 1913 771 m -93 Y s 1910 678 m 5 X s 1933 741 m 93 Y s 1930 834 m 5 X s 1933 741 m -93 Y s 1930 648 m 5 X s 1953 759 m 93 Y s 1950 852 m 5 X s 1953 759 m -93 Y s 1950 666 m 5 X s
 1973 759 m 94 Y s 1970 853 m 5 X s 1973 759 m -93 Y s 1970 666 m 5 X s 1993 789 m 83 Y s 1990 872 m 5 X s 1993 789 m -82 Y s 1990 707 m 5 X s 2013 745 m 92 Y s 2010 837 m 5 X s 2013 745 m -92 Y s 2010 653 m 5 X s 2033 774 m 93 Y s 2030 867 m 5 X s
 2033 774 m -93 Y s 2030 681 m 5 X s 2053 744 m 92 Y s 2050 836 m 5 X s 2053 744 m -93 Y s 2050 651 m 5 X s 2073 772 m 94 Y s 2070 866 m 5 X s 2073 772 m -93 Y s 2070 679 m 5 X s 2093 773 m 93 Y s 2090 866 m 5 X s 2093 773 m -93 Y s 2090 680 m 5 X s
 2113 755 m 93 Y s 2110 848 m 5 X s 2113 755 m -93 Y s 2110 662 m 5 X s 2132 777 m 93 Y s 2130 870 m 5 X s 2132 777 m -93 Y s 2130 684 m 5 X s 2152 768 m 94 Y s 2150 862 m 5 X s 2152 768 m -93 Y s 2150 675 m 5 X s 2172 768 m 94 Y s 2170 862 m 5 X s
 2172 768 m -93 Y s 2170 675 m 5 X s 2192 768 m 94 Y s 2190 862 m 5 X s 2192 768 m -93 Y s 2190 675 m 5 X s 2212 768 m 94 Y s 2210 862 m 5 X s 2212 768 m -93 Y s 2210 675 m 5 X s 1 1 1 c black /w 10 def /w2 {w 2 div} def /w3 {w 3 div} def 55 766 75
 749 95 768 115 769 135 769 155 767 175 765 195 768 215 768 235 768 255 768 275 768 295 768 315 768 335 769 355 768 375 769 395 768 415 768 435 768 455 768 475 770 495 769 515 769 535 769 555 768 575 768 595 769 615 769 635 768 655 757 674 757 694
 774 714 766 734 768 754 768 774 767 794 768 814 769 834 768 854 768 874 761 894 766 914 770 934 770 954 772 974 765 994 807 1014 770 1034 766 1054 771 1074 769 1094 778 1114 769 1134 769 1154 764 1174 771 1194 783 1214 768 1234 764 1254 770 1274 782
 1294 749 1314 745 1334 763 1354 755 1374 740 1394 757 1413 725 1433 764 1453 778 1473 716 1493 726 1513 752 1533 728 1553 725 1573 679 1593 768 1613 763 1633 755 1653 760 1673 758 1693 770 1713 888 1733 828 1753 805 1773 769 1793 770 1813 769 1833
 768 1853 768 1873 768 1893 769 1913 771 1933 741 1953 759 1973 759 1993 789 2013 745 2033 774 100 { m20} R 2053 744 2073 772 2093 773 2113 755 2132 777 2152 768 2172 768 2192 768 2212 768 9 { m20} R
 gr  gr showpage
end
%%EOF
