%!PS-Adobe-2.0 EPSF-2.0
%%BoundingBox:  0 0 567 244
%%Title: cCNp2_matrix_SignedDPhijj.eps: 
%%Creator: ROOT Version 6.24/06
%%CreationDate: Tue Jan  4 00:02:09 2022
%%DocumentNeededResources: ProcSet (FontSetInit)
%%EndComments
%%BeginProlog
80 dict begin
/s {stroke} def /l {lineto} def /m {moveto} def /t {translate} def
/r {rotate} def /rl {roll}  def /R {repeat} def
/d {rlineto} def /rm {rmoveto} def /gr {grestore} def /f {eofill} def
/c {setrgbcolor} def /black {0 setgray} def /sd {setdash} def
/cl {closepath} def /sf {scalefont setfont} def /lw {setlinewidth} def
/box {m dup 0 exch d exch 0 d 0 exch neg d cl} def
/NC{systemdict begin initclip end}def/C{NC box clip newpath}def
/bl {box s} def /bf {gsave box gsave f grestore 1 lw [] 0 sd s grestore} def /Y { 0 exch d} def /X { 0 d} def 
/K {{pop pop 0 moveto} exch kshow} bind def
/ita {/ang 15 def gsave [1 0 ang dup sin exch cos div 1 0 0] concat} def 
/mp {newpath /y exch def /x exch def} def
/side {[w .77 mul w .23 mul] .385 w mul sd w 0 l currentpoint t -144 r} def
/mr {mp x y w2 0 360 arc} def /m24 {mr s} def /m20 {mr f} def
/mb {mp x y w2 add m w2 neg 0 d 0 w neg d w 0 d 0 w d cl} def
/mt {mp x y w2 add m w2 neg w neg d w 0 d cl} def
/w4 {w 4 div} def
/w6 {w 6 div} def
/w8 {w 8 div} def
/m21 {mb f} def /m25 {mb s} def /m22 {mt f} def /m26{mt s} def
/m23 {mp x y w2 sub m w2 w d w neg 0 d cl f} def
/m27 {mp x y w2 add m w3 neg w2 neg d w3 w2 neg d w3 w2 d cl s} def
/m28 {mp x w2 sub y w2 sub w3 add m w3 0 d  0 w3 neg d w3 0 d 0 w3 d w3 0 d  0 w3 d w3 neg 0 d 0 w3 d w3 neg 0 d 0 w3 neg d w3 neg 0 d cl s } def
/m29 {mp gsave x w2 sub y w2 add w3 sub m currentpoint t 4 {side} repeat cl fill gr} def
/m30 {mp gsave x w2 sub y w2 add w3 sub m currentpoint t 4 {side} repeat cl s gr} def
/m31 {mp x y w2 sub m 0 w d x w2 sub y m w 0 d x w2 .707 mul sub y w2 .707 mul add m w 1.44 div w 1.44 div neg d x w2 .707 mul sub y w2 .707 mul sub m w 1.44 div w 1.44 div d s} def
/m32 {mp x y w2 sub m w2 w d w neg 0 d cl s} def
/m33 {mp x y w2 add m w3 neg w2 neg d w3 w2 neg d w3 w2 d cl f} def
/m34 {mp x w2 sub y w2 sub w3 add m w3 0 d  0 w3 neg d w3 0 d 0 w3 d w3 0 d  0 w3 d w3 neg 0 d 0 w3 d w3 neg 0 d 0 w3 neg d w3 neg 0 d cl f } def
/m35 {mp x y w2 add m w2 neg w2 neg d w2 w2 neg d w2 w2 d w2 neg w2 d x y w2 sub m 0 w d x w2 sub y m w 0 d s} def
/m36 {mb x w2 sub y w2 add m w w neg d x w2 sub y w2 sub m w w d s} def
/m37 {mp x y m w4 neg w2 d w4 neg w2 neg d w2 0 d  w4 neg w2 neg d w2 0 d w4 neg w2 d w2 0 d w4 neg w2 d w4 neg w2 neg d cl s} def
/m38 {mp x w4 sub y w2 add m w4 neg w4 neg d 0 w2 neg d w4 w4 neg d w2 0 d w4 w4 d 0 w2 d w4 neg w4 d w2 neg 0 d x y w2 sub m 0 w d x w2 sub y m w 0 d cl s} def
/m39 {mp x y m w4 neg w2 d w4 neg w2 neg d w2 0 d  w4 neg w2 neg d w2 0 d w4 neg w2 d w2 0 d w4 neg w2 d w4 neg w2 neg d cl f} def
/m40 {mp x y m w4 w2 d w4 w4 neg d w2 neg w4 neg d w2 w4 neg d w4 neg w4 neg d w4 neg w2 d w4 neg w2 neg d w4 neg w4 d w2 w4 d w2 neg w4 d w4 w4 d w4 w2 neg d cl s} def
/m41 {mp x y m w4 w2 d w4 w4 neg d w2 neg w4 neg d w2 w4 neg d w4 neg w4 neg d w4 neg w2 d w4 neg w2 neg d w4 neg w4 d w2 w4 d w2 neg w4 d w4 w4 d w4 w2 neg d cl f} def
/m42 {mp x y w2 add m w8 neg w2 -3 4 div mul d w2 -3 4 div mul w8 neg d w2 3 4 div mul w8 neg d w8 w2 -3 4 div mul d w8 w2 3 4 div mul d w2 3 4 div mul w8 d w2 -3 4 div mul w8 d w8 neg w2 3 4 div mul d cl s} def
/m43 {mp x y w2 add m w8 neg w2 -3 4 div mul d w2 -3 4 div mul w8 neg d w2 3 4 div mul w8 neg d w8 w2 -3 4 div mul d w8 w2 3 4 div mul d w2 3 4 div mul w8 d w2 -3 4 div mul w8 d w8 neg w2 3 4 div mul d cl f} def
/m44 {mp x y m w6 neg w2 d w2 2 3 div mul 0 d w6 neg w2 neg d w2 w6 d 0 w2 -2 3 div mul d w2 neg w6 d w6 w2 neg d w2 -2 3 div mul 0 d w6 w2 d w2 neg w6 neg d 0 w2 2 3 div mul d w2 w6 neg d cl s} def
/m45 {mp x y m w6 neg w2 d w2 2 3 div mul 0 d w6 neg w2 neg d w2 w6 d 0 w2 -2 3 div mul d w2 neg w6 d w6 w2 neg d w2 -2 3 div mul 0 d w6 w2 d w2 neg w6 neg d 0 w2 2 3 div mul d w2 w6 neg d cl f} def
/m46 {mp x y w4 add m w4 neg w4 d w4 neg w4 neg d  w4 w4 neg d w4 neg w4 neg d w4 w4 neg d w4 w4 d w4 w4 neg d w4 w4 d w4 neg w4 d w4 w4 d w4 neg w4 d w4 neg w4 neg d cl s} def
/m47 {mp x y w4 add m w4 neg w4 d w4 neg w4 neg d w4 w4 neg d w4 neg w4 neg d  w4 w4 neg d w4 w4 d w4 w4 neg d w4 w4 d w4 neg w4 d w4 w4 d w4 neg w4 d w4 neg w4 neg d cl f} def
/m48 {mp x y w4 add m w4 neg w4 d w4 neg w4 neg d w4 w4 neg d  w4 neg w4 neg d w4 w4 neg d w4 w4 d w4 w4 neg d w4 w4 d w4 neg w4 d w4 w4 d w4 neg w4 d w4 neg w4 neg d  w4 w4 neg d w4 neg w4 neg d w4 neg w4 d w4 w4 d cl f} def
/m49 {mp x w2 sub w3 add y w2 sub w3 add m  0 w3 neg d w3 0 d 0 w3 d w3 0 d 0 w3 d w3 neg 0 d 0 w3 d w3 neg 0 d 0 w3 neg d w3 neg 0 d 0 w3 neg d w3 0 d 0 w3 d w3 0 d 0 w3 neg d w3 neg 0 d cl f } def
/m2 {mp x y w2 sub m 0 w d x w2 sub y m w 0 d s} def
/m5 {mp x w2 .707 mul sub y w2 .707 mul sub m w 1.44 div w 1.44 div d x w2 .707 mul sub y w2 .707 mul add m w 1.44 div w 1.44 div neg d s} def
%%IncludeResource: ProcSet (FontSetInit)
%%IncludeResource: font Times-Roman
%%IncludeResource: font Times-Italic
%%IncludeResource: font Times-Bold
%%IncludeResource: font Times-BoldItalic
%%IncludeResource: font Helvetica
%%IncludeResource: font Helvetica-Oblique
%%IncludeResource: font Helvetica-Bold
%%IncludeResource: font Helvetica-BoldOblique
%%IncludeResource: font Courier
%%IncludeResource: font Courier-Oblique
%%IncludeResource: font Courier-Bold
%%IncludeResource: font Courier-BoldOblique
%%IncludeResource: font Symbol
%%IncludeResource: font ZapfDingbats
/reEncode {exch findfont dup length dict begin {1 index /FID eq  {pop pop} {def} ifelse } forall /Encoding exch def currentdict end dup /FontName get exch definefont pop } def [/Times-Bold /Times-Italic /Times-BoldItalic /Helvetica /Helvetica-Oblique
 /Helvetica-Bold /Helvetica-BoldOblique /Courier /Courier-Oblique /Courier-Bold /Courier-BoldOblique /Times-Roman /AvantGarde-Book /AvantGarde-BookOblique /AvantGarde-Demi /AvantGarde-DemiOblique /Bookman-Demi /Bookman-DemiItalic /Bookman-Light
 /Bookman-LightItalic /Helvetica-Narrow /Helvetica-Narrow-Bold /Helvetica-Narrow-BoldOblique /Helvetica-Narrow-Oblique /NewCenturySchlbk-Roman /NewCenturySchlbk-Bold /NewCenturySchlbk-BoldItalic /NewCenturySchlbk-Italic /Palatino-Bold
 /Palatino-BoldItalic /Palatino-Italic /Palatino-Roman ] {ISOLatin1Encoding reEncode } forall
%%EndProlog
%%BeginSetup
%%EndSetup
newpath  gsave  .25 .25 scale  gsave  0 0 t black[  ] 0 sd 3 lw 1 1 1 c 2268 975 0 0 bf black 1 1 1 c 2177 375 45 585 bf black 2177 375 45 585 bl 6 lw 1 1 1 c black 45 773 m 2177 X s 3 lw 45 585 m 2177 X s
 gsave  2268 975 0 0 C 60.6071 61.8698 t 90 r /Helvetica findfont 23.9903 sf 0 0 m (EL_EFF_ID_SIMPLIFIED_UncorrUncertaintyNP0) show NC gr 
 gsave  2268 975 0 0 C 82.0721 65.6577 t 90 r /Helvetica findfont 23.9903 sf 0 0 m (EL_EFF_ID_SIMPLIFIED_UncorrUncertaintyNP1) show NC gr 
 gsave  2268 975 0 0 C 102.275 49.2433 t 90 r /Helvetica findfont 23.9903 sf 0 0 m (EL_EFF_ID_SIMPLIFIED_UncorrUncertaintyNP10) show NC gr 
 gsave  2268 975 0 0 C 122.477 53.0312 t 90 r /Helvetica findfont 23.9903 sf 0 0 m (EL_EFF_ID_SIMPLIFIED_UncorrUncertaintyNP11) show NC gr 
 gsave  2268 975 0 0 C 142.679 61.8698 t 90 r /Helvetica findfont 23.9903 sf 0 0 m (EL_EFF_ID_SIMPLIFIED_UncorrUncertaintyNP2) show NC gr 
 gsave  2268 975 0 0 C 162.882 23.9903 t 90 r /Helvetica findfont 23.9903 sf 0 0 m (EL_EFF_Trigger_TOTAL_1NPCOR_PLUS_UNCOR) show NC gr 
 gsave  2268 975 0 0 C 183.084 207.074 t 90 r /Helvetica findfont 23.9903 sf 0 0 m (FT_EFF_extrapolation_from_charm) show NC gr 
 gsave  2268 975 0 0 C 204.549 294.197 t 90 r /Helvetica findfont 23.9903 sf 0 0 m (JET_SingleParticle_HighPt) show NC gr 
 gsave  2268 975 0 0 C 224.751 191.923 t 90 r /Helvetica findfont 23.9903 sf 0 0 m (MUON_EFF_RECO_STAT_LOWPT) show NC gr 
 gsave  2268 975 0 0 C 244.954 207.074 t 90 r /Helvetica findfont 23.9903 sf 0 0 m (MUON_EFF_RECO_SYS_LOWPT) show NC gr 
 gsave  2268 975 0 0 C 266.419 323.238 t 90 r /Helvetica findfont 23.9903 sf 0 0 m (MUON_SAGITTA_RHO) show NC gr 
 gsave  2268 975 0 0 C 285.359 397.734 t 90 r /Helvetica findfont 23.9903 sf 0 0 m (theo_ggF_alphas) show NC gr 
 gsave  2268 975 0 0 C 305.561 390.158 t 90 r /Helvetica findfont 23.9903 sf 0 0 m (theo_ggF_pdf4lhc) show NC gr 
 gsave  2268 975 0 0 C 325.763 296.722 t 90 r /Helvetica findfont 23.9903 sf 0 0 m (theo_ggF_qcd_wg1_mig01) show NC gr 
 gsave  2268 975 0 0 C 345.966 292.934 t 90 r /Helvetica findfont 23.9903 sf 0 0 m (theo_ggF_qcd_wg1_mig12) show NC gr 
 gsave  2268 975 0 0 C 366.168 325.763 t 90 r /Helvetica findfont 23.9903 sf 0 0 m (theo_ggF_qcd_wg1_mu) show NC gr 
 gsave  2268 975 0 0 C 386.37 313.137 t 90 r /Helvetica findfont 23.9903 sf 0 0 m (theo_ggF_qcd_wg1_pTH) show NC gr 
 gsave  2268 975 0 0 C 406.573 304.298 t 90 r /Helvetica findfont 23.9903 sf 0 0 m (theo_ggF_qcd_wg1_qm_t) show NC gr 
 gsave  2268 975 0 0 C 428.038 324.501 t 90 r /Helvetica findfont 23.9903 sf 0 0 m (theo_ggF_qcd_wg1_res) show NC gr 
 gsave  2268 975 0 0 C 448.24 306.824 t 90 r /Helvetica findfont 23.9903 sf 0 0 m (theo_ggF_qcd_wg1_vbf2j) show NC gr 
 gsave  2268 975 0 0 C 468.443 306.824 t 90 r /Helvetica findfont 23.9903 sf 0 0 m (theo_ggF_qcd_wg1_vbf3j) show NC gr 
 gsave  2268 975 0 0 C 488.645 391.421 t 90 r /Helvetica findfont 23.9903 sf 0 0 m (theo_ggF_shower) show NC gr 
 gsave  2268 975 0 0 C 508.847 362.38 t 90 r /Helvetica findfont 23.9903 sf 0 0 m (theo_ztautau_alphas) show NC gr 
 gsave  2268 975 0 0 C 529.05 247.479 t 90 r /Helvetica findfont 23.9903 sf 0 0 m (theo_ztautau_generatortotNorm) show NC gr 
 gsave  2268 975 0 0 C 549.252 397.734 t 90 r /Helvetica findfont 23.9903 sf 0 0 m (theo_ztautau_pdf) show NC gr 
 gsave  2268 975 0 0 C 570.717 376.269 t 90 r /Helvetica findfont 23.9903 sf 0 0 m (theo_ztautau_scale) show NC gr 
 gsave  2268 975 0 0 C 589.657 198.236 t 90 r /Helvetica findfont 23.9903 sf 0 0 m (theo_ztautau_generatorRegNonVBF) show NC gr 
 gsave  2268 975 0 0 C 612.384 458.341 t 90 r /Helvetica findfont 23.9903 sf 0 0 m (el_FF_Com) show NC gr 
 gsave  2268 975 0 0 C 632.587 387.633 t 90 r /Helvetica findfont 23.9903 sf 0 0 m (el_FF_EWSUBTR) show NC gr 
 gsave  2268 975 0 0 C 652.789 328.289 t 90 r /Helvetica findfont 23.9903 sf 0 0 m (el_FF_STAT_2015_1_1) show NC gr 
 gsave  2268 975 0 0 C 672.992 261.368 t 90 r /Helvetica findfont 23.9903 sf 0 0 m (el_FF_STAT_2015_2018_1_1) show NC gr 
 gsave  2268 975 0 0 C 693.194 261.368 t 90 r /Helvetica findfont 23.9903 sf 0 0 m (el_FF_STAT_2015_2018_2_1) show NC gr 
 gsave  2268 975 0 0 C 713.396 261.368 t 90 r /Helvetica findfont 23.9903 sf 0 0 m (el_FF_STAT_2015_2018_3_1) show NC gr 
 gsave  2268 975 0 0 C 733.599 261.368 t 90 r /Helvetica findfont 23.9903 sf 0 0 m (el_FF_STAT_2015_2018_4_1) show NC gr 
 gsave  2268 975 0 0 C 753.801 328.289 t 90 r /Helvetica findfont 23.9903 sf 0 0 m (el_FF_STAT_2015_2_1) show NC gr 
 gsave  2268 975 0 0 C 774.003 328.289 t 90 r /Helvetica findfont 23.9903 sf 0 0 m (el_FF_STAT_2015_3_1) show NC gr 
 gsave  2268 975 0 0 C 795.469 328.289 t 90 r /Helvetica findfont 23.9903 sf 0 0 m (el_FF_STAT_2015_4_1) show NC gr 
 gsave  2268 975 0 0 C 815.671 328.289 t 90 r /Helvetica findfont 23.9903 sf 0 0 m (el_FF_STAT_2016_1_1) show NC gr 
 gsave  2268 975 0 0 C 835.873 328.289 t 90 r /Helvetica findfont 23.9903 sf 0 0 m (el_FF_STAT_2016_2_1) show NC gr 
 gsave  2268 975 0 0 C 856.076 328.289 t 90 r /Helvetica findfont 23.9903 sf 0 0 m (el_FF_STAT_2016_3_1) show NC gr 
 gsave  2268 975 0 0 C 876.278 328.289 t 90 r /Helvetica findfont 23.9903 sf 0 0 m (el_FF_STAT_2016_4_1) show NC gr 
 gsave  2268 975 0 0 C 896.48 328.289 t 90 r /Helvetica findfont 23.9903 sf 0 0 m (el_FF_STAT_2017_1_1) show NC gr 
 gsave  2268 975 0 0 C 916.683 328.289 t 90 r /Helvetica findfont 23.9903 sf 0 0 m (el_FF_STAT_2017_2_1) show NC gr 
 gsave  2268 975 0 0 C 936.885 328.289 t 90 r /Helvetica findfont 23.9903 sf 0 0 m (el_FF_STAT_2017_3_1) show NC gr 
 gsave  2268 975 0 0 C 957.087 328.289 t 90 r /Helvetica findfont 23.9903 sf 0 0 m (el_FF_STAT_2017_4_1) show NC gr 
 gsave  2268 975 0 0 C 978.552 328.289 t 90 r /Helvetica findfont 23.9903 sf 0 0 m (el_FF_STAT_2018_1_1) show NC gr 
 gsave  2268 975 0 0 C 998.755 328.289 t 90 r /Helvetica findfont 23.9903 sf 0 0 m (el_FF_STAT_2018_2_1) show NC gr 
 gsave  2268 975 0 0 C 1018.96 328.289 t 90 r /Helvetica findfont 23.9903 sf 0 0 m (el_FF_STAT_2018_3_1) show NC gr 
 gsave  2268 975 0 0 C 1039.16 328.289 t 90 r /Helvetica findfont 23.9903 sf 0 0 m (el_FF_STAT_2018_4_1) show NC gr 
 gsave  2268 975 0 0 C 1059.36 443.19 t 90 r /Helvetica findfont 23.9903 sf 0 0 m (mu_FF_Com) show NC gr 
 gsave  2268 975 0 0 C 1079.56 373.744 t 90 r /Helvetica findfont 23.9903 sf 0 0 m (mu_FF_EWSUBTR) show NC gr 
 gsave  2268 975 0 0 C 1099.77 314.399 t 90 r /Helvetica findfont 23.9903 sf 0 0 m (mu_FF_STAT_2015_1_1) show NC gr 
 gsave  2268 975 0 0 C 1119.97 309.349 t 90 r /Helvetica findfont 23.9903 sf 0 0 m (mu_FF_STAT_2015_1_2) show NC gr 
 gsave  2268 975 0 0 C 1141.43 247.479 t 90 r /Helvetica findfont 23.9903 sf 0 0 m (mu_FF_STAT_2015_2018_1_1) show NC gr 
 gsave  2268 975 0 0 C 1161.64 243.691 t 90 r /Helvetica findfont 23.9903 sf 0 0 m (mu_FF_STAT_2015_2018_1_2) show NC gr 
 gsave  2268 975 0 0 C 1181.84 247.479 t 90 r /Helvetica findfont 23.9903 sf 0 0 m (mu_FF_STAT_2015_2018_2_1) show NC gr 
 gsave  2268 975 0 0 C 1202.04 243.691 t 90 r /Helvetica findfont 23.9903 sf 0 0 m (mu_FF_STAT_2015_2018_2_2) show NC gr 
 gsave  2268 975 0 0 C 1222.24 247.479 t 90 r /Helvetica findfont 23.9903 sf 0 0 m (mu_FF_STAT_2015_2018_3_1) show NC gr 
 gsave  2268 975 0 0 C 1242.45 243.691 t 90 r /Helvetica findfont 23.9903 sf 0 0 m (mu_FF_STAT_2015_2018_3_2) show NC gr 
 gsave  2268 975 0 0 C 1262.65 314.399 t 90 r /Helvetica findfont 23.9903 sf 0 0 m (mu_FF_STAT_2015_2_1) show NC gr 
 gsave  2268 975 0 0 C 1282.85 309.349 t 90 r /Helvetica findfont 23.9903 sf 0 0 m (mu_FF_STAT_2015_2_2) show NC gr 
 gsave  2268 975 0 0 C 1303.05 314.399 t 90 r /Helvetica findfont 23.9903 sf 0 0 m (mu_FF_STAT_2015_3_1) show NC gr 
 gsave  2268 975 0 0 C 1324.52 309.349 t 90 r /Helvetica findfont 23.9903 sf 0 0 m (mu_FF_STAT_2015_3_2) show NC gr 
 gsave  2268 975 0 0 C 1344.72 314.399 t 90 r /Helvetica findfont 23.9903 sf 0 0 m (mu_FF_STAT_2016_1_1) show NC gr 
 gsave  2268 975 0 0 C 1364.92 309.349 t 90 r /Helvetica findfont 23.9903 sf 0 0 m (mu_FF_STAT_2016_1_2) show NC gr 
 gsave  2268 975 0 0 C 1385.13 314.399 t 90 r /Helvetica findfont 23.9903 sf 0 0 m (mu_FF_STAT_2016_2_1) show NC gr 
 gsave  2268 975 0 0 C 1405.33 309.349 t 90 r /Helvetica findfont 23.9903 sf 0 0 m (mu_FF_STAT_2016_2_2) show NC gr 
 gsave  2268 975 0 0 C 1425.53 314.399 t 90 r /Helvetica findfont 23.9903 sf 0 0 m (mu_FF_STAT_2016_3_1) show NC gr 
 gsave  2268 975 0 0 C 1445.73 309.349 t 90 r /Helvetica findfont 23.9903 sf 0 0 m (mu_FF_STAT_2016_3_2) show NC gr 
 gsave  2268 975 0 0 C 1465.93 314.399 t 90 r /Helvetica findfont 23.9903 sf 0 0 m (mu_FF_STAT_2017_1_1) show NC gr 
 gsave  2268 975 0 0 C 1486.14 309.349 t 90 r /Helvetica findfont 23.9903 sf 0 0 m (mu_FF_STAT_2017_1_2) show NC gr 
 gsave  2268 975 0 0 C 1507.6 314.399 t 90 r /Helvetica findfont 23.9903 sf 0 0 m (mu_FF_STAT_2017_2_1) show NC gr 
 gsave  2268 975 0 0 C 1527.8 309.349 t 90 r /Helvetica findfont 23.9903 sf 0 0 m (mu_FF_STAT_2017_2_2) show NC gr 
 gsave  2268 975 0 0 C 1548.01 314.399 t 90 r /Helvetica findfont 23.9903 sf 0 0 m (mu_FF_STAT_2017_3_1) show NC gr 
 gsave  2268 975 0 0 C 1568.21 309.349 t 90 r /Helvetica findfont 23.9903 sf 0 0 m (mu_FF_STAT_2017_3_2) show NC gr 
 gsave  2268 975 0 0 C 1588.41 314.399 t 90 r /Helvetica findfont 23.9903 sf 0 0 m (mu_FF_STAT_2018_1_1) show NC gr 
 gsave  2268 975 0 0 C 1608.61 309.349 t 90 r /Helvetica findfont 23.9903 sf 0 0 m (mu_FF_STAT_2018_1_2) show NC gr 
 gsave  2268 975 0 0 C 1628.82 314.399 t 90 r /Helvetica findfont 23.9903 sf 0 0 m (mu_FF_STAT_2018_2_1) show NC gr 
 gsave  2268 975 0 0 C 1649.02 309.349 t 90 r /Helvetica findfont 23.9903 sf 0 0 m (mu_FF_STAT_2018_2_2) show NC gr 
 gsave  2268 975 0 0 C 1669.22 314.399 t 90 r /Helvetica findfont 23.9903 sf 0 0 m (mu_FF_STAT_2018_3_1) show NC gr 
 gsave  2268 975 0 0 C 1690.69 309.349 t 90 r /Helvetica findfont 23.9903 sf 0 0 m (mu_FF_STAT_2018_3_2) show NC gr 
 gsave  2268 975 0 0 C 1710.89 351.016 t 90 r /Helvetica findfont 23.9903 sf 0 0 m (theo_ewww_EWscale) show NC gr 
 gsave  2268 975 0 0 C 1729.83 373.744 t 90 r /Helvetica findfont 23.9903 sf 0 0 m (theo_ewww_alphas) show NC gr 
 gsave  2268 975 0 0 C 1750.03 409.098 t 90 r /Helvetica findfont 23.9903 sf 0 0 m (theo_ewww_pdf) show NC gr 
 gsave  2268 975 0 0 C 1771.5 387.633 t 90 r /Helvetica findfont 23.9903 sf 0 0 m (theo_ewww_scale) show NC gr 
 gsave  2268 975 0 0 C 1791.7 367.431 t 90 r /Helvetica findfont 23.9903 sf 0 0 m (theo_ewww_shower) show NC gr 
 gsave  2268 975 0 0 C 1811.9 401.522 t 90 r /Helvetica findfont 23.9903 sf 0 0 m (theo_ww_CKKW) show NC gr 
 gsave  2268 975 0 0 C 1832.1 385.108 t 90 r /Helvetica findfont 23.9903 sf 0 0 m (theo_ww_CSSKIN) show NC gr 
 gsave  2268 975 0 0 C 1852.31 424.25 t 90 r /Helvetica findfont 23.9903 sf 0 0 m (theo_ww_QSF) show NC gr 
 gsave  2268 975 0 0 C 1872.51 404.047 t 90 r /Helvetica findfont 23.9903 sf 0 0 m (theo_ww_alphas) show NC gr 
 gsave  2268 975 0 0 C 1892.71 439.402 t 90 r /Helvetica findfont 23.9903 sf 0 0 m (theo_ww_pdf) show NC gr 
 gsave  2268 975 0 0 C 1914.17 417.937 t 90 r /Helvetica findfont 23.9903 sf 0 0 m (theo_ww_scale) show NC gr 
 gsave  2268 975 0 0 C 1934.38 397.734 t 90 r /Helvetica findfont 23.9903 sf 0 0 m (theo_ww_shower) show NC gr 
 gsave  2268 975 0 0 C 1954.58 433.088 t 90 r /Helvetica findfont 23.9903 sf 0 0 m (theo_ttbar_fsr) show NC gr 
 gsave  2268 975 0 0 C 1974.78 434.351 t 90 r /Helvetica findfont 23.9903 sf 0 0 m (theo_ttbar_isr) show NC gr 
 gsave  2268 975 0 0 C 1993.72 364.905 t 90 r /Helvetica findfont 23.9903 sf 0 0 m (theo_ttbar_matching) show NC gr 
 gsave  2268 975 0 0 C 2013.92 426.775 t 90 r /Helvetica findfont 23.9903 sf 0 0 m (theo_ttbar_pdf) show NC gr 
 gsave  2268 975 0 0 C 2036.65 405.31 t 90 r /Helvetica findfont 23.9903 sf 0 0 m (theo_ttbar_scale) show NC gr 
 gsave  2268 975 0 0 C 2056.85 383.845 t 90 r /Helvetica findfont 23.9903 sf 0 0 m (theo_ttbar_shower) show NC gr 
 gsave  2268 975 0 0 C 2075.79 223.489 t 90 r /Helvetica findfont 23.9903 sf 0 0 m (theo_ztautau_generatorRegTop_1) show NC gr 
 gsave  2268 975 0 0 C 2096 219.701 t 90 r /Helvetica findfont 23.9903 sf 0 0 m (theo_ztautau_generatorRegTop_2) show NC gr 
 gsave  2268 975 0 0 C 2116.2 219.701 t 90 r /Helvetica findfont 23.9903 sf 0 0 m (theo_ztautau_generatorRegTop_3) show NC gr 
 gsave  2268 975 0 0 C 2136.4 219.701 t 90 r /Helvetica findfont 23.9903 sf 0 0 m (theo_ztautau_generatorRegTop_4) show NC gr 
 gsave  2268 975 0 0 C 2156.6 219.701 t 90 r /Helvetica findfont 23.9903 sf 0 0 m (theo_ztautau_generatorRegVBF_1) show NC gr 
 gsave  2268 975 0 0 C 2176.81 215.913 t 90 r /Helvetica findfont 23.9903 sf 0 0 m (theo_ztautau_generatorRegVBF_2) show NC gr 
 gsave  2268 975 0 0 C 2197.01 215.913 t 90 r /Helvetica findfont 23.9903 sf 0 0 m (theo_ztautau_generatorRegVBF_3) show NC gr 
 gsave  2268 975 0 0 C 2218.47 215.913 t 90 r /Helvetica findfont 23.9903 sf 0 0 m (theo_ztautau_generatorRegVBF_4) show NC gr  45 613 m -28 Y s 356 613 m -28 Y s 667 613 m -28 Y s 978 613 m -28 Y s 1289 613 m -28 Y s 1600 613 m -28 Y s 1911 613 m
 -28 Y s 2222 613 m -28 Y s 45 960 m 2177 X s 45 932 m 28 Y s 356 932 m 28 Y s 667 932 m 28 Y s 978 932 m 28 Y s 1289 932 m 28 Y s 1600 932 m 28 Y s 1911 932 m 28 Y s 2222 932 m 28 Y s 45 585 m 375 Y s 72 585 m -27 X s 58 594 m -13 X s 58 604 m -13 X
 s 58 613 m -13 X s 58 622 m -13 X s 72 632 m -27 X s 58 641 m -13 X s 58 651 m -13 X s 58 660 m -13 X s 58 669 m -13 X s 72 679 m -27 X s 58 688 m -13 X s 58 697 m -13 X s 58 707 m -13 X s 58 716 m -13 X s 72 726 m -27 X s 58 735 m -13 X s 58 744 m
 -13 X s 58 754 m -13 X s 58 763 m -13 X s 72 773 m -27 X s 58 782 m -13 X s 58 791 m -13 X s 58 801 m -13 X s 58 810 m -13 X s 72 819 m -27 X s 58 829 m -13 X s 58 838 m -13 X s 58 848 m -13 X s 58 857 m -13 X s 72 866 m -27 X s 58 876 m -13 X s 58
 885 m -13 X s 58 894 m -13 X s 58 904 m -13 X s 72 913 m -27 X s 58 923 m -13 X s 58 932 m -13 X s 58 941 m -13 X s 58 951 m -13 X s 72 960 m -27 X s
 gsave  2268 975 0 0 C 20.2024 575.768 t 0 r /Helvetica findfont 23.9903 sf 0 0 m (2) show NC gr 
 gsave  2268 975 0 0 C 7.57589 575.768 t 0 r /Symbol findfont 23.9903 sf 0 0 m (-) show NC gr 
 gsave  2268 975 0 0 C 0 623.748 t 0 r /Helvetica findfont 23.9903 sf 0 0 m (1.5) show NC gr 
 gsave  2268 975 0 0 C -12.6265 623.748 t 0 r /Symbol findfont 23.9903 sf 0 0 m (-) show NC gr 
 gsave  2268 975 0 0 C 23.9903 669.204 t 0 r /Helvetica findfont 23.9903 sf 0 0 m (1) show NC gr 
 gsave  2268 975 0 0 C 11.3638 669.204 t 0 r /Symbol findfont 23.9903 sf 0 0 m (-) show NC gr 
 gsave  2268 975 0 0 C 0 717.184 t 0 r /Helvetica findfont 23.9903 sf 0 0 m (0.5) show NC gr 
 gsave  2268 975 0 0 C -12.6265 717.184 t 0 r /Symbol findfont 23.9903 sf 0 0 m (-) show NC gr 
 gsave  2268 975 0 0 C 20.2024 763.902 t 0 r /Helvetica findfont 23.9903 sf 0 0 m (0) show NC gr 
 gsave  2268 975 0 0 C 0 810.62 t 0 r /Helvetica findfont 23.9903 sf 0 0 m (0.5) show NC gr 
 gsave  2268 975 0 0 C 23.9903 857.338 t 0 r /Helvetica findfont 23.9903 sf 0 0 m (1) show NC gr 
 gsave  2268 975 0 0 C 0 905.319 t 0 r /Helvetica findfont 23.9903 sf 0 0 m (1.5) show NC gr 
 gsave  2268 975 0 0 C 20.2024 950.774 t 0 r /Helvetica findfont 23.9903 sf 0 0 m (2) show NC gr 
 gsave  2268 975 0 0 C -45.4553 945.724 t 90 r /Symbol findfont 29.0409 sf 0 0 m (q) show NC gr  6 lw
 gsave  2268 975 0 0 C -45.4553 930.572 t 90 r /Symbol findfont 29.0409 sf 0 0 m (d) show NC gr 
 gsave  2268 975 0 0 C -45.4553 920.471 t 90 r /Helvetica findfont 29.0409 sf 0 0 m (/) show NC gr 
 gsave  2268 975 0 0 C -45.4553 905.319 t 90 r /Symbol findfont 29.0409 sf 0 0 m (q) show NC gr 
 gsave  2268 975 0 0 C -45.4553 896.48 t 90 r /Helvetica findfont 29.0409 sf 0 0 m (\255) show NC gr 
 gsave  2268 975 0 0 C -45.4553 881.329 t 90 r /Symbol findfont 29.0409 sf 0 0 m (q) show NC gr  3 lw 2222 585 m 375 Y s 2196 585 m 26 X s 2209 594 m 13 X s 2209 604 m 13 X s 2209 613 m 13 X s 2209 622 m 13 X s 2196 632 m 26 X s 2209 641 m 13 X s
 2209 651 m 13 X s 2209 660 m 13 X s 2209 669 m 13 X s 2196 679 m 26 X s 2209 688 m 13 X s 2209 697 m 13 X s 2209 707 m 13 X s 2209 716 m 13 X s 2196 726 m 26 X s 2209 735 m 13 X s 2209 744 m 13 X s 2209 754 m 13 X s 2209 763 m 13 X s 2196 773 m 26 X
 s 2209 782 m 13 X s 2209 791 m 13 X s 2209 801 m 13 X s 2209 810 m 13 X s 2196 819 m 26 X s 2209 829 m 13 X s 2209 838 m 13 X s 2209 848 m 13 X s 2209 857 m 13 X s 2196 866 m 26 X s 2209 876 m 13 X s 2209 885 m 13 X s 2209 894 m 13 X s 2209 904 m 13
 X s 2196 913 m 26 X s 2209 923 m 13 X s 2209 932 m 13 X s 2209 941 m 13 X s 2209 951 m 13 X s 2196 960 m 26 X s 56 787 m 26 Y s 53 813 m 5 X s 56 787 m -26 Y s 53 761 m 5 X s 76 787 m 26 Y s 73 813 m 5 X s 76 787 m -26 Y s 73 761 m 5 X s 96 787 m 26
 Y s 94 813 m 5 X s 96 787 m -26 Y s 94 761 m 5 X s 117 787 m 26 Y s 114 813 m 5 X s 117 787 m -26 Y s 114 761 m 5 X s 137 787 m 26 Y s 134 813 m 5 X s 137 787 m -26 Y s 134 761 m 5 X s 157 787 m 26 Y s 155 813 m 5 X s 157 787 m -26 Y s 155 761 m 5 X
 s 178 786 m 26 Y s 175 812 m 5 X s 178 786 m -27 Y s 175 759 m 5 X s 198 787 m 26 Y s 195 813 m 5 X s 198 787 m -26 Y s 195 761 m 5 X s 218 787 m 26 Y s 216 813 m 5 X s 218 787 m -26 Y s 216 761 m 5 X s 239 787 m 26 Y s 236 813 m 5 X s 239 787 m -26
 Y s 236 761 m 5 X s 259 787 m 26 Y s 256 813 m 6 X s 259 787 m -26 Y s 256 761 m 6 X s 279 770 m 37 Y s 277 807 m 5 X s 279 770 m -37 Y s 277 733 m 5 X s 300 772 m 37 Y s 297 809 m 5 X s 300 772 m -37 Y s 297 735 m 5 X s 320 777 m 38 Y s 317 815 m 6
 X s 320 777 m -37 Y s 317 740 m 6 X s 340 882 m 36 Y s 338 918 m 5 X s 340 882 m -36 Y s 338 846 m 5 X s 361 798 m 37 Y s 358 835 m 5 X s 361 798 m -37 Y s 358 761 m 5 X s 381 794 m 37 Y s 379 831 m 5 X s 381 794 m -37 Y s 379 757 m 5 X s 401 781 m
 37 Y s 399 818 m 5 X s 401 781 m -37 Y s 399 744 m 5 X s 422 804 m 37 Y s 419 841 m 5 X s 422 804 m -37 Y s 419 767 m 5 X s 442 752 m 37 Y s 440 789 m 5 X s 442 752 m -36 Y s 440 716 m 5 X s 462 740 m 37 Y s 460 777 m 5 X s 462 740 m -37 Y s 460 703
 m 5 X s 483 954 m 6 Y s 480 960 m 5 X s 483 954 m -36 Y s 480 918 m 5 X s 503 785 m 37 Y s 501 822 m 5 X s 503 785 m -37 Y s 501 748 m 5 X s 523 750 m 37 Y s 521 787 m 5 X s 523 750 m -36 Y s 521 714 m 5 X s 544 779 m 39 Y s 541 818 m 5 X s 544 779
 m -38 Y s 541 741 m 5 X s 564 794 m 84 Y s 562 878 m 5 X s 564 794 m -83 Y s 562 711 m 5 X s 585 867 m 34 Y s 582 901 m 5 X s 585 867 m -35 Y s 582 832 m 5 X s 605 773 m 37 Y s 602 810 m 5 X s 605 773 m -38 Y s 602 735 m 5 X s 625 773 m 37 Y s 623
 810 m 5 X s 625 773 m -38 Y s 623 735 m 5 X s 646 773 m 37 Y s 643 810 m 5 X s 646 773 m -38 Y s 643 735 m 5 X s 666 773 m 37 Y s 663 810 m 5 X s 666 773 m -38 Y s 663 735 m 5 X s 686 773 m 37 Y s 684 810 m 5 X s 686 773 m -38 Y s 684 735 m 5 X s
 707 773 m 37 Y s 704 810 m 5 X s 707 773 m -38 Y s 704 735 m 5 X s 727 773 m 37 Y s 724 810 m 5 X s 727 773 m -38 Y s 724 735 m 5 X s 747 773 m 37 Y s 745 810 m 5 X s 747 773 m -38 Y s 745 735 m 5 X s 768 773 m 37 Y s 765 810 m 5 X s 768 773 m -38 Y
 s 765 735 m 5 X s 788 773 m 37 Y s 785 810 m 6 X s 788 773 m -38 Y s 785 735 m 6 X s 808 773 m 37 Y s 806 810 m 5 X s 808 773 m -38 Y s 806 735 m 5 X s 829 773 m 37 Y s 826 810 m 5 X s 829 773 m -38 Y s 826 735 m 5 X s 849 773 m 37 Y s 846 810 m 6 X
 s 849 773 m -38 Y s 846 735 m 6 X s 869 773 m 37 Y s 867 810 m 5 X s 869 773 m -38 Y s 867 735 m 5 X s 890 773 m 37 Y s 887 810 m 5 X s 890 773 m -38 Y s 887 735 m 5 X s 910 773 m 37 Y s 908 810 m 5 X s 910 773 m -38 Y s 908 735 m 5 X s 930 773 m 37
 Y s 928 810 m 5 X s 930 773 m -38 Y s 928 735 m 5 X s 951 773 m 37 Y s 948 810 m 5 X s 951 773 m -38 Y s 948 735 m 5 X s 971 773 m 37 Y s 969 810 m 5 X s 971 773 m -38 Y s 969 735 m 5 X s 991 773 m 37 Y s 989 810 m 5 X s 991 773 m -38 Y s 989 735 m
 5 X s 1012 773 m 37 Y s 1009 810 m 5 X s 1012 773 m -38 Y s 1009 735 m 5 X s 1032 773 m 37 Y s 1030 810 m 5 X s 1032 773 m -38 Y s 1030 735 m 5 X s 1052 773 m 37 Y s 1050 810 m 5 X s 1052 773 m -38 Y s 1050 735 m 5 X s 1073 773 m 37 Y s 1070 810 m 5
 X s 1073 773 m -38 Y s 1070 735 m 5 X s 1093 773 m 37 Y s 1091 810 m 5 X s 1093 773 m -38 Y s 1091 735 m 5 X s 1114 773 m 37 Y s 1111 810 m 5 X s 1114 773 m -38 Y s 1111 735 m 5 X s 1134 773 m 37 Y s 1131 810 m 5 X s 1134 773 m -38 Y s 1131 735 m 5
 X s 1154 773 m 37 Y s 1152 810 m 5 X s 1154 773 m -38 Y s 1152 735 m 5 X s 1175 773 m 37 Y s 1172 810 m 5 X s 1175 773 m -38 Y s 1172 735 m 5 X s 1195 773 m 37 Y s 1192 810 m 5 X s 1195 773 m -38 Y s 1192 735 m 5 X s 1215 773 m 37 Y s 1213 810 m 5 X
 s 1215 773 m -38 Y s 1213 735 m 5 X s 1236 773 m 37 Y s 1233 810 m 5 X s 1236 773 m -38 Y s 1233 735 m 5 X s 1256 773 m 37 Y s 1253 810 m 5 X s 1256 773 m -38 Y s 1253 735 m 5 X s 1276 773 m 37 Y s 1274 810 m 5 X s 1276 773 m -38 Y s 1274 735 m 5 X
 s 1297 773 m 37 Y s 1294 810 m 5 X s 1297 773 m -38 Y s 1294 735 m 5 X s 1317 773 m 37 Y s 1314 810 m 5 X s 1317 773 m -38 Y s 1314 735 m 5 X s 1337 773 m 37 Y s 1335 810 m 5 X s 1337 773 m -38 Y s 1335 735 m 5 X s 1358 773 m 37 Y s 1355 810 m 5 X s
 1358 773 m -38 Y s 1355 735 m 5 X s 1378 773 m 37 Y s 1375 810 m 6 X s 1378 773 m -38 Y s 1375 735 m 6 X s 1398 773 m 37 Y s 1396 810 m 5 X s 1398 773 m -38 Y s 1396 735 m 5 X s 1419 773 m 37 Y s 1416 810 m 5 X s 1419 773 m -38 Y s 1416 735 m 5 X s
 1439 773 m 37 Y s 1437 810 m 5 X s 1439 773 m -38 Y s 1437 735 m 5 X s 1459 773 m 37 Y s 1457 810 m 5 X s 1459 773 m -38 Y s 1457 735 m 5 X s 1480 773 m 37 Y s 1477 810 m 5 X s 1480 773 m -38 Y s 1477 735 m 5 X s 1500 773 m 37 Y s 1498 810 m 5 X s
 1500 773 m -38 Y s 1498 735 m 5 X s 1520 773 m 37 Y s 1518 810 m 5 X s 1520 773 m -38 Y s 1518 735 m 5 X s 1541 773 m 37 Y s 1538 810 m 5 X s 1541 773 m -38 Y s 1538 735 m 5 X s 1561 773 m 37 Y s 1559 810 m 5 X s 1561 773 m -38 Y s 1559 735 m 5 X s
 1581 773 m 37 Y s 1579 810 m 5 X s 1581 773 m -38 Y s 1579 735 m 5 X s 1602 773 m 37 Y s 1599 810 m 5 X s 1602 773 m -38 Y s 1599 735 m 5 X s 1622 773 m 37 Y s 1620 810 m 5 X s 1622 773 m -38 Y s 1620 735 m 5 X s 1643 773 m 37 Y s 1640 810 m 5 X s
 1643 773 m -38 Y s 1640 735 m 5 X s 1663 773 m 37 Y s 1660 810 m 5 X s 1663 773 m -38 Y s 1660 735 m 5 X s 1683 773 m 37 Y s 1681 810 m 5 X s 1683 773 m -38 Y s 1681 735 m 5 X s 1704 793 m 37 Y s 1701 830 m 5 X s 1704 793 m -36 Y s 1701 757 m 5 X s
 1724 773 m 37 Y s 1721 810 m 5 X s 1724 773 m -37 Y s 1721 736 m 5 X s 1744 776 m 37 Y s 1742 813 m 5 X s 1744 776 m -37 Y s 1742 739 m 5 X s 1765 781 m 37 Y s 1762 818 m 5 X s 1765 781 m -36 Y s 1762 745 m 5 X s 1785 752 m 37 Y s 1782 789 m 5 X s
 1785 752 m -37 Y s 1782 715 m 5 X s 1805 828 m 31 Y s 1803 859 m 5 X s 1805 828 m -30 Y s 1803 798 m 5 X s 1826 930 m 30 Y s 1823 960 m 5 X s 1826 930 m -34 Y s 1823 896 m 5 X s 1846 949 m 11 Y s 1843 960 m 5 X s 1846 949 m -33 Y s 1843 916 m 5 X s
 1866 768 m 31 Y s 1864 799 m 5 X s 1866 768 m -32 Y s 1864 736 m 5 X s 1887 776 m 37 Y s 1884 813 m 5 X s 1887 776 m -37 Y s 1884 739 m 5 X s 1907 747 m 9 Y s 1904 756 m 6 X s 1907 747 m -9 Y s 1904 738 m 6 X s 1927 633 m 27 Y s 1925 660 m 5 X s
 1927 633 m -26 Y s 1925 607 m 5 X s 1948 883 m 30 Y s 1945 913 m 5 X s 1948 883 m -30 Y s 1945 853 m 5 X s 1968 768 m 37 Y s 1966 805 m 5 X s 1968 768 m -37 Y s 1966 731 m 5 X s 1988 885 m 16 Y s 1986 901 m 5 X s 1988 885 m -17 Y s 1986 868 m 5 X s
 2009 771 m 36 Y s 2006 807 m 5 X s 2009 771 m -36 Y s 2006 735 m 5 X s 2029 916 m 14 Y s 2027 930 m 5 X s 2029 916 m -13 Y s 2027 903 m 5 X s 2049 725 m 29 Y s 2047 754 m 5 X s 2049 725 m -29 Y s 2047 696 m 5 X s 2070 833 m 37 Y s 2067 870 m 5 X s
 2070 833 m -37 Y s 2067 796 m 5 X s 2090 790 m 35 Y s 2088 825 m 5 X s 2090 790 m -36 Y s 2088 754 m 5 X s 2110 773 m 37 Y s 2108 810 m 5 X s 2110 773 m -37 Y s 2108 736 m 5 X s 2131 880 m 37 Y s 2128 917 m 5 X s 2131 880 m -36 Y s 2128 844 m 5 X s
 2151 761 m 28 Y s 2149 789 m 5 X s 2151 761 m -28 Y s 2149 733 m 5 X s 2171 784 m 39 Y s 2169 823 m 5 X s 2171 784 m -40 Y s 2169 744 m 5 X s 2192 792 m 40 Y s 2189 832 m 5 X s 2192 792 m -40 Y s 2189 752 m 5 X s 2212 842 m 28 Y s 2210 870 m 5 X s
 2212 842 m -28 Y s 2210 814 m 5 X s 1 1 1 c black /w 10 def /w2 {w 2 div} def /w3 {w 3 div} def 56 787 76 787 96 787 117 787 137 787 157 787 178 786 198 787 218 787 239 787 259 787 279 770 300 772 320 777 340 882 361 798 381 794 401 781 422 804 442
 752 462 740 483 954 503 785 523 750 544 779 564 794 585 867 605 773 625 773 646 773 666 773 686 773 707 773 727 773 747 773 768 773 788 773 808 773 829 773 849 773 869 773 890 773 910 773 930 773 951 773 971 773 991 773 1012 773 1032 773 1052 773
 1073 773 1093 773 1114 773 1134 773 1154 773 1175 773 1195 773 1215 773 1236 773 1256 773 1276 773 1297 773 1317 773 1337 773 1358 773 1378 773 1398 773 1419 773 1439 773 1459 773 1480 773 1500 773 1520 773 1541 773 1561 773 1581 773 1602 773 1622
 773 1643 773 1663 773 1683 773 1704 793 1724 773 1744 776 1765 781 1785 752 1805 828 1826 930 1846 949 1866 768 1887 776 1907 747 1927 633 1948 883 1968 768 1988 885 2009 771 2029 916 2049 725 2070 833 100 { m20} R 2090 790 2110 773 2131 880 2151
 761 2171 784 2192 792 2212 842 7 { m20} R
 gr  gr showpage
end
%%EOF
