%!PS-Adobe-2.0 EPSF-2.0
%%BoundingBox:  0 0 567 244
%%Title: cCNp2_matrix_Mll.eps: 
%%Creator: ROOT Version 6.24/06
%%CreationDate: Mon Jan  3 20:38:04 2022
%%DocumentNeededResources: ProcSet (FontSetInit)
%%EndComments
%%BeginProlog
80 dict begin
/s {stroke} def /l {lineto} def /m {moveto} def /t {translate} def
/r {rotate} def /rl {roll}  def /R {repeat} def
/d {rlineto} def /rm {rmoveto} def /gr {grestore} def /f {eofill} def
/c {setrgbcolor} def /black {0 setgray} def /sd {setdash} def
/cl {closepath} def /sf {scalefont setfont} def /lw {setlinewidth} def
/box {m dup 0 exch d exch 0 d 0 exch neg d cl} def
/NC{systemdict begin initclip end}def/C{NC box clip newpath}def
/bl {box s} def /bf {gsave box gsave f grestore 1 lw [] 0 sd s grestore} def /Y { 0 exch d} def /X { 0 d} def 
/K {{pop pop 0 moveto} exch kshow} bind def
/ita {/ang 15 def gsave [1 0 ang dup sin exch cos div 1 0 0] concat} def 
/mp {newpath /y exch def /x exch def} def
/side {[w .77 mul w .23 mul] .385 w mul sd w 0 l currentpoint t -144 r} def
/mr {mp x y w2 0 360 arc} def /m24 {mr s} def /m20 {mr f} def
/mb {mp x y w2 add m w2 neg 0 d 0 w neg d w 0 d 0 w d cl} def
/mt {mp x y w2 add m w2 neg w neg d w 0 d cl} def
/w4 {w 4 div} def
/w6 {w 6 div} def
/w8 {w 8 div} def
/m21 {mb f} def /m25 {mb s} def /m22 {mt f} def /m26{mt s} def
/m23 {mp x y w2 sub m w2 w d w neg 0 d cl f} def
/m27 {mp x y w2 add m w3 neg w2 neg d w3 w2 neg d w3 w2 d cl s} def
/m28 {mp x w2 sub y w2 sub w3 add m w3 0 d  0 w3 neg d w3 0 d 0 w3 d w3 0 d  0 w3 d w3 neg 0 d 0 w3 d w3 neg 0 d 0 w3 neg d w3 neg 0 d cl s } def
/m29 {mp gsave x w2 sub y w2 add w3 sub m currentpoint t 4 {side} repeat cl fill gr} def
/m30 {mp gsave x w2 sub y w2 add w3 sub m currentpoint t 4 {side} repeat cl s gr} def
/m31 {mp x y w2 sub m 0 w d x w2 sub y m w 0 d x w2 .707 mul sub y w2 .707 mul add m w 1.44 div w 1.44 div neg d x w2 .707 mul sub y w2 .707 mul sub m w 1.44 div w 1.44 div d s} def
/m32 {mp x y w2 sub m w2 w d w neg 0 d cl s} def
/m33 {mp x y w2 add m w3 neg w2 neg d w3 w2 neg d w3 w2 d cl f} def
/m34 {mp x w2 sub y w2 sub w3 add m w3 0 d  0 w3 neg d w3 0 d 0 w3 d w3 0 d  0 w3 d w3 neg 0 d 0 w3 d w3 neg 0 d 0 w3 neg d w3 neg 0 d cl f } def
/m35 {mp x y w2 add m w2 neg w2 neg d w2 w2 neg d w2 w2 d w2 neg w2 d x y w2 sub m 0 w d x w2 sub y m w 0 d s} def
/m36 {mb x w2 sub y w2 add m w w neg d x w2 sub y w2 sub m w w d s} def
/m37 {mp x y m w4 neg w2 d w4 neg w2 neg d w2 0 d  w4 neg w2 neg d w2 0 d w4 neg w2 d w2 0 d w4 neg w2 d w4 neg w2 neg d cl s} def
/m38 {mp x w4 sub y w2 add m w4 neg w4 neg d 0 w2 neg d w4 w4 neg d w2 0 d w4 w4 d 0 w2 d w4 neg w4 d w2 neg 0 d x y w2 sub m 0 w d x w2 sub y m w 0 d cl s} def
/m39 {mp x y m w4 neg w2 d w4 neg w2 neg d w2 0 d  w4 neg w2 neg d w2 0 d w4 neg w2 d w2 0 d w4 neg w2 d w4 neg w2 neg d cl f} def
/m40 {mp x y m w4 w2 d w4 w4 neg d w2 neg w4 neg d w2 w4 neg d w4 neg w4 neg d w4 neg w2 d w4 neg w2 neg d w4 neg w4 d w2 w4 d w2 neg w4 d w4 w4 d w4 w2 neg d cl s} def
/m41 {mp x y m w4 w2 d w4 w4 neg d w2 neg w4 neg d w2 w4 neg d w4 neg w4 neg d w4 neg w2 d w4 neg w2 neg d w4 neg w4 d w2 w4 d w2 neg w4 d w4 w4 d w4 w2 neg d cl f} def
/m42 {mp x y w2 add m w8 neg w2 -3 4 div mul d w2 -3 4 div mul w8 neg d w2 3 4 div mul w8 neg d w8 w2 -3 4 div mul d w8 w2 3 4 div mul d w2 3 4 div mul w8 d w2 -3 4 div mul w8 d w8 neg w2 3 4 div mul d cl s} def
/m43 {mp x y w2 add m w8 neg w2 -3 4 div mul d w2 -3 4 div mul w8 neg d w2 3 4 div mul w8 neg d w8 w2 -3 4 div mul d w8 w2 3 4 div mul d w2 3 4 div mul w8 d w2 -3 4 div mul w8 d w8 neg w2 3 4 div mul d cl f} def
/m44 {mp x y m w6 neg w2 d w2 2 3 div mul 0 d w6 neg w2 neg d w2 w6 d 0 w2 -2 3 div mul d w2 neg w6 d w6 w2 neg d w2 -2 3 div mul 0 d w6 w2 d w2 neg w6 neg d 0 w2 2 3 div mul d w2 w6 neg d cl s} def
/m45 {mp x y m w6 neg w2 d w2 2 3 div mul 0 d w6 neg w2 neg d w2 w6 d 0 w2 -2 3 div mul d w2 neg w6 d w6 w2 neg d w2 -2 3 div mul 0 d w6 w2 d w2 neg w6 neg d 0 w2 2 3 div mul d w2 w6 neg d cl f} def
/m46 {mp x y w4 add m w4 neg w4 d w4 neg w4 neg d  w4 w4 neg d w4 neg w4 neg d w4 w4 neg d w4 w4 d w4 w4 neg d w4 w4 d w4 neg w4 d w4 w4 d w4 neg w4 d w4 neg w4 neg d cl s} def
/m47 {mp x y w4 add m w4 neg w4 d w4 neg w4 neg d w4 w4 neg d w4 neg w4 neg d  w4 w4 neg d w4 w4 d w4 w4 neg d w4 w4 d w4 neg w4 d w4 w4 d w4 neg w4 d w4 neg w4 neg d cl f} def
/m48 {mp x y w4 add m w4 neg w4 d w4 neg w4 neg d w4 w4 neg d  w4 neg w4 neg d w4 w4 neg d w4 w4 d w4 w4 neg d w4 w4 d w4 neg w4 d w4 w4 d w4 neg w4 d w4 neg w4 neg d  w4 w4 neg d w4 neg w4 neg d w4 neg w4 d w4 w4 d cl f} def
/m49 {mp x w2 sub w3 add y w2 sub w3 add m  0 w3 neg d w3 0 d 0 w3 d w3 0 d 0 w3 d w3 neg 0 d 0 w3 d w3 neg 0 d 0 w3 neg d w3 neg 0 d 0 w3 neg d w3 0 d 0 w3 d w3 0 d 0 w3 neg d w3 neg 0 d cl f } def
/m2 {mp x y w2 sub m 0 w d x w2 sub y m w 0 d s} def
/m5 {mp x w2 .707 mul sub y w2 .707 mul sub m w 1.44 div w 1.44 div d x w2 .707 mul sub y w2 .707 mul add m w 1.44 div w 1.44 div neg d s} def
%%IncludeResource: ProcSet (FontSetInit)
%%IncludeResource: font Times-Roman
%%IncludeResource: font Times-Italic
%%IncludeResource: font Times-Bold
%%IncludeResource: font Times-BoldItalic
%%IncludeResource: font Helvetica
%%IncludeResource: font Helvetica-Oblique
%%IncludeResource: font Helvetica-Bold
%%IncludeResource: font Helvetica-BoldOblique
%%IncludeResource: font Courier
%%IncludeResource: font Courier-Oblique
%%IncludeResource: font Courier-Bold
%%IncludeResource: font Courier-BoldOblique
%%IncludeResource: font Symbol
%%IncludeResource: font ZapfDingbats
/reEncode {exch findfont dup length dict begin {1 index /FID eq  {pop pop} {def} ifelse } forall /Encoding exch def currentdict end dup /FontName get exch definefont pop } def [/Times-Bold /Times-Italic /Times-BoldItalic /Helvetica /Helvetica-Oblique
 /Helvetica-Bold /Helvetica-BoldOblique /Courier /Courier-Oblique /Courier-Bold /Courier-BoldOblique /Times-Roman /AvantGarde-Book /AvantGarde-BookOblique /AvantGarde-Demi /AvantGarde-DemiOblique /Bookman-Demi /Bookman-DemiItalic /Bookman-Light
 /Bookman-LightItalic /Helvetica-Narrow /Helvetica-Narrow-Bold /Helvetica-Narrow-BoldOblique /Helvetica-Narrow-Oblique /NewCenturySchlbk-Roman /NewCenturySchlbk-Bold /NewCenturySchlbk-BoldItalic /NewCenturySchlbk-Italic /Palatino-Bold
 /Palatino-BoldItalic /Palatino-Italic /Palatino-Roman ] {ISOLatin1Encoding reEncode } forall
%%EndProlog
%%BeginSetup
%%EndSetup
newpath  gsave  .25 .25 scale  gsave  0 0 t black[  ] 0 sd 3 lw 1 1 1 c 2268 975 0 0 bf black 1 1 1 c 2177 375 45 585 bf black 2177 375 45 585 bl 6 lw 1 1 1 c black 45 773 m 2177 X s 3 lw 45 585 m 2177 X s
 gsave  2268 975 0 0 C 60.6071 61.8698 t 90 r /Helvetica findfont 23.9903 sf 0 0 m (EL_EFF_ID_SIMPLIFIED_UncorrUncertaintyNP0) show NC gr 
 gsave  2268 975 0 0 C 80.8095 65.6577 t 90 r /Helvetica findfont 23.9903 sf 0 0 m (EL_EFF_ID_SIMPLIFIED_UncorrUncertaintyNP1) show NC gr 
 gsave  2268 975 0 0 C 101.012 49.2433 t 90 r /Helvetica findfont 23.9903 sf 0 0 m (EL_EFF_ID_SIMPLIFIED_UncorrUncertaintyNP10) show NC gr 
 gsave  2268 975 0 0 C 121.214 53.0312 t 90 r /Helvetica findfont 23.9903 sf 0 0 m (EL_EFF_ID_SIMPLIFIED_UncorrUncertaintyNP11) show NC gr 
 gsave  2268 975 0 0 C 141.417 61.8698 t 90 r /Helvetica findfont 23.9903 sf 0 0 m (EL_EFF_ID_SIMPLIFIED_UncorrUncertaintyNP2) show NC gr 
 gsave  2268 975 0 0 C 160.356 23.9903 t 90 r /Helvetica findfont 23.9903 sf 0 0 m (EL_EFF_Trigger_TOTAL_1NPCOR_PLUS_UNCOR) show NC gr 
 gsave  2268 975 0 0 C 180.559 207.074 t 90 r /Helvetica findfont 23.9903 sf 0 0 m (FT_EFF_extrapolation_from_charm) show NC gr 
 gsave  2268 975 0 0 C 202.024 294.197 t 90 r /Helvetica findfont 23.9903 sf 0 0 m (JET_SingleParticle_HighPt) show NC gr 
 gsave  2268 975 0 0 C 222.226 191.923 t 90 r /Helvetica findfont 23.9903 sf 0 0 m (MUON_EFF_RECO_STAT_LOWPT) show NC gr 
 gsave  2268 975 0 0 C 242.428 207.074 t 90 r /Helvetica findfont 23.9903 sf 0 0 m (MUON_EFF_RECO_SYS_LOWPT) show NC gr 
 gsave  2268 975 0 0 C 262.631 323.238 t 90 r /Helvetica findfont 23.9903 sf 0 0 m (MUON_SAGITTA_RHO) show NC gr 
 gsave  2268 975 0 0 C 280.308 397.734 t 90 r /Helvetica findfont 23.9903 sf 0 0 m (theo_ggF_alphas) show NC gr 
 gsave  2268 975 0 0 C 300.51 390.158 t 90 r /Helvetica findfont 23.9903 sf 0 0 m (theo_ggF_pdf4lhc) show NC gr 
 gsave  2268 975 0 0 C 320.713 296.722 t 90 r /Helvetica findfont 23.9903 sf 0 0 m (theo_ggF_qcd_wg1_mig01) show NC gr 
 gsave  2268 975 0 0 C 340.915 292.934 t 90 r /Helvetica findfont 23.9903 sf 0 0 m (theo_ggF_qcd_wg1_mig12) show NC gr 
 gsave  2268 975 0 0 C 361.117 325.763 t 90 r /Helvetica findfont 23.9903 sf 0 0 m (theo_ggF_qcd_wg1_mu) show NC gr 
 gsave  2268 975 0 0 C 380.057 313.137 t 90 r /Helvetica findfont 23.9903 sf 0 0 m (theo_ggF_qcd_wg1_pTH) show NC gr 
 gsave  2268 975 0 0 C 400.26 304.298 t 90 r /Helvetica findfont 23.9903 sf 0 0 m (theo_ggF_qcd_wg1_qm_t) show NC gr 
 gsave  2268 975 0 0 C 420.462 324.501 t 90 r /Helvetica findfont 23.9903 sf 0 0 m (theo_ggF_qcd_wg1_res) show NC gr 
 gsave  2268 975 0 0 C 440.664 306.824 t 90 r /Helvetica findfont 23.9903 sf 0 0 m (theo_ggF_qcd_wg1_vbf2j) show NC gr 
 gsave  2268 975 0 0 C 460.867 306.824 t 90 r /Helvetica findfont 23.9903 sf 0 0 m (theo_ggF_qcd_wg1_vbf3j) show NC gr 
 gsave  2268 975 0 0 C 481.069 391.421 t 90 r /Helvetica findfont 23.9903 sf 0 0 m (theo_ggF_shower) show NC gr 
 gsave  2268 975 0 0 C 500.009 362.38 t 90 r /Helvetica findfont 23.9903 sf 0 0 m (theo_ztautau_alphas) show NC gr 
 gsave  2268 975 0 0 C 520.211 247.479 t 90 r /Helvetica findfont 23.9903 sf 0 0 m (theo_ztautau_generatortotNorm) show NC gr 
 gsave  2268 975 0 0 C 540.414 397.734 t 90 r /Helvetica findfont 23.9903 sf 0 0 m (theo_ztautau_pdf) show NC gr 
 gsave  2268 975 0 0 C 561.879 376.269 t 90 r /Helvetica findfont 23.9903 sf 0 0 m (theo_ztautau_scale) show NC gr 
 gsave  2268 975 0 0 C 580.818 198.236 t 90 r /Helvetica findfont 23.9903 sf 0 0 m (theo_ztautau_generatorRegNonVBF) show NC gr 
 gsave  2268 975 0 0 C 601.021 458.341 t 90 r /Helvetica findfont 23.9903 sf 0 0 m (el_FF_Com) show NC gr 
 gsave  2268 975 0 0 C 621.223 387.633 t 90 r /Helvetica findfont 23.9903 sf 0 0 m (el_FF_EWSUBTR) show NC gr 
 gsave  2268 975 0 0 C 641.425 328.289 t 90 r /Helvetica findfont 23.9903 sf 0 0 m (el_FF_STAT_2015_1_1) show NC gr 
 gsave  2268 975 0 0 C 661.628 261.368 t 90 r /Helvetica findfont 23.9903 sf 0 0 m (el_FF_STAT_2015_2018_1_1) show NC gr 
 gsave  2268 975 0 0 C 681.83 261.368 t 90 r /Helvetica findfont 23.9903 sf 0 0 m (el_FF_STAT_2015_2018_2_1) show NC gr 
 gsave  2268 975 0 0 C 702.033 261.368 t 90 r /Helvetica findfont 23.9903 sf 0 0 m (el_FF_STAT_2015_2018_3_1) show NC gr 
 gsave  2268 975 0 0 C 720.972 261.368 t 90 r /Helvetica findfont 23.9903 sf 0 0 m (el_FF_STAT_2015_2018_4_1) show NC gr 
 gsave  2268 975 0 0 C 741.175 328.289 t 90 r /Helvetica findfont 23.9903 sf 0 0 m (el_FF_STAT_2015_2_1) show NC gr 
 gsave  2268 975 0 0 C 761.377 328.289 t 90 r /Helvetica findfont 23.9903 sf 0 0 m (el_FF_STAT_2015_3_1) show NC gr 
 gsave  2268 975 0 0 C 781.579 328.289 t 90 r /Helvetica findfont 23.9903 sf 0 0 m (el_FF_STAT_2015_4_1) show NC gr 
 gsave  2268 975 0 0 C 801.782 328.289 t 90 r /Helvetica findfont 23.9903 sf 0 0 m (el_FF_STAT_2016_1_1) show NC gr 
 gsave  2268 975 0 0 C 820.721 328.289 t 90 r /Helvetica findfont 23.9903 sf 0 0 m (el_FF_STAT_2016_2_1) show NC gr 
 gsave  2268 975 0 0 C 840.924 328.289 t 90 r /Helvetica findfont 23.9903 sf 0 0 m (el_FF_STAT_2016_3_1) show NC gr 
 gsave  2268 975 0 0 C 861.126 328.289 t 90 r /Helvetica findfont 23.9903 sf 0 0 m (el_FF_STAT_2016_4_1) show NC gr 
 gsave  2268 975 0 0 C 881.329 328.289 t 90 r /Helvetica findfont 23.9903 sf 0 0 m (el_FF_STAT_2017_1_1) show NC gr 
 gsave  2268 975 0 0 C 901.531 328.289 t 90 r /Helvetica findfont 23.9903 sf 0 0 m (el_FF_STAT_2017_2_1) show NC gr 
 gsave  2268 975 0 0 C 921.733 328.289 t 90 r /Helvetica findfont 23.9903 sf 0 0 m (el_FF_STAT_2017_3_1) show NC gr 
 gsave  2268 975 0 0 C 940.673 328.289 t 90 r /Helvetica findfont 23.9903 sf 0 0 m (el_FF_STAT_2017_4_1) show NC gr 
 gsave  2268 975 0 0 C 960.875 328.289 t 90 r /Helvetica findfont 23.9903 sf 0 0 m (el_FF_STAT_2018_1_1) show NC gr 
 gsave  2268 975 0 0 C 981.078 328.289 t 90 r /Helvetica findfont 23.9903 sf 0 0 m (el_FF_STAT_2018_2_1) show NC gr 
 gsave  2268 975 0 0 C 1001.28 328.289 t 90 r /Helvetica findfont 23.9903 sf 0 0 m (el_FF_STAT_2018_3_1) show NC gr 
 gsave  2268 975 0 0 C 1021.48 328.289 t 90 r /Helvetica findfont 23.9903 sf 0 0 m (el_FF_STAT_2018_4_1) show NC gr 
 gsave  2268 975 0 0 C 1040.42 443.19 t 90 r /Helvetica findfont 23.9903 sf 0 0 m (mu_FF_Com) show NC gr 
 gsave  2268 975 0 0 C 1060.62 373.744 t 90 r /Helvetica findfont 23.9903 sf 0 0 m (mu_FF_EWSUBTR) show NC gr 
 gsave  2268 975 0 0 C 1080.83 314.399 t 90 r /Helvetica findfont 23.9903 sf 0 0 m (mu_FF_STAT_2015_1_1) show NC gr 
 gsave  2268 975 0 0 C 1101.03 309.349 t 90 r /Helvetica findfont 23.9903 sf 0 0 m (mu_FF_STAT_2015_1_2) show NC gr 
 gsave  2268 975 0 0 C 1121.23 247.479 t 90 r /Helvetica findfont 23.9903 sf 0 0 m (mu_FF_STAT_2015_2018_1_1) show NC gr 
 gsave  2268 975 0 0 C 1141.43 243.691 t 90 r /Helvetica findfont 23.9903 sf 0 0 m (mu_FF_STAT_2015_2018_1_2) show NC gr 
 gsave  2268 975 0 0 C 1160.37 247.479 t 90 r /Helvetica findfont 23.9903 sf 0 0 m (mu_FF_STAT_2015_2018_2_1) show NC gr 
 gsave  2268 975 0 0 C 1180.58 243.691 t 90 r /Helvetica findfont 23.9903 sf 0 0 m (mu_FF_STAT_2015_2018_2_2) show NC gr 
 gsave  2268 975 0 0 C 1200.78 247.479 t 90 r /Helvetica findfont 23.9903 sf 0 0 m (mu_FF_STAT_2015_2018_3_1) show NC gr 
 gsave  2268 975 0 0 C 1220.98 243.691 t 90 r /Helvetica findfont 23.9903 sf 0 0 m (mu_FF_STAT_2015_2018_3_2) show NC gr 
 gsave  2268 975 0 0 C 1241.18 314.399 t 90 r /Helvetica findfont 23.9903 sf 0 0 m (mu_FF_STAT_2015_2_1) show NC gr 
 gsave  2268 975 0 0 C 1260.12 309.349 t 90 r /Helvetica findfont 23.9903 sf 0 0 m (mu_FF_STAT_2015_2_2) show NC gr 
 gsave  2268 975 0 0 C 1280.33 314.399 t 90 r /Helvetica findfont 23.9903 sf 0 0 m (mu_FF_STAT_2015_3_1) show NC gr 
 gsave  2268 975 0 0 C 1300.53 309.349 t 90 r /Helvetica findfont 23.9903 sf 0 0 m (mu_FF_STAT_2015_3_2) show NC gr 
 gsave  2268 975 0 0 C 1320.73 314.399 t 90 r /Helvetica findfont 23.9903 sf 0 0 m (mu_FF_STAT_2016_1_1) show NC gr 
 gsave  2268 975 0 0 C 1340.93 309.349 t 90 r /Helvetica findfont 23.9903 sf 0 0 m (mu_FF_STAT_2016_1_2) show NC gr 
 gsave  2268 975 0 0 C 1359.87 314.399 t 90 r /Helvetica findfont 23.9903 sf 0 0 m (mu_FF_STAT_2016_2_1) show NC gr 
 gsave  2268 975 0 0 C 1380.07 309.349 t 90 r /Helvetica findfont 23.9903 sf 0 0 m (mu_FF_STAT_2016_2_2) show NC gr 
 gsave  2268 975 0 0 C 1400.28 314.399 t 90 r /Helvetica findfont 23.9903 sf 0 0 m (mu_FF_STAT_2016_3_1) show NC gr 
 gsave  2268 975 0 0 C 1420.48 309.349 t 90 r /Helvetica findfont 23.9903 sf 0 0 m (mu_FF_STAT_2016_3_2) show NC gr 
 gsave  2268 975 0 0 C 1440.68 314.399 t 90 r /Helvetica findfont 23.9903 sf 0 0 m (mu_FF_STAT_2017_1_1) show NC gr 
 gsave  2268 975 0 0 C 1460.88 309.349 t 90 r /Helvetica findfont 23.9903 sf 0 0 m (mu_FF_STAT_2017_1_2) show NC gr 
 gsave  2268 975 0 0 C 1479.82 314.399 t 90 r /Helvetica findfont 23.9903 sf 0 0 m (mu_FF_STAT_2017_2_1) show NC gr 
 gsave  2268 975 0 0 C 1500.03 309.349 t 90 r /Helvetica findfont 23.9903 sf 0 0 m (mu_FF_STAT_2017_2_2) show NC gr 
 gsave  2268 975 0 0 C 1520.23 314.399 t 90 r /Helvetica findfont 23.9903 sf 0 0 m (mu_FF_STAT_2017_3_1) show NC gr 
 gsave  2268 975 0 0 C 1540.43 309.349 t 90 r /Helvetica findfont 23.9903 sf 0 0 m (mu_FF_STAT_2017_3_2) show NC gr 
 gsave  2268 975 0 0 C 1560.63 314.399 t 90 r /Helvetica findfont 23.9903 sf 0 0 m (mu_FF_STAT_2018_1_1) show NC gr 
 gsave  2268 975 0 0 C 1579.57 309.349 t 90 r /Helvetica findfont 23.9903 sf 0 0 m (mu_FF_STAT_2018_1_2) show NC gr 
 gsave  2268 975 0 0 C 1599.78 314.399 t 90 r /Helvetica findfont 23.9903 sf 0 0 m (mu_FF_STAT_2018_2_1) show NC gr 
 gsave  2268 975 0 0 C 1619.98 309.349 t 90 r /Helvetica findfont 23.9903 sf 0 0 m (mu_FF_STAT_2018_2_2) show NC gr 
 gsave  2268 975 0 0 C 1640.18 314.399 t 90 r /Helvetica findfont 23.9903 sf 0 0 m (mu_FF_STAT_2018_3_1) show NC gr 
 gsave  2268 975 0 0 C 1660.38 309.349 t 90 r /Helvetica findfont 23.9903 sf 0 0 m (mu_FF_STAT_2018_3_2) show NC gr 
 gsave  2268 975 0 0 C 1680.59 351.016 t 90 r /Helvetica findfont 23.9903 sf 0 0 m (theo_ewww_EWscale) show NC gr 
 gsave  2268 975 0 0 C 1698.26 373.744 t 90 r /Helvetica findfont 23.9903 sf 0 0 m (theo_ewww_alphas) show NC gr 
 gsave  2268 975 0 0 C 1718.46 409.098 t 90 r /Helvetica findfont 23.9903 sf 0 0 m (theo_ewww_pdf) show NC gr 
 gsave  2268 975 0 0 C 1739.93 387.633 t 90 r /Helvetica findfont 23.9903 sf 0 0 m (theo_ewww_scale) show NC gr 
 gsave  2268 975 0 0 C 1760.13 367.431 t 90 r /Helvetica findfont 23.9903 sf 0 0 m (theo_ewww_shower) show NC gr 
 gsave  2268 975 0 0 C 1780.33 401.522 t 90 r /Helvetica findfont 23.9903 sf 0 0 m (theo_ww_CKKW) show NC gr 
 gsave  2268 975 0 0 C 1799.27 385.108 t 90 r /Helvetica findfont 23.9903 sf 0 0 m (theo_ww_CSSKIN) show NC gr 
 gsave  2268 975 0 0 C 1819.48 424.25 t 90 r /Helvetica findfont 23.9903 sf 0 0 m (theo_ww_QSF) show NC gr 
 gsave  2268 975 0 0 C 1838.42 404.047 t 90 r /Helvetica findfont 23.9903 sf 0 0 m (theo_ww_alphas) show NC gr 
 gsave  2268 975 0 0 C 1858.62 439.402 t 90 r /Helvetica findfont 23.9903 sf 0 0 m (theo_ww_pdf) show NC gr 
 gsave  2268 975 0 0 C 1880.08 417.937 t 90 r /Helvetica findfont 23.9903 sf 0 0 m (theo_ww_scale) show NC gr 
 gsave  2268 975 0 0 C 1900.29 397.734 t 90 r /Helvetica findfont 23.9903 sf 0 0 m (theo_ww_shower) show NC gr 
 gsave  2268 975 0 0 C 1919.23 433.088 t 90 r /Helvetica findfont 23.9903 sf 0 0 m (theo_ttbar_fsr) show NC gr 
 gsave  2268 975 0 0 C 1939.43 434.351 t 90 r /Helvetica findfont 23.9903 sf 0 0 m (theo_ttbar_isr) show NC gr 
 gsave  2268 975 0 0 C 1958.37 364.905 t 90 r /Helvetica findfont 23.9903 sf 0 0 m (theo_ttbar_matching) show NC gr 
 gsave  2268 975 0 0 C 1978.57 426.775 t 90 r /Helvetica findfont 23.9903 sf 0 0 m (theo_ttbar_pdf) show NC gr 
 gsave  2268 975 0 0 C 2000.04 405.31 t 90 r /Helvetica findfont 23.9903 sf 0 0 m (theo_ttbar_scale) show NC gr 
 gsave  2268 975 0 0 C 2018.97 383.845 t 90 r /Helvetica findfont 23.9903 sf 0 0 m (theo_ttbar_shower) show NC gr 
 gsave  2268 975 0 0 C 2037.91 223.489 t 90 r /Helvetica findfont 23.9903 sf 0 0 m (theo_ztautau_generatorRegTop_1) show NC gr 
 gsave  2268 975 0 0 C 2058.12 219.701 t 90 r /Helvetica findfont 23.9903 sf 0 0 m (theo_ztautau_generatorRegTop_2) show NC gr 
 gsave  2268 975 0 0 C 2078.32 219.701 t 90 r /Helvetica findfont 23.9903 sf 0 0 m (theo_ztautau_generatorRegTop_3) show NC gr 
 gsave  2268 975 0 0 C 2098.52 219.701 t 90 r /Helvetica findfont 23.9903 sf 0 0 m (theo_ztautau_generatorRegTop_4) show NC gr 
 gsave  2268 975 0 0 C 2118.72 219.701 t 90 r /Helvetica findfont 23.9903 sf 0 0 m (theo_ztautau_generatorRegTop_5) show NC gr 
 gsave  2268 975 0 0 C 2137.66 219.701 t 90 r /Helvetica findfont 23.9903 sf 0 0 m (theo_ztautau_generatorRegVBF_1) show NC gr 
 gsave  2268 975 0 0 C 2157.87 215.913 t 90 r /Helvetica findfont 23.9903 sf 0 0 m (theo_ztautau_generatorRegVBF_2) show NC gr 
 gsave  2268 975 0 0 C 2178.07 215.913 t 90 r /Helvetica findfont 23.9903 sf 0 0 m (theo_ztautau_generatorRegVBF_3) show NC gr 
 gsave  2268 975 0 0 C 2198.27 215.913 t 90 r /Helvetica findfont 23.9903 sf 0 0 m (theo_ztautau_generatorRegVBF_4) show NC gr 
 gsave  2268 975 0 0 C 2218.47 215.913 t 90 r /Helvetica findfont 23.9903 sf 0 0 m (theo_ztautau_generatorRegVBF_5) show NC gr  45 613 m -28 Y s 287 613 m -28 Y s 529 613 m -28 Y s 771 613 m -28 Y s 1013 613 m -28 Y s 1255 613 m -28 Y s 1497 613 m
 -28 Y s 1739 613 m -28 Y s 1980 613 m -28 Y s 2222 613 m -28 Y s 45 960 m 2177 X s 45 932 m 28 Y s 287 932 m 28 Y s 529 932 m 28 Y s 771 932 m 28 Y s 1013 932 m 28 Y s 1255 932 m 28 Y s 1497 932 m 28 Y s 1739 932 m 28 Y s 1980 932 m 28 Y s 2222 932
 m 28 Y s 45 585 m 375 Y s 72 585 m -27 X s 58 594 m -13 X s 58 604 m -13 X s 58 613 m -13 X s 58 622 m -13 X s 72 632 m -27 X s 58 641 m -13 X s 58 651 m -13 X s 58 660 m -13 X s 58 669 m -13 X s 72 679 m -27 X s 58 688 m -13 X s 58 697 m -13 X s 58
 707 m -13 X s 58 716 m -13 X s 72 726 m -27 X s 58 735 m -13 X s 58 744 m -13 X s 58 754 m -13 X s 58 763 m -13 X s 72 773 m -27 X s 58 782 m -13 X s 58 791 m -13 X s 58 801 m -13 X s 58 810 m -13 X s 72 819 m -27 X s 58 829 m -13 X s 58 838 m -13 X
 s 58 848 m -13 X s 58 857 m -13 X s 72 866 m -27 X s 58 876 m -13 X s 58 885 m -13 X s 58 894 m -13 X s 58 904 m -13 X s 72 913 m -27 X s 58 923 m -13 X s 58 932 m -13 X s 58 941 m -13 X s 58 951 m -13 X s 72 960 m -27 X s
 gsave  2268 975 0 0 C 20.2024 575.768 t 0 r /Helvetica findfont 23.9903 sf 0 0 m (2) show NC gr 
 gsave  2268 975 0 0 C 7.57589 575.768 t 0 r /Symbol findfont 23.9903 sf 0 0 m (-) show NC gr 
 gsave  2268 975 0 0 C 0 623.748 t 0 r /Helvetica findfont 23.9903 sf 0 0 m (1.5) show NC gr 
 gsave  2268 975 0 0 C -12.6265 623.748 t 0 r /Symbol findfont 23.9903 sf 0 0 m (-) show NC gr 
 gsave  2268 975 0 0 C 23.9903 669.204 t 0 r /Helvetica findfont 23.9903 sf 0 0 m (1) show NC gr 
 gsave  2268 975 0 0 C 11.3638 669.204 t 0 r /Symbol findfont 23.9903 sf 0 0 m (-) show NC gr 
 gsave  2268 975 0 0 C 0 717.184 t 0 r /Helvetica findfont 23.9903 sf 0 0 m (0.5) show NC gr 
 gsave  2268 975 0 0 C -12.6265 717.184 t 0 r /Symbol findfont 23.9903 sf 0 0 m (-) show NC gr 
 gsave  2268 975 0 0 C 20.2024 763.902 t 0 r /Helvetica findfont 23.9903 sf 0 0 m (0) show NC gr 
 gsave  2268 975 0 0 C 0 810.62 t 0 r /Helvetica findfont 23.9903 sf 0 0 m (0.5) show NC gr 
 gsave  2268 975 0 0 C 23.9903 857.338 t 0 r /Helvetica findfont 23.9903 sf 0 0 m (1) show NC gr 
 gsave  2268 975 0 0 C 0 905.319 t 0 r /Helvetica findfont 23.9903 sf 0 0 m (1.5) show NC gr 
 gsave  2268 975 0 0 C 20.2024 950.774 t 0 r /Helvetica findfont 23.9903 sf 0 0 m (2) show NC gr 
 gsave  2268 975 0 0 C -45.4553 945.724 t 90 r /Symbol findfont 29.0409 sf 0 0 m (q) show NC gr  6 lw
 gsave  2268 975 0 0 C -45.4553 930.572 t 90 r /Symbol findfont 29.0409 sf 0 0 m (d) show NC gr 
 gsave  2268 975 0 0 C -45.4553 920.471 t 90 r /Helvetica findfont 29.0409 sf 0 0 m (/) show NC gr 
 gsave  2268 975 0 0 C -45.4553 905.319 t 90 r /Symbol findfont 29.0409 sf 0 0 m (q) show NC gr 
 gsave  2268 975 0 0 C -45.4553 896.48 t 90 r /Helvetica findfont 29.0409 sf 0 0 m (\255) show NC gr 
 gsave  2268 975 0 0 C -45.4553 881.329 t 90 r /Symbol findfont 29.0409 sf 0 0 m (q) show NC gr  3 lw 2222 585 m 375 Y s 2196 585 m 26 X s 2209 594 m 13 X s 2209 604 m 13 X s 2209 613 m 13 X s 2209 622 m 13 X s 2196 632 m 26 X s 2209 641 m 13 X s
 2209 651 m 13 X s 2209 660 m 13 X s 2209 669 m 13 X s 2196 679 m 26 X s 2209 688 m 13 X s 2209 697 m 13 X s 2209 707 m 13 X s 2209 716 m 13 X s 2196 726 m 26 X s 2209 735 m 13 X s 2209 744 m 13 X s 2209 754 m 13 X s 2209 763 m 13 X s 2196 773 m 26 X
 s 2209 782 m 13 X s 2209 791 m 13 X s 2209 801 m 13 X s 2209 810 m 13 X s 2196 819 m 26 X s 2209 829 m 13 X s 2209 838 m 13 X s 2209 848 m 13 X s 2209 857 m 13 X s 2196 866 m 26 X s 2209 876 m 13 X s 2209 885 m 13 X s 2209 894 m 13 X s 2209 904 m 13
 X s 2196 913 m 26 X s 2209 923 m 13 X s 2209 932 m 13 X s 2209 941 m 13 X s 2209 951 m 13 X s 2196 960 m 26 X s 55 769 m 94 Y s 53 863 m 5 X s 55 769 m -93 Y s 53 676 m 5 X s 75 769 m 94 Y s 73 863 m 5 X s 75 769 m -93 Y s 73 676 m 5 X s 95 769 m 94
 Y s 93 863 m 5 X s 95 769 m -93 Y s 93 676 m 5 X s 115 769 m 94 Y s 113 863 m 5 X s 115 769 m -93 Y s 113 676 m 5 X s 135 769 m 94 Y s 133 863 m 5 X s 135 769 m -93 Y s 133 676 m 5 X s 155 769 m 94 Y s 153 863 m 5 X s 155 769 m -93 Y s 153 676 m 5 X
 s 175 769 m 93 Y s 173 862 m 5 X s 175 769 m -93 Y s 173 676 m 5 X s 195 769 m 94 Y s 193 863 m 5 X s 195 769 m -93 Y s 193 676 m 5 X s 215 769 m 94 Y s 213 863 m 5 X s 215 769 m -93 Y s 213 676 m 5 X s 235 769 m 94 Y s 233 863 m 5 X s 235 769 m -93
 Y s 233 676 m 5 X s 255 769 m 94 Y s 253 863 m 5 X s 255 769 m -93 Y s 253 676 m 5 X s 275 772 m 93 Y s 273 865 m 5 X s 275 772 m -94 Y s 273 678 m 5 X s 295 772 m 93 Y s 292 865 m 6 X s 295 772 m -93 Y s 292 679 m 6 X s 315 769 m 93 Y s 312 862 m 6
 X s 315 769 m -93 Y s 312 676 m 6 X s 335 762 m 94 Y s 332 856 m 5 X s 335 762 m -93 Y s 332 669 m 5 X s 355 766 m 93 Y s 352 859 m 5 X s 355 766 m -93 Y s 352 673 m 5 X s 375 778 m 93 Y s 372 871 m 5 X s 375 778 m -93 Y s 372 685 m 5 X s 395 775 m
 93 Y s 392 868 m 5 X s 395 775 m -93 Y s 392 682 m 5 X s 415 766 m 94 Y s 412 860 m 5 X s 415 766 m -93 Y s 412 673 m 5 X s 435 790 m 93 Y s 432 883 m 5 X s 435 790 m -93 Y s 432 697 m 5 X s 455 761 m 93 Y s 452 854 m 5 X s 455 761 m -94 Y s 452 667
 m 5 X s 475 733 m 94 Y s 472 827 m 5 X s 475 733 m -95 Y s 472 638 m 5 X s 495 773 m 93 Y s 492 866 m 5 X s 495 773 m -93 Y s 492 680 m 5 X s 515 749 m 93 Y s 512 842 m 5 X s 515 749 m -93 Y s 512 656 m 5 X s 535 787 m 93 Y s 532 880 m 5 X s 535 787
 m -93 Y s 532 694 m 5 X s 555 836 m 88 Y s 552 924 m 5 X s 555 836 m -88 Y s 552 748 m 5 X s 575 831 m 87 Y s 572 918 m 5 X s 575 831 m -88 Y s 572 743 m 5 X s 595 773 m 93 Y s 592 866 m 5 X s 595 773 m -94 Y s 592 679 m 5 X s 615 773 m 93 Y s 612
 866 m 5 X s 615 773 m -94 Y s 612 679 m 5 X s 635 773 m 93 Y s 632 866 m 5 X s 635 773 m -94 Y s 632 679 m 5 X s 655 773 m 93 Y s 652 866 m 5 X s 655 773 m -94 Y s 652 679 m 5 X s 674 773 m 93 Y s 672 866 m 5 X s 674 773 m -94 Y s 672 679 m 5 X s
 694 773 m 93 Y s 692 866 m 5 X s 694 773 m -94 Y s 692 679 m 5 X s 714 773 m 93 Y s 712 866 m 5 X s 714 773 m -94 Y s 712 679 m 5 X s 734 773 m 93 Y s 732 866 m 5 X s 734 773 m -94 Y s 732 679 m 5 X s 754 773 m 93 Y s 752 866 m 5 X s 754 773 m -94 Y
 s 752 679 m 5 X s 774 773 m 93 Y s 772 866 m 5 X s 774 773 m -94 Y s 772 679 m 5 X s 794 773 m 93 Y s 792 866 m 5 X s 794 773 m -94 Y s 792 679 m 5 X s 814 773 m 93 Y s 812 866 m 5 X s 814 773 m -94 Y s 812 679 m 5 X s 834 773 m 93 Y s 832 866 m 5 X
 s 834 773 m -94 Y s 832 679 m 5 X s 854 773 m 93 Y s 852 866 m 5 X s 854 773 m -94 Y s 852 679 m 5 X s 874 773 m 93 Y s 872 866 m 5 X s 874 773 m -94 Y s 872 679 m 5 X s 894 773 m 93 Y s 892 866 m 5 X s 894 773 m -94 Y s 892 679 m 5 X s 914 773 m 93
 Y s 912 866 m 5 X s 914 773 m -94 Y s 912 679 m 5 X s 934 773 m 93 Y s 932 866 m 5 X s 934 773 m -94 Y s 932 679 m 5 X s 954 773 m 93 Y s 952 866 m 5 X s 954 773 m -94 Y s 952 679 m 5 X s 974 773 m 93 Y s 972 866 m 5 X s 974 773 m -94 Y s 972 679 m
 5 X s 994 773 m 93 Y s 992 866 m 5 X s 994 773 m -94 Y s 992 679 m 5 X s 1014 773 m 93 Y s 1011 866 m 6 X s 1014 773 m -94 Y s 1011 679 m 6 X s 1034 773 m 93 Y s 1031 866 m 6 X s 1034 773 m -94 Y s 1031 679 m 6 X s 1054 773 m 93 Y s 1051 866 m 5 X s
 1054 773 m -94 Y s 1051 679 m 5 X s 1074 773 m 93 Y s 1071 866 m 5 X s 1074 773 m -94 Y s 1071 679 m 5 X s 1094 773 m 93 Y s 1091 866 m 5 X s 1094 773 m -94 Y s 1091 679 m 5 X s 1114 773 m 93 Y s 1111 866 m 5 X s 1114 773 m -94 Y s 1111 679 m 5 X s
 1134 773 m 93 Y s 1131 866 m 5 X s 1134 773 m -94 Y s 1131 679 m 5 X s 1154 773 m 93 Y s 1151 866 m 5 X s 1154 773 m -94 Y s 1151 679 m 5 X s 1174 773 m 93 Y s 1171 866 m 5 X s 1174 773 m -94 Y s 1171 679 m 5 X s 1194 773 m 93 Y s 1191 866 m 5 X s
 1194 773 m -94 Y s 1191 679 m 5 X s 1214 773 m 93 Y s 1211 866 m 5 X s 1214 773 m -94 Y s 1211 679 m 5 X s 1234 773 m 93 Y s 1231 866 m 5 X s 1234 773 m -94 Y s 1231 679 m 5 X s 1254 773 m 93 Y s 1251 866 m 5 X s 1254 773 m -94 Y s 1251 679 m 5 X s
 1274 773 m 93 Y s 1271 866 m 5 X s 1274 773 m -94 Y s 1271 679 m 5 X s 1294 773 m 93 Y s 1291 866 m 5 X s 1294 773 m -94 Y s 1291 679 m 5 X s 1314 773 m 93 Y s 1311 866 m 5 X s 1314 773 m -94 Y s 1311 679 m 5 X s 1334 773 m 93 Y s 1331 866 m 5 X s
 1334 773 m -94 Y s 1331 679 m 5 X s 1354 773 m 93 Y s 1351 866 m 5 X s 1354 773 m -94 Y s 1351 679 m 5 X s 1374 773 m 93 Y s 1371 866 m 5 X s 1374 773 m -94 Y s 1371 679 m 5 X s 1394 773 m 93 Y s 1391 866 m 5 X s 1394 773 m -94 Y s 1391 679 m 5 X s
 1413 773 m 93 Y s 1411 866 m 5 X s 1413 773 m -94 Y s 1411 679 m 5 X s 1433 773 m 93 Y s 1431 866 m 5 X s 1433 773 m -94 Y s 1431 679 m 5 X s 1453 773 m 93 Y s 1451 866 m 5 X s 1453 773 m -94 Y s 1451 679 m 5 X s 1473 773 m 93 Y s 1471 866 m 5 X s
 1473 773 m -94 Y s 1471 679 m 5 X s 1493 773 m 93 Y s 1491 866 m 5 X s 1493 773 m -94 Y s 1491 679 m 5 X s 1513 773 m 93 Y s 1511 866 m 5 X s 1513 773 m -94 Y s 1511 679 m 5 X s 1533 773 m 93 Y s 1531 866 m 5 X s 1533 773 m -94 Y s 1531 679 m 5 X s
 1553 773 m 93 Y s 1551 866 m 5 X s 1553 773 m -94 Y s 1551 679 m 5 X s 1573 773 m 93 Y s 1571 866 m 5 X s 1573 773 m -94 Y s 1571 679 m 5 X s 1593 773 m 93 Y s 1591 866 m 5 X s 1593 773 m -94 Y s 1591 679 m 5 X s 1613 773 m 93 Y s 1611 866 m 5 X s
 1613 773 m -94 Y s 1611 679 m 5 X s 1633 773 m 93 Y s 1631 866 m 5 X s 1633 773 m -94 Y s 1631 679 m 5 X s 1653 773 m 93 Y s 1651 866 m 5 X s 1653 773 m -94 Y s 1651 679 m 5 X s 1673 782 m 93 Y s 1671 875 m 5 X s 1673 782 m -94 Y s 1671 688 m 5 X s
 1693 773 m 93 Y s 1691 866 m 5 X s 1693 773 m -94 Y s 1691 679 m 5 X s 1713 774 m 93 Y s 1711 867 m 5 X s 1713 774 m -94 Y s 1711 680 m 5 X s 1733 779 m 93 Y s 1731 872 m 5 X s 1733 779 m -94 Y s 1731 685 m 5 X s 1753 766 m 94 Y s 1750 860 m 6 X s
 1753 766 m -93 Y s 1750 673 m 6 X s 1773 753 m 93 Y s 1770 846 m 6 X s 1773 753 m -92 Y s 1770 661 m 6 X s 1793 787 m 92 Y s 1790 879 m 5 X s 1793 787 m -91 Y s 1790 696 m 5 X s 1813 792 m 92 Y s 1810 884 m 5 X s 1813 792 m -92 Y s 1810 700 m 5 X s
 1833 770 m 93 Y s 1830 863 m 5 X s 1833 770 m -94 Y s 1830 676 m 5 X s 1853 772 m 94 Y s 1850 866 m 5 X s 1853 772 m -93 Y s 1850 679 m 5 X s 1873 750 m 94 Y s 1870 844 m 5 X s 1873 750 m -94 Y s 1870 656 m 5 X s 1893 749 m 93 Y s 1890 842 m 5 X s
 1893 749 m -93 Y s 1890 656 m 5 X s 1913 747 m 93 Y s 1910 840 m 5 X s 1913 747 m -92 Y s 1910 655 m 5 X s 1933 767 m 93 Y s 1930 860 m 5 X s 1933 767 m -93 Y s 1930 674 m 5 X s 1953 744 m 85 Y s 1950 829 m 5 X s 1953 744 m -86 Y s 1950 658 m 5 X s
 1973 776 m 94 Y s 1970 870 m 5 X s 1973 776 m -93 Y s 1970 683 m 5 X s 1993 807 m 91 Y s 1990 898 m 5 X s 1993 807 m -92 Y s 1990 715 m 5 X s 2013 716 m 92 Y s 2010 808 m 5 X s 2013 716 m -92 Y s 2010 624 m 5 X s 2033 772 m 93 Y s 2030 865 m 5 X s
 2033 772 m -93 Y s 2030 679 m 5 X s 2053 768 m 93 Y s 2050 861 m 5 X s 2053 768 m -92 Y s 2050 676 m 5 X s 2073 770 m 93 Y s 2070 863 m 5 X s 2073 770 m -93 Y s 2070 677 m 5 X s 2093 774 m 93 Y s 2090 867 m 5 X s 2093 774 m -94 Y s 2090 680 m 5 X s
 2113 736 m 89 Y s 2110 825 m 5 X s 2113 736 m -90 Y s 2110 646 m 5 X s 2132 774 m 93 Y s 2130 867 m 5 X s 2132 774 m -94 Y s 2130 680 m 5 X s 2152 749 m 89 Y s 2150 838 m 5 X s 2152 749 m -88 Y s 2150 661 m 5 X s 2172 713 m 77 Y s 2170 790 m 5 X s
 2172 713 m -76 Y s 2170 637 m 5 X s 2192 850 m 64 Y s 2190 914 m 5 X s 2192 850 m -64 Y s 2190 786 m 5 X s 2212 729 m 77 Y s 2210 806 m 5 X s 2212 729 m -78 Y s 2210 651 m 5 X s 1 1 1 c black /w 10 def /w2 {w 2 div} def /w3 {w 3 div} def 55 769 75
 769 95 769 115 769 135 769 155 769 175 769 195 769 215 769 235 769 255 769 275 772 295 772 315 769 335 762 355 766 375 778 395 775 415 766 435 790 455 761 475 733 495 773 515 749 535 787 555 836 575 831 595 773 615 773 635 773 655 773 674 773 694
 773 714 773 734 773 754 773 774 773 794 773 814 773 834 773 854 773 874 773 894 773 914 773 934 773 954 773 974 773 994 773 1014 773 1034 773 1054 773 1074 773 1094 773 1114 773 1134 773 1154 773 1174 773 1194 773 1214 773 1234 773 1254 773 1274 773
 1294 773 1314 773 1334 773 1354 773 1374 773 1394 773 1413 773 1433 773 1453 773 1473 773 1493 773 1513 773 1533 773 1553 773 1573 773 1593 773 1613 773 1633 773 1653 773 1673 782 1693 773 1713 774 1733 779 1753 766 1773 753 1793 787 1813 792 1833
 770 1853 772 1873 750 1893 749 1913 747 1933 767 1953 744 1973 776 1993 807 2013 716 2033 772 100 { m20} R 2053 768 2073 770 2093 774 2113 736 2132 774 2152 749 2172 713 2192 850 2212 729 9 { m20} R
 gr  gr showpage
end
%%EOF
