%!PS-Adobe-2.0 EPSF-2.0
%%BoundingBox:  0 0 567 244
%%Title: cCNp2_matrix_lep0_pt.eps: 
%%Creator: ROOT Version 6.24/06
%%CreationDate: Tue Jan  4 07:40:39 2022
%%DocumentNeededResources: ProcSet (FontSetInit)
%%EndComments
%%BeginProlog
80 dict begin
/s {stroke} def /l {lineto} def /m {moveto} def /t {translate} def
/r {rotate} def /rl {roll}  def /R {repeat} def
/d {rlineto} def /rm {rmoveto} def /gr {grestore} def /f {eofill} def
/c {setrgbcolor} def /black {0 setgray} def /sd {setdash} def
/cl {closepath} def /sf {scalefont setfont} def /lw {setlinewidth} def
/box {m dup 0 exch d exch 0 d 0 exch neg d cl} def
/NC{systemdict begin initclip end}def/C{NC box clip newpath}def
/bl {box s} def /bf {gsave box gsave f grestore 1 lw [] 0 sd s grestore} def /Y { 0 exch d} def /X { 0 d} def 
/K {{pop pop 0 moveto} exch kshow} bind def
/ita {/ang 15 def gsave [1 0 ang dup sin exch cos div 1 0 0] concat} def 
/mp {newpath /y exch def /x exch def} def
/side {[w .77 mul w .23 mul] .385 w mul sd w 0 l currentpoint t -144 r} def
/mr {mp x y w2 0 360 arc} def /m24 {mr s} def /m20 {mr f} def
/mb {mp x y w2 add m w2 neg 0 d 0 w neg d w 0 d 0 w d cl} def
/mt {mp x y w2 add m w2 neg w neg d w 0 d cl} def
/w4 {w 4 div} def
/w6 {w 6 div} def
/w8 {w 8 div} def
/m21 {mb f} def /m25 {mb s} def /m22 {mt f} def /m26{mt s} def
/m23 {mp x y w2 sub m w2 w d w neg 0 d cl f} def
/m27 {mp x y w2 add m w3 neg w2 neg d w3 w2 neg d w3 w2 d cl s} def
/m28 {mp x w2 sub y w2 sub w3 add m w3 0 d  0 w3 neg d w3 0 d 0 w3 d w3 0 d  0 w3 d w3 neg 0 d 0 w3 d w3 neg 0 d 0 w3 neg d w3 neg 0 d cl s } def
/m29 {mp gsave x w2 sub y w2 add w3 sub m currentpoint t 4 {side} repeat cl fill gr} def
/m30 {mp gsave x w2 sub y w2 add w3 sub m currentpoint t 4 {side} repeat cl s gr} def
/m31 {mp x y w2 sub m 0 w d x w2 sub y m w 0 d x w2 .707 mul sub y w2 .707 mul add m w 1.44 div w 1.44 div neg d x w2 .707 mul sub y w2 .707 mul sub m w 1.44 div w 1.44 div d s} def
/m32 {mp x y w2 sub m w2 w d w neg 0 d cl s} def
/m33 {mp x y w2 add m w3 neg w2 neg d w3 w2 neg d w3 w2 d cl f} def
/m34 {mp x w2 sub y w2 sub w3 add m w3 0 d  0 w3 neg d w3 0 d 0 w3 d w3 0 d  0 w3 d w3 neg 0 d 0 w3 d w3 neg 0 d 0 w3 neg d w3 neg 0 d cl f } def
/m35 {mp x y w2 add m w2 neg w2 neg d w2 w2 neg d w2 w2 d w2 neg w2 d x y w2 sub m 0 w d x w2 sub y m w 0 d s} def
/m36 {mb x w2 sub y w2 add m w w neg d x w2 sub y w2 sub m w w d s} def
/m37 {mp x y m w4 neg w2 d w4 neg w2 neg d w2 0 d  w4 neg w2 neg d w2 0 d w4 neg w2 d w2 0 d w4 neg w2 d w4 neg w2 neg d cl s} def
/m38 {mp x w4 sub y w2 add m w4 neg w4 neg d 0 w2 neg d w4 w4 neg d w2 0 d w4 w4 d 0 w2 d w4 neg w4 d w2 neg 0 d x y w2 sub m 0 w d x w2 sub y m w 0 d cl s} def
/m39 {mp x y m w4 neg w2 d w4 neg w2 neg d w2 0 d  w4 neg w2 neg d w2 0 d w4 neg w2 d w2 0 d w4 neg w2 d w4 neg w2 neg d cl f} def
/m40 {mp x y m w4 w2 d w4 w4 neg d w2 neg w4 neg d w2 w4 neg d w4 neg w4 neg d w4 neg w2 d w4 neg w2 neg d w4 neg w4 d w2 w4 d w2 neg w4 d w4 w4 d w4 w2 neg d cl s} def
/m41 {mp x y m w4 w2 d w4 w4 neg d w2 neg w4 neg d w2 w4 neg d w4 neg w4 neg d w4 neg w2 d w4 neg w2 neg d w4 neg w4 d w2 w4 d w2 neg w4 d w4 w4 d w4 w2 neg d cl f} def
/m42 {mp x y w2 add m w8 neg w2 -3 4 div mul d w2 -3 4 div mul w8 neg d w2 3 4 div mul w8 neg d w8 w2 -3 4 div mul d w8 w2 3 4 div mul d w2 3 4 div mul w8 d w2 -3 4 div mul w8 d w8 neg w2 3 4 div mul d cl s} def
/m43 {mp x y w2 add m w8 neg w2 -3 4 div mul d w2 -3 4 div mul w8 neg d w2 3 4 div mul w8 neg d w8 w2 -3 4 div mul d w8 w2 3 4 div mul d w2 3 4 div mul w8 d w2 -3 4 div mul w8 d w8 neg w2 3 4 div mul d cl f} def
/m44 {mp x y m w6 neg w2 d w2 2 3 div mul 0 d w6 neg w2 neg d w2 w6 d 0 w2 -2 3 div mul d w2 neg w6 d w6 w2 neg d w2 -2 3 div mul 0 d w6 w2 d w2 neg w6 neg d 0 w2 2 3 div mul d w2 w6 neg d cl s} def
/m45 {mp x y m w6 neg w2 d w2 2 3 div mul 0 d w6 neg w2 neg d w2 w6 d 0 w2 -2 3 div mul d w2 neg w6 d w6 w2 neg d w2 -2 3 div mul 0 d w6 w2 d w2 neg w6 neg d 0 w2 2 3 div mul d w2 w6 neg d cl f} def
/m46 {mp x y w4 add m w4 neg w4 d w4 neg w4 neg d  w4 w4 neg d w4 neg w4 neg d w4 w4 neg d w4 w4 d w4 w4 neg d w4 w4 d w4 neg w4 d w4 w4 d w4 neg w4 d w4 neg w4 neg d cl s} def
/m47 {mp x y w4 add m w4 neg w4 d w4 neg w4 neg d w4 w4 neg d w4 neg w4 neg d  w4 w4 neg d w4 w4 d w4 w4 neg d w4 w4 d w4 neg w4 d w4 w4 d w4 neg w4 d w4 neg w4 neg d cl f} def
/m48 {mp x y w4 add m w4 neg w4 d w4 neg w4 neg d w4 w4 neg d  w4 neg w4 neg d w4 w4 neg d w4 w4 d w4 w4 neg d w4 w4 d w4 neg w4 d w4 w4 d w4 neg w4 d w4 neg w4 neg d  w4 w4 neg d w4 neg w4 neg d w4 neg w4 d w4 w4 d cl f} def
/m49 {mp x w2 sub w3 add y w2 sub w3 add m  0 w3 neg d w3 0 d 0 w3 d w3 0 d 0 w3 d w3 neg 0 d 0 w3 d w3 neg 0 d 0 w3 neg d w3 neg 0 d 0 w3 neg d w3 0 d 0 w3 d w3 0 d 0 w3 neg d w3 neg 0 d cl f } def
/m2 {mp x y w2 sub m 0 w d x w2 sub y m w 0 d s} def
/m5 {mp x w2 .707 mul sub y w2 .707 mul sub m w 1.44 div w 1.44 div d x w2 .707 mul sub y w2 .707 mul add m w 1.44 div w 1.44 div neg d s} def
%%IncludeResource: ProcSet (FontSetInit)
%%IncludeResource: font Times-Roman
%%IncludeResource: font Times-Italic
%%IncludeResource: font Times-Bold
%%IncludeResource: font Times-BoldItalic
%%IncludeResource: font Helvetica
%%IncludeResource: font Helvetica-Oblique
%%IncludeResource: font Helvetica-Bold
%%IncludeResource: font Helvetica-BoldOblique
%%IncludeResource: font Courier
%%IncludeResource: font Courier-Oblique
%%IncludeResource: font Courier-Bold
%%IncludeResource: font Courier-BoldOblique
%%IncludeResource: font Symbol
%%IncludeResource: font ZapfDingbats
/reEncode {exch findfont dup length dict begin {1 index /FID eq  {pop pop} {def} ifelse } forall /Encoding exch def currentdict end dup /FontName get exch definefont pop } def [/Times-Bold /Times-Italic /Times-BoldItalic /Helvetica /Helvetica-Oblique
 /Helvetica-Bold /Helvetica-BoldOblique /Courier /Courier-Oblique /Courier-Bold /Courier-BoldOblique /Times-Roman /AvantGarde-Book /AvantGarde-BookOblique /AvantGarde-Demi /AvantGarde-DemiOblique /Bookman-Demi /Bookman-DemiItalic /Bookman-Light
 /Bookman-LightItalic /Helvetica-Narrow /Helvetica-Narrow-Bold /Helvetica-Narrow-BoldOblique /Helvetica-Narrow-Oblique /NewCenturySchlbk-Roman /NewCenturySchlbk-Bold /NewCenturySchlbk-BoldItalic /NewCenturySchlbk-Italic /Palatino-Bold
 /Palatino-BoldItalic /Palatino-Italic /Palatino-Roman ] {ISOLatin1Encoding reEncode } forall
%%EndProlog
%%BeginSetup
%%EndSetup
newpath  gsave  .25 .25 scale  gsave  0 0 t black[  ] 0 sd 3 lw 1 1 1 c 2268 975 0 0 bf black 1 1 1 c 2177 375 45 585 bf black 2177 375 45 585 bl 6 lw 1 1 1 c black 45 773 m 2177 X s 3 lw 45 585 m 2177 X s
 gsave  2268 975 0 0 C 60.6071 61.8698 t 90 r /Helvetica findfont 23.9903 sf 0 0 m (EL_EFF_ID_SIMPLIFIED_UncorrUncertaintyNP0) show NC gr 
 gsave  2268 975 0 0 C 80.8095 65.6577 t 90 r /Helvetica findfont 23.9903 sf 0 0 m (EL_EFF_ID_SIMPLIFIED_UncorrUncertaintyNP1) show NC gr 
 gsave  2268 975 0 0 C 101.012 49.2433 t 90 r /Helvetica findfont 23.9903 sf 0 0 m (EL_EFF_ID_SIMPLIFIED_UncorrUncertaintyNP10) show NC gr 
 gsave  2268 975 0 0 C 119.952 53.0312 t 90 r /Helvetica findfont 23.9903 sf 0 0 m (EL_EFF_ID_SIMPLIFIED_UncorrUncertaintyNP11) show NC gr 
 gsave  2268 975 0 0 C 140.154 61.8698 t 90 r /Helvetica findfont 23.9903 sf 0 0 m (EL_EFF_ID_SIMPLIFIED_UncorrUncertaintyNP2) show NC gr 
 gsave  2268 975 0 0 C 160.356 23.9903 t 90 r /Helvetica findfont 23.9903 sf 0 0 m (EL_EFF_Trigger_TOTAL_1NPCOR_PLUS_UNCOR) show NC gr 
 gsave  2268 975 0 0 C 180.559 294.197 t 90 r /Helvetica findfont 23.9903 sf 0 0 m (JET_SingleParticle_HighPt) show NC gr 
 gsave  2268 975 0 0 C 200.761 191.923 t 90 r /Helvetica findfont 23.9903 sf 0 0 m (MUON_EFF_RECO_STAT_LOWPT) show NC gr 
 gsave  2268 975 0 0 C 220.963 207.074 t 90 r /Helvetica findfont 23.9903 sf 0 0 m (MUON_EFF_RECO_SYS_LOWPT) show NC gr 
 gsave  2268 975 0 0 C 239.903 323.238 t 90 r /Helvetica findfont 23.9903 sf 0 0 m (MUON_SAGITTA_RHO) show NC gr 
 gsave  2268 975 0 0 C 258.843 397.734 t 90 r /Helvetica findfont 23.9903 sf 0 0 m (theo_ggF_alphas) show NC gr 
 gsave  2268 975 0 0 C 279.045 390.158 t 90 r /Helvetica findfont 23.9903 sf 0 0 m (theo_ggF_pdf4lhc) show NC gr 
 gsave  2268 975 0 0 C 297.985 296.722 t 90 r /Helvetica findfont 23.9903 sf 0 0 m (theo_ggF_qcd_wg1_mig01) show NC gr 
 gsave  2268 975 0 0 C 318.187 292.934 t 90 r /Helvetica findfont 23.9903 sf 0 0 m (theo_ggF_qcd_wg1_mig12) show NC gr 
 gsave  2268 975 0 0 C 338.39 325.763 t 90 r /Helvetica findfont 23.9903 sf 0 0 m (theo_ggF_qcd_wg1_mu) show NC gr 
 gsave  2268 975 0 0 C 357.329 313.137 t 90 r /Helvetica findfont 23.9903 sf 0 0 m (theo_ggF_qcd_wg1_pTH) show NC gr 
 gsave  2268 975 0 0 C 377.532 304.298 t 90 r /Helvetica findfont 23.9903 sf 0 0 m (theo_ggF_qcd_wg1_qm_t) show NC gr 
 gsave  2268 975 0 0 C 397.734 324.501 t 90 r /Helvetica findfont 23.9903 sf 0 0 m (theo_ggF_qcd_wg1_res) show NC gr 
 gsave  2268 975 0 0 C 416.674 306.824 t 90 r /Helvetica findfont 23.9903 sf 0 0 m (theo_ggF_qcd_wg1_vbf2j) show NC gr 
 gsave  2268 975 0 0 C 436.876 306.824 t 90 r /Helvetica findfont 23.9903 sf 0 0 m (theo_ggF_qcd_wg1_vbf3j) show NC gr 
 gsave  2268 975 0 0 C 457.079 391.421 t 90 r /Helvetica findfont 23.9903 sf 0 0 m (theo_ggF_shower) show NC gr 
 gsave  2268 975 0 0 C 476.018 362.38 t 90 r /Helvetica findfont 23.9903 sf 0 0 m (theo_ztautau_alphas) show NC gr 
 gsave  2268 975 0 0 C 496.221 247.479 t 90 r /Helvetica findfont 23.9903 sf 0 0 m (theo_ztautau_generatortotNorm) show NC gr 
 gsave  2268 975 0 0 C 516.423 397.734 t 90 r /Helvetica findfont 23.9903 sf 0 0 m (theo_ztautau_pdf) show NC gr 
 gsave  2268 975 0 0 C 536.626 376.269 t 90 r /Helvetica findfont 23.9903 sf 0 0 m (theo_ztautau_scale) show NC gr 
 gsave  2268 975 0 0 C 555.565 198.236 t 90 r /Helvetica findfont 23.9903 sf 0 0 m (theo_ztautau_generatorRegNonVBF) show NC gr 
 gsave  2268 975 0 0 C 577.03 458.341 t 90 r /Helvetica findfont 23.9903 sf 0 0 m (el_FF_Com) show NC gr 
 gsave  2268 975 0 0 C 595.97 387.633 t 90 r /Helvetica findfont 23.9903 sf 0 0 m (el_FF_EWSUBTR) show NC gr 
 gsave  2268 975 0 0 C 616.172 328.289 t 90 r /Helvetica findfont 23.9903 sf 0 0 m (el_FF_STAT_2015_1_1) show NC gr 
 gsave  2268 975 0 0 C 636.375 261.368 t 90 r /Helvetica findfont 23.9903 sf 0 0 m (el_FF_STAT_2015_2018_1_1) show NC gr 
 gsave  2268 975 0 0 C 655.315 261.368 t 90 r /Helvetica findfont 23.9903 sf 0 0 m (el_FF_STAT_2015_2018_2_1) show NC gr 
 gsave  2268 975 0 0 C 675.517 261.368 t 90 r /Helvetica findfont 23.9903 sf 0 0 m (el_FF_STAT_2015_2018_3_1) show NC gr 
 gsave  2268 975 0 0 C 695.719 261.368 t 90 r /Helvetica findfont 23.9903 sf 0 0 m (el_FF_STAT_2015_2018_4_1) show NC gr 
 gsave  2268 975 0 0 C 715.922 328.289 t 90 r /Helvetica findfont 23.9903 sf 0 0 m (el_FF_STAT_2015_2_1) show NC gr 
 gsave  2268 975 0 0 C 734.861 328.289 t 90 r /Helvetica findfont 23.9903 sf 0 0 m (el_FF_STAT_2015_3_1) show NC gr 
 gsave  2268 975 0 0 C 755.064 328.289 t 90 r /Helvetica findfont 23.9903 sf 0 0 m (el_FF_STAT_2015_4_1) show NC gr 
 gsave  2268 975 0 0 C 775.266 328.289 t 90 r /Helvetica findfont 23.9903 sf 0 0 m (el_FF_STAT_2016_1_1) show NC gr 
 gsave  2268 975 0 0 C 794.206 328.289 t 90 r /Helvetica findfont 23.9903 sf 0 0 m (el_FF_STAT_2016_2_1) show NC gr 
 gsave  2268 975 0 0 C 814.408 328.289 t 90 r /Helvetica findfont 23.9903 sf 0 0 m (el_FF_STAT_2016_3_1) show NC gr 
 gsave  2268 975 0 0 C 834.611 328.289 t 90 r /Helvetica findfont 23.9903 sf 0 0 m (el_FF_STAT_2016_4_1) show NC gr 
 gsave  2268 975 0 0 C 853.55 328.289 t 90 r /Helvetica findfont 23.9903 sf 0 0 m (el_FF_STAT_2017_1_1) show NC gr 
 gsave  2268 975 0 0 C 873.753 328.289 t 90 r /Helvetica findfont 23.9903 sf 0 0 m (el_FF_STAT_2017_2_1) show NC gr 
 gsave  2268 975 0 0 C 893.955 328.289 t 90 r /Helvetica findfont 23.9903 sf 0 0 m (el_FF_STAT_2017_3_1) show NC gr 
 gsave  2268 975 0 0 C 912.895 328.289 t 90 r /Helvetica findfont 23.9903 sf 0 0 m (el_FF_STAT_2017_4_1) show NC gr 
 gsave  2268 975 0 0 C 933.097 328.289 t 90 r /Helvetica findfont 23.9903 sf 0 0 m (el_FF_STAT_2018_1_1) show NC gr 
 gsave  2268 975 0 0 C 953.3 328.289 t 90 r /Helvetica findfont 23.9903 sf 0 0 m (el_FF_STAT_2018_2_1) show NC gr 
 gsave  2268 975 0 0 C 972.239 328.289 t 90 r /Helvetica findfont 23.9903 sf 0 0 m (el_FF_STAT_2018_3_1) show NC gr 
 gsave  2268 975 0 0 C 992.442 328.289 t 90 r /Helvetica findfont 23.9903 sf 0 0 m (el_FF_STAT_2018_4_1) show NC gr 
 gsave  2268 975 0 0 C 1012.64 443.19 t 90 r /Helvetica findfont 23.9903 sf 0 0 m (mu_FF_Com) show NC gr 
 gsave  2268 975 0 0 C 1031.58 373.744 t 90 r /Helvetica findfont 23.9903 sf 0 0 m (mu_FF_EWSUBTR) show NC gr 
 gsave  2268 975 0 0 C 1051.79 314.399 t 90 r /Helvetica findfont 23.9903 sf 0 0 m (mu_FF_STAT_2015_1_1) show NC gr 
 gsave  2268 975 0 0 C 1071.99 309.349 t 90 r /Helvetica findfont 23.9903 sf 0 0 m (mu_FF_STAT_2015_1_2) show NC gr 
 gsave  2268 975 0 0 C 1090.93 247.479 t 90 r /Helvetica findfont 23.9903 sf 0 0 m (mu_FF_STAT_2015_2018_1_1) show NC gr 
 gsave  2268 975 0 0 C 1111.13 243.691 t 90 r /Helvetica findfont 23.9903 sf 0 0 m (mu_FF_STAT_2015_2018_1_2) show NC gr 
 gsave  2268 975 0 0 C 1131.33 247.479 t 90 r /Helvetica findfont 23.9903 sf 0 0 m (mu_FF_STAT_2015_2018_2_1) show NC gr 
 gsave  2268 975 0 0 C 1150.27 243.691 t 90 r /Helvetica findfont 23.9903 sf 0 0 m (mu_FF_STAT_2015_2018_2_2) show NC gr 
 gsave  2268 975 0 0 C 1170.48 247.479 t 90 r /Helvetica findfont 23.9903 sf 0 0 m (mu_FF_STAT_2015_2018_3_1) show NC gr 
 gsave  2268 975 0 0 C 1190.68 243.691 t 90 r /Helvetica findfont 23.9903 sf 0 0 m (mu_FF_STAT_2015_2018_3_2) show NC gr 
 gsave  2268 975 0 0 C 1209.62 314.399 t 90 r /Helvetica findfont 23.9903 sf 0 0 m (mu_FF_STAT_2015_2_1) show NC gr 
 gsave  2268 975 0 0 C 1229.82 309.349 t 90 r /Helvetica findfont 23.9903 sf 0 0 m (mu_FF_STAT_2015_2_2) show NC gr 
 gsave  2268 975 0 0 C 1250.02 314.399 t 90 r /Helvetica findfont 23.9903 sf 0 0 m (mu_FF_STAT_2015_3_1) show NC gr 
 gsave  2268 975 0 0 C 1268.96 309.349 t 90 r /Helvetica findfont 23.9903 sf 0 0 m (mu_FF_STAT_2015_3_2) show NC gr 
 gsave  2268 975 0 0 C 1289.16 314.399 t 90 r /Helvetica findfont 23.9903 sf 0 0 m (mu_FF_STAT_2016_1_1) show NC gr 
 gsave  2268 975 0 0 C 1309.37 309.349 t 90 r /Helvetica findfont 23.9903 sf 0 0 m (mu_FF_STAT_2016_1_2) show NC gr 
 gsave  2268 975 0 0 C 1328.31 314.399 t 90 r /Helvetica findfont 23.9903 sf 0 0 m (mu_FF_STAT_2016_2_1) show NC gr 
 gsave  2268 975 0 0 C 1348.51 309.349 t 90 r /Helvetica findfont 23.9903 sf 0 0 m (mu_FF_STAT_2016_2_2) show NC gr 
 gsave  2268 975 0 0 C 1368.71 314.399 t 90 r /Helvetica findfont 23.9903 sf 0 0 m (mu_FF_STAT_2016_3_1) show NC gr 
 gsave  2268 975 0 0 C 1387.65 309.349 t 90 r /Helvetica findfont 23.9903 sf 0 0 m (mu_FF_STAT_2016_3_2) show NC gr 
 gsave  2268 975 0 0 C 1407.85 314.399 t 90 r /Helvetica findfont 23.9903 sf 0 0 m (mu_FF_STAT_2017_1_1) show NC gr 
 gsave  2268 975 0 0 C 1428.06 309.349 t 90 r /Helvetica findfont 23.9903 sf 0 0 m (mu_FF_STAT_2017_1_2) show NC gr 
 gsave  2268 975 0 0 C 1447 314.399 t 90 r /Helvetica findfont 23.9903 sf 0 0 m (mu_FF_STAT_2017_2_1) show NC gr 
 gsave  2268 975 0 0 C 1467.2 309.349 t 90 r /Helvetica findfont 23.9903 sf 0 0 m (mu_FF_STAT_2017_2_2) show NC gr 
 gsave  2268 975 0 0 C 1487.4 314.399 t 90 r /Helvetica findfont 23.9903 sf 0 0 m (mu_FF_STAT_2017_3_1) show NC gr 
 gsave  2268 975 0 0 C 1506.34 309.349 t 90 r /Helvetica findfont 23.9903 sf 0 0 m (mu_FF_STAT_2017_3_2) show NC gr 
 gsave  2268 975 0 0 C 1526.54 314.399 t 90 r /Helvetica findfont 23.9903 sf 0 0 m (mu_FF_STAT_2018_1_1) show NC gr 
 gsave  2268 975 0 0 C 1546.74 309.349 t 90 r /Helvetica findfont 23.9903 sf 0 0 m (mu_FF_STAT_2018_1_2) show NC gr 
 gsave  2268 975 0 0 C 1565.68 314.399 t 90 r /Helvetica findfont 23.9903 sf 0 0 m (mu_FF_STAT_2018_2_1) show NC gr 
 gsave  2268 975 0 0 C 1585.89 309.349 t 90 r /Helvetica findfont 23.9903 sf 0 0 m (mu_FF_STAT_2018_2_2) show NC gr 
 gsave  2268 975 0 0 C 1606.09 314.399 t 90 r /Helvetica findfont 23.9903 sf 0 0 m (mu_FF_STAT_2018_3_1) show NC gr 
 gsave  2268 975 0 0 C 1626.29 309.349 t 90 r /Helvetica findfont 23.9903 sf 0 0 m (mu_FF_STAT_2018_3_2) show NC gr 
 gsave  2268 975 0 0 C 1645.23 351.016 t 90 r /Helvetica findfont 23.9903 sf 0 0 m (theo_ewww_EWscale) show NC gr 
 gsave  2268 975 0 0 C 1664.17 373.744 t 90 r /Helvetica findfont 23.9903 sf 0 0 m (theo_ewww_alphas) show NC gr 
 gsave  2268 975 0 0 C 1684.37 409.098 t 90 r /Helvetica findfont 23.9903 sf 0 0 m (theo_ewww_pdf) show NC gr 
 gsave  2268 975 0 0 C 1704.58 387.633 t 90 r /Helvetica findfont 23.9903 sf 0 0 m (theo_ewww_scale) show NC gr 
 gsave  2268 975 0 0 C 1724.78 367.431 t 90 r /Helvetica findfont 23.9903 sf 0 0 m (theo_ewww_shower) show NC gr 
 gsave  2268 975 0 0 C 1744.98 401.522 t 90 r /Helvetica findfont 23.9903 sf 0 0 m (theo_ww_CKKW) show NC gr 
 gsave  2268 975 0 0 C 1763.92 385.108 t 90 r /Helvetica findfont 23.9903 sf 0 0 m (theo_ww_CSSKIN) show NC gr 
 gsave  2268 975 0 0 C 1784.12 424.25 t 90 r /Helvetica findfont 23.9903 sf 0 0 m (theo_ww_QSF) show NC gr 
 gsave  2268 975 0 0 C 1803.06 404.047 t 90 r /Helvetica findfont 23.9903 sf 0 0 m (theo_ww_alphas) show NC gr 
 gsave  2268 975 0 0 C 1822 439.402 t 90 r /Helvetica findfont 23.9903 sf 0 0 m (theo_ww_pdf) show NC gr 
 gsave  2268 975 0 0 C 1843.47 417.937 t 90 r /Helvetica findfont 23.9903 sf 0 0 m (theo_ww_scale) show NC gr 
 gsave  2268 975 0 0 C 1863.67 397.734 t 90 r /Helvetica findfont 23.9903 sf 0 0 m (theo_ww_shower) show NC gr 
 gsave  2268 975 0 0 C 1882.61 433.088 t 90 r /Helvetica findfont 23.9903 sf 0 0 m (theo_ttbar_fsr) show NC gr 
 gsave  2268 975 0 0 C 1902.81 434.351 t 90 r /Helvetica findfont 23.9903 sf 0 0 m (theo_ttbar_isr) show NC gr 
 gsave  2268 975 0 0 C 1921.75 364.905 t 90 r /Helvetica findfont 23.9903 sf 0 0 m (theo_ttbar_matching) show NC gr 
 gsave  2268 975 0 0 C 1940.69 426.775 t 90 r /Helvetica findfont 23.9903 sf 0 0 m (theo_ttbar_pdf) show NC gr 
 gsave  2268 975 0 0 C 1962.16 405.31 t 90 r /Helvetica findfont 23.9903 sf 0 0 m (theo_ttbar_scale) show NC gr 
 gsave  2268 975 0 0 C 1982.36 383.845 t 90 r /Helvetica findfont 23.9903 sf 0 0 m (theo_ttbar_shower) show NC gr 
 gsave  2268 975 0 0 C 2000.04 223.489 t 90 r /Helvetica findfont 23.9903 sf 0 0 m (theo_ztautau_generatorRegTop_1) show NC gr 
 gsave  2268 975 0 0 C 2020.24 219.701 t 90 r /Helvetica findfont 23.9903 sf 0 0 m (theo_ztautau_generatorRegTop_2) show NC gr 
 gsave  2268 975 0 0 C 2040.44 219.701 t 90 r /Helvetica findfont 23.9903 sf 0 0 m (theo_ztautau_generatorRegTop_3) show NC gr 
 gsave  2268 975 0 0 C 2059.38 219.701 t 90 r /Helvetica findfont 23.9903 sf 0 0 m (theo_ztautau_generatorRegTop_4) show NC gr 
 gsave  2268 975 0 0 C 2079.58 219.701 t 90 r /Helvetica findfont 23.9903 sf 0 0 m (theo_ztautau_generatorRegTop_5) show NC gr 
 gsave  2268 975 0 0 C 2099.78 219.701 t 90 r /Helvetica findfont 23.9903 sf 0 0 m (theo_ztautau_generatorRegTop_6) show NC gr 
 gsave  2268 975 0 0 C 2118.72 219.701 t 90 r /Helvetica findfont 23.9903 sf 0 0 m (theo_ztautau_generatorRegVBF_1) show NC gr 
 gsave  2268 975 0 0 C 2138.93 215.913 t 90 r /Helvetica findfont 23.9903 sf 0 0 m (theo_ztautau_generatorRegVBF_2) show NC gr 
 gsave  2268 975 0 0 C 2159.13 215.913 t 90 r /Helvetica findfont 23.9903 sf 0 0 m (theo_ztautau_generatorRegVBF_3) show NC gr 
 gsave  2268 975 0 0 C 2178.07 215.913 t 90 r /Helvetica findfont 23.9903 sf 0 0 m (theo_ztautau_generatorRegVBF_4) show NC gr 
 gsave  2268 975 0 0 C 2198.27 215.913 t 90 r /Helvetica findfont 23.9903 sf 0 0 m (theo_ztautau_generatorRegVBF_5) show NC gr 
 gsave  2268 975 0 0 C 2218.47 215.913 t 90 r /Helvetica findfont 23.9903 sf 0 0 m (theo_ztautau_generatorRegVBF_6) show NC gr  45 613 m -28 Y s 263 613 m -28 Y s 481 613 m -28 Y s 698 613 m -28 Y s 916 613 m -28 Y s 1134 613 m -28 Y s 1352 613 m -28
 Y s 1569 613 m -28 Y s 1787 613 m -28 Y s 2005 613 m -28 Y s 2222 613 m -28 Y s 45 960 m 2177 X s 45 932 m 28 Y s 263 932 m 28 Y s 481 932 m 28 Y s 698 932 m 28 Y s 916 932 m 28 Y s 1134 932 m 28 Y s 1352 932 m 28 Y s 1569 932 m 28 Y s 1787 932 m 28
 Y s 2005 932 m 28 Y s 2222 932 m 28 Y s 45 585 m 375 Y s 72 585 m -27 X s 58 594 m -13 X s 58 604 m -13 X s 58 613 m -13 X s 58 622 m -13 X s 72 632 m -27 X s 58 641 m -13 X s 58 651 m -13 X s 58 660 m -13 X s 58 669 m -13 X s 72 679 m -27 X s 58
 688 m -13 X s 58 697 m -13 X s 58 707 m -13 X s 58 716 m -13 X s 72 726 m -27 X s 58 735 m -13 X s 58 744 m -13 X s 58 754 m -13 X s 58 763 m -13 X s 72 773 m -27 X s 58 782 m -13 X s 58 791 m -13 X s 58 801 m -13 X s 58 810 m -13 X s 72 819 m -27 X
 s 58 829 m -13 X s 58 838 m -13 X s 58 848 m -13 X s 58 857 m -13 X s 72 866 m -27 X s 58 876 m -13 X s 58 885 m -13 X s 58 894 m -13 X s 58 904 m -13 X s 72 913 m -27 X s 58 923 m -13 X s 58 932 m -13 X s 58 941 m -13 X s 58 951 m -13 X s 72 960 m
 -27 X s
 gsave  2268 975 0 0 C 20.2024 575.768 t 0 r /Helvetica findfont 23.9903 sf 0 0 m (2) show NC gr 
 gsave  2268 975 0 0 C 7.57589 575.768 t 0 r /Symbol findfont 23.9903 sf 0 0 m (-) show NC gr 
 gsave  2268 975 0 0 C 0 623.748 t 0 r /Helvetica findfont 23.9903 sf 0 0 m (1.5) show NC gr 
 gsave  2268 975 0 0 C -12.6265 623.748 t 0 r /Symbol findfont 23.9903 sf 0 0 m (-) show NC gr 
 gsave  2268 975 0 0 C 23.9903 669.204 t 0 r /Helvetica findfont 23.9903 sf 0 0 m (1) show NC gr 
 gsave  2268 975 0 0 C 11.3638 669.204 t 0 r /Symbol findfont 23.9903 sf 0 0 m (-) show NC gr 
 gsave  2268 975 0 0 C 0 717.184 t 0 r /Helvetica findfont 23.9903 sf 0 0 m (0.5) show NC gr 
 gsave  2268 975 0 0 C -12.6265 717.184 t 0 r /Symbol findfont 23.9903 sf 0 0 m (-) show NC gr 
 gsave  2268 975 0 0 C 20.2024 763.902 t 0 r /Helvetica findfont 23.9903 sf 0 0 m (0) show NC gr 
 gsave  2268 975 0 0 C 0 810.62 t 0 r /Helvetica findfont 23.9903 sf 0 0 m (0.5) show NC gr 
 gsave  2268 975 0 0 C 23.9903 857.338 t 0 r /Helvetica findfont 23.9903 sf 0 0 m (1) show NC gr 
 gsave  2268 975 0 0 C 0 905.319 t 0 r /Helvetica findfont 23.9903 sf 0 0 m (1.5) show NC gr 
 gsave  2268 975 0 0 C 20.2024 950.774 t 0 r /Helvetica findfont 23.9903 sf 0 0 m (2) show NC gr 
 gsave  2268 975 0 0 C -45.4553 945.724 t 90 r /Symbol findfont 29.0409 sf 0 0 m (q) show NC gr  6 lw
 gsave  2268 975 0 0 C -45.4553 930.572 t 90 r /Symbol findfont 29.0409 sf 0 0 m (d) show NC gr 
 gsave  2268 975 0 0 C -45.4553 920.471 t 90 r /Helvetica findfont 29.0409 sf 0 0 m (/) show NC gr 
 gsave  2268 975 0 0 C -45.4553 905.319 t 90 r /Symbol findfont 29.0409 sf 0 0 m (q) show NC gr 
 gsave  2268 975 0 0 C -45.4553 896.48 t 90 r /Helvetica findfont 29.0409 sf 0 0 m (\255) show NC gr 
 gsave  2268 975 0 0 C -45.4553 881.329 t 90 r /Symbol findfont 29.0409 sf 0 0 m (q) show NC gr  3 lw 2222 585 m 375 Y s 2196 585 m 26 X s 2209 594 m 13 X s 2209 604 m 13 X s 2209 613 m 13 X s 2209 622 m 13 X s 2196 632 m 26 X s 2209 641 m 13 X s
 2209 651 m 13 X s 2209 660 m 13 X s 2209 669 m 13 X s 2196 679 m 26 X s 2209 688 m 13 X s 2209 697 m 13 X s 2209 707 m 13 X s 2209 716 m 13 X s 2196 726 m 26 X s 2209 735 m 13 X s 2209 744 m 13 X s 2209 754 m 13 X s 2209 763 m 13 X s 2196 773 m 26 X
 s 2209 782 m 13 X s 2209 791 m 13 X s 2209 801 m 13 X s 2209 810 m 13 X s 2196 819 m 26 X s 2209 829 m 13 X s 2209 838 m 13 X s 2209 848 m 13 X s 2209 857 m 13 X s 2196 866 m 26 X s 2209 876 m 13 X s 2209 885 m 13 X s 2209 894 m 13 X s 2209 904 m 13
 X s 2196 913 m 26 X s 2209 923 m 13 X s 2209 932 m 13 X s 2209 941 m 13 X s 2209 951 m 13 X s 2196 960 m 26 X s 55 768 m 93 Y s 53 861 m 5 X s 55 768 m -93 Y s 53 675 m 5 X s 75 768 m 93 Y s 73 861 m 5 X s 75 768 m -93 Y s 73 675 m 5 X s 95 768 m 93
 Y s 92 861 m 5 X s 95 768 m -93 Y s 92 675 m 5 X s 115 768 m 93 Y s 112 861 m 5 X s 115 768 m -93 Y s 112 675 m 5 X s 134 768 m 93 Y s 132 861 m 5 X s 134 768 m -93 Y s 132 675 m 5 X s 154 768 m 93 Y s 152 861 m 5 X s 154 768 m -93 Y s 152 675 m 5 X
 s 174 768 m 93 Y s 171 861 m 6 X s 174 768 m -93 Y s 171 675 m 6 X s 194 768 m 93 Y s 191 861 m 5 X s 194 768 m -93 Y s 191 675 m 5 X s 214 768 m 93 Y s 211 861 m 5 X s 214 768 m -93 Y s 211 675 m 5 X s 233 768 m 93 Y s 231 861 m 5 X s 233 768 m -93
 Y s 231 675 m 5 X s 253 772 m 93 Y s 251 865 m 5 X s 253 772 m -93 Y s 251 679 m 5 X s 273 772 m 93 Y s 270 865 m 5 X s 273 772 m -93 Y s 270 679 m 5 X s 293 771 m 93 Y s 290 864 m 5 X s 293 771 m -93 Y s 290 678 m 5 X s 313 766 m 93 Y s 310 859 m 5
 X s 313 766 m -93 Y s 310 673 m 5 X s 332 769 m 93 Y s 330 862 m 5 X s 332 769 m -93 Y s 330 676 m 5 X s 352 774 m 93 Y s 350 867 m 5 X s 352 774 m -93 Y s 350 681 m 5 X s 372 773 m 93 Y s 369 866 m 5 X s 372 773 m -93 Y s 369 680 m 5 X s 392 769 m
 93 Y s 389 862 m 5 X s 392 769 m -93 Y s 389 676 m 5 X s 411 782 m 93 Y s 409 875 m 5 X s 411 782 m -94 Y s 409 688 m 5 X s 431 766 m 93 Y s 429 859 m 5 X s 431 766 m -93 Y s 429 673 m 5 X s 451 750 m 93 Y s 449 843 m 5 X s 451 750 m -92 Y s 449 658
 m 5 X s 471 770 m 93 Y s 468 863 m 5 X s 471 770 m -93 Y s 468 677 m 5 X s 491 764 m 93 Y s 488 857 m 5 X s 491 764 m -93 Y s 488 671 m 5 X s 510 777 m 93 Y s 508 870 m 5 X s 510 777 m -93 Y s 508 684 m 5 X s 530 818 m 88 Y s 528 906 m 5 X s 530 818
 m -88 Y s 528 730 m 5 X s 550 824 m 87 Y s 547 911 m 6 X s 550 824 m -88 Y s 547 736 m 6 X s 570 773 m 93 Y s 567 866 m 5 X s 570 773 m -94 Y s 567 679 m 5 X s 590 773 m 93 Y s 587 866 m 5 X s 590 773 m -94 Y s 587 679 m 5 X s 609 773 m 93 Y s 607
 866 m 5 X s 609 773 m -94 Y s 607 679 m 5 X s 629 773 m 93 Y s 627 866 m 5 X s 629 773 m -94 Y s 627 679 m 5 X s 649 773 m 93 Y s 646 866 m 6 X s 649 773 m -94 Y s 646 679 m 6 X s 669 773 m 93 Y s 666 866 m 5 X s 669 773 m -94 Y s 666 679 m 5 X s
 689 773 m 93 Y s 686 866 m 5 X s 689 773 m -94 Y s 686 679 m 5 X s 708 773 m 93 Y s 706 866 m 5 X s 708 773 m -94 Y s 706 679 m 5 X s 728 773 m 93 Y s 726 866 m 5 X s 728 773 m -94 Y s 726 679 m 5 X s 748 773 m 93 Y s 745 866 m 5 X s 748 773 m -94 Y
 s 745 679 m 5 X s 768 773 m 93 Y s 765 866 m 5 X s 768 773 m -94 Y s 765 679 m 5 X s 788 773 m 93 Y s 785 866 m 5 X s 788 773 m -94 Y s 785 679 m 5 X s 807 773 m 93 Y s 805 866 m 5 X s 807 773 m -94 Y s 805 679 m 5 X s 827 773 m 93 Y s 825 866 m 5 X
 s 827 773 m -94 Y s 825 679 m 5 X s 847 773 m 93 Y s 844 866 m 5 X s 847 773 m -94 Y s 844 679 m 5 X s 867 773 m 93 Y s 864 866 m 5 X s 867 773 m -94 Y s 864 679 m 5 X s 886 773 m 93 Y s 884 866 m 5 X s 886 773 m -94 Y s 884 679 m 5 X s 906 773 m 93
 Y s 904 866 m 5 X s 906 773 m -94 Y s 904 679 m 5 X s 926 773 m 93 Y s 924 866 m 5 X s 926 773 m -94 Y s 924 679 m 5 X s 946 773 m 93 Y s 943 866 m 5 X s 946 773 m -94 Y s 943 679 m 5 X s 966 773 m 93 Y s 963 866 m 5 X s 966 773 m -94 Y s 963 679 m
 5 X s 985 773 m 93 Y s 983 866 m 5 X s 985 773 m -94 Y s 983 679 m 5 X s 1005 773 m 93 Y s 1003 866 m 5 X s 1005 773 m -94 Y s 1003 679 m 5 X s 1025 773 m 93 Y s 1022 866 m 6 X s 1025 773 m -94 Y s 1022 679 m 6 X s 1045 773 m 93 Y s 1042 866 m 5 X s
 1045 773 m -94 Y s 1042 679 m 5 X s 1065 773 m 93 Y s 1062 866 m 5 X s 1065 773 m -94 Y s 1062 679 m 5 X s 1084 773 m 93 Y s 1082 866 m 5 X s 1084 773 m -94 Y s 1082 679 m 5 X s 1104 773 m 93 Y s 1102 866 m 5 X s 1104 773 m -94 Y s 1102 679 m 5 X s
 1124 773 m 93 Y s 1121 866 m 5 X s 1124 773 m -94 Y s 1121 679 m 5 X s 1144 773 m 93 Y s 1141 866 m 5 X s 1144 773 m -94 Y s 1141 679 m 5 X s 1164 773 m 93 Y s 1161 866 m 5 X s 1164 773 m -94 Y s 1161 679 m 5 X s 1183 773 m 93 Y s 1181 866 m 5 X s
 1183 773 m -94 Y s 1181 679 m 5 X s 1203 773 m 93 Y s 1201 866 m 5 X s 1203 773 m -94 Y s 1201 679 m 5 X s 1223 773 m 93 Y s 1220 866 m 5 X s 1223 773 m -94 Y s 1220 679 m 5 X s 1243 773 m 93 Y s 1240 866 m 5 X s 1243 773 m -94 Y s 1240 679 m 5 X s
 1262 773 m 93 Y s 1260 866 m 5 X s 1262 773 m -94 Y s 1260 679 m 5 X s 1282 773 m 93 Y s 1280 866 m 5 X s 1282 773 m -94 Y s 1280 679 m 5 X s 1302 773 m 93 Y s 1300 866 m 5 X s 1302 773 m -94 Y s 1300 679 m 5 X s 1322 773 m 93 Y s 1319 866 m 5 X s
 1322 773 m -94 Y s 1319 679 m 5 X s 1342 773 m 93 Y s 1339 866 m 5 X s 1342 773 m -94 Y s 1339 679 m 5 X s 1361 773 m 93 Y s 1359 866 m 5 X s 1361 773 m -94 Y s 1359 679 m 5 X s 1381 773 m 93 Y s 1379 866 m 5 X s 1381 773 m -94 Y s 1379 679 m 5 X s
 1401 773 m 93 Y s 1399 866 m 5 X s 1401 773 m -94 Y s 1399 679 m 5 X s 1421 773 m 93 Y s 1418 866 m 5 X s 1421 773 m -94 Y s 1418 679 m 5 X s 1441 773 m 93 Y s 1438 866 m 5 X s 1441 773 m -94 Y s 1438 679 m 5 X s 1460 773 m 93 Y s 1458 866 m 5 X s
 1460 773 m -94 Y s 1458 679 m 5 X s 1480 773 m 93 Y s 1478 866 m 5 X s 1480 773 m -94 Y s 1478 679 m 5 X s 1500 773 m 93 Y s 1497 866 m 6 X s 1500 773 m -94 Y s 1497 679 m 6 X s 1520 773 m 93 Y s 1517 866 m 5 X s 1520 773 m -94 Y s 1517 679 m 5 X s
 1540 773 m 93 Y s 1537 866 m 5 X s 1540 773 m -94 Y s 1537 679 m 5 X s 1559 773 m 93 Y s 1557 866 m 5 X s 1559 773 m -94 Y s 1557 679 m 5 X s 1579 773 m 93 Y s 1577 866 m 5 X s 1579 773 m -94 Y s 1577 679 m 5 X s 1599 773 m 93 Y s 1596 866 m 5 X s
 1599 773 m -94 Y s 1596 679 m 5 X s 1619 773 m 93 Y s 1616 866 m 5 X s 1619 773 m -94 Y s 1616 679 m 5 X s 1639 784 m 94 Y s 1636 878 m 5 X s 1639 784 m -93 Y s 1636 691 m 5 X s 1658 773 m 93 Y s 1656 866 m 5 X s 1658 773 m -93 Y s 1656 680 m 5 X s
 1678 774 m 93 Y s 1676 867 m 5 X s 1678 774 m -94 Y s 1676 680 m 5 X s 1698 778 m 94 Y s 1695 872 m 5 X s 1698 778 m -93 Y s 1695 685 m 5 X s 1718 773 m 93 Y s 1715 866 m 5 X s 1718 773 m -93 Y s 1715 680 m 5 X s 1737 767 m 92 Y s 1735 859 m 5 X s
 1737 767 m -92 Y s 1735 675 m 5 X s 1757 798 m 92 Y s 1755 890 m 5 X s 1757 798 m -92 Y s 1755 706 m 5 X s 1777 785 m 92 Y s 1775 877 m 5 X s 1777 785 m -93 Y s 1775 692 m 5 X s 1797 773 m 93 Y s 1794 866 m 5 X s 1797 773 m -94 Y s 1794 679 m 5 X s
 1817 774 m 93 Y s 1814 867 m 5 X s 1817 774 m -93 Y s 1814 681 m 5 X s 1836 774 m 93 Y s 1834 867 m 5 X s 1836 774 m -94 Y s 1834 680 m 5 X s 1856 767 m 93 Y s 1854 860 m 5 X s 1856 767 m -92 Y s 1854 675 m 5 X s 1876 781 m 90 Y s 1873 871 m 6 X s
 1876 781 m -91 Y s 1873 690 m 6 X s 1896 779 m 93 Y s 1893 872 m 5 X s 1896 779 m -93 Y s 1893 686 m 5 X s 1916 710 m 85 Y s 1913 795 m 5 X s 1916 710 m -85 Y s 1913 625 m 5 X s 1935 772 m 93 Y s 1933 865 m 5 X s 1935 772 m -94 Y s 1933 678 m 5 X s
 1955 773 m 91 Y s 1953 864 m 5 X s 1955 773 m -91 Y s 1953 682 m 5 X s 1975 771 m 91 Y s 1972 862 m 6 X s 1975 771 m -91 Y s 1972 680 m 6 X s 1995 764 m 93 Y s 1992 857 m 5 X s 1995 764 m -93 Y s 1992 671 m 5 X s 2015 787 m 92 Y s 2012 879 m 5 X s
 2015 787 m -92 Y s 2012 695 m 5 X s 2034 768 m 93 Y s 2032 861 m 5 X s 2034 768 m -93 Y s 2032 675 m 5 X s 2054 739 m 90 Y s 2052 829 m 5 X s 2054 739 m -89 Y s 2052 650 m 5 X s 2074 772 m 93 Y s 2071 865 m 5 X s 2074 772 m -93 Y s 2071 679 m 5 X s
 2094 780 m 91 Y s 2091 871 m 5 X s 2094 780 m -91 Y s 2091 689 m 5 X s 2114 732 m 69 Y s 2111 801 m 5 X s 2114 732 m -69 Y s 2111 663 m 5 X s 2133 722 m 83 Y s 2131 805 m 5 X s 2133 722 m -83 Y s 2131 639 m 5 X s 2153 693 m 86 Y s 2151 779 m 5 X s
 2153 693 m -85 Y s 2151 608 m 5 X s 2173 763 m 82 Y s 2170 845 m 5 X s 2173 763 m -83 Y s 2170 680 m 5 X s 2193 782 m 83 Y s 2190 865 m 5 X s 2193 782 m -82 Y s 2190 700 m 5 X s 2212 772 m 85 Y s 2210 857 m 5 X s 2212 772 m -85 Y s 2210 687 m 5 X s
 1 1 1 c black /w 10 def /w2 {w 2 div} def /w3 {w 3 div} def 55 768 75 768 95 768 115 768 134 768 154 768 174 768 194 768 214 768 233 768 253 772 273 772 293 771 313 766 332 769 352 774 372 773 392 769 411 782 431 766 451 750 471 770 491 764 510 777
 530 818 550 824 570 773 590 773 609 773 629 773 649 773 669 773 689 773 708 773 728 773 748 773 768 773 788 773 807 773 827 773 847 773 867 773 886 773 906 773 926 773 946 773 966 773 985 773 1005 773 1025 773 1045 773 1065 773 1084 773 1104 773
 1124 773 1144 773 1164 773 1183 773 1203 773 1223 773 1243 773 1262 773 1282 773 1302 773 1322 773 1342 773 1361 773 1381 773 1401 773 1421 773 1441 773 1460 773 1480 773 1500 773 1520 773 1540 773 1559 773 1579 773 1599 773 1619 773 1639 784 1658
 773 1678 774 1698 778 1718 773 1737 767 1757 798 1777 785 1797 773 1817 774 1836 774 1856 767 1876 781 1896 779 1916 710 1935 772 1955 773 1975 771 1995 764 2015 787 100 { m20} R 2034 768 2054 739 2074 772 2094 780 2114 732 2133 722 2153 693 2173
 763 2193 782 2212 772 10 { m20} R
 gr  gr showpage
end
%%EOF
