%!PS-Adobe-2.0 EPSF-2.0
%%BoundingBox:  0 0 567 244
%%Title: cCNp1_matrix_jet1_pt.eps: 
%%Creator: ROOT Version 6.24/06
%%CreationDate: Tue Jan  4 03:36:59 2022
%%DocumentNeededResources: ProcSet (FontSetInit)
%%EndComments
%%BeginProlog
80 dict begin
/s {stroke} def /l {lineto} def /m {moveto} def /t {translate} def
/r {rotate} def /rl {roll}  def /R {repeat} def
/d {rlineto} def /rm {rmoveto} def /gr {grestore} def /f {eofill} def
/c {setrgbcolor} def /black {0 setgray} def /sd {setdash} def
/cl {closepath} def /sf {scalefont setfont} def /lw {setlinewidth} def
/box {m dup 0 exch d exch 0 d 0 exch neg d cl} def
/NC{systemdict begin initclip end}def/C{NC box clip newpath}def
/bl {box s} def /bf {gsave box gsave f grestore 1 lw [] 0 sd s grestore} def /Y { 0 exch d} def /X { 0 d} def 
/K {{pop pop 0 moveto} exch kshow} bind def
/ita {/ang 15 def gsave [1 0 ang dup sin exch cos div 1 0 0] concat} def 
/mp {newpath /y exch def /x exch def} def
/side {[w .77 mul w .23 mul] .385 w mul sd w 0 l currentpoint t -144 r} def
/mr {mp x y w2 0 360 arc} def /m24 {mr s} def /m20 {mr f} def
/mb {mp x y w2 add m w2 neg 0 d 0 w neg d w 0 d 0 w d cl} def
/mt {mp x y w2 add m w2 neg w neg d w 0 d cl} def
/w4 {w 4 div} def
/w6 {w 6 div} def
/w8 {w 8 div} def
/m21 {mb f} def /m25 {mb s} def /m22 {mt f} def /m26{mt s} def
/m23 {mp x y w2 sub m w2 w d w neg 0 d cl f} def
/m27 {mp x y w2 add m w3 neg w2 neg d w3 w2 neg d w3 w2 d cl s} def
/m28 {mp x w2 sub y w2 sub w3 add m w3 0 d  0 w3 neg d w3 0 d 0 w3 d w3 0 d  0 w3 d w3 neg 0 d 0 w3 d w3 neg 0 d 0 w3 neg d w3 neg 0 d cl s } def
/m29 {mp gsave x w2 sub y w2 add w3 sub m currentpoint t 4 {side} repeat cl fill gr} def
/m30 {mp gsave x w2 sub y w2 add w3 sub m currentpoint t 4 {side} repeat cl s gr} def
/m31 {mp x y w2 sub m 0 w d x w2 sub y m w 0 d x w2 .707 mul sub y w2 .707 mul add m w 1.44 div w 1.44 div neg d x w2 .707 mul sub y w2 .707 mul sub m w 1.44 div w 1.44 div d s} def
/m32 {mp x y w2 sub m w2 w d w neg 0 d cl s} def
/m33 {mp x y w2 add m w3 neg w2 neg d w3 w2 neg d w3 w2 d cl f} def
/m34 {mp x w2 sub y w2 sub w3 add m w3 0 d  0 w3 neg d w3 0 d 0 w3 d w3 0 d  0 w3 d w3 neg 0 d 0 w3 d w3 neg 0 d 0 w3 neg d w3 neg 0 d cl f } def
/m35 {mp x y w2 add m w2 neg w2 neg d w2 w2 neg d w2 w2 d w2 neg w2 d x y w2 sub m 0 w d x w2 sub y m w 0 d s} def
/m36 {mb x w2 sub y w2 add m w w neg d x w2 sub y w2 sub m w w d s} def
/m37 {mp x y m w4 neg w2 d w4 neg w2 neg d w2 0 d  w4 neg w2 neg d w2 0 d w4 neg w2 d w2 0 d w4 neg w2 d w4 neg w2 neg d cl s} def
/m38 {mp x w4 sub y w2 add m w4 neg w4 neg d 0 w2 neg d w4 w4 neg d w2 0 d w4 w4 d 0 w2 d w4 neg w4 d w2 neg 0 d x y w2 sub m 0 w d x w2 sub y m w 0 d cl s} def
/m39 {mp x y m w4 neg w2 d w4 neg w2 neg d w2 0 d  w4 neg w2 neg d w2 0 d w4 neg w2 d w2 0 d w4 neg w2 d w4 neg w2 neg d cl f} def
/m40 {mp x y m w4 w2 d w4 w4 neg d w2 neg w4 neg d w2 w4 neg d w4 neg w4 neg d w4 neg w2 d w4 neg w2 neg d w4 neg w4 d w2 w4 d w2 neg w4 d w4 w4 d w4 w2 neg d cl s} def
/m41 {mp x y m w4 w2 d w4 w4 neg d w2 neg w4 neg d w2 w4 neg d w4 neg w4 neg d w4 neg w2 d w4 neg w2 neg d w4 neg w4 d w2 w4 d w2 neg w4 d w4 w4 d w4 w2 neg d cl f} def
/m42 {mp x y w2 add m w8 neg w2 -3 4 div mul d w2 -3 4 div mul w8 neg d w2 3 4 div mul w8 neg d w8 w2 -3 4 div mul d w8 w2 3 4 div mul d w2 3 4 div mul w8 d w2 -3 4 div mul w8 d w8 neg w2 3 4 div mul d cl s} def
/m43 {mp x y w2 add m w8 neg w2 -3 4 div mul d w2 -3 4 div mul w8 neg d w2 3 4 div mul w8 neg d w8 w2 -3 4 div mul d w8 w2 3 4 div mul d w2 3 4 div mul w8 d w2 -3 4 div mul w8 d w8 neg w2 3 4 div mul d cl f} def
/m44 {mp x y m w6 neg w2 d w2 2 3 div mul 0 d w6 neg w2 neg d w2 w6 d 0 w2 -2 3 div mul d w2 neg w6 d w6 w2 neg d w2 -2 3 div mul 0 d w6 w2 d w2 neg w6 neg d 0 w2 2 3 div mul d w2 w6 neg d cl s} def
/m45 {mp x y m w6 neg w2 d w2 2 3 div mul 0 d w6 neg w2 neg d w2 w6 d 0 w2 -2 3 div mul d w2 neg w6 d w6 w2 neg d w2 -2 3 div mul 0 d w6 w2 d w2 neg w6 neg d 0 w2 2 3 div mul d w2 w6 neg d cl f} def
/m46 {mp x y w4 add m w4 neg w4 d w4 neg w4 neg d  w4 w4 neg d w4 neg w4 neg d w4 w4 neg d w4 w4 d w4 w4 neg d w4 w4 d w4 neg w4 d w4 w4 d w4 neg w4 d w4 neg w4 neg d cl s} def
/m47 {mp x y w4 add m w4 neg w4 d w4 neg w4 neg d w4 w4 neg d w4 neg w4 neg d  w4 w4 neg d w4 w4 d w4 w4 neg d w4 w4 d w4 neg w4 d w4 w4 d w4 neg w4 d w4 neg w4 neg d cl f} def
/m48 {mp x y w4 add m w4 neg w4 d w4 neg w4 neg d w4 w4 neg d  w4 neg w4 neg d w4 w4 neg d w4 w4 d w4 w4 neg d w4 w4 d w4 neg w4 d w4 w4 d w4 neg w4 d w4 neg w4 neg d  w4 w4 neg d w4 neg w4 neg d w4 neg w4 d w4 w4 d cl f} def
/m49 {mp x w2 sub w3 add y w2 sub w3 add m  0 w3 neg d w3 0 d 0 w3 d w3 0 d 0 w3 d w3 neg 0 d 0 w3 d w3 neg 0 d 0 w3 neg d w3 neg 0 d 0 w3 neg d w3 0 d 0 w3 d w3 0 d 0 w3 neg d w3 neg 0 d cl f } def
/m2 {mp x y w2 sub m 0 w d x w2 sub y m w 0 d s} def
/m5 {mp x w2 .707 mul sub y w2 .707 mul sub m w 1.44 div w 1.44 div d x w2 .707 mul sub y w2 .707 mul add m w 1.44 div w 1.44 div neg d s} def
%%IncludeResource: ProcSet (FontSetInit)
%%IncludeResource: font Times-Roman
%%IncludeResource: font Times-Italic
%%IncludeResource: font Times-Bold
%%IncludeResource: font Times-BoldItalic
%%IncludeResource: font Helvetica
%%IncludeResource: font Helvetica-Oblique
%%IncludeResource: font Helvetica-Bold
%%IncludeResource: font Helvetica-BoldOblique
%%IncludeResource: font Courier
%%IncludeResource: font Courier-Oblique
%%IncludeResource: font Courier-Bold
%%IncludeResource: font Courier-BoldOblique
%%IncludeResource: font Symbol
%%IncludeResource: font ZapfDingbats
/reEncode {exch findfont dup length dict begin {1 index /FID eq  {pop pop} {def} ifelse } forall /Encoding exch def currentdict end dup /FontName get exch definefont pop } def [/Times-Bold /Times-Italic /Times-BoldItalic /Helvetica /Helvetica-Oblique
 /Helvetica-Bold /Helvetica-BoldOblique /Courier /Courier-Oblique /Courier-Bold /Courier-BoldOblique /Times-Roman /AvantGarde-Book /AvantGarde-BookOblique /AvantGarde-Demi /AvantGarde-DemiOblique /Bookman-Demi /Bookman-DemiItalic /Bookman-Light
 /Bookman-LightItalic /Helvetica-Narrow /Helvetica-Narrow-Bold /Helvetica-Narrow-BoldOblique /Helvetica-Narrow-Oblique /NewCenturySchlbk-Roman /NewCenturySchlbk-Bold /NewCenturySchlbk-BoldItalic /NewCenturySchlbk-Italic /Palatino-Bold
 /Palatino-BoldItalic /Palatino-Italic /Palatino-Roman ] {ISOLatin1Encoding reEncode } forall
%%EndProlog
%%BeginSetup
%%EndSetup
newpath  gsave  .25 .25 scale  gsave  0 0 t black[  ] 0 sd 3 lw 1 1 1 c 2268 975 0 0 bf black 1 1 1 c 2177 375 45 585 bf black 2177 375 45 585 bl 6 lw 1 1 1 c black 45 773 m 2177 X s 3 lw 45 585 m 2177 X s
 gsave  2268 975 0 0 C 61.8698 320.713 t 90 r /Helvetica findfont 23.9903 sf 0 0 m (EG_RESOLUTION_ALL) show NC gr 
 gsave  2268 975 0 0 C 82.0721 398.997 t 90 r /Helvetica findfont 23.9903 sf 0 0 m (EG_SCALE_ALL) show NC gr 
 gsave  2268 975 0 0 C 101.012 219.701 t 90 r /Helvetica findfont 23.9903 sf 0 0 m (EL_EFF_ID_CorrUncertaintyNP10) show NC gr 
 gsave  2268 975 0 0 C 121.214 223.489 t 90 r /Helvetica findfont 23.9903 sf 0 0 m (EL_EFF_ID_CorrUncertaintyNP11) show NC gr 
 gsave  2268 975 0 0 C 141.417 219.701 t 90 r /Helvetica findfont 23.9903 sf 0 0 m (EL_EFF_ID_CorrUncertaintyNP12) show NC gr 
 gsave  2268 975 0 0 C 160.356 219.701 t 90 r /Helvetica findfont 23.9903 sf 0 0 m (EL_EFF_ID_CorrUncertaintyNP13) show NC gr 
 gsave  2268 975 0 0 C 180.559 218.438 t 90 r /Helvetica findfont 23.9903 sf 0 0 m (EL_EFF_ID_CorrUncertaintyNP14) show NC gr 
 gsave  2268 975 0 0 C 200.761 218.438 t 90 r /Helvetica findfont 23.9903 sf 0 0 m (EL_EFF_ID_CorrUncertaintyNP15) show NC gr 
 gsave  2268 975 0 0 C 220.963 232.327 t 90 r /Helvetica findfont 23.9903 sf 0 0 m (EL_EFF_ID_CorrUncertaintyNP3) show NC gr 
 gsave  2268 975 0 0 C 241.166 232.327 t 90 r /Helvetica findfont 23.9903 sf 0 0 m (EL_EFF_ID_CorrUncertaintyNP4) show NC gr 
 gsave  2268 975 0 0 C 261.368 232.327 t 90 r /Helvetica findfont 23.9903 sf 0 0 m (EL_EFF_ID_CorrUncertaintyNP5) show NC gr 
 gsave  2268 975 0 0 C 280.308 232.327 t 90 r /Helvetica findfont 23.9903 sf 0 0 m (EL_EFF_ID_CorrUncertaintyNP6) show NC gr 
 gsave  2268 975 0 0 C 300.51 232.327 t 90 r /Helvetica findfont 23.9903 sf 0 0 m (EL_EFF_ID_CorrUncertaintyNP7) show NC gr 
 gsave  2268 975 0 0 C 320.713 232.327 t 90 r /Helvetica findfont 23.9903 sf 0 0 m (EL_EFF_ID_CorrUncertaintyNP8) show NC gr 
 gsave  2268 975 0 0 C 342.178 232.327 t 90 r /Helvetica findfont 23.9903 sf 0 0 m (EL_EFF_ID_CorrUncertaintyNP9) show NC gr 
 gsave  2268 975 0 0 C 362.38 49.2433 t 90 r /Helvetica findfont 23.9903 sf 0 0 m (EL_EFF_ID_SIMPLIFIED_UncorrUncertaintyNP12) show NC gr 
 gsave  2268 975 0 0 C 381.32 49.2433 t 90 r /Helvetica findfont 23.9903 sf 0 0 m (EL_EFF_ID_SIMPLIFIED_UncorrUncertaintyNP13) show NC gr 
 gsave  2268 975 0 0 C 401.522 47.9806 t 90 r /Helvetica findfont 23.9903 sf 0 0 m (EL_EFF_ID_SIMPLIFIED_UncorrUncertaintyNP14) show NC gr 
 gsave  2268 975 0 0 C 421.725 47.9806 t 90 r /Helvetica findfont 23.9903 sf 0 0 m (EL_EFF_ID_SIMPLIFIED_UncorrUncertaintyNP15) show NC gr 
 gsave  2268 975 0 0 C 441.927 47.9806 t 90 r /Helvetica findfont 23.9903 sf 0 0 m (EL_EFF_ID_SIMPLIFIED_UncorrUncertaintyNP16) show NC gr 
 gsave  2268 975 0 0 C 462.129 47.9806 t 90 r /Helvetica findfont 23.9903 sf 0 0 m (EL_EFF_ID_SIMPLIFIED_UncorrUncertaintyNP17) show NC gr 
 gsave  2268 975 0 0 C 482.332 61.8698 t 90 r /Helvetica findfont 23.9903 sf 0 0 m (EL_EFF_ID_SIMPLIFIED_UncorrUncertaintyNP3) show NC gr 
 gsave  2268 975 0 0 C 501.271 61.8698 t 90 r /Helvetica findfont 23.9903 sf 0 0 m (EL_EFF_ID_SIMPLIFIED_UncorrUncertaintyNP4) show NC gr 
 gsave  2268 975 0 0 C 521.474 61.8698 t 90 r /Helvetica findfont 23.9903 sf 0 0 m (EL_EFF_ID_SIMPLIFIED_UncorrUncertaintyNP5) show NC gr 
 gsave  2268 975 0 0 C 541.676 61.8698 t 90 r /Helvetica findfont 23.9903 sf 0 0 m (EL_EFF_ID_SIMPLIFIED_UncorrUncertaintyNP6) show NC gr 
 gsave  2268 975 0 0 C 561.879 61.8698 t 90 r /Helvetica findfont 23.9903 sf 0 0 m (EL_EFF_ID_SIMPLIFIED_UncorrUncertaintyNP7) show NC gr 
 gsave  2268 975 0 0 C 582.081 61.8698 t 90 r /Helvetica findfont 23.9903 sf 0 0 m (EL_EFF_ID_SIMPLIFIED_UncorrUncertaintyNP8) show NC gr 
 gsave  2268 975 0 0 C 601.021 68.183 t 90 r /Helvetica findfont 23.9903 sf 0 0 m (EL_EFF_Iso_TOTAL_1NPCOR_PLUS_UNCOR) show NC gr 
 gsave  2268 975 0 0 C 621.223 44.1927 t 90 r /Helvetica findfont 23.9903 sf 0 0 m (EL_EFF_Reco_TOTAL_1NPCOR_PLUS_UNCOR) show NC gr 
 gsave  2268 975 0 0 C 641.425 -5.05059 t 90 r /Helvetica findfont 23.9903 sf 0 0 m (EL_EFF_TriggerEff_TOTAL_1NPCOR_PLUS_UNCOR) show NC gr 
 gsave  2268 975 0 0 C 660.365 364.905 t 90 r /Helvetica findfont 23.9903 sf 0 0 m (FT_EFF_Eigen_B_0) show NC gr 
 gsave  2268 975 0 0 C 680.568 368.693 t 90 r /Helvetica findfont 23.9903 sf 0 0 m (FT_EFF_Eigen_B_1) show NC gr 
 gsave  2268 975 0 0 C 700.77 364.905 t 90 r /Helvetica findfont 23.9903 sf 0 0 m (FT_EFF_Eigen_B_2) show NC gr 
 gsave  2268 975 0 0 C 720.972 363.643 t 90 r /Helvetica findfont 23.9903 sf 0 0 m (FT_EFF_Eigen_C_0) show NC gr 
 gsave  2268 975 0 0 C 741.175 367.431 t 90 r /Helvetica findfont 23.9903 sf 0 0 m (FT_EFF_Eigen_C_1) show NC gr 
 gsave  2268 975 0 0 C 761.377 363.643 t 90 r /Helvetica findfont 23.9903 sf 0 0 m (FT_EFF_Eigen_C_2) show NC gr 
 gsave  2268 975 0 0 C 780.317 329.551 t 90 r /Helvetica findfont 23.9903 sf 0 0 m (FT_EFF_Eigen_Light_0) show NC gr 
 gsave  2268 975 0 0 C 800.519 333.339 t 90 r /Helvetica findfont 23.9903 sf 0 0 m (FT_EFF_Eigen_Light_1) show NC gr 
 gsave  2268 975 0 0 C 819.459 328.289 t 90 r /Helvetica findfont 23.9903 sf 0 0 m (FT_EFF_Eigen_Light_2) show NC gr 
 gsave  2268 975 0 0 C 839.661 329.551 t 90 r /Helvetica findfont 23.9903 sf 0 0 m (FT_EFF_Eigen_Light_3) show NC gr 
 gsave  2268 975 0 0 C 859.864 345.966 t 90 r /Helvetica findfont 23.9903 sf 0 0 m (FT_EFF_extrapolation) show NC gr 
 gsave  2268 975 0 0 C 880.066 207.074 t 90 r /Helvetica findfont 23.9903 sf 0 0 m (FT_EFF_extrapolation_from_charm) show NC gr 
 gsave  2268 975 0 0 C 901.531 344.703 t 90 r /Helvetica findfont 23.9903 sf 0 0 m (JET_BJES_Response) show NC gr 
 gsave  2268 975 0 0 C 921.733 289.146 t 90 r /Helvetica findfont 23.9903 sf 0 0 m (JET_EffectiveNP_Detector1) show NC gr 
 gsave  2268 975 0 0 C 940.673 285.359 t 90 r /Helvetica findfont 23.9903 sf 0 0 m (JET_EffectiveNP_Detector2) show NC gr 
 gsave  2268 975 0 0 C 960.875 314.399 t 90 r /Helvetica findfont 23.9903 sf 0 0 m (JET_EffectiveNP_Mixed1) show NC gr 
 gsave  2268 975 0 0 C 981.078 310.612 t 90 r /Helvetica findfont 23.9903 sf 0 0 m (JET_EffectiveNP_Mixed2) show NC gr 
 gsave  2268 975 0 0 C 1001.28 310.612 t 90 r /Helvetica findfont 23.9903 sf 0 0 m (JET_EffectiveNP_Mixed3) show NC gr 
 gsave  2268 975 0 0 C 1020.22 276.52 t 90 r /Helvetica findfont 23.9903 sf 0 0 m (JET_EffectiveNP_Modelling1) show NC gr 
 gsave  2268 975 0 0 C 1039.16 272.732 t 90 r /Helvetica findfont 23.9903 sf 0 0 m (JET_EffectiveNP_Modelling2) show NC gr 
 gsave  2268 975 0 0 C 1059.36 272.732 t 90 r /Helvetica findfont 23.9903 sf 0 0 m (JET_EffectiveNP_Modelling3) show NC gr 
 gsave  2268 975 0 0 C 1079.56 272.732 t 90 r /Helvetica findfont 23.9903 sf 0 0 m (JET_EffectiveNP_Modelling4) show NC gr 
 gsave  2268 975 0 0 C 1101.03 275.257 t 90 r /Helvetica findfont 23.9903 sf 0 0 m (JET_EffectiveNP_Statistical1) show NC gr 
 gsave  2268 975 0 0 C 1121.23 271.469 t 90 r /Helvetica findfont 23.9903 sf 0 0 m (JET_EffectiveNP_Statistical2) show NC gr 
 gsave  2268 975 0 0 C 1141.43 271.469 t 90 r /Helvetica findfont 23.9903 sf 0 0 m (JET_EffectiveNP_Statistical3) show NC gr 
 gsave  2268 975 0 0 C 1160.37 271.469 t 90 r /Helvetica findfont 23.9903 sf 0 0 m (JET_EffectiveNP_Statistical4) show NC gr 
 gsave  2268 975 0 0 C 1180.58 271.469 t 90 r /Helvetica findfont 23.9903 sf 0 0 m (JET_EffectiveNP_Statistical5) show NC gr 
 gsave  2268 975 0 0 C 1200.78 271.469 t 90 r /Helvetica findfont 23.9903 sf 0 0 m (JET_EffectiveNP_Statistical6) show NC gr 
 gsave  2268 975 0 0 C 1219.72 219.701 t 90 r /Helvetica findfont 23.9903 sf 0 0 m (JET_EtaIntercalibration_Modelling) show NC gr 
 gsave  2268 975 0 0 C 1241.18 123.74 t 90 r /Helvetica findfont 23.9903 sf 0 0 m (JET_EtaIntercalibration_NonClosure_highE) show NC gr 
 gsave  2268 975 0 0 C 1260.12 109.85 t 90 r /Helvetica findfont 23.9903 sf 0 0 m (JET_EtaIntercalibration_NonClosure_negEta) show NC gr 
 gsave  2268 975 0 0 C 1280.33 109.85 t 90 r /Helvetica findfont 23.9903 sf 0 0 m (JET_EtaIntercalibration_NonClosure_posEta) show NC gr 
 gsave  2268 975 0 0 C 1300.53 224.751 t 90 r /Helvetica findfont 23.9903 sf 0 0 m (JET_EtaIntercalibration_TotalStat) show NC gr 
 gsave  2268 975 0 0 C 1320.73 315.662 t 90 r /Helvetica findfont 23.9903 sf 0 0 m (JET_Flavor_Composition) show NC gr 
 gsave  2268 975 0 0 C 1339.67 339.652 t 90 r /Helvetica findfont 23.9903 sf 0 0 m (JET_Flavor_Response) show NC gr 
 gsave  2268 975 0 0 C 1359.87 273.995 t 90 r /Helvetica findfont 23.9903 sf 0 0 m (JET_JER_DataVsMC_MC16) show NC gr 
 gsave  2268 975 0 0 C 1380.07 301.773 t 90 r /Helvetica findfont 23.9903 sf 0 0 m (JET_JER_EffectiveNP_10) show NC gr 
 gsave  2268 975 0 0 C 1400.28 305.561 t 90 r /Helvetica findfont 23.9903 sf 0 0 m (JET_JER_EffectiveNP_11) show NC gr 
 gsave  2268 975 0 0 C 1420.48 207.074 t 90 r /Helvetica findfont 23.9903 sf 0 0 m (JET_JER_EffectiveNP_12restTerm) show NC gr 
 gsave  2268 975 0 0 C 1440.68 319.45 t 90 r /Helvetica findfont 23.9903 sf 0 0 m (JET_JER_EffectiveNP_1) show NC gr 
 gsave  2268 975 0 0 C 1460.88 315.662 t 90 r /Helvetica findfont 23.9903 sf 0 0 m (JET_JER_EffectiveNP_2) show NC gr 
 gsave  2268 975 0 0 C 1479.82 315.662 t 90 r /Helvetica findfont 23.9903 sf 0 0 m (JET_JER_EffectiveNP_3) show NC gr 
 gsave  2268 975 0 0 C 1500.03 315.662 t 90 r /Helvetica findfont 23.9903 sf 0 0 m (JET_JER_EffectiveNP_4) show NC gr 
 gsave  2268 975 0 0 C 1520.23 315.662 t 90 r /Helvetica findfont 23.9903 sf 0 0 m (JET_JER_EffectiveNP_5) show NC gr 
 gsave  2268 975 0 0 C 1540.43 315.662 t 90 r /Helvetica findfont 23.9903 sf 0 0 m (JET_JER_EffectiveNP_6) show NC gr 
 gsave  2268 975 0 0 C 1560.63 315.662 t 90 r /Helvetica findfont 23.9903 sf 0 0 m (JET_JER_EffectiveNP_7) show NC gr 
 gsave  2268 975 0 0 C 1579.57 315.662 t 90 r /Helvetica findfont 23.9903 sf 0 0 m (JET_JER_EffectiveNP_8) show NC gr 
 gsave  2268 975 0 0 C 1599.78 315.662 t 90 r /Helvetica findfont 23.9903 sf 0 0 m (JET_JER_EffectiveNP_9) show NC gr 
 gsave  2268 975 0 0 C 1618.72 391.421 t 90 r /Helvetica findfont 23.9903 sf 0 0 m (JET_JvtEfficiency) show NC gr 
 gsave  2268 975 0 0 C 1640.18 348.491 t 90 r /Helvetica findfont 23.9903 sf 0 0 m (JET_Pileup_OffsetMu) show NC gr 
 gsave  2268 975 0 0 C 1660.38 332.077 t 90 r /Helvetica findfont 23.9903 sf 0 0 m (JET_Pileup_OffsetNPV) show NC gr 
 gsave  2268 975 0 0 C 1679.32 367.431 t 90 r /Helvetica findfont 23.9903 sf 0 0 m (JET_Pileup_PtTerm) show NC gr 
 gsave  2268 975 0 0 C 1698.26 304.298 t 90 r /Helvetica findfont 23.9903 sf 0 0 m (JET_Pileup_RhoTopology) show NC gr 
 gsave  2268 975 0 0 C 1719.73 291.672 t 90 r /Helvetica findfont 23.9903 sf 0 0 m (JET_PunchThrough_MC16) show NC gr 
 gsave  2268 975 0 0 C 1739.93 320.713 t 90 r /Helvetica findfont 23.9903 sf 0 0 m (MET_SoftTrk_ResoPara) show NC gr 
 gsave  2268 975 0 0 C 1760.13 320.713 t 90 r /Helvetica findfont 23.9903 sf 0 0 m (MET_SoftTrk_ResoPerp) show NC gr 
 gsave  2268 975 0 0 C 1780.33 366.168 t 90 r /Helvetica findfont 23.9903 sf 0 0 m (MET_SoftTrk_Scale) show NC gr 
 gsave  2268 975 0 0 C 1799.27 318.187 t 90 r /Helvetica findfont 23.9903 sf 0 0 m (MUON_EFF_ISO_STAT) show NC gr 
 gsave  2268 975 0 0 C 1819.48 332.077 t 90 r /Helvetica findfont 23.9903 sf 0 0 m (MUON_EFF_ISO_SYS) show NC gr 
 gsave  2268 975 0 0 C 1839.68 291.672 t 90 r /Helvetica findfont 23.9903 sf 0 0 m (MUON_EFF_RECO_STAT) show NC gr 
 gsave  2268 975 0 0 C 1859.88 305.561 t 90 r /Helvetica findfont 23.9903 sf 0 0 m (MUON_EFF_RECO_SYS) show NC gr 
 gsave  2268 975 0 0 C 1880.08 297.985 t 90 r /Helvetica findfont 23.9903 sf 0 0 m (MUON_EFF_TTVA_STAT) show NC gr 
 gsave  2268 975 0 0 C 1900.29 311.874 t 90 r /Helvetica findfont 23.9903 sf 0 0 m (MUON_EFF_TTVA_SYS) show NC gr 
 gsave  2268 975 0 0 C 1919.23 231.065 t 90 r /Helvetica findfont 23.9903 sf 0 0 m (MUON_EFF_TrigStatUncertainty) show NC gr 
 gsave  2268 975 0 0 C 1939.43 227.277 t 90 r /Helvetica findfont 23.9903 sf 0 0 m (MUON_EFF_TrigSystUncertainty) show NC gr 
 gsave  2268 975 0 0 C 1959.63 469.705 t 90 r /Helvetica findfont 23.9903 sf 0 0 m (MUON_ID) show NC gr 
 gsave  2268 975 0 0 C 1979.83 457.079 t 90 r /Helvetica findfont 23.9903 sf 0 0 m (MUON_MS) show NC gr 
 gsave  2268 975 0 0 C 2000.04 273.995 t 90 r /Helvetica findfont 23.9903 sf 0 0 m (MUON_SAGITTA_RESBIAS) show NC gr 
 gsave  2268 975 0 0 C 2018.97 414.149 t 90 r /Helvetica findfont 23.9903 sf 0 0 m (MUON_SCALE) show NC gr 
 gsave  2268 975 0 0 C 2039.18 416.674 t 90 r /Helvetica findfont 23.9903 sf 0 0 m (PRW_DATASF) show NC gr 
 gsave  2268 975 0 0 C 2058.12 406.573 t 90 r /Helvetica findfont 23.9903 sf 0 0 m (theo_vbf_alphas) show NC gr 
 gsave  2268 975 0 0 C 2078.32 375.007 t 90 r /Helvetica findfont 23.9903 sf 0 0 m (theo_vbf_generator) show NC gr 
 gsave  2268 975 0 0 C 2098.52 398.997 t 90 r /Helvetica findfont 23.9903 sf 0 0 m (theo_vbf_pdf4lhc) show NC gr 
 gsave  2268 975 0 0 C 2119.99 420.462 t 90 r /Helvetica findfont 23.9903 sf 0 0 m (theo_vbf_scale) show NC gr 
 gsave  2268 975 0 0 C 2138.93 400.26 t 90 r /Helvetica findfont 23.9903 sf 0 0 m (theo_vbf_shower) show NC gr 
 gsave  2268 975 0 0 C 2159.13 474.756 t 90 r /Helvetica findfont 23.9903 sf 0 0 m (atlas_lumi) show NC gr 
 gsave  2268 975 0 0 C 2179.33 398.997 t 90 r /Helvetica findfont 23.9903 sf 0 0 m (EG_SCALE_AF2) show NC gr 
 gsave  2268 975 0 0 C 2199.53 232.327 t 90 r /Helvetica findfont 23.9903 sf 0 0 m (EL_EFF_ID_CorrUncertaintyNP0) show NC gr 
 gsave  2268 975 0 0 C 2219.74 236.115 t 90 r /Helvetica findfont 23.9903 sf 0 0 m (EL_EFF_ID_CorrUncertaintyNP1) show NC gr  45 613 m -28 Y s 287 613 m -28 Y s 529 613 m -28 Y s 771 613 m -28 Y s 1013 613 m -28 Y s 1255 613 m -28 Y s 1497 613 m -28
 Y s 1739 613 m -28 Y s 1980 613 m -28 Y s 2222 613 m -28 Y s 45 960 m 2177 X s 45 932 m 28 Y s 287 932 m 28 Y s 529 932 m 28 Y s 771 932 m 28 Y s 1013 932 m 28 Y s 1255 932 m 28 Y s 1497 932 m 28 Y s 1739 932 m 28 Y s 1980 932 m 28 Y s 2222 932 m 28
 Y s 45 585 m 375 Y s 72 585 m -27 X s 58 594 m -13 X s 58 604 m -13 X s 58 613 m -13 X s 58 622 m -13 X s 72 632 m -27 X s 58 641 m -13 X s 58 651 m -13 X s 58 660 m -13 X s 58 669 m -13 X s 72 679 m -27 X s 58 688 m -13 X s 58 697 m -13 X s 58 707
 m -13 X s 58 716 m -13 X s 72 726 m -27 X s 58 735 m -13 X s 58 744 m -13 X s 58 754 m -13 X s 58 763 m -13 X s 72 773 m -27 X s 58 782 m -13 X s 58 791 m -13 X s 58 801 m -13 X s 58 810 m -13 X s 72 819 m -27 X s 58 829 m -13 X s 58 838 m -13 X s
 58 848 m -13 X s 58 857 m -13 X s 72 866 m -27 X s 58 876 m -13 X s 58 885 m -13 X s 58 894 m -13 X s 58 904 m -13 X s 72 913 m -27 X s 58 923 m -13 X s 58 932 m -13 X s 58 941 m -13 X s 58 951 m -13 X s 72 960 m -27 X s
 gsave  2268 975 0 0 C 20.2024 575.768 t 0 r /Helvetica findfont 23.9903 sf 0 0 m (2) show NC gr 
 gsave  2268 975 0 0 C 7.57589 575.768 t 0 r /Symbol findfont 23.9903 sf 0 0 m (-) show NC gr 
 gsave  2268 975 0 0 C 0 623.748 t 0 r /Helvetica findfont 23.9903 sf 0 0 m (1.5) show NC gr 
 gsave  2268 975 0 0 C -12.6265 623.748 t 0 r /Symbol findfont 23.9903 sf 0 0 m (-) show NC gr 
 gsave  2268 975 0 0 C 23.9903 669.204 t 0 r /Helvetica findfont 23.9903 sf 0 0 m (1) show NC gr 
 gsave  2268 975 0 0 C 11.3638 669.204 t 0 r /Symbol findfont 23.9903 sf 0 0 m (-) show NC gr 
 gsave  2268 975 0 0 C 0 717.184 t 0 r /Helvetica findfont 23.9903 sf 0 0 m (0.5) show NC gr 
 gsave  2268 975 0 0 C -12.6265 717.184 t 0 r /Symbol findfont 23.9903 sf 0 0 m (-) show NC gr 
 gsave  2268 975 0 0 C 20.2024 763.902 t 0 r /Helvetica findfont 23.9903 sf 0 0 m (0) show NC gr 
 gsave  2268 975 0 0 C 0 810.62 t 0 r /Helvetica findfont 23.9903 sf 0 0 m (0.5) show NC gr 
 gsave  2268 975 0 0 C 23.9903 857.338 t 0 r /Helvetica findfont 23.9903 sf 0 0 m (1) show NC gr 
 gsave  2268 975 0 0 C 0 905.319 t 0 r /Helvetica findfont 23.9903 sf 0 0 m (1.5) show NC gr 
 gsave  2268 975 0 0 C 20.2024 950.774 t 0 r /Helvetica findfont 23.9903 sf 0 0 m (2) show NC gr 
 gsave  2268 975 0 0 C -45.4553 945.724 t 90 r /Symbol findfont 29.0409 sf 0 0 m (q) show NC gr  6 lw
 gsave  2268 975 0 0 C -45.4553 930.572 t 90 r /Symbol findfont 29.0409 sf 0 0 m (d) show NC gr 
 gsave  2268 975 0 0 C -45.4553 920.471 t 90 r /Helvetica findfont 29.0409 sf 0 0 m (/) show NC gr 
 gsave  2268 975 0 0 C -45.4553 905.319 t 90 r /Symbol findfont 29.0409 sf 0 0 m (q) show NC gr 
 gsave  2268 975 0 0 C -45.4553 896.48 t 90 r /Helvetica findfont 29.0409 sf 0 0 m (\255) show NC gr 
 gsave  2268 975 0 0 C -45.4553 881.329 t 90 r /Symbol findfont 29.0409 sf 0 0 m (q) show NC gr  3 lw 2222 585 m 375 Y s 2196 585 m 26 X s 2209 594 m 13 X s 2209 604 m 13 X s 2209 613 m 13 X s 2209 622 m 13 X s 2196 632 m 26 X s 2209 641 m 13 X s
 2209 651 m 13 X s 2209 660 m 13 X s 2209 669 m 13 X s 2196 679 m 26 X s 2209 688 m 13 X s 2209 697 m 13 X s 2209 707 m 13 X s 2209 716 m 13 X s 2196 726 m 26 X s 2209 735 m 13 X s 2209 744 m 13 X s 2209 754 m 13 X s 2209 763 m 13 X s 2196 773 m 26 X
 s 2209 782 m 13 X s 2209 791 m 13 X s 2209 801 m 13 X s 2209 810 m 13 X s 2196 819 m 26 X s 2209 829 m 13 X s 2209 838 m 13 X s 2209 848 m 13 X s 2209 857 m 13 X s 2196 866 m 26 X s 2209 876 m 13 X s 2209 885 m 13 X s 2209 894 m 13 X s 2209 904 m 13
 X s 2196 913 m 26 X s 2209 923 m 13 X s 2209 932 m 13 X s 2209 941 m 13 X s 2209 951 m 13 X s 2196 960 m 26 X s 55 754 m 93 Y s 53 847 m 5 X s 55 754 m -93 Y s 53 661 m 5 X s 75 762 m 74 Y s 73 836 m 5 X s 75 762 m -73 Y s 73 689 m 5 X s 95 759 m 93
 Y s 93 852 m 5 X s 95 759 m -93 Y s 93 666 m 5 X s 115 760 m 93 Y s 113 853 m 5 X s 115 760 m -93 Y s 113 667 m 5 X s 135 759 m 93 Y s 133 852 m 5 X s 135 759 m -93 Y s 133 666 m 5 X s 155 759 m 93 Y s 153 852 m 5 X s 155 759 m -93 Y s 153 666 m 5 X
 s 175 758 m 93 Y s 173 851 m 5 X s 175 758 m -93 Y s 173 665 m 5 X s 195 759 m 93 Y s 193 852 m 5 X s 195 759 m -93 Y s 193 666 m 5 X s 215 760 m 93 Y s 213 853 m 5 X s 215 760 m -94 Y s 213 666 m 5 X s 235 760 m 93 Y s 233 853 m 5 X s 235 760 m -94
 Y s 233 666 m 5 X s 255 760 m 93 Y s 253 853 m 5 X s 255 760 m -94 Y s 253 666 m 5 X s 275 760 m 93 Y s 273 853 m 5 X s 275 760 m -94 Y s 273 666 m 5 X s 295 760 m 93 Y s 292 853 m 6 X s 295 760 m -94 Y s 292 666 m 6 X s 315 760 m 93 Y s 312 853 m 6
 X s 315 760 m -93 Y s 312 667 m 6 X s 335 760 m 93 Y s 332 853 m 5 X s 335 760 m -93 Y s 332 667 m 5 X s 355 760 m 93 Y s 352 853 m 5 X s 355 760 m -93 Y s 352 667 m 5 X s 375 760 m 93 Y s 372 853 m 5 X s 375 760 m -93 Y s 372 667 m 5 X s 395 760 m
 93 Y s 392 853 m 5 X s 395 760 m -93 Y s 392 667 m 5 X s 415 760 m 93 Y s 412 853 m 5 X s 415 760 m -93 Y s 412 667 m 5 X s 435 760 m 93 Y s 432 853 m 5 X s 435 760 m -94 Y s 432 666 m 5 X s 455 759 m 93 Y s 452 852 m 5 X s 455 759 m -93 Y s 452 666
 m 5 X s 475 762 m 93 Y s 472 855 m 5 X s 475 762 m -94 Y s 472 668 m 5 X s 495 760 m 93 Y s 492 853 m 5 X s 495 760 m -93 Y s 492 667 m 5 X s 515 760 m 93 Y s 512 853 m 5 X s 515 760 m -93 Y s 512 667 m 5 X s 535 760 m 93 Y s 532 853 m 5 X s 535 760
 m -94 Y s 532 666 m 5 X s 555 759 m 94 Y s 552 853 m 5 X s 555 759 m -93 Y s 552 666 m 5 X s 575 759 m 93 Y s 572 852 m 5 X s 575 759 m -93 Y s 572 666 m 5 X s 595 760 m 94 Y s 592 854 m 5 X s 595 760 m -93 Y s 592 667 m 5 X s 615 761 m 93 Y s 612
 854 m 5 X s 615 761 m -93 Y s 612 668 m 5 X s 635 760 m 93 Y s 632 853 m 5 X s 635 760 m -94 Y s 632 666 m 5 X s 655 755 m 94 Y s 652 849 m 5 X s 655 755 m -93 Y s 652 662 m 5 X s 674 750 m 93 Y s 672 843 m 5 X s 674 750 m -92 Y s 672 658 m 5 X s
 694 762 m 93 Y s 692 855 m 5 X s 694 762 m -93 Y s 692 669 m 5 X s 714 758 m 93 Y s 712 851 m 5 X s 714 758 m -93 Y s 712 665 m 5 X s 734 759 m 93 Y s 732 852 m 5 X s 734 759 m -93 Y s 732 666 m 5 X s 754 760 m 93 Y s 752 853 m 5 X s 754 760 m -94 Y
 s 752 666 m 5 X s 774 757 m 93 Y s 772 850 m 5 X s 774 757 m -93 Y s 772 664 m 5 X s 794 760 m 93 Y s 792 853 m 5 X s 794 760 m -94 Y s 792 666 m 5 X s 814 760 m 93 Y s 812 853 m 5 X s 814 760 m -94 Y s 812 666 m 5 X s 834 760 m 93 Y s 832 853 m 5 X
 s 834 760 m -94 Y s 832 666 m 5 X s 854 760 m 93 Y s 852 853 m 5 X s 854 760 m -94 Y s 852 666 m 5 X s 874 759 m 93 Y s 872 852 m 5 X s 874 759 m -93 Y s 872 666 m 5 X s 894 755 m 93 Y s 892 848 m 5 X s 894 755 m -93 Y s 892 662 m 5 X s 914 757 m 93
 Y s 912 850 m 5 X s 914 757 m -93 Y s 912 664 m 5 X s 934 761 m 93 Y s 932 854 m 5 X s 934 761 m -93 Y s 932 668 m 5 X s 954 755 m 93 Y s 952 848 m 5 X s 954 755 m -93 Y s 952 662 m 5 X s 974 765 m 93 Y s 972 858 m 5 X s 974 765 m -93 Y s 972 672 m
 5 X s 994 757 m 93 Y s 992 850 m 5 X s 994 757 m -93 Y s 992 664 m 5 X s 1014 748 m 92 Y s 1011 840 m 6 X s 1014 748 m -91 Y s 1011 657 m 6 X s 1034 756 m 93 Y s 1031 849 m 6 X s 1034 756 m -93 Y s 1031 663 m 6 X s 1054 760 m 93 Y s 1051 853 m 5 X s
 1054 760 m -93 Y s 1051 667 m 5 X s 1074 759 m 93 Y s 1071 852 m 5 X s 1074 759 m -93 Y s 1071 666 m 5 X s 1094 760 m 93 Y s 1091 853 m 5 X s 1094 760 m -93 Y s 1091 667 m 5 X s 1114 764 m 94 Y s 1111 858 m 5 X s 1114 764 m -93 Y s 1111 671 m 5 X s
 1134 760 m 93 Y s 1131 853 m 5 X s 1134 760 m -94 Y s 1131 666 m 5 X s 1154 758 m 93 Y s 1151 851 m 5 X s 1154 758 m -93 Y s 1151 665 m 5 X s 1174 763 m 94 Y s 1171 857 m 5 X s 1174 763 m -93 Y s 1171 670 m 5 X s 1194 760 m 93 Y s 1191 853 m 5 X s
 1194 760 m -93 Y s 1191 667 m 5 X s 1214 796 m 86 Y s 1211 882 m 5 X s 1214 796 m -86 Y s 1211 710 m 5 X s 1234 759 m 94 Y s 1231 853 m 5 X s 1234 759 m -93 Y s 1231 666 m 5 X s 1254 763 m 93 Y s 1251 856 m 5 X s 1254 763 m -94 Y s 1251 669 m 5 X s
 1274 761 m 93 Y s 1271 854 m 5 X s 1274 761 m -93 Y s 1271 668 m 5 X s 1294 768 m 93 Y s 1291 861 m 5 X s 1294 768 m -93 Y s 1291 675 m 5 X s 1314 768 m 85 Y s 1311 853 m 5 X s 1314 768 m -85 Y s 1311 683 m 5 X s 1334 768 m 90 Y s 1331 858 m 5 X s
 1334 768 m -90 Y s 1331 678 m 5 X s 1354 743 m 87 Y s 1351 830 m 5 X s 1354 743 m -88 Y s 1351 655 m 5 X s 1374 732 m 91 Y s 1371 823 m 5 X s 1374 732 m -90 Y s 1371 642 m 5 X s 1394 755 m 90 Y s 1391 845 m 5 X s 1394 755 m -90 Y s 1391 665 m 5 X s
 1413 743 m 90 Y s 1411 833 m 5 X s 1413 743 m -91 Y s 1411 652 m 5 X s 1433 791 m 71 Y s 1431 862 m 5 X s 1433 791 m -70 Y s 1431 721 m 5 X s 1453 764 m 81 Y s 1451 845 m 5 X s 1453 764 m -80 Y s 1451 684 m 5 X s 1473 766 m 86 Y s 1471 852 m 5 X s
 1473 766 m -87 Y s 1471 679 m 5 X s 1493 680 m 82 Y s 1491 762 m 5 X s 1493 680 m -82 Y s 1491 598 m 5 X s 1513 703 m 86 Y s 1511 789 m 5 X s 1513 703 m -86 Y s 1511 617 m 5 X s 1533 752 m 88 Y s 1531 840 m 5 X s 1533 752 m -88 Y s 1531 664 m 5 X s
 1553 723 m 89 Y s 1551 812 m 5 X s 1553 723 m -90 Y s 1551 633 m 5 X s 1573 772 m 90 Y s 1571 862 m 5 X s 1573 772 m -91 Y s 1571 681 m 5 X s 1593 718 m 89 Y s 1591 807 m 5 X s 1593 718 m -88 Y s 1591 630 m 5 X s 1613 759 m 93 Y s 1611 852 m 5 X s
 1613 759 m -93 Y s 1611 666 m 5 X s 1633 775 m 89 Y s 1631 864 m 5 X s 1633 775 m -89 Y s 1631 686 m 5 X s 1653 755 m 92 Y s 1651 847 m 5 X s 1653 755 m -92 Y s 1651 663 m 5 X s 1673 750 m 93 Y s 1671 843 m 5 X s 1673 750 m -92 Y s 1671 658 m 5 X s
 1693 745 m 90 Y s 1691 835 m 5 X s 1693 745 m -90 Y s 1691 655 m 5 X s 1713 760 m 93 Y s 1711 853 m 5 X s 1713 760 m -93 Y s 1711 667 m 5 X s 1733 764 m 89 Y s 1731 853 m 5 X s 1733 764 m -90 Y s 1731 674 m 5 X s 1753 691 m 89 Y s 1750 780 m 6 X s
 1753 691 m -88 Y s 1750 603 m 6 X s 1773 761 m 91 Y s 1770 852 m 6 X s 1773 761 m -92 Y s 1770 669 m 6 X s 1793 760 m 93 Y s 1790 853 m 5 X s 1793 760 m -93 Y s 1790 667 m 5 X s 1813 762 m 93 Y s 1810 855 m 5 X s 1813 762 m -94 Y s 1810 668 m 5 X s
 1833 760 m 93 Y s 1830 853 m 5 X s 1833 760 m -94 Y s 1830 666 m 5 X s 1853 759 m 93 Y s 1850 852 m 5 X s 1853 759 m -93 Y s 1850 666 m 5 X s 1873 760 m 93 Y s 1870 853 m 5 X s 1873 760 m -94 Y s 1870 666 m 5 X s 1893 759 m 94 Y s 1890 853 m 5 X s
 1893 759 m -93 Y s 1890 666 m 5 X s 1913 760 m 93 Y s 1910 853 m 5 X s 1913 760 m -93 Y s 1910 667 m 5 X s 1933 755 m 93 Y s 1930 848 m 5 X s 1933 755 m -93 Y s 1930 662 m 5 X s 1953 751 m 92 Y s 1950 843 m 5 X s 1953 751 m -93 Y s 1950 658 m 5 X s
 1973 762 m 93 Y s 1970 855 m 5 X s 1973 762 m -92 Y s 1970 670 m 5 X s 1993 760 m 93 Y s 1990 853 m 5 X s 1993 760 m -93 Y s 1990 667 m 5 X s 2013 776 m 71 Y s 2010 847 m 5 X s 2013 776 m -72 Y s 2010 704 m 5 X s 2033 756 m 92 Y s 2030 848 m 5 X s
 2033 756 m -93 Y s 2030 663 m 5 X s 2053 773 m 93 Y s 2050 866 m 5 X s 2053 773 m -93 Y s 2050 680 m 5 X s 2073 757 m 92 Y s 2070 849 m 5 X s 2073 757 m -93 Y s 2070 664 m 5 X s 2093 771 m 93 Y s 2090 864 m 5 X s 2093 771 m -93 Y s 2090 678 m 5 X s
 2113 772 m 93 Y s 2110 865 m 5 X s 2113 772 m -93 Y s 2110 679 m 5 X s 2132 770 m 93 Y s 2130 863 m 5 X s 2132 770 m -93 Y s 2130 677 m 5 X s 2152 775 m 94 Y s 2150 869 m 5 X s 2152 775 m -93 Y s 2150 682 m 5 X s 2172 760 m 93 Y s 2170 853 m 5 X s
 2172 760 m -94 Y s 2170 666 m 5 X s 2192 760 m 93 Y s 2190 853 m 5 X s 2192 760 m -94 Y s 2190 666 m 5 X s 2212 760 m 93 Y s 2210 853 m 5 X s 2212 760 m -94 Y s 2210 666 m 5 X s 1 1 1 c black /w 10 def /w2 {w 2 div} def /w3 {w 3 div} def 55 754 75
 762 95 759 115 760 135 759 155 759 175 758 195 759 215 760 235 760 255 760 275 760 295 760 315 760 335 760 355 760 375 760 395 760 415 760 435 760 455 759 475 762 495 760 515 760 535 760 555 759 575 759 595 760 615 761 635 760 655 755 674 750 694
 762 714 758 734 759 754 760 774 757 794 760 814 760 834 760 854 760 874 759 894 755 914 757 934 761 954 755 974 765 994 757 1014 748 1034 756 1054 760 1074 759 1094 760 1114 764 1134 760 1154 758 1174 763 1194 760 1214 796 1234 759 1254 763 1274 761
 1294 768 1314 768 1334 768 1354 743 1374 732 1394 755 1413 743 1433 791 1453 764 1473 766 1493 680 1513 703 1533 752 1553 723 1573 772 1593 718 1613 759 1633 775 1653 755 1673 750 1693 745 1713 760 1733 764 1753 691 1773 761 1793 760 1813 762 1833
 760 1853 759 1873 760 1893 759 1913 760 1933 755 1953 751 1973 762 1993 760 2013 776 2033 756 100 { m20} R 2053 773 2073 757 2093 771 2113 772 2132 770 2152 775 2172 760 2192 760 2212 760 9 { m20} R
 gr  gr showpage
end
%%EOF
