%!PS-Adobe-2.0 EPSF-2.0
%%BoundingBox:  0 0 567 244
%%Title: cCNp1_matrix_DYll.eps: 
%%Creator: ROOT Version 6.24/06
%%CreationDate: Mon Jan  3 21:08:44 2022
%%DocumentNeededResources: ProcSet (FontSetInit)
%%EndComments
%%BeginProlog
80 dict begin
/s {stroke} def /l {lineto} def /m {moveto} def /t {translate} def
/r {rotate} def /rl {roll}  def /R {repeat} def
/d {rlineto} def /rm {rmoveto} def /gr {grestore} def /f {eofill} def
/c {setrgbcolor} def /black {0 setgray} def /sd {setdash} def
/cl {closepath} def /sf {scalefont setfont} def /lw {setlinewidth} def
/box {m dup 0 exch d exch 0 d 0 exch neg d cl} def
/NC{systemdict begin initclip end}def/C{NC box clip newpath}def
/bl {box s} def /bf {gsave box gsave f grestore 1 lw [] 0 sd s grestore} def /Y { 0 exch d} def /X { 0 d} def 
/K {{pop pop 0 moveto} exch kshow} bind def
/ita {/ang 15 def gsave [1 0 ang dup sin exch cos div 1 0 0] concat} def 
/mp {newpath /y exch def /x exch def} def
/side {[w .77 mul w .23 mul] .385 w mul sd w 0 l currentpoint t -144 r} def
/mr {mp x y w2 0 360 arc} def /m24 {mr s} def /m20 {mr f} def
/mb {mp x y w2 add m w2 neg 0 d 0 w neg d w 0 d 0 w d cl} def
/mt {mp x y w2 add m w2 neg w neg d w 0 d cl} def
/w4 {w 4 div} def
/w6 {w 6 div} def
/w8 {w 8 div} def
/m21 {mb f} def /m25 {mb s} def /m22 {mt f} def /m26{mt s} def
/m23 {mp x y w2 sub m w2 w d w neg 0 d cl f} def
/m27 {mp x y w2 add m w3 neg w2 neg d w3 w2 neg d w3 w2 d cl s} def
/m28 {mp x w2 sub y w2 sub w3 add m w3 0 d  0 w3 neg d w3 0 d 0 w3 d w3 0 d  0 w3 d w3 neg 0 d 0 w3 d w3 neg 0 d 0 w3 neg d w3 neg 0 d cl s } def
/m29 {mp gsave x w2 sub y w2 add w3 sub m currentpoint t 4 {side} repeat cl fill gr} def
/m30 {mp gsave x w2 sub y w2 add w3 sub m currentpoint t 4 {side} repeat cl s gr} def
/m31 {mp x y w2 sub m 0 w d x w2 sub y m w 0 d x w2 .707 mul sub y w2 .707 mul add m w 1.44 div w 1.44 div neg d x w2 .707 mul sub y w2 .707 mul sub m w 1.44 div w 1.44 div d s} def
/m32 {mp x y w2 sub m w2 w d w neg 0 d cl s} def
/m33 {mp x y w2 add m w3 neg w2 neg d w3 w2 neg d w3 w2 d cl f} def
/m34 {mp x w2 sub y w2 sub w3 add m w3 0 d  0 w3 neg d w3 0 d 0 w3 d w3 0 d  0 w3 d w3 neg 0 d 0 w3 d w3 neg 0 d 0 w3 neg d w3 neg 0 d cl f } def
/m35 {mp x y w2 add m w2 neg w2 neg d w2 w2 neg d w2 w2 d w2 neg w2 d x y w2 sub m 0 w d x w2 sub y m w 0 d s} def
/m36 {mb x w2 sub y w2 add m w w neg d x w2 sub y w2 sub m w w d s} def
/m37 {mp x y m w4 neg w2 d w4 neg w2 neg d w2 0 d  w4 neg w2 neg d w2 0 d w4 neg w2 d w2 0 d w4 neg w2 d w4 neg w2 neg d cl s} def
/m38 {mp x w4 sub y w2 add m w4 neg w4 neg d 0 w2 neg d w4 w4 neg d w2 0 d w4 w4 d 0 w2 d w4 neg w4 d w2 neg 0 d x y w2 sub m 0 w d x w2 sub y m w 0 d cl s} def
/m39 {mp x y m w4 neg w2 d w4 neg w2 neg d w2 0 d  w4 neg w2 neg d w2 0 d w4 neg w2 d w2 0 d w4 neg w2 d w4 neg w2 neg d cl f} def
/m40 {mp x y m w4 w2 d w4 w4 neg d w2 neg w4 neg d w2 w4 neg d w4 neg w4 neg d w4 neg w2 d w4 neg w2 neg d w4 neg w4 d w2 w4 d w2 neg w4 d w4 w4 d w4 w2 neg d cl s} def
/m41 {mp x y m w4 w2 d w4 w4 neg d w2 neg w4 neg d w2 w4 neg d w4 neg w4 neg d w4 neg w2 d w4 neg w2 neg d w4 neg w4 d w2 w4 d w2 neg w4 d w4 w4 d w4 w2 neg d cl f} def
/m42 {mp x y w2 add m w8 neg w2 -3 4 div mul d w2 -3 4 div mul w8 neg d w2 3 4 div mul w8 neg d w8 w2 -3 4 div mul d w8 w2 3 4 div mul d w2 3 4 div mul w8 d w2 -3 4 div mul w8 d w8 neg w2 3 4 div mul d cl s} def
/m43 {mp x y w2 add m w8 neg w2 -3 4 div mul d w2 -3 4 div mul w8 neg d w2 3 4 div mul w8 neg d w8 w2 -3 4 div mul d w8 w2 3 4 div mul d w2 3 4 div mul w8 d w2 -3 4 div mul w8 d w8 neg w2 3 4 div mul d cl f} def
/m44 {mp x y m w6 neg w2 d w2 2 3 div mul 0 d w6 neg w2 neg d w2 w6 d 0 w2 -2 3 div mul d w2 neg w6 d w6 w2 neg d w2 -2 3 div mul 0 d w6 w2 d w2 neg w6 neg d 0 w2 2 3 div mul d w2 w6 neg d cl s} def
/m45 {mp x y m w6 neg w2 d w2 2 3 div mul 0 d w6 neg w2 neg d w2 w6 d 0 w2 -2 3 div mul d w2 neg w6 d w6 w2 neg d w2 -2 3 div mul 0 d w6 w2 d w2 neg w6 neg d 0 w2 2 3 div mul d w2 w6 neg d cl f} def
/m46 {mp x y w4 add m w4 neg w4 d w4 neg w4 neg d  w4 w4 neg d w4 neg w4 neg d w4 w4 neg d w4 w4 d w4 w4 neg d w4 w4 d w4 neg w4 d w4 w4 d w4 neg w4 d w4 neg w4 neg d cl s} def
/m47 {mp x y w4 add m w4 neg w4 d w4 neg w4 neg d w4 w4 neg d w4 neg w4 neg d  w4 w4 neg d w4 w4 d w4 w4 neg d w4 w4 d w4 neg w4 d w4 w4 d w4 neg w4 d w4 neg w4 neg d cl f} def
/m48 {mp x y w4 add m w4 neg w4 d w4 neg w4 neg d w4 w4 neg d  w4 neg w4 neg d w4 w4 neg d w4 w4 d w4 w4 neg d w4 w4 d w4 neg w4 d w4 w4 d w4 neg w4 d w4 neg w4 neg d  w4 w4 neg d w4 neg w4 neg d w4 neg w4 d w4 w4 d cl f} def
/m49 {mp x w2 sub w3 add y w2 sub w3 add m  0 w3 neg d w3 0 d 0 w3 d w3 0 d 0 w3 d w3 neg 0 d 0 w3 d w3 neg 0 d 0 w3 neg d w3 neg 0 d 0 w3 neg d w3 0 d 0 w3 d w3 0 d 0 w3 neg d w3 neg 0 d cl f } def
/m2 {mp x y w2 sub m 0 w d x w2 sub y m w 0 d s} def
/m5 {mp x w2 .707 mul sub y w2 .707 mul sub m w 1.44 div w 1.44 div d x w2 .707 mul sub y w2 .707 mul add m w 1.44 div w 1.44 div neg d s} def
%%IncludeResource: ProcSet (FontSetInit)
%%IncludeResource: font Times-Roman
%%IncludeResource: font Times-Italic
%%IncludeResource: font Times-Bold
%%IncludeResource: font Times-BoldItalic
%%IncludeResource: font Helvetica
%%IncludeResource: font Helvetica-Oblique
%%IncludeResource: font Helvetica-Bold
%%IncludeResource: font Helvetica-BoldOblique
%%IncludeResource: font Courier
%%IncludeResource: font Courier-Oblique
%%IncludeResource: font Courier-Bold
%%IncludeResource: font Courier-BoldOblique
%%IncludeResource: font Symbol
%%IncludeResource: font ZapfDingbats
/reEncode {exch findfont dup length dict begin {1 index /FID eq  {pop pop} {def} ifelse } forall /Encoding exch def currentdict end dup /FontName get exch definefont pop } def [/Times-Bold /Times-Italic /Times-BoldItalic /Helvetica /Helvetica-Oblique
 /Helvetica-Bold /Helvetica-BoldOblique /Courier /Courier-Oblique /Courier-Bold /Courier-BoldOblique /Times-Roman /AvantGarde-Book /AvantGarde-BookOblique /AvantGarde-Demi /AvantGarde-DemiOblique /Bookman-Demi /Bookman-DemiItalic /Bookman-Light
 /Bookman-LightItalic /Helvetica-Narrow /Helvetica-Narrow-Bold /Helvetica-Narrow-BoldOblique /Helvetica-Narrow-Oblique /NewCenturySchlbk-Roman /NewCenturySchlbk-Bold /NewCenturySchlbk-BoldItalic /NewCenturySchlbk-Italic /Palatino-Bold
 /Palatino-BoldItalic /Palatino-Italic /Palatino-Roman ] {ISOLatin1Encoding reEncode } forall
%%EndProlog
%%BeginSetup
%%EndSetup
newpath  gsave  .25 .25 scale  gsave  0 0 t black[  ] 0 sd 3 lw 1 1 1 c 2268 975 0 0 bf black 1 1 1 c 2177 375 45 585 bf black 2177 375 45 585 bl 6 lw 1 1 1 c black 45 773 m 2177 X s 3 lw 45 585 m 2177 X s
 gsave  2268 975 0 0 C 65.6577 320.713 t 90 r /Helvetica findfont 23.9903 sf 0 0 m (EG_RESOLUTION_ALL) show NC gr 
 gsave  2268 975 0 0 C 92.1733 398.997 t 90 r /Helvetica findfont 23.9903 sf 0 0 m (EG_SCALE_ALL) show NC gr 
 gsave  2268 975 0 0 C 117.426 219.701 t 90 r /Helvetica findfont 23.9903 sf 0 0 m (EL_EFF_ID_CorrUncertaintyNP10) show NC gr 
 gsave  2268 975 0 0 C 143.942 223.489 t 90 r /Helvetica findfont 23.9903 sf 0 0 m (EL_EFF_ID_CorrUncertaintyNP11) show NC gr 
 gsave  2268 975 0 0 C 170.458 219.701 t 90 r /Helvetica findfont 23.9903 sf 0 0 m (EL_EFF_ID_CorrUncertaintyNP12) show NC gr 
 gsave  2268 975 0 0 C 196.973 219.701 t 90 r /Helvetica findfont 23.9903 sf 0 0 m (EL_EFF_ID_CorrUncertaintyNP13) show NC gr 
 gsave  2268 975 0 0 C 223.489 218.438 t 90 r /Helvetica findfont 23.9903 sf 0 0 m (EL_EFF_ID_CorrUncertaintyNP14) show NC gr 
 gsave  2268 975 0 0 C 250.004 218.438 t 90 r /Helvetica findfont 23.9903 sf 0 0 m (EL_EFF_ID_CorrUncertaintyNP15) show NC gr 
 gsave  2268 975 0 0 C 276.52 232.327 t 90 r /Helvetica findfont 23.9903 sf 0 0 m (EL_EFF_ID_CorrUncertaintyNP3) show NC gr 
 gsave  2268 975 0 0 C 303.036 232.327 t 90 r /Helvetica findfont 23.9903 sf 0 0 m (EL_EFF_ID_CorrUncertaintyNP4) show NC gr 
 gsave  2268 975 0 0 C 330.814 232.327 t 90 r /Helvetica findfont 23.9903 sf 0 0 m (EL_EFF_ID_CorrUncertaintyNP5) show NC gr 
 gsave  2268 975 0 0 C 357.329 232.327 t 90 r /Helvetica findfont 23.9903 sf 0 0 m (EL_EFF_ID_CorrUncertaintyNP6) show NC gr 
 gsave  2268 975 0 0 C 383.845 232.327 t 90 r /Helvetica findfont 23.9903 sf 0 0 m (EL_EFF_ID_CorrUncertaintyNP7) show NC gr 
 gsave  2268 975 0 0 C 410.361 232.327 t 90 r /Helvetica findfont 23.9903 sf 0 0 m (EL_EFF_ID_CorrUncertaintyNP8) show NC gr 
 gsave  2268 975 0 0 C 436.876 232.327 t 90 r /Helvetica findfont 23.9903 sf 0 0 m (EL_EFF_ID_CorrUncertaintyNP9) show NC gr 
 gsave  2268 975 0 0 C 463.392 49.2433 t 90 r /Helvetica findfont 23.9903 sf 0 0 m (EL_EFF_ID_SIMPLIFIED_UncorrUncertaintyNP12) show NC gr 
 gsave  2268 975 0 0 C 489.908 49.2433 t 90 r /Helvetica findfont 23.9903 sf 0 0 m (EL_EFF_ID_SIMPLIFIED_UncorrUncertaintyNP13) show NC gr 
 gsave  2268 975 0 0 C 516.423 47.9806 t 90 r /Helvetica findfont 23.9903 sf 0 0 m (EL_EFF_ID_SIMPLIFIED_UncorrUncertaintyNP14) show NC gr 
 gsave  2268 975 0 0 C 542.939 47.9806 t 90 r /Helvetica findfont 23.9903 sf 0 0 m (EL_EFF_ID_SIMPLIFIED_UncorrUncertaintyNP15) show NC gr 
 gsave  2268 975 0 0 C 569.454 47.9806 t 90 r /Helvetica findfont 23.9903 sf 0 0 m (EL_EFF_ID_SIMPLIFIED_UncorrUncertaintyNP16) show NC gr 
 gsave  2268 975 0 0 C 595.97 47.9806 t 90 r /Helvetica findfont 23.9903 sf 0 0 m (EL_EFF_ID_SIMPLIFIED_UncorrUncertaintyNP17) show NC gr 
 gsave  2268 975 0 0 C 622.486 61.8698 t 90 r /Helvetica findfont 23.9903 sf 0 0 m (EL_EFF_ID_SIMPLIFIED_UncorrUncertaintyNP3) show NC gr 
 gsave  2268 975 0 0 C 650.264 61.8698 t 90 r /Helvetica findfont 23.9903 sf 0 0 m (EL_EFF_ID_SIMPLIFIED_UncorrUncertaintyNP4) show NC gr 
 gsave  2268 975 0 0 C 676.78 61.8698 t 90 r /Helvetica findfont 23.9903 sf 0 0 m (EL_EFF_ID_SIMPLIFIED_UncorrUncertaintyNP5) show NC gr 
 gsave  2268 975 0 0 C 703.295 61.8698 t 90 r /Helvetica findfont 23.9903 sf 0 0 m (EL_EFF_ID_SIMPLIFIED_UncorrUncertaintyNP6) show NC gr 
 gsave  2268 975 0 0 C 729.811 61.8698 t 90 r /Helvetica findfont 23.9903 sf 0 0 m (EL_EFF_ID_SIMPLIFIED_UncorrUncertaintyNP7) show NC gr 
 gsave  2268 975 0 0 C 756.326 61.8698 t 90 r /Helvetica findfont 23.9903 sf 0 0 m (EL_EFF_ID_SIMPLIFIED_UncorrUncertaintyNP8) show NC gr 
 gsave  2268 975 0 0 C 782.842 68.183 t 90 r /Helvetica findfont 23.9903 sf 0 0 m (EL_EFF_Iso_TOTAL_1NPCOR_PLUS_UNCOR) show NC gr 
 gsave  2268 975 0 0 C 809.358 44.1927 t 90 r /Helvetica findfont 23.9903 sf 0 0 m (EL_EFF_Reco_TOTAL_1NPCOR_PLUS_UNCOR) show NC gr 
 gsave  2268 975 0 0 C 835.873 -5.05059 t 90 r /Helvetica findfont 23.9903 sf 0 0 m (EL_EFF_TriggerEff_TOTAL_1NPCOR_PLUS_UNCOR) show NC gr 
 gsave  2268 975 0 0 C 861.126 364.905 t 90 r /Helvetica findfont 23.9903 sf 0 0 m (FT_EFF_Eigen_B_0) show NC gr 
 gsave  2268 975 0 0 C 887.642 368.693 t 90 r /Helvetica findfont 23.9903 sf 0 0 m (FT_EFF_Eigen_B_1) show NC gr 
 gsave  2268 975 0 0 C 914.157 364.905 t 90 r /Helvetica findfont 23.9903 sf 0 0 m (FT_EFF_Eigen_B_2) show NC gr 
 gsave  2268 975 0 0 C 941.936 363.643 t 90 r /Helvetica findfont 23.9903 sf 0 0 m (FT_EFF_Eigen_C_0) show NC gr 
 gsave  2268 975 0 0 C 968.451 367.431 t 90 r /Helvetica findfont 23.9903 sf 0 0 m (FT_EFF_Eigen_C_1) show NC gr 
 gsave  2268 975 0 0 C 994.967 363.643 t 90 r /Helvetica findfont 23.9903 sf 0 0 m (FT_EFF_Eigen_C_2) show NC gr 
 gsave  2268 975 0 0 C 1020.22 329.551 t 90 r /Helvetica findfont 23.9903 sf 0 0 m (FT_EFF_Eigen_Light_0) show NC gr 
 gsave  2268 975 0 0 C 1046.74 333.339 t 90 r /Helvetica findfont 23.9903 sf 0 0 m (FT_EFF_Eigen_Light_1) show NC gr 
 gsave  2268 975 0 0 C 1073.25 328.289 t 90 r /Helvetica findfont 23.9903 sf 0 0 m (FT_EFF_Eigen_Light_2) show NC gr 
 gsave  2268 975 0 0 C 1099.77 329.551 t 90 r /Helvetica findfont 23.9903 sf 0 0 m (FT_EFF_Eigen_Light_3) show NC gr 
 gsave  2268 975 0 0 C 1126.28 345.966 t 90 r /Helvetica findfont 23.9903 sf 0 0 m (FT_EFF_extrapolation) show NC gr 
 gsave  2268 975 0 0 C 1152.8 207.074 t 90 r /Helvetica findfont 23.9903 sf 0 0 m (FT_EFF_extrapolation_from_charm) show NC gr 
 gsave  2268 975 0 0 C 1180.58 344.703 t 90 r /Helvetica findfont 23.9903 sf 0 0 m (JET_BJES_Response) show NC gr 
 gsave  2268 975 0 0 C 1207.09 289.146 t 90 r /Helvetica findfont 23.9903 sf 0 0 m (JET_EffectiveNP_Detector1) show NC gr 
 gsave  2268 975 0 0 C 1233.61 285.359 t 90 r /Helvetica findfont 23.9903 sf 0 0 m (JET_EffectiveNP_Detector2) show NC gr 
 gsave  2268 975 0 0 C 1260.12 314.399 t 90 r /Helvetica findfont 23.9903 sf 0 0 m (JET_EffectiveNP_Mixed1) show NC gr 
 gsave  2268 975 0 0 C 1286.64 310.612 t 90 r /Helvetica findfont 23.9903 sf 0 0 m (JET_EffectiveNP_Mixed2) show NC gr 
 gsave  2268 975 0 0 C 1313.15 310.612 t 90 r /Helvetica findfont 23.9903 sf 0 0 m (JET_EffectiveNP_Mixed3) show NC gr 
 gsave  2268 975 0 0 C 1338.41 276.52 t 90 r /Helvetica findfont 23.9903 sf 0 0 m (JET_EffectiveNP_Modelling1) show NC gr 
 gsave  2268 975 0 0 C 1364.92 272.732 t 90 r /Helvetica findfont 23.9903 sf 0 0 m (JET_EffectiveNP_Modelling2) show NC gr 
 gsave  2268 975 0 0 C 1391.44 272.732 t 90 r /Helvetica findfont 23.9903 sf 0 0 m (JET_EffectiveNP_Modelling3) show NC gr 
 gsave  2268 975 0 0 C 1417.95 272.732 t 90 r /Helvetica findfont 23.9903 sf 0 0 m (JET_EffectiveNP_Modelling4) show NC gr 
 gsave  2268 975 0 0 C 1445.73 275.257 t 90 r /Helvetica findfont 23.9903 sf 0 0 m (JET_EffectiveNP_Statistical1) show NC gr 
 gsave  2268 975 0 0 C 1472.25 271.469 t 90 r /Helvetica findfont 23.9903 sf 0 0 m (JET_EffectiveNP_Statistical2) show NC gr 
 gsave  2268 975 0 0 C 1498.76 271.469 t 90 r /Helvetica findfont 23.9903 sf 0 0 m (JET_EffectiveNP_Statistical3) show NC gr 
 gsave  2268 975 0 0 C 1525.28 271.469 t 90 r /Helvetica findfont 23.9903 sf 0 0 m (JET_EffectiveNP_Statistical4) show NC gr 
 gsave  2268 975 0 0 C 1551.79 271.469 t 90 r /Helvetica findfont 23.9903 sf 0 0 m (JET_EffectiveNP_Statistical5) show NC gr 
 gsave  2268 975 0 0 C 1578.31 271.469 t 90 r /Helvetica findfont 23.9903 sf 0 0 m (JET_EffectiveNP_Statistical6) show NC gr 
 gsave  2268 975 0 0 C 1603.56 219.701 t 90 r /Helvetica findfont 23.9903 sf 0 0 m (JET_EtaIntercalibration_Modelling) show NC gr 
 gsave  2268 975 0 0 C 1631.34 123.74 t 90 r /Helvetica findfont 23.9903 sf 0 0 m (JET_EtaIntercalibration_NonClosure_highE) show NC gr 
 gsave  2268 975 0 0 C 1659.12 109.85 t 90 r /Helvetica findfont 23.9903 sf 0 0 m (JET_EtaIntercalibration_NonClosure_negEta) show NC gr 
 gsave  2268 975 0 0 C 1685.64 109.85 t 90 r /Helvetica findfont 23.9903 sf 0 0 m (JET_EtaIntercalibration_NonClosure_posEta) show NC gr 
 gsave  2268 975 0 0 C 1712.15 224.751 t 90 r /Helvetica findfont 23.9903 sf 0 0 m (JET_EtaIntercalibration_TotalStat) show NC gr 
 gsave  2268 975 0 0 C 1738.67 315.662 t 90 r /Helvetica findfont 23.9903 sf 0 0 m (JET_Flavor_Composition) show NC gr 
 gsave  2268 975 0 0 C 1763.92 339.652 t 90 r /Helvetica findfont 23.9903 sf 0 0 m (JET_Flavor_Response) show NC gr 
 gsave  2268 975 0 0 C 1791.7 273.995 t 90 r /Helvetica findfont 23.9903 sf 0 0 m (JET_JER_DataVsMC_MC16) show NC gr 
 gsave  2268 975 0 0 C 1818.21 301.773 t 90 r /Helvetica findfont 23.9903 sf 0 0 m (JET_JER_EffectiveNP_10) show NC gr 
 gsave  2268 975 0 0 C 1844.73 305.561 t 90 r /Helvetica findfont 23.9903 sf 0 0 m (JET_JER_EffectiveNP_11) show NC gr 
 gsave  2268 975 0 0 C 1871.24 207.074 t 90 r /Helvetica findfont 23.9903 sf 0 0 m (JET_JER_EffectiveNP_12restTerm) show NC gr 
 gsave  2268 975 0 0 C 1897.76 319.45 t 90 r /Helvetica findfont 23.9903 sf 0 0 m (JET_JER_EffectiveNP_1) show NC gr 
 gsave  2268 975 0 0 C 1924.28 315.662 t 90 r /Helvetica findfont 23.9903 sf 0 0 m (JET_JER_EffectiveNP_2) show NC gr 
 gsave  2268 975 0 0 C 1950.79 315.662 t 90 r /Helvetica findfont 23.9903 sf 0 0 m (JET_JER_EffectiveNP_3) show NC gr 
 gsave  2268 975 0 0 C 1977.31 315.662 t 90 r /Helvetica findfont 23.9903 sf 0 0 m (JET_JER_EffectiveNP_4) show NC gr 
 gsave  2268 975 0 0 C 2003.82 315.662 t 90 r /Helvetica findfont 23.9903 sf 0 0 m (JET_JER_EffectiveNP_5) show NC gr 
 gsave  2268 975 0 0 C 2030.34 315.662 t 90 r /Helvetica findfont 23.9903 sf 0 0 m (JET_JER_EffectiveNP_6) show NC gr 
 gsave  2268 975 0 0 C 2056.85 315.662 t 90 r /Helvetica findfont 23.9903 sf 0 0 m (JET_JER_EffectiveNP_7) show NC gr 
 gsave  2268 975 0 0 C 2083.37 315.662 t 90 r /Helvetica findfont 23.9903 sf 0 0 m (JET_JER_EffectiveNP_8) show NC gr 
 gsave  2268 975 0 0 C 2109.89 315.662 t 90 r /Helvetica findfont 23.9903 sf 0 0 m (JET_JER_EffectiveNP_9) show NC gr 
 gsave  2268 975 0 0 C 2135.14 391.421 t 90 r /Helvetica findfont 23.9903 sf 0 0 m (JET_JvtEfficiency) show NC gr 
 gsave  2268 975 0 0 C 2162.92 348.491 t 90 r /Helvetica findfont 23.9903 sf 0 0 m (JET_Pileup_OffsetMu) show NC gr 
 gsave  2268 975 0 0 C 2189.43 332.077 t 90 r /Helvetica findfont 23.9903 sf 0 0 m (JET_Pileup_OffsetNPV) show NC gr 
 gsave  2268 975 0 0 C 2214.69 367.431 t 90 r /Helvetica findfont 23.9903 sf 0 0 m (JET_Pileup_PtTerm) show NC gr  45 613 m -28 Y s 72 613 m -28 Y s 98 613 m -28 Y s 125 613 m -28 Y s 152 613 m -28 Y s 178 613 m -28 Y s 205 613 m -28 Y s 231 613 m
 -28 Y s 258 613 m -28 Y s 284 613 m -28 Y s 311 613 m -28 Y s 337 613 m -28 Y s 364 613 m -28 Y s 390 613 m -28 Y s 417 613 m -28 Y s 444 613 m -28 Y s 470 613 m -28 Y s 497 613 m -28 Y s 523 613 m -28 Y s 550 613 m -28 Y s 576 613 m -28 Y s 603 613
 m -28 Y s 629 613 m -28 Y s 656 613 m -28 Y s 683 613 m -28 Y s 709 613 m -28 Y s 736 613 m -28 Y s 762 613 m -28 Y s 789 613 m -28 Y s 815 613 m -28 Y s 842 613 m -28 Y s 868 613 m -28 Y s 895 613 m -28 Y s 921 613 m -28 Y s 948 613 m -28 Y s 975
 613 m -28 Y s 1001 613 m -28 Y s 1028 613 m -28 Y s 1054 613 m -28 Y s 1081 613 m -28 Y s 1107 613 m -28 Y s 1134 613 m -28 Y s 1160 613 m -28 Y s 1187 613 m -28 Y s 1214 613 m -28 Y s 1240 613 m -28 Y s 1267 613 m -28 Y s 1293 613 m -28 Y s 1320
 613 m -28 Y s 1346 613 m -28 Y s 1373 613 m -28 Y s 1399 613 m -28 Y s 1426 613 m -28 Y s 1452 613 m -28 Y s 1479 613 m -28 Y s 1506 613 m -28 Y s 1532 613 m -28 Y s 1559 613 m -28 Y s 1585 613 m -28 Y s 1612 613 m -28 Y s 1638 613 m -28 Y s 1665
 613 m -28 Y s 1691 613 m -28 Y s 1718 613 m -28 Y s 1744 613 m -28 Y s 1771 613 m -28 Y s 1798 613 m -28 Y s 1824 613 m -28 Y s 1851 613 m -28 Y s 1877 613 m -28 Y s 1904 613 m -28 Y s 1930 613 m -28 Y s 1957 613 m -28 Y s 1983 613 m -28 Y s 2010
 613 m -28 Y s 2037 613 m -28 Y s 2063 613 m -28 Y s 2090 613 m -28 Y s 2116 613 m -28 Y s 2143 613 m -28 Y s 2169 613 m -28 Y s 2196 613 m -28 Y s 2222 613 m -28 Y s 45 960 m 2177 X s 45 932 m 28 Y s 72 932 m 28 Y s 98 932 m 28 Y s 125 932 m 28 Y s
 152 932 m 28 Y s 178 932 m 28 Y s 205 932 m 28 Y s 231 932 m 28 Y s 258 932 m 28 Y s 284 932 m 28 Y s 311 932 m 28 Y s 337 932 m 28 Y s 364 932 m 28 Y s 390 932 m 28 Y s 417 932 m 28 Y s 444 932 m 28 Y s 470 932 m 28 Y s 497 932 m 28 Y s 523 932 m
 28 Y s 550 932 m 28 Y s 576 932 m 28 Y s 603 932 m 28 Y s 629 932 m 28 Y s 656 932 m 28 Y s 683 932 m 28 Y s 709 932 m 28 Y s 736 932 m 28 Y s 762 932 m 28 Y s 789 932 m 28 Y s 815 932 m 28 Y s 842 932 m 28 Y s 868 932 m 28 Y s 895 932 m 28 Y s 921
 932 m 28 Y s 948 932 m 28 Y s 975 932 m 28 Y s 1001 932 m 28 Y s 1028 932 m 28 Y s 1054 932 m 28 Y s 1081 932 m 28 Y s 1107 932 m 28 Y s 1134 932 m 28 Y s 1160 932 m 28 Y s 1187 932 m 28 Y s 1214 932 m 28 Y s 1240 932 m 28 Y s 1267 932 m 28 Y s 1293
 932 m 28 Y s 1320 932 m 28 Y s 1346 932 m 28 Y s 1373 932 m 28 Y s 1399 932 m 28 Y s 1426 932 m 28 Y s 1452 932 m 28 Y s 1479 932 m 28 Y s 1506 932 m 28 Y s 1532 932 m 28 Y s 1559 932 m 28 Y s 1585 932 m 28 Y s 1612 932 m 28 Y s 1638 932 m 28 Y s
 1665 932 m 28 Y s 1691 932 m 28 Y s 1718 932 m 28 Y s 1744 932 m 28 Y s 1771 932 m 28 Y s 1798 932 m 28 Y s 1824 932 m 28 Y s 1851 932 m 28 Y s 1877 932 m 28 Y s 1904 932 m 28 Y s 1930 932 m 28 Y s 1957 932 m 28 Y s 1983 932 m 28 Y s 2010 932 m 28 Y
 s 2037 932 m 28 Y s 2063 932 m 28 Y s 2090 932 m 28 Y s 2116 932 m 28 Y s 2143 932 m 28 Y s 2169 932 m 28 Y s 2196 932 m 28 Y s 2222 932 m 28 Y s 45 585 m 375 Y s 72 585 m -27 X s 58 594 m -13 X s 58 604 m -13 X s 58 613 m -13 X s 58 622 m -13 X s
 72 632 m -27 X s 58 641 m -13 X s 58 651 m -13 X s 58 660 m -13 X s 58 669 m -13 X s 72 679 m -27 X s 58 688 m -13 X s 58 697 m -13 X s 58 707 m -13 X s 58 716 m -13 X s 72 726 m -27 X s 58 735 m -13 X s 58 744 m -13 X s 58 754 m -13 X s 58 763 m
 -13 X s 72 773 m -27 X s 58 782 m -13 X s 58 791 m -13 X s 58 801 m -13 X s 58 810 m -13 X s 72 819 m -27 X s 58 829 m -13 X s 58 838 m -13 X s 58 848 m -13 X s 58 857 m -13 X s 72 866 m -27 X s 58 876 m -13 X s 58 885 m -13 X s 58 894 m -13 X s 58
 904 m -13 X s 72 913 m -27 X s 58 923 m -13 X s 58 932 m -13 X s 58 941 m -13 X s 58 951 m -13 X s 72 960 m -27 X s
 gsave  2268 975 0 0 C 20.2024 575.768 t 0 r /Helvetica findfont 23.9903 sf 0 0 m (2) show NC gr 
 gsave  2268 975 0 0 C 7.57589 575.768 t 0 r /Symbol findfont 23.9903 sf 0 0 m (-) show NC gr 
 gsave  2268 975 0 0 C 0 623.748 t 0 r /Helvetica findfont 23.9903 sf 0 0 m (1.5) show NC gr 
 gsave  2268 975 0 0 C -12.6265 623.748 t 0 r /Symbol findfont 23.9903 sf 0 0 m (-) show NC gr 
 gsave  2268 975 0 0 C 23.9903 669.204 t 0 r /Helvetica findfont 23.9903 sf 0 0 m (1) show NC gr 
 gsave  2268 975 0 0 C 11.3638 669.204 t 0 r /Symbol findfont 23.9903 sf 0 0 m (-) show NC gr 
 gsave  2268 975 0 0 C 0 717.184 t 0 r /Helvetica findfont 23.9903 sf 0 0 m (0.5) show NC gr 
 gsave  2268 975 0 0 C -12.6265 717.184 t 0 r /Symbol findfont 23.9903 sf 0 0 m (-) show NC gr 
 gsave  2268 975 0 0 C 20.2024 763.902 t 0 r /Helvetica findfont 23.9903 sf 0 0 m (0) show NC gr 
 gsave  2268 975 0 0 C 0 810.62 t 0 r /Helvetica findfont 23.9903 sf 0 0 m (0.5) show NC gr 
 gsave  2268 975 0 0 C 23.9903 857.338 t 0 r /Helvetica findfont 23.9903 sf 0 0 m (1) show NC gr 
 gsave  2268 975 0 0 C 0 905.319 t 0 r /Helvetica findfont 23.9903 sf 0 0 m (1.5) show NC gr 
 gsave  2268 975 0 0 C 20.2024 950.774 t 0 r /Helvetica findfont 23.9903 sf 0 0 m (2) show NC gr 
 gsave  2268 975 0 0 C -45.4553 945.724 t 90 r /Symbol findfont 29.0409 sf 0 0 m (q) show NC gr  6 lw
 gsave  2268 975 0 0 C -45.4553 930.572 t 90 r /Symbol findfont 29.0409 sf 0 0 m (d) show NC gr 
 gsave  2268 975 0 0 C -45.4553 920.471 t 90 r /Helvetica findfont 29.0409 sf 0 0 m (/) show NC gr 
 gsave  2268 975 0 0 C -45.4553 905.319 t 90 r /Symbol findfont 29.0409 sf 0 0 m (q) show NC gr 
 gsave  2268 975 0 0 C -45.4553 896.48 t 90 r /Helvetica findfont 29.0409 sf 0 0 m (\255) show NC gr 
 gsave  2268 975 0 0 C -45.4553 881.329 t 90 r /Symbol findfont 29.0409 sf 0 0 m (q) show NC gr  3 lw 2222 585 m 375 Y s 2196 585 m 26 X s 2209 594 m 13 X s 2209 604 m 13 X s 2209 613 m 13 X s 2209 622 m 13 X s 2196 632 m 26 X s 2209 641 m 13 X s
 2209 651 m 13 X s 2209 660 m 13 X s 2209 669 m 13 X s 2196 679 m 26 X s 2209 688 m 13 X s 2209 697 m 13 X s 2209 707 m 13 X s 2209 716 m 13 X s 2196 726 m 26 X s 2209 735 m 13 X s 2209 744 m 13 X s 2209 754 m 13 X s 2209 763 m 13 X s 2196 773 m 26 X
 s 2209 782 m 13 X s 2209 791 m 13 X s 2209 801 m 13 X s 2209 810 m 13 X s 2196 819 m 26 X s 2209 829 m 13 X s 2209 838 m 13 X s 2209 848 m 13 X s 2209 857 m 13 X s 2196 866 m 26 X s 2209 876 m 13 X s 2209 885 m 13 X s 2209 894 m 13 X s 2209 904 m 13
 X s 2196 913 m 26 X s 2209 923 m 13 X s 2209 932 m 13 X s 2209 941 m 13 X s 2209 951 m 13 X s 2196 960 m 26 X s 59 774 m 93 Y s 56 867 m 5 X s 59 774 m -94 Y s 56 680 m 5 X s 85 769 m 82 Y s 83 851 m 5 X s 85 769 m -83 Y s 83 686 m 5 X s 112 772 m
 93 Y s 109 865 m 5 X s 112 772 m -93 Y s 109 679 m 5 X s 138 773 m 93 Y s 136 866 m 5 X s 138 773 m -93 Y s 136 680 m 5 X s 165 772 m 93 Y s 162 865 m 5 X s 165 772 m -93 Y s 162 679 m 5 X s 191 772 m 93 Y s 189 865 m 5 X s 191 772 m -93 Y s 189 679
 m 5 X s 218 771 m 93 Y s 215 864 m 5 X s 218 771 m -94 Y s 215 677 m 5 X s 244 771 m 94 Y s 242 865 m 5 X s 244 771 m -93 Y s 242 678 m 5 X s 271 772 m 94 Y s 268 866 m 6 X s 271 772 m -93 Y s 268 679 m 6 X s 298 773 m 93 Y s 295 866 m 5 X s 298 773
 m -94 Y s 295 679 m 5 X s 324 772 m 94 Y s 322 866 m 5 X s 324 772 m -93 Y s 322 679 m 5 X s 351 773 m 93 Y s 348 866 m 5 X s 351 773 m -94 Y s 348 679 m 5 X s 377 773 m 93 Y s 375 866 m 5 X s 377 773 m -94 Y s 375 679 m 5 X s 404 773 m 93 Y s 401
 866 m 5 X s 404 773 m -94 Y s 401 679 m 5 X s 430 773 m 93 Y s 428 866 m 5 X s 430 773 m -94 Y s 428 679 m 5 X s 457 773 m 93 Y s 454 866 m 5 X s 457 773 m -93 Y s 454 680 m 5 X s 483 773 m 93 Y s 481 866 m 5 X s 483 773 m -93 Y s 481 680 m 5 X s
 510 773 m 93 Y s 507 866 m 5 X s 510 773 m -94 Y s 507 679 m 5 X s 537 773 m 93 Y s 534 866 m 5 X s 537 773 m -94 Y s 534 679 m 5 X s 563 773 m 93 Y s 561 866 m 5 X s 563 773 m -94 Y s 561 679 m 5 X s 590 772 m 94 Y s 587 866 m 5 X s 590 772 m -93 Y
 s 587 679 m 5 X s 616 776 m 93 Y s 614 869 m 5 X s 616 776 m -93 Y s 614 683 m 5 X s 643 773 m 93 Y s 640 866 m 5 X s 643 773 m -93 Y s 640 680 m 5 X s 669 773 m 93 Y s 667 866 m 5 X s 669 773 m -93 Y s 667 680 m 5 X s 696 773 m 93 Y s 693 866 m 5 X
 s 696 773 m -94 Y s 693 679 m 5 X s 722 772 m 94 Y s 720 866 m 5 X s 722 772 m -93 Y s 720 679 m 5 X s 749 772 m 94 Y s 746 866 m 5 X s 749 772 m -93 Y s 746 679 m 5 X s 775 774 m 93 Y s 773 867 m 5 X s 775 774 m -94 Y s 773 680 m 5 X s 802 774 m 93
 Y s 799 867 m 6 X s 802 774 m -93 Y s 799 681 m 6 X s 829 773 m 93 Y s 826 866 m 5 X s 829 773 m -94 Y s 826 679 m 5 X s 855 779 m 93 Y s 853 872 m 5 X s 855 779 m -93 Y s 853 686 m 5 X s 882 774 m 93 Y s 879 867 m 5 X s 882 774 m -93 Y s 879 681 m
 5 X s 908 772 m 93 Y s 906 865 m 5 X s 908 772 m -94 Y s 906 678 m 5 X s 935 772 m 93 Y s 932 865 m 5 X s 935 772 m -93 Y s 932 679 m 5 X s 961 773 m 93 Y s 959 866 m 5 X s 961 773 m -93 Y s 959 680 m 5 X s 988 772 m 94 Y s 985 866 m 5 X s 988 772 m
 -93 Y s 985 679 m 5 X s 1014 772 m 93 Y s 1012 865 m 5 X s 1014 772 m -93 Y s 1012 679 m 5 X s 1041 772 m 94 Y s 1038 866 m 5 X s 1041 772 m -93 Y s 1038 679 m 5 X s 1067 773 m 93 Y s 1065 866 m 5 X s 1067 773 m -94 Y s 1065 679 m 5 X s 1094 772 m
 94 Y s 1092 866 m 5 X s 1094 772 m -93 Y s 1092 679 m 5 X s 1121 773 m 93 Y s 1118 866 m 5 X s 1121 773 m -94 Y s 1118 679 m 5 X s 1147 773 m 93 Y s 1145 866 m 5 X s 1147 773 m -94 Y s 1145 679 m 5 X s 1174 763 m 93 Y s 1171 856 m 5 X s 1174 763 m
 -93 Y s 1171 670 m 5 X s 1200 770 m 93 Y s 1198 863 m 5 X s 1200 770 m -93 Y s 1198 677 m 5 X s 1227 772 m 94 Y s 1224 866 m 5 X s 1227 772 m -93 Y s 1224 679 m 5 X s 1253 770 m 93 Y s 1251 863 m 5 X s 1253 770 m -93 Y s 1251 677 m 5 X s 1280 776 m
 93 Y s 1277 869 m 5 X s 1280 776 m -93 Y s 1277 683 m 5 X s 1306 768 m 93 Y s 1304 861 m 5 X s 1306 768 m -94 Y s 1304 674 m 5 X s 1333 765 m 92 Y s 1330 857 m 6 X s 1333 765 m -91 Y s 1330 674 m 6 X s 1360 773 m 94 Y s 1357 867 m 5 X s 1360 773 m
 -93 Y s 1357 680 m 5 X s 1386 768 m 93 Y s 1384 861 m 5 X s 1386 768 m -93 Y s 1384 675 m 5 X s 1413 772 m 94 Y s 1410 866 m 5 X s 1413 772 m -93 Y s 1410 679 m 5 X s 1439 771 m 93 Y s 1437 864 m 5 X s 1439 771 m -93 Y s 1437 678 m 5 X s 1466 777 m
 93 Y s 1463 870 m 5 X s 1466 777 m -93 Y s 1463 684 m 5 X s 1492 774 m 93 Y s 1490 867 m 5 X s 1492 774 m -94 Y s 1490 680 m 5 X s 1519 776 m 93 Y s 1516 869 m 5 X s 1519 776 m -94 Y s 1516 682 m 5 X s 1545 769 m 93 Y s 1543 862 m 5 X s 1545 769 m
 -93 Y s 1543 676 m 5 X s 1572 773 m 93 Y s 1569 866 m 5 X s 1572 773 m -93 Y s 1569 680 m 5 X s 1598 762 m 91 Y s 1596 853 m 5 X s 1598 762 m -90 Y s 1596 672 m 5 X s 1625 772 m 94 Y s 1622 866 m 6 X s 1625 772 m -93 Y s 1622 679 m 6 X s 1652 769 m
 93 Y s 1649 862 m 5 X s 1652 769 m -93 Y s 1649 676 m 5 X s 1678 772 m 93 Y s 1676 865 m 5 X s 1678 772 m -93 Y s 1676 679 m 5 X s 1705 766 m 92 Y s 1702 858 m 5 X s 1705 766 m -93 Y s 1702 673 m 5 X s 1731 745 m 86 Y s 1729 831 m 5 X s 1731 745 m
 -87 Y s 1729 658 m 5 X s 1758 793 m 90 Y s 1755 883 m 5 X s 1758 793 m -90 Y s 1755 703 m 5 X s 1784 826 m 87 Y s 1782 913 m 5 X s 1784 826 m -88 Y s 1782 738 m 5 X s 1811 750 m 92 Y s 1808 842 m 5 X s 1811 750 m -91 Y s 1808 659 m 5 X s 1837 768 m
 92 Y s 1835 860 m 5 X s 1837 768 m -92 Y s 1835 676 m 5 X s 1864 761 m 90 Y s 1861 851 m 5 X s 1864 761 m -90 Y s 1861 671 m 5 X s 1891 613 m 78 Y s 1888 691 m 5 X s 1891 613 m -28 Y s 1888 585 m 5 X s 1917 821 m 86 Y s 1915 907 m 5 X s 1917 821 m
 -86 Y s 1915 735 m 5 X s 1944 800 m 88 Y s 1941 888 m 5 X s 1944 800 m -87 Y s 1941 713 m 5 X s 1970 704 m 84 Y s 1968 788 m 5 X s 1970 704 m -84 Y s 1968 620 m 5 X s 1997 770 m 90 Y s 1994 860 m 5 X s 1997 770 m -89 Y s 1994 681 m 5 X s 2023 761 m
 88 Y s 2021 849 m 5 X s 2023 761 m -89 Y s 2021 672 m 5 X s 2050 728 m 88 Y s 2047 816 m 5 X s 2050 728 m -89 Y s 2047 639 m 5 X s 2076 768 m 91 Y s 2074 859 m 5 X s 2076 768 m -91 Y s 2074 677 m 5 X s 2103 718 m 90 Y s 2100 808 m 5 X s 2103 718 m
 -90 Y s 2100 628 m 5 X s 2129 773 m 93 Y s 2127 866 m 5 X s 2129 773 m -94 Y s 2127 679 m 5 X s 2156 774 m 89 Y s 2153 863 m 6 X s 2156 774 m -89 Y s 2153 685 m 6 X s 2183 747 m 92 Y s 2180 839 m 5 X s 2183 747 m -92 Y s 2180 655 m 5 X s 2209 774 m
 93 Y s 2207 867 m 5 X s 2209 774 m -92 Y s 2207 682 m 5 X s 1 1 1 c black /w 10 def /w2 {w 2 div} def /w3 {w 3 div} def 59 774 85 769 112 772 138 773 165 772 191 772 218 771 244 771 271 772 298 773 324 772 351 773 377 773 404 773 430 773 457 773 483
 773 510 773 537 773 563 773 590 772 616 776 643 773 669 773 696 773 722 772 749 772 775 774 802 774 829 773 855 779 882 774 908 772 935 772 961 773 988 772 1014 772 1041 772 1067 773 1094 772 1121 773 1147 773 1174 763 1200 770 1227 772 1253 770
 1280 776 1306 768 1333 765 1360 773 1386 768 1413 772 1439 771 1466 777 1492 774 1519 776 1545 769 1572 773 1598 762 1625 772 1652 769 1678 772 1705 766 1731 745 1758 793 1784 826 1811 750 1837 768 1864 761 1891 613 1917 821 1944 800 1970 704 1997
 770 2023 761 2050 728 2076 768 2103 718 2129 773 2156 774 2183 747 2209 774 82 { m20} R
 gr  gr showpage
end
%%EOF
