%!PS-Adobe-2.0 EPSF-2.0
%%BoundingBox:  0 0 567 244
%%Title: cCNp_matrix_DPhill.eps: 
%%Creator: ROOT Version 6.16/00
%%CreationDate: Thu Dec  2 19:26:24 2021
%%DocumentNeededResources: ProcSet (FontSetInit)
%%EndComments
%%BeginProlog
80 dict begin
/s {stroke} def /l {lineto} def /m {moveto} def /t {translate} def
/r {rotate} def /rl {roll}  def /R {repeat} def
/d {rlineto} def /rm {rmoveto} def /gr {grestore} def /f {eofill} def
/c {setrgbcolor} def /black {0 setgray} def /sd {setdash} def
/cl {closepath} def /sf {scalefont setfont} def /lw {setlinewidth} def
/box {m dup 0 exch d exch 0 d 0 exch neg d cl} def
/NC{systemdict begin initclip end}def/C{NC box clip newpath}def
/bl {box s} def /bf {gsave box gsave f grestore 1 lw [] 0 sd s grestore} def /Y { 0 exch d} def /X { 0 d} def 
/K {{pop pop 0 moveto} exch kshow} bind def
/ita {/ang 15 def gsave [1 0 ang dup sin exch cos div 1 0 0] concat} def 
/mp {newpath /y exch def /x exch def} def
/side {[w .77 mul w .23 mul] .385 w mul sd w 0 l currentpoint t -144 r} def
/mr {mp x y w2 0 360 arc} def /m24 {mr s} def /m20 {mr f} def
/mb {mp x y w2 add m w2 neg 0 d 0 w neg d w 0 d 0 w d cl} def
/mt {mp x y w2 add m w2 neg w neg d w 0 d cl} def
/w4 {w 4 div} def
/w6 {w 6 div} def
/w8 {w 8 div} def
/m21 {mb f} def /m25 {mb s} def /m22 {mt f} def /m26{mt s} def
/m23 {mp x y w2 sub m w2 w d w neg 0 d cl f} def
/m27 {mp x y w2 add m w3 neg w2 neg d w3 w2 neg d w3 w2 d cl s} def
/m28 {mp x w2 sub y w2 sub w3 add m w3 0 d  0 w3 neg d w3 0 d 0 w3 d w3 0 d  0 w3 d w3 neg 0 d 0 w3 d w3 neg 0 d 0 w3 neg d w3 neg 0 d cl s } def
/m29 {mp gsave x w2 sub y w2 add w3 sub m currentpoint t 4 {side} repeat cl fill gr} def
/m30 {mp gsave x w2 sub y w2 add w3 sub m currentpoint t 4 {side} repeat cl s gr} def
/m31 {mp x y w2 sub m 0 w d x w2 sub y m w 0 d x w2 sub y w2 add m w w neg d x w2 sub y w2 sub m w w d s} def
/m32 {mp x y w2 sub m w2 w d w neg 0 d cl s} def
/m33 {mp x y w2 add m w3 neg w2 neg d w3 w2 neg d w3 w2 d cl f} def
/m34 {mp x w2 sub y w2 sub w3 add m w3 0 d  0 w3 neg d w3 0 d 0 w3 d w3 0 d  0 w3 d w3 neg 0 d 0 w3 d w3 neg 0 d 0 w3 neg d w3 neg 0 d cl f } def
/m35 {mp x y w2 add m w2 neg w2 neg d w2 w2 neg d w2 w2 d w2 neg w2 d x y w2 sub m 0 w d x w2 sub y m w 0 d s} def
/m36 {mb x w2 sub y w2 add m w w neg d x w2 sub y w2 sub m w w d s} def
/m37 {mp x y m w4 neg w2 d w4 neg w2 neg d w2 0 d  w4 neg w2 neg d w2 0 d w4 neg w2 d w2 0 d w4 neg w2 d w4 neg w2 neg d cl s} def
/m38 {mp x w4 sub y w2 add m w4 neg w4 neg d 0 w2 neg d w4 w4 neg d w2 0 d w4 w4 d 0 w2 d w4 neg w4 d w2 neg 0 d x y w2 sub m 0 w d x w2 sub y m w 0 d cl s} def
/m39 {mp x y m w4 neg w2 d w4 neg w2 neg d w2 0 d  w4 neg w2 neg d w2 0 d w4 neg w2 d w2 0 d w4 neg w2 d w4 neg w2 neg d cl f} def
/m40 {mp x y m w4 w2 d w4 w4 neg d w2 neg w4 neg d w2 w4 neg d w4 neg w4 neg d w4 neg w2 d w4 neg w2 neg d w4 neg w4 d w2 w4 d w2 neg w4 d w4 w4 d w4 w2 neg d cl s} def
/m41 {mp x y m w4 w2 d w4 w4 neg d w2 neg w4 neg d w2 w4 neg d w4 neg w4 neg d w4 neg w2 d w4 neg w2 neg d w4 neg w4 d w2 w4 d w2 neg w4 d w4 w4 d w4 w2 neg d cl f} def
/m42 {mp x y w2 add m w8 neg w2 -3 4 div mul d w2 -3 4 div mul w8 neg d w2 3 4 div mul w8 neg d w8 w2 -3 4 div mul d w8 w2 3 4 div mul d w2 3 4 div mul w8 d w2 -3 4 div mul w8 d w8 neg w2 3 4 div mul d cl s} def
/m43 {mp x y w2 add m w8 neg w2 -3 4 div mul d w2 -3 4 div mul w8 neg d w2 3 4 div mul w8 neg d w8 w2 -3 4 div mul d w8 w2 3 4 div mul d w2 3 4 div mul w8 d w2 -3 4 div mul w8 d w8 neg w2 3 4 div mul d cl f} def
/m44 {mp x y m w6 neg w2 d w2 2 3 div mul 0 d w6 neg w2 neg d w2 w6 d 0 w2 -2 3 div mul d w2 neg w6 d w6 w2 neg d w2 -2 3 div mul 0 d w6 w2 d w2 neg w6 neg d 0 w2 2 3 div mul d w2 w6 neg d cl s} def
/m45 {mp x y m w6 neg w2 d w2 2 3 div mul 0 d w6 neg w2 neg d w2 w6 d 0 w2 -2 3 div mul d w2 neg w6 d w6 w2 neg d w2 -2 3 div mul 0 d w6 w2 d w2 neg w6 neg d 0 w2 2 3 div mul d w2 w6 neg d cl f} def
/m46 {mp x y w4 add m w4 neg w4 d w4 neg w4 neg d  w4 w4 neg d w4 neg w4 neg d w4 w4 neg d w4 w4 d w4 w4 neg d w4 w4 d w4 neg w4 d w4 w4 d w4 neg w4 d w4 neg w4 neg d cl s} def
/m47 {mp x y w4 add m w4 neg w4 d w4 neg w4 neg d w4 w4 neg d w4 neg w4 neg d  w4 w4 neg d w4 w4 d w4 w4 neg d w4 w4 d w4 neg w4 d w4 w4 d w4 neg w4 d w4 neg w4 neg d cl f} def
/m48 {mp x y w4 add m w4 neg w4 d w4 neg w4 neg d w4 w4 neg d  w4 neg w4 neg d w4 w4 neg d w4 w4 d w4 w4 neg d w4 w4 d w4 neg w4 d w4 w4 d w4 neg w4 d w4 neg w4 neg d  w4 w4 neg d w4 neg w4 neg d w4 neg w4 d w4 w4 d cl f} def
/m49 {mp x w2 sub w3 add y w2 sub w3 add m  0 w3 neg d w3 0 d 0 w3 d w3 0 d 0 w3 d w3 neg 0 d 0 w3 d w3 neg 0 d 0 w3 neg d w3 neg 0 d 0 w3 neg d w3 0 d 0 w3 d w3 0 d 0 w3 neg d w3 neg 0 d cl f } def
/m2 {mp x y w2 sub m 0 w d x w2 sub y m w 0 d s} def
/m5 {mp x w2 sub y w2 sub m w w d x w2 sub y w2 add m w w neg d s} def
%%IncludeResource: ProcSet (FontSetInit)
%%IncludeResource: font Times-Roman
%%IncludeResource: font Times-Italic
%%IncludeResource: font Times-Bold
%%IncludeResource: font Times-BoldItalic
%%IncludeResource: font Helvetica
%%IncludeResource: font Helvetica-Oblique
%%IncludeResource: font Helvetica-Bold
%%IncludeResource: font Helvetica-BoldOblique
%%IncludeResource: font Courier
%%IncludeResource: font Courier-Oblique
%%IncludeResource: font Courier-Bold
%%IncludeResource: font Courier-BoldOblique
%%IncludeResource: font Symbol
%%IncludeResource: font ZapfDingbats
/reEncode {exch findfont dup length dict begin {1 index /FID eq  {pop pop} {def} ifelse } forall /Encoding exch def currentdict end dup /FontName get exch definefont pop } def [/Times-Bold /Times-Italic /Times-BoldItalic /Helvetica /Helvetica-Oblique
 /Helvetica-Bold /Helvetica-BoldOblique /Courier /Courier-Oblique /Courier-Bold /Courier-BoldOblique /Times-Roman /AvantGarde-Book /AvantGarde-BookOblique /AvantGarde-Demi /AvantGarde-DemiOblique /Bookman-Demi /Bookman-DemiItalic /Bookman-Light
 /Bookman-LightItalic /Helvetica-Narrow /Helvetica-Narrow-Bold /Helvetica-Narrow-BoldOblique /Helvetica-Narrow-Oblique /NewCenturySchlbk-Roman /NewCenturySchlbk-Bold /NewCenturySchlbk-BoldItalic /NewCenturySchlbk-Italic /Palatino-Bold
 /Palatino-BoldItalic /Palatino-Italic /Palatino-Roman ] {ISOLatin1Encoding reEncode } forall
%%EndProlog
%%BeginSetup
%%EndSetup
newpath  gsave  .25 .25 scale  gsave  0 0 t black[  ] 0 sd 3 lw 1 1 1 c 2268 975 0 0 bf black 1 1 1 c 0 3899 2268 -1949 bf black 0 3899 2268 -1949 bl 6 lw 1 1 1 c black 2268 0 m cl s 3 lw 0 0 m 2268 X s 0 29 m -29 Y s 113 15 m -15 Y s 227 15 m -15 Y
 s 340 15 m -15 Y s 454 29 m -29 Y s 567 15 m -15 Y s 680 15 m -15 Y s 794 15 m -15 Y s 907 29 m -29 Y s 1020 15 m -15 Y s 1134 15 m -15 Y s 1247 15 m -15 Y s 1361 29 m -29 Y s 1474 15 m -15 Y s 1587 15 m -15 Y s 1701 15 m -15 Y s 1814 29 m -29 Y s
 1928 15 m -15 Y s 2041 15 m -15 Y s 2154 15 m -15 Y s 2268 29 m -29 Y s 2268 29 m -29 Y s
 gsave  2268 975 0 0 C -6.31324 -23.9903 t 0 r /Helvetica findfont 23.9903 sf 0 0 m (0) show NC gr 
 gsave  2268 975 0 0 C 436.876 -23.9903 t 0 r /Helvetica findfont 23.9903 sf 0 0 m (0.2) show NC gr 
 gsave  2268 975 0 0 C 890.167 -23.9903 t 0 r /Helvetica findfont 23.9903 sf 0 0 m (0.4) show NC gr 
 gsave  2268 975 0 0 C 1343.46 -23.9903 t 0 r /Helvetica findfont 23.9903 sf 0 0 m (0.6) show NC gr 
 gsave  2268 975 0 0 C 1796.75 -23.9903 t 0 r /Helvetica findfont 23.9903 sf 0 0 m (0.8) show NC gr 
 gsave  2268 975 0 0 C 2262.67 -23.9903 t 0 r /Helvetica findfont 23.9903 sf 0 0 m (1) show NC gr  0 975 m 2268 X s 0 946 m 29 Y s 113 960 m 15 Y s 227 960 m 15 Y s 340 960 m 15 Y s 454 946 m 29 Y s 567 960 m 15 Y s 680 960 m 15 Y s 794 960 m 15 Y s
 907 946 m 29 Y s 1020 960 m 15 Y s 1134 960 m 15 Y s 1247 960 m 15 Y s 1361 946 m 29 Y s 1474 960 m 15 Y s 1587 960 m 15 Y s 1701 960 m 15 Y s 1814 946 m 29 Y s 1928 960 m 15 Y s 2041 960 m 15 Y s 2154 960 m 15 Y s 2268 946 m 29 Y s 2268 946 m 29 Y
 s 0 0 m 975 Y s 68 0 m -68 X s 34 19 m -34 X s 34 39 m -34 X s 34 58 m -34 X s 34 78 m -34 X s 68 97 m -68 X s 34 117 m -34 X s 34 136 m -34 X s 34 156 m -34 X s 34 175 m -34 X s 68 195 m -68 X s 34 214 m -34 X s 34 234 m -34 X s 34 253 m -34 X s 34
 273 m -34 X s 68 292 m -68 X s 34 312 m -34 X s 34 331 m -34 X s 34 351 m -34 X s 34 370 m -34 X s 68 390 m -68 X s 34 409 m -34 X s 34 429 m -34 X s 34 448 m -34 X s 34 468 m -34 X s 68 487 m -68 X s 34 507 m -34 X s 34 526 m -34 X s 34 546 m -34 X
 s 34 565 m -34 X s 68 585 m -68 X s 34 604 m -34 X s 34 624 m -34 X s 34 643 m -34 X s 34 663 m -34 X s 68 682 m -68 X s 34 702 m -34 X s 34 721 m -34 X s 34 741 m -34 X s 34 760 m -34 X s 68 780 m -68 X s 34 799 m -34 X s 34 819 m -34 X s 34 838 m
 -34 X s 34 858 m -34 X s 68 877 m -68 X s 34 897 m -34 X s 34 916 m -34 X s 34 936 m -34 X s 34 955 m -34 X s 68 975 m -68 X s
 gsave  2268 975 0 0 C -22.7277 -8.83854 t 0 r /Helvetica findfont 23.9903 sf 0 0 m (0) show NC gr 
 gsave  2268 975 0 0 C -39.1421 89.648 t 0 r /Helvetica findfont 23.9903 sf 0 0 m (0.1) show NC gr 
 gsave  2268 975 0 0 C -42.93 186.872 t 0 r /Helvetica findfont 23.9903 sf 0 0 m (0.2) show NC gr 
 gsave  2268 975 0 0 C -42.93 284.096 t 0 r /Helvetica findfont 23.9903 sf 0 0 m (0.3) show NC gr 
 gsave  2268 975 0 0 C -42.93 381.32 t 0 r /Helvetica findfont 23.9903 sf 0 0 m (0.4) show NC gr 
 gsave  2268 975 0 0 C -42.93 478.544 t 0 r /Helvetica findfont 23.9903 sf 0 0 m (0.5) show NC gr 
 gsave  2268 975 0 0 C -42.93 577.03 t 0 r /Helvetica findfont 23.9903 sf 0 0 m (0.6) show NC gr 
 gsave  2268 975 0 0 C -42.93 674.254 t 0 r /Helvetica findfont 23.9903 sf 0 0 m (0.7) show NC gr 
 gsave  2268 975 0 0 C -42.93 771.478 t 0 r /Helvetica findfont 23.9903 sf 0 0 m (0.8) show NC gr 
 gsave  2268 975 0 0 C -42.93 868.702 t 0 r /Helvetica findfont 23.9903 sf 0 0 m (0.9) show NC gr 
 gsave  2268 975 0 0 C -18.9397 964.663 t 0 r /Helvetica findfont 23.9903 sf 0 0 m (1) show NC gr 
 gsave  2268 975 0 0 C -90.9107 959.613 t 90 r /Symbol findfont 29.0409 sf 0 0 m (q) show NC gr 
 gsave  2268 975 0 0 C -90.9107 944.461 t 90 r /Symbol findfont 29.0409 sf 0 0 m (d) show NC gr 
 gsave  2268 975 0 0 C -90.9107 934.36 t 90 r /Helvetica findfont 29.0409 sf 0 0 m (/) show NC gr 
 gsave  2268 975 0 0 C -90.9107 919.208 t 90 r /Symbol findfont 29.0409 sf 0 0 m (q) show NC gr 
 gsave  2268 975 0 0 C -90.9107 910.37 t 90 r /Helvetica findfont 29.0409 sf 0 0 m (\255) show NC gr 
 gsave  2268 975 0 0 C -90.9107 895.218 t 90 r /Symbol findfont 29.0409 sf 0 0 m (q) show NC gr  2268 0 m 975 Y s 2200 0 m 68 X s 2234 19 m 34 X s 2234 39 m 34 X s 2234 58 m 34 X s 2234 78 m 34 X s 2200 97 m 68 X s 2234 117 m 34 X s 2234 136 m 34 X s
 2234 156 m 34 X s 2234 175 m 34 X s 2200 195 m 68 X s 2234 214 m 34 X s 2234 234 m 34 X s 2234 253 m 34 X s 2234 273 m 34 X s 2200 292 m 68 X s 2234 312 m 34 X s 2234 331 m 34 X s 2234 351 m 34 X s 2234 370 m 34 X s 2200 390 m 68 X s 2234 409 m 34 X
 s 2234 429 m 34 X s 2234 448 m 34 X s 2234 468 m 34 X s 2200 487 m 68 X s 2234 507 m 34 X s 2234 526 m 34 X s 2234 546 m 34 X s 2234 565 m 34 X s 2200 585 m 68 X s 2234 604 m 34 X s 2234 624 m 34 X s 2234 643 m 34 X s 2234 663 m 34 X s 2200 682 m 68
 X s 2234 702 m 34 X s 2234 721 m 34 X s 2234 741 m 34 X s 2234 760 m 34 X s 2200 780 m 68 X s 2234 799 m 34 X s 2234 819 m 34 X s 2234 838 m 34 X s 2234 858 m 34 X s 2200 877 m 68 X s 2234 897 m 34 X s 2234 916 m 34 X s 2234 936 m 34 X s 2234 955 m
 34 X s 2200 975 m 68 X s
 gr  gr showpage
end
%%EOF
