%!PS-Adobe-2.0 EPSF-2.0
%%BoundingBox:  0 0 567 244
%%Title: cCNp1_matrix_SignedDPhijj.eps: 
%%Creator: ROOT Version 6.24/06
%%CreationDate: Tue Jan  4 00:02:08 2022
%%DocumentNeededResources: ProcSet (FontSetInit)
%%EndComments
%%BeginProlog
80 dict begin
/s {stroke} def /l {lineto} def /m {moveto} def /t {translate} def
/r {rotate} def /rl {roll}  def /R {repeat} def
/d {rlineto} def /rm {rmoveto} def /gr {grestore} def /f {eofill} def
/c {setrgbcolor} def /black {0 setgray} def /sd {setdash} def
/cl {closepath} def /sf {scalefont setfont} def /lw {setlinewidth} def
/box {m dup 0 exch d exch 0 d 0 exch neg d cl} def
/NC{systemdict begin initclip end}def/C{NC box clip newpath}def
/bl {box s} def /bf {gsave box gsave f grestore 1 lw [] 0 sd s grestore} def /Y { 0 exch d} def /X { 0 d} def 
/K {{pop pop 0 moveto} exch kshow} bind def
/ita {/ang 15 def gsave [1 0 ang dup sin exch cos div 1 0 0] concat} def 
/mp {newpath /y exch def /x exch def} def
/side {[w .77 mul w .23 mul] .385 w mul sd w 0 l currentpoint t -144 r} def
/mr {mp x y w2 0 360 arc} def /m24 {mr s} def /m20 {mr f} def
/mb {mp x y w2 add m w2 neg 0 d 0 w neg d w 0 d 0 w d cl} def
/mt {mp x y w2 add m w2 neg w neg d w 0 d cl} def
/w4 {w 4 div} def
/w6 {w 6 div} def
/w8 {w 8 div} def
/m21 {mb f} def /m25 {mb s} def /m22 {mt f} def /m26{mt s} def
/m23 {mp x y w2 sub m w2 w d w neg 0 d cl f} def
/m27 {mp x y w2 add m w3 neg w2 neg d w3 w2 neg d w3 w2 d cl s} def
/m28 {mp x w2 sub y w2 sub w3 add m w3 0 d  0 w3 neg d w3 0 d 0 w3 d w3 0 d  0 w3 d w3 neg 0 d 0 w3 d w3 neg 0 d 0 w3 neg d w3 neg 0 d cl s } def
/m29 {mp gsave x w2 sub y w2 add w3 sub m currentpoint t 4 {side} repeat cl fill gr} def
/m30 {mp gsave x w2 sub y w2 add w3 sub m currentpoint t 4 {side} repeat cl s gr} def
/m31 {mp x y w2 sub m 0 w d x w2 sub y m w 0 d x w2 .707 mul sub y w2 .707 mul add m w 1.44 div w 1.44 div neg d x w2 .707 mul sub y w2 .707 mul sub m w 1.44 div w 1.44 div d s} def
/m32 {mp x y w2 sub m w2 w d w neg 0 d cl s} def
/m33 {mp x y w2 add m w3 neg w2 neg d w3 w2 neg d w3 w2 d cl f} def
/m34 {mp x w2 sub y w2 sub w3 add m w3 0 d  0 w3 neg d w3 0 d 0 w3 d w3 0 d  0 w3 d w3 neg 0 d 0 w3 d w3 neg 0 d 0 w3 neg d w3 neg 0 d cl f } def
/m35 {mp x y w2 add m w2 neg w2 neg d w2 w2 neg d w2 w2 d w2 neg w2 d x y w2 sub m 0 w d x w2 sub y m w 0 d s} def
/m36 {mb x w2 sub y w2 add m w w neg d x w2 sub y w2 sub m w w d s} def
/m37 {mp x y m w4 neg w2 d w4 neg w2 neg d w2 0 d  w4 neg w2 neg d w2 0 d w4 neg w2 d w2 0 d w4 neg w2 d w4 neg w2 neg d cl s} def
/m38 {mp x w4 sub y w2 add m w4 neg w4 neg d 0 w2 neg d w4 w4 neg d w2 0 d w4 w4 d 0 w2 d w4 neg w4 d w2 neg 0 d x y w2 sub m 0 w d x w2 sub y m w 0 d cl s} def
/m39 {mp x y m w4 neg w2 d w4 neg w2 neg d w2 0 d  w4 neg w2 neg d w2 0 d w4 neg w2 d w2 0 d w4 neg w2 d w4 neg w2 neg d cl f} def
/m40 {mp x y m w4 w2 d w4 w4 neg d w2 neg w4 neg d w2 w4 neg d w4 neg w4 neg d w4 neg w2 d w4 neg w2 neg d w4 neg w4 d w2 w4 d w2 neg w4 d w4 w4 d w4 w2 neg d cl s} def
/m41 {mp x y m w4 w2 d w4 w4 neg d w2 neg w4 neg d w2 w4 neg d w4 neg w4 neg d w4 neg w2 d w4 neg w2 neg d w4 neg w4 d w2 w4 d w2 neg w4 d w4 w4 d w4 w2 neg d cl f} def
/m42 {mp x y w2 add m w8 neg w2 -3 4 div mul d w2 -3 4 div mul w8 neg d w2 3 4 div mul w8 neg d w8 w2 -3 4 div mul d w8 w2 3 4 div mul d w2 3 4 div mul w8 d w2 -3 4 div mul w8 d w8 neg w2 3 4 div mul d cl s} def
/m43 {mp x y w2 add m w8 neg w2 -3 4 div mul d w2 -3 4 div mul w8 neg d w2 3 4 div mul w8 neg d w8 w2 -3 4 div mul d w8 w2 3 4 div mul d w2 3 4 div mul w8 d w2 -3 4 div mul w8 d w8 neg w2 3 4 div mul d cl f} def
/m44 {mp x y m w6 neg w2 d w2 2 3 div mul 0 d w6 neg w2 neg d w2 w6 d 0 w2 -2 3 div mul d w2 neg w6 d w6 w2 neg d w2 -2 3 div mul 0 d w6 w2 d w2 neg w6 neg d 0 w2 2 3 div mul d w2 w6 neg d cl s} def
/m45 {mp x y m w6 neg w2 d w2 2 3 div mul 0 d w6 neg w2 neg d w2 w6 d 0 w2 -2 3 div mul d w2 neg w6 d w6 w2 neg d w2 -2 3 div mul 0 d w6 w2 d w2 neg w6 neg d 0 w2 2 3 div mul d w2 w6 neg d cl f} def
/m46 {mp x y w4 add m w4 neg w4 d w4 neg w4 neg d  w4 w4 neg d w4 neg w4 neg d w4 w4 neg d w4 w4 d w4 w4 neg d w4 w4 d w4 neg w4 d w4 w4 d w4 neg w4 d w4 neg w4 neg d cl s} def
/m47 {mp x y w4 add m w4 neg w4 d w4 neg w4 neg d w4 w4 neg d w4 neg w4 neg d  w4 w4 neg d w4 w4 d w4 w4 neg d w4 w4 d w4 neg w4 d w4 w4 d w4 neg w4 d w4 neg w4 neg d cl f} def
/m48 {mp x y w4 add m w4 neg w4 d w4 neg w4 neg d w4 w4 neg d  w4 neg w4 neg d w4 w4 neg d w4 w4 d w4 w4 neg d w4 w4 d w4 neg w4 d w4 w4 d w4 neg w4 d w4 neg w4 neg d  w4 w4 neg d w4 neg w4 neg d w4 neg w4 d w4 w4 d cl f} def
/m49 {mp x w2 sub w3 add y w2 sub w3 add m  0 w3 neg d w3 0 d 0 w3 d w3 0 d 0 w3 d w3 neg 0 d 0 w3 d w3 neg 0 d 0 w3 neg d w3 neg 0 d 0 w3 neg d w3 0 d 0 w3 d w3 0 d 0 w3 neg d w3 neg 0 d cl f } def
/m2 {mp x y w2 sub m 0 w d x w2 sub y m w 0 d s} def
/m5 {mp x w2 .707 mul sub y w2 .707 mul sub m w 1.44 div w 1.44 div d x w2 .707 mul sub y w2 .707 mul add m w 1.44 div w 1.44 div neg d s} def
%%IncludeResource: ProcSet (FontSetInit)
%%IncludeResource: font Times-Roman
%%IncludeResource: font Times-Italic
%%IncludeResource: font Times-Bold
%%IncludeResource: font Times-BoldItalic
%%IncludeResource: font Helvetica
%%IncludeResource: font Helvetica-Oblique
%%IncludeResource: font Helvetica-Bold
%%IncludeResource: font Helvetica-BoldOblique
%%IncludeResource: font Courier
%%IncludeResource: font Courier-Oblique
%%IncludeResource: font Courier-Bold
%%IncludeResource: font Courier-BoldOblique
%%IncludeResource: font Symbol
%%IncludeResource: font ZapfDingbats
/reEncode {exch findfont dup length dict begin {1 index /FID eq  {pop pop} {def} ifelse } forall /Encoding exch def currentdict end dup /FontName get exch definefont pop } def [/Times-Bold /Times-Italic /Times-BoldItalic /Helvetica /Helvetica-Oblique
 /Helvetica-Bold /Helvetica-BoldOblique /Courier /Courier-Oblique /Courier-Bold /Courier-BoldOblique /Times-Roman /AvantGarde-Book /AvantGarde-BookOblique /AvantGarde-Demi /AvantGarde-DemiOblique /Bookman-Demi /Bookman-DemiItalic /Bookman-Light
 /Bookman-LightItalic /Helvetica-Narrow /Helvetica-Narrow-Bold /Helvetica-Narrow-BoldOblique /Helvetica-Narrow-Oblique /NewCenturySchlbk-Roman /NewCenturySchlbk-Bold /NewCenturySchlbk-BoldItalic /NewCenturySchlbk-Italic /Palatino-Bold
 /Palatino-BoldItalic /Palatino-Italic /Palatino-Roman ] {ISOLatin1Encoding reEncode } forall
%%EndProlog
%%BeginSetup
%%EndSetup
newpath  gsave  .25 .25 scale  gsave  0 0 t black[  ] 0 sd 3 lw 1 1 1 c 2268 975 0 0 bf black 1 1 1 c 2177 375 45 585 bf black 2177 375 45 585 bl 6 lw 1 1 1 c black 45 773 m 2177 X s 3 lw 45 585 m 2177 X s
 gsave  2268 975 0 0 C 61.8698 320.713 t 90 r /Helvetica findfont 23.9903 sf 0 0 m (EG_RESOLUTION_ALL) show NC gr 
 gsave  2268 975 0 0 C 83.3348 398.997 t 90 r /Helvetica findfont 23.9903 sf 0 0 m (EG_SCALE_ALL) show NC gr 
 gsave  2268 975 0 0 C 102.275 219.701 t 90 r /Helvetica findfont 23.9903 sf 0 0 m (EL_EFF_ID_CorrUncertaintyNP10) show NC gr 
 gsave  2268 975 0 0 C 122.477 223.489 t 90 r /Helvetica findfont 23.9903 sf 0 0 m (EL_EFF_ID_CorrUncertaintyNP11) show NC gr 
 gsave  2268 975 0 0 C 142.679 219.701 t 90 r /Helvetica findfont 23.9903 sf 0 0 m (EL_EFF_ID_CorrUncertaintyNP12) show NC gr 
 gsave  2268 975 0 0 C 162.882 219.701 t 90 r /Helvetica findfont 23.9903 sf 0 0 m (EL_EFF_ID_CorrUncertaintyNP13) show NC gr 
 gsave  2268 975 0 0 C 183.084 218.438 t 90 r /Helvetica findfont 23.9903 sf 0 0 m (EL_EFF_ID_CorrUncertaintyNP14) show NC gr 
 gsave  2268 975 0 0 C 203.286 218.438 t 90 r /Helvetica findfont 23.9903 sf 0 0 m (EL_EFF_ID_CorrUncertaintyNP15) show NC gr 
 gsave  2268 975 0 0 C 223.489 232.327 t 90 r /Helvetica findfont 23.9903 sf 0 0 m (EL_EFF_ID_CorrUncertaintyNP3) show NC gr 
 gsave  2268 975 0 0 C 243.691 232.327 t 90 r /Helvetica findfont 23.9903 sf 0 0 m (EL_EFF_ID_CorrUncertaintyNP4) show NC gr 
 gsave  2268 975 0 0 C 265.156 232.327 t 90 r /Helvetica findfont 23.9903 sf 0 0 m (EL_EFF_ID_CorrUncertaintyNP5) show NC gr 
 gsave  2268 975 0 0 C 285.359 232.327 t 90 r /Helvetica findfont 23.9903 sf 0 0 m (EL_EFF_ID_CorrUncertaintyNP6) show NC gr 
 gsave  2268 975 0 0 C 305.561 232.327 t 90 r /Helvetica findfont 23.9903 sf 0 0 m (EL_EFF_ID_CorrUncertaintyNP7) show NC gr 
 gsave  2268 975 0 0 C 327.026 232.327 t 90 r /Helvetica findfont 23.9903 sf 0 0 m (EL_EFF_ID_CorrUncertaintyNP8) show NC gr 
 gsave  2268 975 0 0 C 347.228 232.327 t 90 r /Helvetica findfont 23.9903 sf 0 0 m (EL_EFF_ID_CorrUncertaintyNP9) show NC gr 
 gsave  2268 975 0 0 C 367.431 49.2433 t 90 r /Helvetica findfont 23.9903 sf 0 0 m (EL_EFF_ID_SIMPLIFIED_UncorrUncertaintyNP12) show NC gr 
 gsave  2268 975 0 0 C 387.633 49.2433 t 90 r /Helvetica findfont 23.9903 sf 0 0 m (EL_EFF_ID_SIMPLIFIED_UncorrUncertaintyNP13) show NC gr 
 gsave  2268 975 0 0 C 407.835 47.9806 t 90 r /Helvetica findfont 23.9903 sf 0 0 m (EL_EFF_ID_SIMPLIFIED_UncorrUncertaintyNP14) show NC gr 
 gsave  2268 975 0 0 C 429.3 47.9806 t 90 r /Helvetica findfont 23.9903 sf 0 0 m (EL_EFF_ID_SIMPLIFIED_UncorrUncertaintyNP15) show NC gr 
 gsave  2268 975 0 0 C 449.503 47.9806 t 90 r /Helvetica findfont 23.9903 sf 0 0 m (EL_EFF_ID_SIMPLIFIED_UncorrUncertaintyNP16) show NC gr 
 gsave  2268 975 0 0 C 469.705 47.9806 t 90 r /Helvetica findfont 23.9903 sf 0 0 m (EL_EFF_ID_SIMPLIFIED_UncorrUncertaintyNP17) show NC gr 
 gsave  2268 975 0 0 C 489.908 61.8698 t 90 r /Helvetica findfont 23.9903 sf 0 0 m (EL_EFF_ID_SIMPLIFIED_UncorrUncertaintyNP3) show NC gr 
 gsave  2268 975 0 0 C 510.11 61.8698 t 90 r /Helvetica findfont 23.9903 sf 0 0 m (EL_EFF_ID_SIMPLIFIED_UncorrUncertaintyNP4) show NC gr 
 gsave  2268 975 0 0 C 530.312 61.8698 t 90 r /Helvetica findfont 23.9903 sf 0 0 m (EL_EFF_ID_SIMPLIFIED_UncorrUncertaintyNP5) show NC gr 
 gsave  2268 975 0 0 C 550.515 61.8698 t 90 r /Helvetica findfont 23.9903 sf 0 0 m (EL_EFF_ID_SIMPLIFIED_UncorrUncertaintyNP6) show NC gr 
 gsave  2268 975 0 0 C 570.717 61.8698 t 90 r /Helvetica findfont 23.9903 sf 0 0 m (EL_EFF_ID_SIMPLIFIED_UncorrUncertaintyNP7) show NC gr 
 gsave  2268 975 0 0 C 590.919 61.8698 t 90 r /Helvetica findfont 23.9903 sf 0 0 m (EL_EFF_ID_SIMPLIFIED_UncorrUncertaintyNP8) show NC gr 
 gsave  2268 975 0 0 C 612.384 68.183 t 90 r /Helvetica findfont 23.9903 sf 0 0 m (EL_EFF_Iso_TOTAL_1NPCOR_PLUS_UNCOR) show NC gr 
 gsave  2268 975 0 0 C 632.587 44.1927 t 90 r /Helvetica findfont 23.9903 sf 0 0 m (EL_EFF_Reco_TOTAL_1NPCOR_PLUS_UNCOR) show NC gr 
 gsave  2268 975 0 0 C 652.789 -5.05059 t 90 r /Helvetica findfont 23.9903 sf 0 0 m (EL_EFF_TriggerEff_TOTAL_1NPCOR_PLUS_UNCOR) show NC gr 
 gsave  2268 975 0 0 C 671.729 364.905 t 90 r /Helvetica findfont 23.9903 sf 0 0 m (FT_EFF_Eigen_B_0) show NC gr 
 gsave  2268 975 0 0 C 691.931 368.693 t 90 r /Helvetica findfont 23.9903 sf 0 0 m (FT_EFF_Eigen_B_1) show NC gr 
 gsave  2268 975 0 0 C 712.134 364.905 t 90 r /Helvetica findfont 23.9903 sf 0 0 m (FT_EFF_Eigen_B_2) show NC gr 
 gsave  2268 975 0 0 C 733.599 363.643 t 90 r /Helvetica findfont 23.9903 sf 0 0 m (FT_EFF_Eigen_C_0) show NC gr 
 gsave  2268 975 0 0 C 753.801 367.431 t 90 r /Helvetica findfont 23.9903 sf 0 0 m (FT_EFF_Eigen_C_1) show NC gr 
 gsave  2268 975 0 0 C 774.003 363.643 t 90 r /Helvetica findfont 23.9903 sf 0 0 m (FT_EFF_Eigen_C_2) show NC gr 
 gsave  2268 975 0 0 C 794.206 329.551 t 90 r /Helvetica findfont 23.9903 sf 0 0 m (FT_EFF_Eigen_Light_0) show NC gr 
 gsave  2268 975 0 0 C 814.408 333.339 t 90 r /Helvetica findfont 23.9903 sf 0 0 m (FT_EFF_Eigen_Light_1) show NC gr 
 gsave  2268 975 0 0 C 834.611 328.289 t 90 r /Helvetica findfont 23.9903 sf 0 0 m (FT_EFF_Eigen_Light_2) show NC gr 
 gsave  2268 975 0 0 C 854.813 329.551 t 90 r /Helvetica findfont 23.9903 sf 0 0 m (FT_EFF_Eigen_Light_3) show NC gr 
 gsave  2268 975 0 0 C 875.015 345.966 t 90 r /Helvetica findfont 23.9903 sf 0 0 m (FT_EFF_extrapolation) show NC gr 
 gsave  2268 975 0 0 C 896.48 344.703 t 90 r /Helvetica findfont 23.9903 sf 0 0 m (JET_BJES_Response) show NC gr 
 gsave  2268 975 0 0 C 916.683 289.146 t 90 r /Helvetica findfont 23.9903 sf 0 0 m (JET_EffectiveNP_Detector1) show NC gr 
 gsave  2268 975 0 0 C 936.885 285.359 t 90 r /Helvetica findfont 23.9903 sf 0 0 m (JET_EffectiveNP_Detector2) show NC gr 
 gsave  2268 975 0 0 C 957.087 314.399 t 90 r /Helvetica findfont 23.9903 sf 0 0 m (JET_EffectiveNP_Mixed1) show NC gr 
 gsave  2268 975 0 0 C 978.552 310.612 t 90 r /Helvetica findfont 23.9903 sf 0 0 m (JET_EffectiveNP_Mixed2) show NC gr 
 gsave  2268 975 0 0 C 998.755 310.612 t 90 r /Helvetica findfont 23.9903 sf 0 0 m (JET_EffectiveNP_Mixed3) show NC gr 
 gsave  2268 975 0 0 C 1017.69 276.52 t 90 r /Helvetica findfont 23.9903 sf 0 0 m (JET_EffectiveNP_Modelling1) show NC gr 
 gsave  2268 975 0 0 C 1037.9 272.732 t 90 r /Helvetica findfont 23.9903 sf 0 0 m (JET_EffectiveNP_Modelling2) show NC gr 
 gsave  2268 975 0 0 C 1058.1 272.732 t 90 r /Helvetica findfont 23.9903 sf 0 0 m (JET_EffectiveNP_Modelling3) show NC gr 
 gsave  2268 975 0 0 C 1078.3 272.732 t 90 r /Helvetica findfont 23.9903 sf 0 0 m (JET_EffectiveNP_Modelling4) show NC gr 
 gsave  2268 975 0 0 C 1099.77 275.257 t 90 r /Helvetica findfont 23.9903 sf 0 0 m (JET_EffectiveNP_Statistical1) show NC gr 
 gsave  2268 975 0 0 C 1119.97 271.469 t 90 r /Helvetica findfont 23.9903 sf 0 0 m (JET_EffectiveNP_Statistical2) show NC gr 
 gsave  2268 975 0 0 C 1141.43 271.469 t 90 r /Helvetica findfont 23.9903 sf 0 0 m (JET_EffectiveNP_Statistical3) show NC gr 
 gsave  2268 975 0 0 C 1161.64 271.469 t 90 r /Helvetica findfont 23.9903 sf 0 0 m (JET_EffectiveNP_Statistical4) show NC gr 
 gsave  2268 975 0 0 C 1181.84 271.469 t 90 r /Helvetica findfont 23.9903 sf 0 0 m (JET_EffectiveNP_Statistical5) show NC gr 
 gsave  2268 975 0 0 C 1202.04 271.469 t 90 r /Helvetica findfont 23.9903 sf 0 0 m (JET_EffectiveNP_Statistical6) show NC gr 
 gsave  2268 975 0 0 C 1220.98 219.701 t 90 r /Helvetica findfont 23.9903 sf 0 0 m (JET_EtaIntercalibration_Modelling) show NC gr 
 gsave  2268 975 0 0 C 1242.45 123.74 t 90 r /Helvetica findfont 23.9903 sf 0 0 m (JET_EtaIntercalibration_NonClosure_highE) show NC gr 
 gsave  2268 975 0 0 C 1262.65 109.85 t 90 r /Helvetica findfont 23.9903 sf 0 0 m (JET_EtaIntercalibration_NonClosure_negEta) show NC gr 
 gsave  2268 975 0 0 C 1282.85 109.85 t 90 r /Helvetica findfont 23.9903 sf 0 0 m (JET_EtaIntercalibration_NonClosure_posEta) show NC gr 
 gsave  2268 975 0 0 C 1303.05 224.751 t 90 r /Helvetica findfont 23.9903 sf 0 0 m (JET_EtaIntercalibration_TotalStat) show NC gr 
 gsave  2268 975 0 0 C 1324.52 315.662 t 90 r /Helvetica findfont 23.9903 sf 0 0 m (JET_Flavor_Composition) show NC gr 
 gsave  2268 975 0 0 C 1343.46 339.652 t 90 r /Helvetica findfont 23.9903 sf 0 0 m (JET_Flavor_Response) show NC gr 
 gsave  2268 975 0 0 C 1364.92 273.995 t 90 r /Helvetica findfont 23.9903 sf 0 0 m (JET_JER_DataVsMC_MC16) show NC gr 
 gsave  2268 975 0 0 C 1385.13 301.773 t 90 r /Helvetica findfont 23.9903 sf 0 0 m (JET_JER_EffectiveNP_10) show NC gr 
 gsave  2268 975 0 0 C 1405.33 305.561 t 90 r /Helvetica findfont 23.9903 sf 0 0 m (JET_JER_EffectiveNP_11) show NC gr 
 gsave  2268 975 0 0 C 1425.53 207.074 t 90 r /Helvetica findfont 23.9903 sf 0 0 m (JET_JER_EffectiveNP_12restTerm) show NC gr 
 gsave  2268 975 0 0 C 1445.73 319.45 t 90 r /Helvetica findfont 23.9903 sf 0 0 m (JET_JER_EffectiveNP_1) show NC gr 
 gsave  2268 975 0 0 C 1465.93 315.662 t 90 r /Helvetica findfont 23.9903 sf 0 0 m (JET_JER_EffectiveNP_2) show NC gr 
 gsave  2268 975 0 0 C 1486.14 315.662 t 90 r /Helvetica findfont 23.9903 sf 0 0 m (JET_JER_EffectiveNP_4) show NC gr 
 gsave  2268 975 0 0 C 1507.6 315.662 t 90 r /Helvetica findfont 23.9903 sf 0 0 m (JET_JER_EffectiveNP_5) show NC gr 
 gsave  2268 975 0 0 C 1527.8 315.662 t 90 r /Helvetica findfont 23.9903 sf 0 0 m (JET_JER_EffectiveNP_6) show NC gr 
 gsave  2268 975 0 0 C 1548.01 315.662 t 90 r /Helvetica findfont 23.9903 sf 0 0 m (JET_JER_EffectiveNP_7) show NC gr 
 gsave  2268 975 0 0 C 1568.21 315.662 t 90 r /Helvetica findfont 23.9903 sf 0 0 m (JET_JER_EffectiveNP_8) show NC gr 
 gsave  2268 975 0 0 C 1588.41 315.662 t 90 r /Helvetica findfont 23.9903 sf 0 0 m (JET_JER_EffectiveNP_9) show NC gr 
 gsave  2268 975 0 0 C 1607.35 391.421 t 90 r /Helvetica findfont 23.9903 sf 0 0 m (JET_JvtEfficiency) show NC gr 
 gsave  2268 975 0 0 C 1628.82 348.491 t 90 r /Helvetica findfont 23.9903 sf 0 0 m (JET_Pileup_OffsetMu) show NC gr 
 gsave  2268 975 0 0 C 1649.02 332.077 t 90 r /Helvetica findfont 23.9903 sf 0 0 m (JET_Pileup_OffsetNPV) show NC gr 
 gsave  2268 975 0 0 C 1667.96 367.431 t 90 r /Helvetica findfont 23.9903 sf 0 0 m (JET_Pileup_PtTerm) show NC gr 
 gsave  2268 975 0 0 C 1689.42 304.298 t 90 r /Helvetica findfont 23.9903 sf 0 0 m (JET_Pileup_RhoTopology) show NC gr 
 gsave  2268 975 0 0 C 1710.89 291.672 t 90 r /Helvetica findfont 23.9903 sf 0 0 m (JET_PunchThrough_MC16) show NC gr 
 gsave  2268 975 0 0 C 1731.09 320.713 t 90 r /Helvetica findfont 23.9903 sf 0 0 m (MET_SoftTrk_ResoPara) show NC gr 
 gsave  2268 975 0 0 C 1751.29 366.168 t 90 r /Helvetica findfont 23.9903 sf 0 0 m (MET_SoftTrk_Scale) show NC gr 
 gsave  2268 975 0 0 C 1771.5 318.187 t 90 r /Helvetica findfont 23.9903 sf 0 0 m (MUON_EFF_ISO_STAT) show NC gr 
 gsave  2268 975 0 0 C 1791.7 332.077 t 90 r /Helvetica findfont 23.9903 sf 0 0 m (MUON_EFF_ISO_SYS) show NC gr 
 gsave  2268 975 0 0 C 1811.9 291.672 t 90 r /Helvetica findfont 23.9903 sf 0 0 m (MUON_EFF_RECO_STAT) show NC gr 
 gsave  2268 975 0 0 C 1832.1 305.561 t 90 r /Helvetica findfont 23.9903 sf 0 0 m (MUON_EFF_RECO_SYS) show NC gr 
 gsave  2268 975 0 0 C 1852.31 297.985 t 90 r /Helvetica findfont 23.9903 sf 0 0 m (MUON_EFF_TTVA_STAT) show NC gr 
 gsave  2268 975 0 0 C 1873.77 311.874 t 90 r /Helvetica findfont 23.9903 sf 0 0 m (MUON_EFF_TTVA_SYS) show NC gr 
 gsave  2268 975 0 0 C 1893.97 231.065 t 90 r /Helvetica findfont 23.9903 sf 0 0 m (MUON_EFF_TrigStatUncertainty) show NC gr 
 gsave  2268 975 0 0 C 1914.17 227.277 t 90 r /Helvetica findfont 23.9903 sf 0 0 m (MUON_EFF_TrigSystUncertainty) show NC gr 
 gsave  2268 975 0 0 C 1934.38 469.705 t 90 r /Helvetica findfont 23.9903 sf 0 0 m (MUON_ID) show NC gr 
 gsave  2268 975 0 0 C 1954.58 457.079 t 90 r /Helvetica findfont 23.9903 sf 0 0 m (MUON_MS) show NC gr 
 gsave  2268 975 0 0 C 1974.78 273.995 t 90 r /Helvetica findfont 23.9903 sf 0 0 m (MUON_SAGITTA_RESBIAS) show NC gr 
 gsave  2268 975 0 0 C 1994.98 414.149 t 90 r /Helvetica findfont 23.9903 sf 0 0 m (MUON_SCALE) show NC gr 
 gsave  2268 975 0 0 C 2015.19 416.674 t 90 r /Helvetica findfont 23.9903 sf 0 0 m (PRW_DATASF) show NC gr 
 gsave  2268 975 0 0 C 2035.39 406.573 t 90 r /Helvetica findfont 23.9903 sf 0 0 m (theo_vbf_alphas) show NC gr 
 gsave  2268 975 0 0 C 2055.59 375.007 t 90 r /Helvetica findfont 23.9903 sf 0 0 m (theo_vbf_generator) show NC gr 
 gsave  2268 975 0 0 C 2075.79 398.997 t 90 r /Helvetica findfont 23.9903 sf 0 0 m (theo_vbf_pdf4lhc) show NC gr 
 gsave  2268 975 0 0 C 2097.26 420.462 t 90 r /Helvetica findfont 23.9903 sf 0 0 m (theo_vbf_scale) show NC gr 
 gsave  2268 975 0 0 C 2117.46 400.26 t 90 r /Helvetica findfont 23.9903 sf 0 0 m (theo_vbf_shower) show NC gr 
 gsave  2268 975 0 0 C 2137.66 474.756 t 90 r /Helvetica findfont 23.9903 sf 0 0 m (atlas_lumi) show NC gr 
 gsave  2268 975 0 0 C 2157.87 398.997 t 90 r /Helvetica findfont 23.9903 sf 0 0 m (EG_SCALE_AF2) show NC gr 
 gsave  2268 975 0 0 C 2178.07 232.327 t 90 r /Helvetica findfont 23.9903 sf 0 0 m (EL_EFF_ID_CorrUncertaintyNP0) show NC gr 
 gsave  2268 975 0 0 C 2198.27 236.115 t 90 r /Helvetica findfont 23.9903 sf 0 0 m (EL_EFF_ID_CorrUncertaintyNP1) show NC gr 
 gsave  2268 975 0 0 C 2219.74 232.327 t 90 r /Helvetica findfont 23.9903 sf 0 0 m (EL_EFF_ID_CorrUncertaintyNP2) show NC gr  45 613 m -28 Y s 356 613 m -28 Y s 667 613 m -28 Y s 978 613 m -28 Y s 1289 613 m -28 Y s 1600 613 m -28 Y s 1911 613 m -28
 Y s 2222 613 m -28 Y s 45 960 m 2177 X s 45 932 m 28 Y s 356 932 m 28 Y s 667 932 m 28 Y s 978 932 m 28 Y s 1289 932 m 28 Y s 1600 932 m 28 Y s 1911 932 m 28 Y s 2222 932 m 28 Y s 45 585 m 375 Y s 72 585 m -27 X s 58 594 m -13 X s 58 604 m -13 X s
 58 613 m -13 X s 58 622 m -13 X s 72 632 m -27 X s 58 641 m -13 X s 58 651 m -13 X s 58 660 m -13 X s 58 669 m -13 X s 72 679 m -27 X s 58 688 m -13 X s 58 697 m -13 X s 58 707 m -13 X s 58 716 m -13 X s 72 726 m -27 X s 58 735 m -13 X s 58 744 m
 -13 X s 58 754 m -13 X s 58 763 m -13 X s 72 773 m -27 X s 58 782 m -13 X s 58 791 m -13 X s 58 801 m -13 X s 58 810 m -13 X s 72 819 m -27 X s 58 829 m -13 X s 58 838 m -13 X s 58 848 m -13 X s 58 857 m -13 X s 72 866 m -27 X s 58 876 m -13 X s 58
 885 m -13 X s 58 894 m -13 X s 58 904 m -13 X s 72 913 m -27 X s 58 923 m -13 X s 58 932 m -13 X s 58 941 m -13 X s 58 951 m -13 X s 72 960 m -27 X s
 gsave  2268 975 0 0 C 20.2024 575.768 t 0 r /Helvetica findfont 23.9903 sf 0 0 m (2) show NC gr 
 gsave  2268 975 0 0 C 7.57589 575.768 t 0 r /Symbol findfont 23.9903 sf 0 0 m (-) show NC gr 
 gsave  2268 975 0 0 C 0 623.748 t 0 r /Helvetica findfont 23.9903 sf 0 0 m (1.5) show NC gr 
 gsave  2268 975 0 0 C -12.6265 623.748 t 0 r /Symbol findfont 23.9903 sf 0 0 m (-) show NC gr 
 gsave  2268 975 0 0 C 23.9903 669.204 t 0 r /Helvetica findfont 23.9903 sf 0 0 m (1) show NC gr 
 gsave  2268 975 0 0 C 11.3638 669.204 t 0 r /Symbol findfont 23.9903 sf 0 0 m (-) show NC gr 
 gsave  2268 975 0 0 C 0 717.184 t 0 r /Helvetica findfont 23.9903 sf 0 0 m (0.5) show NC gr 
 gsave  2268 975 0 0 C -12.6265 717.184 t 0 r /Symbol findfont 23.9903 sf 0 0 m (-) show NC gr 
 gsave  2268 975 0 0 C 20.2024 763.902 t 0 r /Helvetica findfont 23.9903 sf 0 0 m (0) show NC gr 
 gsave  2268 975 0 0 C 0 810.62 t 0 r /Helvetica findfont 23.9903 sf 0 0 m (0.5) show NC gr 
 gsave  2268 975 0 0 C 23.9903 857.338 t 0 r /Helvetica findfont 23.9903 sf 0 0 m (1) show NC gr 
 gsave  2268 975 0 0 C 0 905.319 t 0 r /Helvetica findfont 23.9903 sf 0 0 m (1.5) show NC gr 
 gsave  2268 975 0 0 C 20.2024 950.774 t 0 r /Helvetica findfont 23.9903 sf 0 0 m (2) show NC gr 
 gsave  2268 975 0 0 C -45.4553 945.724 t 90 r /Symbol findfont 29.0409 sf 0 0 m (q) show NC gr  6 lw
 gsave  2268 975 0 0 C -45.4553 930.572 t 90 r /Symbol findfont 29.0409 sf 0 0 m (d) show NC gr 
 gsave  2268 975 0 0 C -45.4553 920.471 t 90 r /Helvetica findfont 29.0409 sf 0 0 m (/) show NC gr 
 gsave  2268 975 0 0 C -45.4553 905.319 t 90 r /Symbol findfont 29.0409 sf 0 0 m (q) show NC gr 
 gsave  2268 975 0 0 C -45.4553 896.48 t 90 r /Helvetica findfont 29.0409 sf 0 0 m (\255) show NC gr 
 gsave  2268 975 0 0 C -45.4553 881.329 t 90 r /Symbol findfont 29.0409 sf 0 0 m (q) show NC gr  3 lw 2222 585 m 375 Y s 2196 585 m 26 X s 2209 594 m 13 X s 2209 604 m 13 X s 2209 613 m 13 X s 2209 622 m 13 X s 2196 632 m 26 X s 2209 641 m 13 X s
 2209 651 m 13 X s 2209 660 m 13 X s 2209 669 m 13 X s 2196 679 m 26 X s 2209 688 m 13 X s 2209 697 m 13 X s 2209 707 m 13 X s 2209 716 m 13 X s 2196 726 m 26 X s 2209 735 m 13 X s 2209 744 m 13 X s 2209 754 m 13 X s 2209 763 m 13 X s 2196 773 m 26 X
 s 2209 782 m 13 X s 2209 791 m 13 X s 2209 801 m 13 X s 2209 810 m 13 X s 2196 819 m 26 X s 2209 829 m 13 X s 2209 838 m 13 X s 2209 848 m 13 X s 2209 857 m 13 X s 2196 866 m 26 X s 2209 876 m 13 X s 2209 885 m 13 X s 2209 894 m 13 X s 2209 904 m 13
 X s 2196 913 m 26 X s 2209 923 m 13 X s 2209 932 m 13 X s 2209 941 m 13 X s 2209 951 m 13 X s 2196 960 m 26 X s 56 741 m 26 Y s 53 767 m 5 X s 56 741 m -26 Y s 53 715 m 5 X s 76 644 m 45 Y s 73 689 m 5 X s 76 644 m -44 Y s 73 600 m 5 X s 96 786 m 26
 Y s 94 812 m 5 X s 96 786 m -26 Y s 94 760 m 5 X s 117 790 m 26 Y s 114 816 m 5 X s 117 790 m -26 Y s 114 764 m 5 X s 137 785 m 27 Y s 134 812 m 5 X s 137 785 m -26 Y s 134 759 m 5 X s 157 788 m 26 Y s 155 814 m 5 X s 157 788 m -27 Y s 155 761 m 5 X
 s 178 796 m 27 Y s 175 823 m 5 X s 178 796 m -27 Y s 175 769 m 5 X s 198 769 m 26 Y s 195 795 m 5 X s 198 769 m -26 Y s 195 743 m 5 X s 218 787 m 26 Y s 216 813 m 5 X s 218 787 m -26 Y s 216 761 m 5 X s 239 787 m 26 Y s 236 813 m 5 X s 239 787 m -26
 Y s 236 761 m 5 X s 259 787 m 26 Y s 256 813 m 6 X s 259 787 m -26 Y s 256 761 m 6 X s 279 787 m 26 Y s 277 813 m 5 X s 279 787 m -26 Y s 277 761 m 5 X s 300 787 m 26 Y s 297 813 m 5 X s 300 787 m -27 Y s 297 760 m 5 X s 320 787 m 26 Y s 317 813 m 6
 X s 320 787 m -26 Y s 317 761 m 6 X s 340 788 m 26 Y s 338 814 m 5 X s 340 788 m -26 Y s 338 762 m 5 X s 361 788 m 26 Y s 358 814 m 5 X s 361 788 m -27 Y s 358 761 m 5 X s 381 789 m 27 Y s 379 816 m 5 X s 381 789 m -26 Y s 379 763 m 5 X s 401 788 m
 26 Y s 399 814 m 5 X s 401 788 m -27 Y s 399 761 m 5 X s 422 788 m 26 Y s 419 814 m 5 X s 422 788 m -27 Y s 419 761 m 5 X s 442 787 m 26 Y s 440 813 m 5 X s 442 787 m -26 Y s 440 761 m 5 X s 462 787 m 26 Y s 460 813 m 5 X s 462 787 m -26 Y s 460 761
 m 5 X s 483 789 m 26 Y s 480 815 m 5 X s 483 789 m -26 Y s 480 763 m 5 X s 503 787 m 26 Y s 501 813 m 5 X s 503 787 m -26 Y s 501 761 m 5 X s 523 788 m 26 Y s 521 814 m 5 X s 523 788 m -26 Y s 521 762 m 5 X s 544 786 m 27 Y s 541 813 m 5 X s 544 786
 m -26 Y s 541 760 m 5 X s 564 787 m 26 Y s 562 813 m 5 X s 564 787 m -27 Y s 562 760 m 5 X s 585 787 m 26 Y s 582 813 m 5 X s 585 787 m -26 Y s 582 761 m 5 X s 605 790 m 26 Y s 602 816 m 5 X s 605 790 m -27 Y s 602 763 m 5 X s 625 790 m 26 Y s 623
 816 m 5 X s 625 790 m -27 Y s 623 763 m 5 X s 646 787 m 26 Y s 643 813 m 5 X s 646 787 m -26 Y s 643 761 m 5 X s 666 785 m 16 Y s 663 801 m 5 X s 666 785 m -17 Y s 663 768 m 5 X s 686 787 m 25 Y s 684 812 m 5 X s 686 787 m -25 Y s 684 762 m 5 X s
 707 789 m 25 Y s 704 814 m 5 X s 707 789 m -25 Y s 704 764 m 5 X s 727 783 m 26 Y s 724 809 m 5 X s 727 783 m -26 Y s 724 757 m 5 X s 747 787 m 26 Y s 745 813 m 5 X s 747 787 m -26 Y s 745 761 m 5 X s 768 787 m 27 Y s 765 814 m 5 X s 768 787 m -26 Y
 s 765 761 m 5 X s 788 790 m 25 Y s 785 815 m 6 X s 788 790 m -26 Y s 785 764 m 6 X s 808 787 m 26 Y s 806 813 m 5 X s 808 787 m -26 Y s 806 761 m 5 X s 829 787 m 26 Y s 826 813 m 5 X s 829 787 m -26 Y s 826 761 m 5 X s 849 787 m 26 Y s 846 813 m 6 X
 s 849 787 m -26 Y s 846 761 m 6 X s 869 786 m 26 Y s 867 812 m 5 X s 869 786 m -26 Y s 867 760 m 5 X s 890 736 m 26 Y s 887 762 m 5 X s 890 736 m -26 Y s 887 710 m 5 X s 910 786 m 27 Y s 908 813 m 5 X s 910 786 m -27 Y s 908 759 m 5 X s 930 785 m 26
 Y s 928 811 m 5 X s 930 785 m -27 Y s 928 758 m 5 X s 951 772 m 31 Y s 948 803 m 5 X s 951 772 m -31 Y s 948 741 m 5 X s 971 810 m 29 Y s 969 839 m 5 X s 971 810 m -28 Y s 969 782 m 5 X s 991 795 m 29 Y s 989 824 m 5 X s 991 795 m -28 Y s 989 767 m
 5 X s 1012 942 m 18 Y s 1009 960 m 5 X s 1012 942 m -44 Y s 1009 898 m 5 X s 1032 796 m 26 Y s 1030 822 m 5 X s 1032 796 m -26 Y s 1030 770 m 5 X s 1052 800 m 28 Y s 1050 828 m 5 X s 1052 800 m -27 Y s 1050 773 m 5 X s 1073 787 m 26 Y s 1070 813 m 5
 X s 1073 787 m -26 Y s 1070 761 m 5 X s 1093 790 m 26 Y s 1091 816 m 5 X s 1093 790 m -26 Y s 1091 764 m 5 X s 1114 770 m 28 Y s 1111 798 m 5 X s 1114 770 m -27 Y s 1111 743 m 5 X s 1134 787 m 26 Y s 1131 813 m 5 X s 1134 787 m -26 Y s 1131 761 m 5
 X s 1154 782 m 27 Y s 1152 809 m 5 X s 1154 782 m -26 Y s 1152 756 m 5 X s 1175 789 m 27 Y s 1172 816 m 5 X s 1175 789 m -26 Y s 1172 763 m 5 X s 1195 796 m 29 Y s 1192 825 m 5 X s 1195 796 m -29 Y s 1192 767 m 5 X s 1215 789 m 23 Y s 1213 812 m 5 X
 s 1215 789 m -22 Y s 1213 767 m 5 X s 1236 786 m 27 Y s 1233 813 m 5 X s 1236 786 m -26 Y s 1233 760 m 5 X s 1256 764 m 26 Y s 1253 790 m 5 X s 1256 764 m -26 Y s 1253 738 m 5 X s 1276 799 m 33 Y s 1274 832 m 5 X s 1276 799 m -34 Y s 1274 765 m 5 X
 s 1297 822 m 47 Y s 1294 869 m 5 X s 1297 822 m -47 Y s 1294 775 m 5 X s 1317 683 m 17 Y s 1314 700 m 5 X s 1317 683 m -18 Y s 1314 665 m 5 X s 1337 598 m 29 Y s 1335 627 m 5 X s 1337 598 m -13 Y s 1335 585 m 5 X s 1378 746 m 27 Y s 1375 773 m 6 X s
 1378 746 m -26 Y s 1375 720 m 6 X s 1419 682 m 124 Y s 1416 806 m 5 X s 1419 682 m -97 Y s 1416 585 m 5 X s 1439 644 m 57 Y s 1437 701 m 5 X s 1439 644 m -56 Y s 1437 588 m 5 X s 1480 613 m 31 Y s 1477 644 m 5 X s 1480 613 m -28 Y s 1477 585 m 5 X s
 1500 708 m 108 Y s 1498 816 m 5 X s 1500 708 m -107 Y s 1498 601 m 5 X s 1561 688 m 90 Y s 1559 778 m 5 X s 1561 688 m -89 Y s 1559 599 m 5 X s 1602 803 m 27 Y s 1599 830 m 5 X s 1602 803 m -26 Y s 1599 777 m 5 X s 1622 894 m 24 Y s 1620 918 m 5 X s
 1622 894 m -24 Y s 1620 870 m 5 X s 1643 943 m 17 Y s 1640 960 m 5 X s 1643 943 m -33 Y s 1640 910 m 5 X s 1663 834 m 29 Y s 1660 863 m 5 X s 1663 834 m -29 Y s 1660 805 m 5 X s 1704 788 m 26 Y s 1701 814 m 5 X s 1704 788 m -26 Y s 1701 762 m 5 X s
 1765 788 m 26 Y s 1762 814 m 5 X s 1765 788 m -27 Y s 1762 761 m 5 X s 1785 797 m 27 Y s 1782 824 m 5 X s 1785 797 m -26 Y s 1782 771 m 5 X s 1805 787 m 27 Y s 1803 814 m 5 X s 1805 787 m -26 Y s 1803 761 m 5 X s 1826 788 m 26 Y s 1823 814 m 5 X s
 1826 788 m -26 Y s 1823 762 m 5 X s 1846 787 m 26 Y s 1843 813 m 5 X s 1846 787 m -26 Y s 1843 761 m 5 X s 1866 787 m 26 Y s 1864 813 m 5 X s 1866 787 m -26 Y s 1864 761 m 5 X s 1887 788 m 26 Y s 1884 814 m 5 X s 1887 788 m -26 Y s 1884 762 m 5 X s
 1907 773 m 27 Y s 1904 800 m 6 X s 1907 773 m -26 Y s 1904 747 m 6 X s 1927 700 m 34 Y s 1925 734 m 5 X s 1927 700 m -33 Y s 1925 667 m 5 X s 1948 782 m 28 Y s 1945 810 m 5 X s 1948 782 m -29 Y s 1945 753 m 5 X s 1968 766 m 27 Y s 1966 793 m 5 X s
 1968 766 m -27 Y s 1966 739 m 5 X s 1988 811 m 36 Y s 1986 847 m 5 X s 1988 811 m -37 Y s 1986 774 m 5 X s 2009 744 m 29 Y s 2006 773 m 5 X s 2009 744 m -29 Y s 2006 715 m 5 X s 2029 773 m 37 Y s 2027 810 m 5 X s 2029 773 m -37 Y s 2027 736 m 5 X s
 2049 753 m 36 Y s 2047 789 m 5 X s 2049 753 m -36 Y s 2047 717 m 5 X s 2070 773 m 37 Y s 2067 810 m 5 X s 2070 773 m -37 Y s 2067 736 m 5 X s 2090 774 m 38 Y s 2088 812 m 5 X s 2090 774 m -37 Y s 2088 737 m 5 X s 2110 783 m 37 Y s 2108 820 m 5 X s
 2110 783 m -36 Y s 2108 747 m 5 X s 2131 762 m 37 Y s 2128 799 m 5 X s 2131 762 m -37 Y s 2128 725 m 5 X s 2151 787 m 26 Y s 2149 813 m 5 X s 2151 787 m -26 Y s 2149 761 m 5 X s 2171 787 m 26 Y s 2169 813 m 5 X s 2171 787 m -26 Y s 2169 761 m 5 X s
 2192 787 m 26 Y s 2189 813 m 5 X s 2192 787 m -26 Y s 2189 761 m 5 X s 2212 787 m 26 Y s 2210 813 m 5 X s 2212 787 m -26 Y s 2210 761 m 5 X s 1 1 1 c black /w 10 def /w2 {w 2 div} def /w3 {w 3 div} def 56 741 76 644 96 786 117 790 137 785 157 788
 178 796 198 769 218 787 239 787 259 787 279 787 300 787 320 787 340 788 361 788 381 789 401 788 422 788 442 787 462 787 483 789 503 787 523 788 544 786 564 787 585 787 605 790 625 790 646 787 666 785 686 787 707 789 727 783 747 787 768 787 788 790
 808 787 829 787 849 787 869 786 890 736 910 786 930 785 951 772 971 810 991 795 1012 942 1032 796 1052 800 1073 787 1093 790 1114 770 1134 787 1154 782 1175 789 1195 796 1215 789 1236 786 1256 764 1276 799 1297 822 1317 683 1337 598 64 { m20} R 1378
 746 m20 1419 682 1439 644 2 { m20} R 1480 613 1500 708 2 { m20} R 1561 688 m20 1602 803 1622 894 1643 943 1663 834 4 { m20} R 1704 788 m20 1765 788 1785 797 1805 787 1826 788 1846 787 1866 787 1887 788 1907 773 1927 700 1948 782 1968 766 1988 811
 2009 744 2029 773 2049 753 2070 773 2090 774 2110 783 2131 762 2151 787 2171 787 2192 787 2212 787 23 { m20} R
 gr  gr showpage
end
%%EOF
