%!PS-Adobe-2.0 EPSF-2.0
%%BoundingBox:  0 0 567 244
%%Title: cCNp1_matrix_lep1_pt.eps: 
%%Creator: ROOT Version 6.24/06
%%CreationDate: Tue Jan  4 10:19:08 2022
%%DocumentNeededResources: ProcSet (FontSetInit)
%%EndComments
%%BeginProlog
80 dict begin
/s {stroke} def /l {lineto} def /m {moveto} def /t {translate} def
/r {rotate} def /rl {roll}  def /R {repeat} def
/d {rlineto} def /rm {rmoveto} def /gr {grestore} def /f {eofill} def
/c {setrgbcolor} def /black {0 setgray} def /sd {setdash} def
/cl {closepath} def /sf {scalefont setfont} def /lw {setlinewidth} def
/box {m dup 0 exch d exch 0 d 0 exch neg d cl} def
/NC{systemdict begin initclip end}def/C{NC box clip newpath}def
/bl {box s} def /bf {gsave box gsave f grestore 1 lw [] 0 sd s grestore} def /Y { 0 exch d} def /X { 0 d} def 
/K {{pop pop 0 moveto} exch kshow} bind def
/ita {/ang 15 def gsave [1 0 ang dup sin exch cos div 1 0 0] concat} def 
/mp {newpath /y exch def /x exch def} def
/side {[w .77 mul w .23 mul] .385 w mul sd w 0 l currentpoint t -144 r} def
/mr {mp x y w2 0 360 arc} def /m24 {mr s} def /m20 {mr f} def
/mb {mp x y w2 add m w2 neg 0 d 0 w neg d w 0 d 0 w d cl} def
/mt {mp x y w2 add m w2 neg w neg d w 0 d cl} def
/w4 {w 4 div} def
/w6 {w 6 div} def
/w8 {w 8 div} def
/m21 {mb f} def /m25 {mb s} def /m22 {mt f} def /m26{mt s} def
/m23 {mp x y w2 sub m w2 w d w neg 0 d cl f} def
/m27 {mp x y w2 add m w3 neg w2 neg d w3 w2 neg d w3 w2 d cl s} def
/m28 {mp x w2 sub y w2 sub w3 add m w3 0 d  0 w3 neg d w3 0 d 0 w3 d w3 0 d  0 w3 d w3 neg 0 d 0 w3 d w3 neg 0 d 0 w3 neg d w3 neg 0 d cl s } def
/m29 {mp gsave x w2 sub y w2 add w3 sub m currentpoint t 4 {side} repeat cl fill gr} def
/m30 {mp gsave x w2 sub y w2 add w3 sub m currentpoint t 4 {side} repeat cl s gr} def
/m31 {mp x y w2 sub m 0 w d x w2 sub y m w 0 d x w2 .707 mul sub y w2 .707 mul add m w 1.44 div w 1.44 div neg d x w2 .707 mul sub y w2 .707 mul sub m w 1.44 div w 1.44 div d s} def
/m32 {mp x y w2 sub m w2 w d w neg 0 d cl s} def
/m33 {mp x y w2 add m w3 neg w2 neg d w3 w2 neg d w3 w2 d cl f} def
/m34 {mp x w2 sub y w2 sub w3 add m w3 0 d  0 w3 neg d w3 0 d 0 w3 d w3 0 d  0 w3 d w3 neg 0 d 0 w3 d w3 neg 0 d 0 w3 neg d w3 neg 0 d cl f } def
/m35 {mp x y w2 add m w2 neg w2 neg d w2 w2 neg d w2 w2 d w2 neg w2 d x y w2 sub m 0 w d x w2 sub y m w 0 d s} def
/m36 {mb x w2 sub y w2 add m w w neg d x w2 sub y w2 sub m w w d s} def
/m37 {mp x y m w4 neg w2 d w4 neg w2 neg d w2 0 d  w4 neg w2 neg d w2 0 d w4 neg w2 d w2 0 d w4 neg w2 d w4 neg w2 neg d cl s} def
/m38 {mp x w4 sub y w2 add m w4 neg w4 neg d 0 w2 neg d w4 w4 neg d w2 0 d w4 w4 d 0 w2 d w4 neg w4 d w2 neg 0 d x y w2 sub m 0 w d x w2 sub y m w 0 d cl s} def
/m39 {mp x y m w4 neg w2 d w4 neg w2 neg d w2 0 d  w4 neg w2 neg d w2 0 d w4 neg w2 d w2 0 d w4 neg w2 d w4 neg w2 neg d cl f} def
/m40 {mp x y m w4 w2 d w4 w4 neg d w2 neg w4 neg d w2 w4 neg d w4 neg w4 neg d w4 neg w2 d w4 neg w2 neg d w4 neg w4 d w2 w4 d w2 neg w4 d w4 w4 d w4 w2 neg d cl s} def
/m41 {mp x y m w4 w2 d w4 w4 neg d w2 neg w4 neg d w2 w4 neg d w4 neg w4 neg d w4 neg w2 d w4 neg w2 neg d w4 neg w4 d w2 w4 d w2 neg w4 d w4 w4 d w4 w2 neg d cl f} def
/m42 {mp x y w2 add m w8 neg w2 -3 4 div mul d w2 -3 4 div mul w8 neg d w2 3 4 div mul w8 neg d w8 w2 -3 4 div mul d w8 w2 3 4 div mul d w2 3 4 div mul w8 d w2 -3 4 div mul w8 d w8 neg w2 3 4 div mul d cl s} def
/m43 {mp x y w2 add m w8 neg w2 -3 4 div mul d w2 -3 4 div mul w8 neg d w2 3 4 div mul w8 neg d w8 w2 -3 4 div mul d w8 w2 3 4 div mul d w2 3 4 div mul w8 d w2 -3 4 div mul w8 d w8 neg w2 3 4 div mul d cl f} def
/m44 {mp x y m w6 neg w2 d w2 2 3 div mul 0 d w6 neg w2 neg d w2 w6 d 0 w2 -2 3 div mul d w2 neg w6 d w6 w2 neg d w2 -2 3 div mul 0 d w6 w2 d w2 neg w6 neg d 0 w2 2 3 div mul d w2 w6 neg d cl s} def
/m45 {mp x y m w6 neg w2 d w2 2 3 div mul 0 d w6 neg w2 neg d w2 w6 d 0 w2 -2 3 div mul d w2 neg w6 d w6 w2 neg d w2 -2 3 div mul 0 d w6 w2 d w2 neg w6 neg d 0 w2 2 3 div mul d w2 w6 neg d cl f} def
/m46 {mp x y w4 add m w4 neg w4 d w4 neg w4 neg d  w4 w4 neg d w4 neg w4 neg d w4 w4 neg d w4 w4 d w4 w4 neg d w4 w4 d w4 neg w4 d w4 w4 d w4 neg w4 d w4 neg w4 neg d cl s} def
/m47 {mp x y w4 add m w4 neg w4 d w4 neg w4 neg d w4 w4 neg d w4 neg w4 neg d  w4 w4 neg d w4 w4 d w4 w4 neg d w4 w4 d w4 neg w4 d w4 w4 d w4 neg w4 d w4 neg w4 neg d cl f} def
/m48 {mp x y w4 add m w4 neg w4 d w4 neg w4 neg d w4 w4 neg d  w4 neg w4 neg d w4 w4 neg d w4 w4 d w4 w4 neg d w4 w4 d w4 neg w4 d w4 w4 d w4 neg w4 d w4 neg w4 neg d  w4 w4 neg d w4 neg w4 neg d w4 neg w4 d w4 w4 d cl f} def
/m49 {mp x w2 sub w3 add y w2 sub w3 add m  0 w3 neg d w3 0 d 0 w3 d w3 0 d 0 w3 d w3 neg 0 d 0 w3 d w3 neg 0 d 0 w3 neg d w3 neg 0 d 0 w3 neg d w3 0 d 0 w3 d w3 0 d 0 w3 neg d w3 neg 0 d cl f } def
/m2 {mp x y w2 sub m 0 w d x w2 sub y m w 0 d s} def
/m5 {mp x w2 .707 mul sub y w2 .707 mul sub m w 1.44 div w 1.44 div d x w2 .707 mul sub y w2 .707 mul add m w 1.44 div w 1.44 div neg d s} def
%%IncludeResource: ProcSet (FontSetInit)
%%IncludeResource: font Times-Roman
%%IncludeResource: font Times-Italic
%%IncludeResource: font Times-Bold
%%IncludeResource: font Times-BoldItalic
%%IncludeResource: font Helvetica
%%IncludeResource: font Helvetica-Oblique
%%IncludeResource: font Helvetica-Bold
%%IncludeResource: font Helvetica-BoldOblique
%%IncludeResource: font Courier
%%IncludeResource: font Courier-Oblique
%%IncludeResource: font Courier-Bold
%%IncludeResource: font Courier-BoldOblique
%%IncludeResource: font Symbol
%%IncludeResource: font ZapfDingbats
/reEncode {exch findfont dup length dict begin {1 index /FID eq  {pop pop} {def} ifelse } forall /Encoding exch def currentdict end dup /FontName get exch definefont pop } def [/Times-Bold /Times-Italic /Times-BoldItalic /Helvetica /Helvetica-Oblique
 /Helvetica-Bold /Helvetica-BoldOblique /Courier /Courier-Oblique /Courier-Bold /Courier-BoldOblique /Times-Roman /AvantGarde-Book /AvantGarde-BookOblique /AvantGarde-Demi /AvantGarde-DemiOblique /Bookman-Demi /Bookman-DemiItalic /Bookman-Light
 /Bookman-LightItalic /Helvetica-Narrow /Helvetica-Narrow-Bold /Helvetica-Narrow-BoldOblique /Helvetica-Narrow-Oblique /NewCenturySchlbk-Roman /NewCenturySchlbk-Bold /NewCenturySchlbk-BoldItalic /NewCenturySchlbk-Italic /Palatino-Bold
 /Palatino-BoldItalic /Palatino-Italic /Palatino-Roman ] {ISOLatin1Encoding reEncode } forall
%%EndProlog
%%BeginSetup
%%EndSetup
newpath  gsave  .25 .25 scale  gsave  0 0 t black[  ] 0 sd 3 lw 1 1 1 c 2268 975 0 0 bf black 1 1 1 c 2177 375 45 585 bf black 2177 375 45 585 bl 6 lw 1 1 1 c black 45 773 m 2177 X s 3 lw 45 585 m 2177 X s
 gsave  2268 975 0 0 C 61.8698 320.713 t 90 r /Helvetica findfont 23.9903 sf 0 0 m (EG_RESOLUTION_ALL) show NC gr 
 gsave  2268 975 0 0 C 80.8095 398.997 t 90 r /Helvetica findfont 23.9903 sf 0 0 m (EG_SCALE_ALL) show NC gr 
 gsave  2268 975 0 0 C 98.4866 219.701 t 90 r /Helvetica findfont 23.9903 sf 0 0 m (EL_EFF_ID_CorrUncertaintyNP10) show NC gr 
 gsave  2268 975 0 0 C 117.426 223.489 t 90 r /Helvetica findfont 23.9903 sf 0 0 m (EL_EFF_ID_CorrUncertaintyNP11) show NC gr 
 gsave  2268 975 0 0 C 136.366 219.701 t 90 r /Helvetica findfont 23.9903 sf 0 0 m (EL_EFF_ID_CorrUncertaintyNP12) show NC gr 
 gsave  2268 975 0 0 C 156.568 219.701 t 90 r /Helvetica findfont 23.9903 sf 0 0 m (EL_EFF_ID_CorrUncertaintyNP13) show NC gr 
 gsave  2268 975 0 0 C 175.508 218.438 t 90 r /Helvetica findfont 23.9903 sf 0 0 m (EL_EFF_ID_CorrUncertaintyNP14) show NC gr 
 gsave  2268 975 0 0 C 194.448 218.438 t 90 r /Helvetica findfont 23.9903 sf 0 0 m (EL_EFF_ID_CorrUncertaintyNP15) show NC gr 
 gsave  2268 975 0 0 C 213.388 232.327 t 90 r /Helvetica findfont 23.9903 sf 0 0 m (EL_EFF_ID_CorrUncertaintyNP3) show NC gr 
 gsave  2268 975 0 0 C 232.327 232.327 t 90 r /Helvetica findfont 23.9903 sf 0 0 m (EL_EFF_ID_CorrUncertaintyNP4) show NC gr 
 gsave  2268 975 0 0 C 251.267 232.327 t 90 r /Helvetica findfont 23.9903 sf 0 0 m (EL_EFF_ID_CorrUncertaintyNP5) show NC gr 
 gsave  2268 975 0 0 C 270.207 232.327 t 90 r /Helvetica findfont 23.9903 sf 0 0 m (EL_EFF_ID_CorrUncertaintyNP6) show NC gr 
 gsave  2268 975 0 0 C 289.146 232.327 t 90 r /Helvetica findfont 23.9903 sf 0 0 m (EL_EFF_ID_CorrUncertaintyNP7) show NC gr 
 gsave  2268 975 0 0 C 309.349 232.327 t 90 r /Helvetica findfont 23.9903 sf 0 0 m (EL_EFF_ID_CorrUncertaintyNP8) show NC gr 
 gsave  2268 975 0 0 C 329.551 232.327 t 90 r /Helvetica findfont 23.9903 sf 0 0 m (EL_EFF_ID_CorrUncertaintyNP9) show NC gr 
 gsave  2268 975 0 0 C 348.491 49.2433 t 90 r /Helvetica findfont 23.9903 sf 0 0 m (EL_EFF_ID_SIMPLIFIED_UncorrUncertaintyNP12) show NC gr 
 gsave  2268 975 0 0 C 367.431 49.2433 t 90 r /Helvetica findfont 23.9903 sf 0 0 m (EL_EFF_ID_SIMPLIFIED_UncorrUncertaintyNP13) show NC gr 
 gsave  2268 975 0 0 C 386.37 47.9806 t 90 r /Helvetica findfont 23.9903 sf 0 0 m (EL_EFF_ID_SIMPLIFIED_UncorrUncertaintyNP14) show NC gr 
 gsave  2268 975 0 0 C 405.31 47.9806 t 90 r /Helvetica findfont 23.9903 sf 0 0 m (EL_EFF_ID_SIMPLIFIED_UncorrUncertaintyNP15) show NC gr 
 gsave  2268 975 0 0 C 424.25 47.9806 t 90 r /Helvetica findfont 23.9903 sf 0 0 m (EL_EFF_ID_SIMPLIFIED_UncorrUncertaintyNP16) show NC gr 
 gsave  2268 975 0 0 C 443.19 47.9806 t 90 r /Helvetica findfont 23.9903 sf 0 0 m (EL_EFF_ID_SIMPLIFIED_UncorrUncertaintyNP17) show NC gr 
 gsave  2268 975 0 0 C 463.392 61.8698 t 90 r /Helvetica findfont 23.9903 sf 0 0 m (EL_EFF_ID_SIMPLIFIED_UncorrUncertaintyNP3) show NC gr 
 gsave  2268 975 0 0 C 482.332 61.8698 t 90 r /Helvetica findfont 23.9903 sf 0 0 m (EL_EFF_ID_SIMPLIFIED_UncorrUncertaintyNP4) show NC gr 
 gsave  2268 975 0 0 C 501.271 61.8698 t 90 r /Helvetica findfont 23.9903 sf 0 0 m (EL_EFF_ID_SIMPLIFIED_UncorrUncertaintyNP5) show NC gr 
 gsave  2268 975 0 0 C 520.211 61.8698 t 90 r /Helvetica findfont 23.9903 sf 0 0 m (EL_EFF_ID_SIMPLIFIED_UncorrUncertaintyNP6) show NC gr 
 gsave  2268 975 0 0 C 539.151 61.8698 t 90 r /Helvetica findfont 23.9903 sf 0 0 m (EL_EFF_ID_SIMPLIFIED_UncorrUncertaintyNP7) show NC gr 
 gsave  2268 975 0 0 C 558.091 61.8698 t 90 r /Helvetica findfont 23.9903 sf 0 0 m (EL_EFF_ID_SIMPLIFIED_UncorrUncertaintyNP8) show NC gr 
 gsave  2268 975 0 0 C 577.03 68.183 t 90 r /Helvetica findfont 23.9903 sf 0 0 m (EL_EFF_Iso_TOTAL_1NPCOR_PLUS_UNCOR) show NC gr 
 gsave  2268 975 0 0 C 595.97 44.1927 t 90 r /Helvetica findfont 23.9903 sf 0 0 m (EL_EFF_Reco_TOTAL_1NPCOR_PLUS_UNCOR) show NC gr 
 gsave  2268 975 0 0 C 616.172 -5.05059 t 90 r /Helvetica findfont 23.9903 sf 0 0 m (EL_EFF_TriggerEff_TOTAL_1NPCOR_PLUS_UNCOR) show NC gr 
 gsave  2268 975 0 0 C 633.849 364.905 t 90 r /Helvetica findfont 23.9903 sf 0 0 m (FT_EFF_Eigen_B_0) show NC gr 
 gsave  2268 975 0 0 C 652.789 368.693 t 90 r /Helvetica findfont 23.9903 sf 0 0 m (FT_EFF_Eigen_B_1) show NC gr 
 gsave  2268 975 0 0 C 671.729 364.905 t 90 r /Helvetica findfont 23.9903 sf 0 0 m (FT_EFF_Eigen_B_2) show NC gr 
 gsave  2268 975 0 0 C 691.931 363.643 t 90 r /Helvetica findfont 23.9903 sf 0 0 m (FT_EFF_Eigen_C_0) show NC gr 
 gsave  2268 975 0 0 C 710.871 367.431 t 90 r /Helvetica findfont 23.9903 sf 0 0 m (FT_EFF_Eigen_C_1) show NC gr 
 gsave  2268 975 0 0 C 729.811 363.643 t 90 r /Helvetica findfont 23.9903 sf 0 0 m (FT_EFF_Eigen_C_2) show NC gr 
 gsave  2268 975 0 0 C 747.488 329.551 t 90 r /Helvetica findfont 23.9903 sf 0 0 m (FT_EFF_Eigen_Light_0) show NC gr 
 gsave  2268 975 0 0 C 767.69 333.339 t 90 r /Helvetica findfont 23.9903 sf 0 0 m (FT_EFF_Eigen_Light_1) show NC gr 
 gsave  2268 975 0 0 C 786.63 328.289 t 90 r /Helvetica findfont 23.9903 sf 0 0 m (FT_EFF_Eigen_Light_2) show NC gr 
 gsave  2268 975 0 0 C 805.57 329.551 t 90 r /Helvetica findfont 23.9903 sf 0 0 m (FT_EFF_Eigen_Light_3) show NC gr 
 gsave  2268 975 0 0 C 824.509 345.966 t 90 r /Helvetica findfont 23.9903 sf 0 0 m (FT_EFF_extrapolation) show NC gr 
 gsave  2268 975 0 0 C 844.712 344.703 t 90 r /Helvetica findfont 23.9903 sf 0 0 m (JET_BJES_Response) show NC gr 
 gsave  2268 975 0 0 C 863.651 289.146 t 90 r /Helvetica findfont 23.9903 sf 0 0 m (JET_EffectiveNP_Detector1) show NC gr 
 gsave  2268 975 0 0 C 882.591 285.359 t 90 r /Helvetica findfont 23.9903 sf 0 0 m (JET_EffectiveNP_Detector2) show NC gr 
 gsave  2268 975 0 0 C 901.531 314.399 t 90 r /Helvetica findfont 23.9903 sf 0 0 m (JET_EffectiveNP_Mixed1) show NC gr 
 gsave  2268 975 0 0 C 921.733 310.612 t 90 r /Helvetica findfont 23.9903 sf 0 0 m (JET_EffectiveNP_Mixed2) show NC gr 
 gsave  2268 975 0 0 C 940.673 310.612 t 90 r /Helvetica findfont 23.9903 sf 0 0 m (JET_EffectiveNP_Mixed3) show NC gr 
 gsave  2268 975 0 0 C 958.35 276.52 t 90 r /Helvetica findfont 23.9903 sf 0 0 m (JET_EffectiveNP_Modelling1) show NC gr 
 gsave  2268 975 0 0 C 977.29 272.732 t 90 r /Helvetica findfont 23.9903 sf 0 0 m (JET_EffectiveNP_Modelling2) show NC gr 
 gsave  2268 975 0 0 C 996.23 272.732 t 90 r /Helvetica findfont 23.9903 sf 0 0 m (JET_EffectiveNP_Modelling3) show NC gr 
 gsave  2268 975 0 0 C 1015.17 272.732 t 90 r /Helvetica findfont 23.9903 sf 0 0 m (JET_EffectiveNP_Modelling4) show NC gr 
 gsave  2268 975 0 0 C 1035.37 275.257 t 90 r /Helvetica findfont 23.9903 sf 0 0 m (JET_EffectiveNP_Statistical1) show NC gr 
 gsave  2268 975 0 0 C 1054.31 271.469 t 90 r /Helvetica findfont 23.9903 sf 0 0 m (JET_EffectiveNP_Statistical2) show NC gr 
 gsave  2268 975 0 0 C 1074.51 271.469 t 90 r /Helvetica findfont 23.9903 sf 0 0 m (JET_EffectiveNP_Statistical3) show NC gr 
 gsave  2268 975 0 0 C 1093.45 271.469 t 90 r /Helvetica findfont 23.9903 sf 0 0 m (JET_EffectiveNP_Statistical4) show NC gr 
 gsave  2268 975 0 0 C 1112.39 271.469 t 90 r /Helvetica findfont 23.9903 sf 0 0 m (JET_EffectiveNP_Statistical5) show NC gr 
 gsave  2268 975 0 0 C 1131.33 271.469 t 90 r /Helvetica findfont 23.9903 sf 0 0 m (JET_EffectiveNP_Statistical6) show NC gr 
 gsave  2268 975 0 0 C 1149.01 219.701 t 90 r /Helvetica findfont 23.9903 sf 0 0 m (JET_EtaIntercalibration_Modelling) show NC gr 
 gsave  2268 975 0 0 C 1169.21 123.74 t 90 r /Helvetica findfont 23.9903 sf 0 0 m (JET_EtaIntercalibration_NonClosure_highE) show NC gr 
 gsave  2268 975 0 0 C 1188.15 109.85 t 90 r /Helvetica findfont 23.9903 sf 0 0 m (JET_EtaIntercalibration_NonClosure_negEta) show NC gr 
 gsave  2268 975 0 0 C 1207.09 109.85 t 90 r /Helvetica findfont 23.9903 sf 0 0 m (JET_EtaIntercalibration_NonClosure_posEta) show NC gr 
 gsave  2268 975 0 0 C 1227.29 224.751 t 90 r /Helvetica findfont 23.9903 sf 0 0 m (JET_EtaIntercalibration_TotalStat) show NC gr 
 gsave  2268 975 0 0 C 1246.23 315.662 t 90 r /Helvetica findfont 23.9903 sf 0 0 m (JET_Flavor_Composition) show NC gr 
 gsave  2268 975 0 0 C 1263.91 339.652 t 90 r /Helvetica findfont 23.9903 sf 0 0 m (JET_Flavor_Response) show NC gr 
 gsave  2268 975 0 0 C 1284.11 273.995 t 90 r /Helvetica findfont 23.9903 sf 0 0 m (JET_JER_DataVsMC_MC16) show NC gr 
 gsave  2268 975 0 0 C 1303.05 301.773 t 90 r /Helvetica findfont 23.9903 sf 0 0 m (JET_JER_EffectiveNP_10) show NC gr 
 gsave  2268 975 0 0 C 1321.99 305.561 t 90 r /Helvetica findfont 23.9903 sf 0 0 m (JET_JER_EffectiveNP_11) show NC gr 
 gsave  2268 975 0 0 C 1340.93 207.074 t 90 r /Helvetica findfont 23.9903 sf 0 0 m (JET_JER_EffectiveNP_12restTerm) show NC gr 
 gsave  2268 975 0 0 C 1359.87 319.45 t 90 r /Helvetica findfont 23.9903 sf 0 0 m (JET_JER_EffectiveNP_1) show NC gr 
 gsave  2268 975 0 0 C 1380.07 315.662 t 90 r /Helvetica findfont 23.9903 sf 0 0 m (JET_JER_EffectiveNP_2) show NC gr 
 gsave  2268 975 0 0 C 1399.01 315.662 t 90 r /Helvetica findfont 23.9903 sf 0 0 m (JET_JER_EffectiveNP_3) show NC gr 
 gsave  2268 975 0 0 C 1417.95 315.662 t 90 r /Helvetica findfont 23.9903 sf 0 0 m (JET_JER_EffectiveNP_4) show NC gr 
 gsave  2268 975 0 0 C 1436.89 315.662 t 90 r /Helvetica findfont 23.9903 sf 0 0 m (JET_JER_EffectiveNP_5) show NC gr 
 gsave  2268 975 0 0 C 1455.83 315.662 t 90 r /Helvetica findfont 23.9903 sf 0 0 m (JET_JER_EffectiveNP_6) show NC gr 
 gsave  2268 975 0 0 C 1474.77 315.662 t 90 r /Helvetica findfont 23.9903 sf 0 0 m (JET_JER_EffectiveNP_7) show NC gr 
 gsave  2268 975 0 0 C 1493.71 315.662 t 90 r /Helvetica findfont 23.9903 sf 0 0 m (JET_JER_EffectiveNP_8) show NC gr 
 gsave  2268 975 0 0 C 1512.65 315.662 t 90 r /Helvetica findfont 23.9903 sf 0 0 m (JET_JER_EffectiveNP_9) show NC gr 
 gsave  2268 975 0 0 C 1531.59 391.421 t 90 r /Helvetica findfont 23.9903 sf 0 0 m (JET_JvtEfficiency) show NC gr 
 gsave  2268 975 0 0 C 1551.79 348.491 t 90 r /Helvetica findfont 23.9903 sf 0 0 m (JET_Pileup_OffsetMu) show NC gr 
 gsave  2268 975 0 0 C 1570.73 332.077 t 90 r /Helvetica findfont 23.9903 sf 0 0 m (JET_Pileup_OffsetNPV) show NC gr 
 gsave  2268 975 0 0 C 1588.41 367.431 t 90 r /Helvetica findfont 23.9903 sf 0 0 m (JET_Pileup_PtTerm) show NC gr 
 gsave  2268 975 0 0 C 1607.35 304.298 t 90 r /Helvetica findfont 23.9903 sf 0 0 m (JET_Pileup_RhoTopology) show NC gr 
 gsave  2268 975 0 0 C 1627.55 291.672 t 90 r /Helvetica findfont 23.9903 sf 0 0 m (JET_PunchThrough_MC16) show NC gr 
 gsave  2268 975 0 0 C 1646.49 320.713 t 90 r /Helvetica findfont 23.9903 sf 0 0 m (MET_SoftTrk_ResoPara) show NC gr 
 gsave  2268 975 0 0 C 1665.43 320.713 t 90 r /Helvetica findfont 23.9903 sf 0 0 m (MET_SoftTrk_ResoPerp) show NC gr 
 gsave  2268 975 0 0 C 1685.64 366.168 t 90 r /Helvetica findfont 23.9903 sf 0 0 m (MET_SoftTrk_Scale) show NC gr 
 gsave  2268 975 0 0 C 1704.58 318.187 t 90 r /Helvetica findfont 23.9903 sf 0 0 m (MUON_EFF_ISO_STAT) show NC gr 
 gsave  2268 975 0 0 C 1723.52 332.077 t 90 r /Helvetica findfont 23.9903 sf 0 0 m (MUON_EFF_ISO_SYS) show NC gr 
 gsave  2268 975 0 0 C 1742.45 291.672 t 90 r /Helvetica findfont 23.9903 sf 0 0 m (MUON_EFF_RECO_STAT) show NC gr 
 gsave  2268 975 0 0 C 1761.39 305.561 t 90 r /Helvetica findfont 23.9903 sf 0 0 m (MUON_EFF_RECO_SYS) show NC gr 
 gsave  2268 975 0 0 C 1780.33 297.985 t 90 r /Helvetica findfont 23.9903 sf 0 0 m (MUON_EFF_TTVA_STAT) show NC gr 
 gsave  2268 975 0 0 C 1799.27 311.874 t 90 r /Helvetica findfont 23.9903 sf 0 0 m (MUON_EFF_TTVA_SYS) show NC gr 
 gsave  2268 975 0 0 C 1818.21 231.065 t 90 r /Helvetica findfont 23.9903 sf 0 0 m (MUON_EFF_TrigStatUncertainty) show NC gr 
 gsave  2268 975 0 0 C 1838.42 227.277 t 90 r /Helvetica findfont 23.9903 sf 0 0 m (MUON_EFF_TrigSystUncertainty) show NC gr 
 gsave  2268 975 0 0 C 1857.36 469.705 t 90 r /Helvetica findfont 23.9903 sf 0 0 m (MUON_ID) show NC gr 
 gsave  2268 975 0 0 C 1876.3 457.079 t 90 r /Helvetica findfont 23.9903 sf 0 0 m (MUON_MS) show NC gr 
 gsave  2268 975 0 0 C 1895.24 273.995 t 90 r /Helvetica findfont 23.9903 sf 0 0 m (MUON_SAGITTA_RESBIAS) show NC gr 
 gsave  2268 975 0 0 C 1914.17 414.149 t 90 r /Helvetica findfont 23.9903 sf 0 0 m (MUON_SCALE) show NC gr 
 gsave  2268 975 0 0 C 1933.11 416.674 t 90 r /Helvetica findfont 23.9903 sf 0 0 m (PRW_DATASF) show NC gr 
 gsave  2268 975 0 0 C 1950.79 378.795 t 90 r /Helvetica findfont 23.9903 sf 0 0 m (_0theo_vbf_alphas) show NC gr 
 gsave  2268 975 0 0 C 1969.73 347.228 t 90 r /Helvetica findfont 23.9903 sf 0 0 m (_0theo_vbf_generator) show NC gr 
 gsave  2268 975 0 0 C 1989.93 371.219 t 90 r /Helvetica findfont 23.9903 sf 0 0 m (_0theo_vbf_pdf4lhc) show NC gr 
 gsave  2268 975 0 0 C 2010.14 392.684 t 90 r /Helvetica findfont 23.9903 sf 0 0 m (_0theo_vbf_scale) show NC gr 
 gsave  2268 975 0 0 C 2029.08 372.481 t 90 r /Helvetica findfont 23.9903 sf 0 0 m (_0theo_vbf_shower) show NC gr 
 gsave  2268 975 0 0 C 2046.75 378.795 t 90 r /Helvetica findfont 23.9903 sf 0 0 m (_4theo_vbf_alphas) show NC gr 
 gsave  2268 975 0 0 C 2065.69 347.228 t 90 r /Helvetica findfont 23.9903 sf 0 0 m (_4theo_vbf_generator) show NC gr 
 gsave  2268 975 0 0 C 2084.63 371.219 t 90 r /Helvetica findfont 23.9903 sf 0 0 m (_4theo_vbf_pdf4lhc) show NC gr 
 gsave  2268 975 0 0 C 2104.83 392.684 t 90 r /Helvetica findfont 23.9903 sf 0 0 m (_4theo_vbf_scale) show NC gr 
 gsave  2268 975 0 0 C 2123.77 372.481 t 90 r /Helvetica findfont 23.9903 sf 0 0 m (_4theo_vbf_shower) show NC gr 
 gsave  2268 975 0 0 C 2142.71 406.573 t 90 r /Helvetica findfont 23.9903 sf 0 0 m (theo_vbf_alphas) show NC gr 
 gsave  2268 975 0 0 C 2161.65 375.007 t 90 r /Helvetica findfont 23.9903 sf 0 0 m (theo_vbf_generator) show NC gr 
 gsave  2268 975 0 0 C 2180.59 398.997 t 90 r /Helvetica findfont 23.9903 sf 0 0 m (theo_vbf_pdf4lhc) show NC gr 
 gsave  2268 975 0 0 C 2200.8 420.462 t 90 r /Helvetica findfont 23.9903 sf 0 0 m (theo_vbf_scale) show NC gr 
 gsave  2268 975 0 0 C 2219.74 400.26 t 90 r /Helvetica findfont 23.9903 sf 0 0 m (theo_vbf_shower) show NC gr  45 613 m -28 Y s 201 613 m -28 Y s 356 613 m -28 Y s 512 613 m -28 Y s 667 613 m -28 Y s 823 613 m -28 Y s 978 613 m -28 Y s 1134 613 m
 -28 Y s 1289 613 m -28 Y s 1445 613 m -28 Y s 1600 613 m -28 Y s 1756 613 m -28 Y s 1911 613 m -28 Y s 2067 613 m -28 Y s 2222 613 m -28 Y s 45 960 m 2177 X s 45 932 m 28 Y s 201 932 m 28 Y s 356 932 m 28 Y s 512 932 m 28 Y s 667 932 m 28 Y s 823
 932 m 28 Y s 978 932 m 28 Y s 1134 932 m 28 Y s 1289 932 m 28 Y s 1445 932 m 28 Y s 1600 932 m 28 Y s 1756 932 m 28 Y s 1911 932 m 28 Y s 2067 932 m 28 Y s 2222 932 m 28 Y s 45 585 m 375 Y s 72 585 m -27 X s 58 594 m -13 X s 58 604 m -13 X s 58 613
 m -13 X s 58 622 m -13 X s 72 632 m -27 X s 58 641 m -13 X s 58 651 m -13 X s 58 660 m -13 X s 58 669 m -13 X s 72 679 m -27 X s 58 688 m -13 X s 58 697 m -13 X s 58 707 m -13 X s 58 716 m -13 X s 72 726 m -27 X s 58 735 m -13 X s 58 744 m -13 X s
 58 754 m -13 X s 58 763 m -13 X s 72 773 m -27 X s 58 782 m -13 X s 58 791 m -13 X s 58 801 m -13 X s 58 810 m -13 X s 72 819 m -27 X s 58 829 m -13 X s 58 838 m -13 X s 58 848 m -13 X s 58 857 m -13 X s 72 866 m -27 X s 58 876 m -13 X s 58 885 m
 -13 X s 58 894 m -13 X s 58 904 m -13 X s 72 913 m -27 X s 58 923 m -13 X s 58 932 m -13 X s 58 941 m -13 X s 58 951 m -13 X s 72 960 m -27 X s
 gsave  2268 975 0 0 C 20.2024 575.768 t 0 r /Helvetica findfont 23.9903 sf 0 0 m (2) show NC gr 
 gsave  2268 975 0 0 C 7.57589 575.768 t 0 r /Symbol findfont 23.9903 sf 0 0 m (-) show NC gr 
 gsave  2268 975 0 0 C 0 623.748 t 0 r /Helvetica findfont 23.9903 sf 0 0 m (1.5) show NC gr 
 gsave  2268 975 0 0 C -12.6265 623.748 t 0 r /Symbol findfont 23.9903 sf 0 0 m (-) show NC gr 
 gsave  2268 975 0 0 C 23.9903 669.204 t 0 r /Helvetica findfont 23.9903 sf 0 0 m (1) show NC gr 
 gsave  2268 975 0 0 C 11.3638 669.204 t 0 r /Symbol findfont 23.9903 sf 0 0 m (-) show NC gr 
 gsave  2268 975 0 0 C 0 717.184 t 0 r /Helvetica findfont 23.9903 sf 0 0 m (0.5) show NC gr 
 gsave  2268 975 0 0 C -12.6265 717.184 t 0 r /Symbol findfont 23.9903 sf 0 0 m (-) show NC gr 
 gsave  2268 975 0 0 C 20.2024 763.902 t 0 r /Helvetica findfont 23.9903 sf 0 0 m (0) show NC gr 
 gsave  2268 975 0 0 C 0 810.62 t 0 r /Helvetica findfont 23.9903 sf 0 0 m (0.5) show NC gr 
 gsave  2268 975 0 0 C 23.9903 857.338 t 0 r /Helvetica findfont 23.9903 sf 0 0 m (1) show NC gr 
 gsave  2268 975 0 0 C 0 905.319 t 0 r /Helvetica findfont 23.9903 sf 0 0 m (1.5) show NC gr 
 gsave  2268 975 0 0 C 20.2024 950.774 t 0 r /Helvetica findfont 23.9903 sf 0 0 m (2) show NC gr 
 gsave  2268 975 0 0 C -45.4553 945.724 t 90 r /Symbol findfont 29.0409 sf 0 0 m (q) show NC gr  6 lw
 gsave  2268 975 0 0 C -45.4553 930.572 t 90 r /Symbol findfont 29.0409 sf 0 0 m (d) show NC gr 
 gsave  2268 975 0 0 C -45.4553 920.471 t 90 r /Helvetica findfont 29.0409 sf 0 0 m (/) show NC gr 
 gsave  2268 975 0 0 C -45.4553 905.319 t 90 r /Symbol findfont 29.0409 sf 0 0 m (q) show NC gr 
 gsave  2268 975 0 0 C -45.4553 896.48 t 90 r /Helvetica findfont 29.0409 sf 0 0 m (\255) show NC gr 
 gsave  2268 975 0 0 C -45.4553 881.329 t 90 r /Symbol findfont 29.0409 sf 0 0 m (q) show NC gr  3 lw 2222 585 m 375 Y s 2196 585 m 26 X s 2209 594 m 13 X s 2209 604 m 13 X s 2209 613 m 13 X s 2209 622 m 13 X s 2196 632 m 26 X s 2209 641 m 13 X s
 2209 651 m 13 X s 2209 660 m 13 X s 2209 669 m 13 X s 2196 679 m 26 X s 2209 688 m 13 X s 2209 697 m 13 X s 2209 707 m 13 X s 2209 716 m 13 X s 2196 726 m 26 X s 2209 735 m 13 X s 2209 744 m 13 X s 2209 754 m 13 X s 2209 763 m 13 X s 2196 773 m 26 X
 s 2209 782 m 13 X s 2209 791 m 13 X s 2209 801 m 13 X s 2209 810 m 13 X s 2196 819 m 26 X s 2209 829 m 13 X s 2209 838 m 13 X s 2209 848 m 13 X s 2209 857 m 13 X s 2196 866 m 26 X s 2209 876 m 13 X s 2209 885 m 13 X s 2209 894 m 13 X s 2209 904 m 13
 X s 2196 913 m 26 X s 2209 923 m 13 X s 2209 932 m 13 X s 2209 941 m 13 X s 2209 951 m 13 X s 2196 960 m 26 X s 55 768 m 93 Y s 52 861 m 5 X s 55 768 m -93 Y s 52 675 m 5 X s 74 772 m 88 Y s 71 860 m 6 X s 74 772 m -88 Y s 71 684 m 6 X s 93 772 m 93
 Y s 91 865 m 5 X s 93 772 m -93 Y s 91 679 m 5 X s 112 773 m 93 Y s 110 866 m 5 X s 112 773 m -93 Y s 110 680 m 5 X s 131 772 m 93 Y s 129 865 m 5 X s 131 772 m -93 Y s 129 679 m 5 X s 150 772 m 93 Y s 148 865 m 5 X s 150 772 m -94 Y s 148 678 m 5 X
 s 169 771 m 93 Y s 167 864 m 5 X s 169 771 m -93 Y s 167 678 m 5 X s 189 770 m 93 Y s 186 863 m 5 X s 189 770 m -93 Y s 186 677 m 5 X s 208 772 m 93 Y s 205 865 m 5 X s 208 772 m -93 Y s 205 679 m 5 X s 227 772 m 93 Y s 224 865 m 5 X s 227 772 m -93
 Y s 224 679 m 5 X s 246 772 m 93 Y s 243 865 m 5 X s 246 772 m -93 Y s 243 679 m 5 X s 265 772 m 93 Y s 262 865 m 5 X s 265 772 m -93 Y s 262 679 m 5 X s 284 772 m 93 Y s 282 865 m 5 X s 284 772 m -93 Y s 282 679 m 5 X s 303 772 m 93 Y s 301 865 m 5
 X s 303 772 m -93 Y s 301 679 m 5 X s 322 773 m 93 Y s 320 866 m 5 X s 322 773 m -93 Y s 320 680 m 5 X s 341 773 m 93 Y s 339 866 m 5 X s 341 773 m -93 Y s 339 680 m 5 X s 360 773 m 93 Y s 358 866 m 5 X s 360 773 m -94 Y s 358 679 m 5 X s 380 772 m
 93 Y s 377 865 m 5 X s 380 772 m -93 Y s 377 679 m 5 X s 399 772 m 93 Y s 396 865 m 5 X s 399 772 m -93 Y s 396 679 m 5 X s 418 772 m 93 Y s 415 865 m 5 X s 418 772 m -93 Y s 415 679 m 5 X s 437 772 m 93 Y s 434 865 m 5 X s 437 772 m -93 Y s 434 679
 m 5 X s 456 773 m 93 Y s 453 866 m 5 X s 456 773 m -93 Y s 453 680 m 5 X s 475 772 m 94 Y s 473 866 m 5 X s 475 772 m -93 Y s 473 679 m 5 X s 494 772 m 94 Y s 492 866 m 5 X s 494 772 m -93 Y s 492 679 m 5 X s 513 771 m 94 Y s 511 865 m 5 X s 513 771
 m -93 Y s 511 678 m 5 X s 532 772 m 93 Y s 530 865 m 5 X s 532 772 m -93 Y s 530 679 m 5 X s 551 773 m 93 Y s 549 866 m 5 X s 551 773 m -94 Y s 549 679 m 5 X s 571 773 m 93 Y s 568 866 m 5 X s 571 773 m -93 Y s 568 680 m 5 X s 590 773 m 93 Y s 587
 866 m 5 X s 590 773 m -93 Y s 587 680 m 5 X s 609 772 m 93 Y s 606 865 m 5 X s 609 772 m -93 Y s 606 679 m 5 X s 628 774 m 93 Y s 625 867 m 5 X s 628 774 m -93 Y s 625 681 m 5 X s 647 772 m 93 Y s 644 865 m 5 X s 647 772 m -93 Y s 644 679 m 5 X s
 666 773 m 93 Y s 663 866 m 6 X s 666 773 m -94 Y s 663 679 m 6 X s 685 771 m 93 Y s 683 864 m 5 X s 685 771 m -93 Y s 683 678 m 5 X s 704 772 m 93 Y s 702 865 m 5 X s 704 772 m -93 Y s 702 679 m 5 X s 723 772 m 93 Y s 721 865 m 5 X s 723 772 m -93 Y
 s 721 679 m 5 X s 742 772 m 94 Y s 740 866 m 5 X s 742 772 m -93 Y s 740 679 m 5 X s 761 772 m 93 Y s 759 865 m 5 X s 761 772 m -93 Y s 759 679 m 5 X s 781 772 m 93 Y s 778 865 m 5 X s 781 772 m -93 Y s 778 679 m 5 X s 800 772 m 93 Y s 797 865 m 5 X
 s 800 772 m -93 Y s 797 679 m 5 X s 819 772 m 93 Y s 816 865 m 5 X s 819 772 m -93 Y s 816 679 m 5 X s 838 759 m 93 Y s 835 852 m 5 X s 838 759 m -93 Y s 835 666 m 5 X s 857 767 m 93 Y s 854 860 m 5 X s 857 767 m -93 Y s 854 674 m 5 X s 876 772 m 93
 Y s 874 865 m 5 X s 876 772 m -93 Y s 874 679 m 5 X s 895 770 m 93 Y s 893 863 m 5 X s 895 770 m -93 Y s 893 677 m 5 X s 914 776 m 93 Y s 912 869 m 5 X s 914 776 m -93 Y s 912 683 m 5 X s 933 772 m 93 Y s 931 865 m 5 X s 933 772 m -93 Y s 931 679 m
 5 X s 952 766 m 91 Y s 950 857 m 5 X s 952 766 m -91 Y s 950 675 m 5 X s 972 767 m 93 Y s 969 860 m 5 X s 972 767 m -93 Y s 969 674 m 5 X s 991 771 m 93 Y s 988 864 m 5 X s 991 771 m -93 Y s 988 678 m 5 X s 1010 771 m 93 Y s 1007 864 m 5 X s 1010
 771 m -94 Y s 1007 677 m 5 X s 1029 770 m 93 Y s 1026 863 m 5 X s 1029 770 m -93 Y s 1026 677 m 5 X s 1048 773 m 93 Y s 1045 866 m 5 X s 1048 773 m -93 Y s 1045 680 m 5 X s 1067 773 m 93 Y s 1064 866 m 6 X s 1067 773 m -93 Y s 1064 680 m 6 X s 1086
 773 m 93 Y s 1084 866 m 5 X s 1086 773 m -94 Y s 1084 679 m 5 X s 1105 768 m 93 Y s 1103 861 m 5 X s 1105 768 m -93 Y s 1103 675 m 5 X s 1124 772 m 93 Y s 1122 865 m 5 X s 1124 772 m -94 Y s 1122 678 m 5 X s 1143 738 m 91 Y s 1141 829 m 5 X s 1143
 738 m -91 Y s 1141 647 m 5 X s 1163 772 m 93 Y s 1160 865 m 5 X s 1163 772 m -93 Y s 1160 679 m 5 X s 1182 774 m 93 Y s 1179 867 m 5 X s 1182 774 m -94 Y s 1179 680 m 5 X s 1201 769 m 92 Y s 1198 861 m 5 X s 1201 769 m -93 Y s 1198 676 m 5 X s 1220
 782 m 93 Y s 1217 875 m 5 X s 1220 782 m -93 Y s 1217 689 m 5 X s 1239 732 m 89 Y s 1236 821 m 5 X s 1239 732 m -88 Y s 1236 644 m 5 X s 1258 771 m 90 Y s 1255 861 m 6 X s 1258 771 m -90 Y s 1255 681 m 6 X s 1277 749 m 88 Y s 1275 837 m 5 X s 1277
 749 m -88 Y s 1275 661 m 5 X s 1296 728 m 90 Y s 1294 818 m 5 X s 1296 728 m -91 Y s 1294 637 m 5 X s 1315 785 m 92 Y s 1313 877 m 5 X s 1315 785 m -91 Y s 1313 694 m 5 X s 1334 726 m 91 Y s 1332 817 m 5 X s 1334 726 m -91 Y s 1332 635 m 5 X s 1353
 613 m 82 Y s 1351 695 m 5 X s 1353 613 m -28 Y s 1351 585 m 5 X s 1373 763 m 84 Y s 1370 847 m 5 X s 1373 763 m -84 Y s 1370 679 m 5 X s 1392 791 m 86 Y s 1389 877 m 5 X s 1392 791 m -87 Y s 1389 704 m 5 X s 1411 731 m 84 Y s 1408 815 m 5 X s 1411
 731 m -83 Y s 1408 648 m 5 X s 1430 682 m 87 Y s 1427 769 m 5 X s 1430 682 m -87 Y s 1427 595 m 5 X s 1449 747 m 89 Y s 1446 836 m 5 X s 1449 747 m -89 Y s 1446 658 m 5 X s 1468 740 m 88 Y s 1466 828 m 5 X s 1468 740 m -89 Y s 1466 651 m 5 X s 1487
 742 m 91 Y s 1485 833 m 5 X s 1487 742 m -91 Y s 1485 651 m 5 X s 1506 684 m 89 Y s 1504 773 m 5 X s 1506 684 m -88 Y s 1504 596 m 5 X s 1525 772 m 93 Y s 1523 865 m 5 X s 1525 772 m -93 Y s 1523 679 m 5 X s 1544 773 m 89 Y s 1542 862 m 5 X s 1544
 773 m -90 Y s 1542 683 m 5 X s 1564 778 m 91 Y s 1561 869 m 5 X s 1564 778 m -91 Y s 1561 687 m 5 X s 1583 754 m 93 Y s 1580 847 m 5 X s 1583 754 m -92 Y s 1580 662 m 5 X s 1602 740 m 91 Y s 1599 831 m 5 X s 1602 740 m -91 Y s 1599 649 m 5 X s 1621
 772 m 93 Y s 1618 865 m 5 X s 1621 772 m -93 Y s 1618 679 m 5 X s 1640 825 m 89 Y s 1637 914 m 5 X s 1640 825 m -88 Y s 1637 737 m 5 X s 1659 775 m 87 Y s 1656 862 m 6 X s 1659 775 m -87 Y s 1656 688 m 6 X s 1678 789 m 92 Y s 1676 881 m 5 X s 1678
 789 m -92 Y s 1676 697 m 5 X s 1697 772 m 93 Y s 1695 865 m 5 X s 1697 772 m -93 Y s 1695 679 m 5 X s 1716 774 m 93 Y s 1714 867 m 5 X s 1716 774 m -93 Y s 1714 681 m 5 X s 1735 772 m 93 Y s 1733 865 m 5 X s 1735 772 m -93 Y s 1733 679 m 5 X s 1754
 773 m 93 Y s 1752 866 m 5 X s 1754 773 m -93 Y s 1752 680 m 5 X s 1774 772 m 93 Y s 1771 865 m 5 X s 1774 772 m -93 Y s 1771 679 m 5 X s 1793 772 m 93 Y s 1790 865 m 5 X s 1793 772 m -93 Y s 1790 679 m 5 X s 1812 773 m 93 Y s 1809 866 m 5 X s 1812
 773 m -94 Y s 1809 679 m 5 X s 1831 766 m 93 Y s 1828 859 m 5 X s 1831 766 m -93 Y s 1828 673 m 5 X s 1850 769 m 93 Y s 1847 862 m 6 X s 1850 769 m -92 Y s 1847 677 m 6 X s 1869 781 m 93 Y s 1867 874 m 5 X s 1869 781 m -92 Y s 1867 689 m 5 X s 1888
 767 m 93 Y s 1886 860 m 5 X s 1888 767 m -93 Y s 1886 674 m 5 X s 1907 784 m 92 Y s 1905 876 m 5 X s 1907 784 m -91 Y s 1905 693 m 5 X s 1926 767 m 92 Y s 1924 859 m 5 X s 1926 767 m -93 Y s 1924 674 m 5 X s 1945 773 m 93 Y s 1943 866 m 5 X s 1945
 773 m -94 Y s 1943 679 m 5 X s 1965 772 m 93 Y s 1962 865 m 5 X s 1965 772 m -93 Y s 1962 679 m 5 X s 1984 772 m 94 Y s 1981 866 m 5 X s 1984 772 m -93 Y s 1981 679 m 5 X s 2003 773 m 93 Y s 2000 866 m 5 X s 2003 773 m -94 Y s 2000 679 m 5 X s 2022
 773 m 93 Y s 2019 866 m 5 X s 2022 773 m -93 Y s 2019 680 m 5 X s 2041 773 m 93 Y s 2038 866 m 5 X s 2041 773 m -94 Y s 2038 679 m 5 X s 2060 772 m 93 Y s 2058 865 m 5 X s 2060 772 m -93 Y s 2058 679 m 5 X s 2079 772 m 94 Y s 2077 866 m 5 X s 2079
 772 m -93 Y s 2077 679 m 5 X s 2098 773 m 93 Y s 2096 866 m 5 X s 2098 773 m -94 Y s 2096 679 m 5 X s 2117 773 m 93 Y s 2115 866 m 5 X s 2117 773 m -93 Y s 2115 680 m 5 X s 2136 773 m 93 Y s 2134 866 m 5 X s 2136 773 m -93 Y s 2134 680 m 5 X s 2156
 762 m 92 Y s 2153 854 m 5 X s 2156 762 m -93 Y s 2153 669 m 5 X s 2175 773 m 93 Y s 2172 866 m 5 X s 2175 773 m -94 Y s 2172 679 m 5 X s 2194 773 m 93 Y s 2191 866 m 5 X s 2194 773 m -93 Y s 2191 680 m 5 X s 2213 764 m 93 Y s 2210 857 m 5 X s 2213
 764 m -93 Y s 2210 671 m 5 X s 1 1 1 c black /w 10 def /w2 {w 2 div} def /w3 {w 3 div} def 55 768 74 772 93 772 112 773 131 772 150 772 169 771 189 770 208 772 227 772 246 772 265 772 284 772 303 772 322 773 341 773 360 773 380 772 399 772 418 772
 437 772 456 773 475 772 494 772 513 771 532 772 551 773 571 773 590 773 609 772 628 774 647 772 666 773 685 771 704 772 723 772 742 772 761 772 781 772 800 772 819 772 838 759 857 767 876 772 895 770 914 776 933 772 952 766 972 767 991 771 1010 771
 1029 770 1048 773 1067 773 1086 773 1105 768 1124 772 1143 738 1163 772 1182 774 1201 769 1220 782 1239 732 1258 771 1277 749 1296 728 1315 785 1334 726 1353 613 1373 763 1392 791 1411 731 1430 682 1449 747 1468 740 1487 742 1506 684 1525 772 1544
 773 1564 778 1583 754 1602 740 1621 772 1640 825 1659 775 1678 789 1697 772 1716 774 1735 772 1754 773 1774 772 1793 772 1812 773 1831 766 1850 769 1869 781 1888 767 1907 784 1926 767 1945 773 100 { m20} R 1965 772 1984 772 2003 773 2022 773 2041
 773 2060 772 2079 772 2098 773 2117 773 2136 773 2156 762 2175 773 2194 773 2213 764 14 { m20} R
 gr  gr showpage
end
%%EOF
