%!PS-Adobe-2.0 EPSF-2.0
%%BoundingBox:  0 0 567 384
%%Title: cCorr_matrix_pt_H.eps: 
%%Creator: ROOT Version 6.24/06
%%CreationDate: Tue Jan  4 04:26:41 2022
%%DocumentNeededResources: ProcSet (FontSetInit)
%%EndComments
%%BeginProlog
80 dict begin
/s {stroke} def /l {lineto} def /m {moveto} def /t {translate} def
/r {rotate} def /rl {roll}  def /R {repeat} def
/d {rlineto} def /rm {rmoveto} def /gr {grestore} def /f {eofill} def
/c {setrgbcolor} def /black {0 setgray} def /sd {setdash} def
/cl {closepath} def /sf {scalefont setfont} def /lw {setlinewidth} def
/box {m dup 0 exch d exch 0 d 0 exch neg d cl} def
/NC{systemdict begin initclip end}def/C{NC box clip newpath}def
/bl {box s} def /bf {gsave box gsave f grestore 1 lw [] 0 sd s grestore} def /Y { 0 exch d} def /X { 0 d} def 
/K {{pop pop 0 moveto} exch kshow} bind def
/ita {/ang 15 def gsave [1 0 ang dup sin exch cos div 1 0 0] concat} def 
/mp {newpath /y exch def /x exch def} def
/side {[w .77 mul w .23 mul] .385 w mul sd w 0 l currentpoint t -144 r} def
/mr {mp x y w2 0 360 arc} def /m24 {mr s} def /m20 {mr f} def
/mb {mp x y w2 add m w2 neg 0 d 0 w neg d w 0 d 0 w d cl} def
/mt {mp x y w2 add m w2 neg w neg d w 0 d cl} def
/w4 {w 4 div} def
/w6 {w 6 div} def
/w8 {w 8 div} def
/m21 {mb f} def /m25 {mb s} def /m22 {mt f} def /m26{mt s} def
/m23 {mp x y w2 sub m w2 w d w neg 0 d cl f} def
/m27 {mp x y w2 add m w3 neg w2 neg d w3 w2 neg d w3 w2 d cl s} def
/m28 {mp x w2 sub y w2 sub w3 add m w3 0 d  0 w3 neg d w3 0 d 0 w3 d w3 0 d  0 w3 d w3 neg 0 d 0 w3 d w3 neg 0 d 0 w3 neg d w3 neg 0 d cl s } def
/m29 {mp gsave x w2 sub y w2 add w3 sub m currentpoint t 4 {side} repeat cl fill gr} def
/m30 {mp gsave x w2 sub y w2 add w3 sub m currentpoint t 4 {side} repeat cl s gr} def
/m31 {mp x y w2 sub m 0 w d x w2 sub y m w 0 d x w2 .707 mul sub y w2 .707 mul add m w 1.44 div w 1.44 div neg d x w2 .707 mul sub y w2 .707 mul sub m w 1.44 div w 1.44 div d s} def
/m32 {mp x y w2 sub m w2 w d w neg 0 d cl s} def
/m33 {mp x y w2 add m w3 neg w2 neg d w3 w2 neg d w3 w2 d cl f} def
/m34 {mp x w2 sub y w2 sub w3 add m w3 0 d  0 w3 neg d w3 0 d 0 w3 d w3 0 d  0 w3 d w3 neg 0 d 0 w3 d w3 neg 0 d 0 w3 neg d w3 neg 0 d cl f } def
/m35 {mp x y w2 add m w2 neg w2 neg d w2 w2 neg d w2 w2 d w2 neg w2 d x y w2 sub m 0 w d x w2 sub y m w 0 d s} def
/m36 {mb x w2 sub y w2 add m w w neg d x w2 sub y w2 sub m w w d s} def
/m37 {mp x y m w4 neg w2 d w4 neg w2 neg d w2 0 d  w4 neg w2 neg d w2 0 d w4 neg w2 d w2 0 d w4 neg w2 d w4 neg w2 neg d cl s} def
/m38 {mp x w4 sub y w2 add m w4 neg w4 neg d 0 w2 neg d w4 w4 neg d w2 0 d w4 w4 d 0 w2 d w4 neg w4 d w2 neg 0 d x y w2 sub m 0 w d x w2 sub y m w 0 d cl s} def
/m39 {mp x y m w4 neg w2 d w4 neg w2 neg d w2 0 d  w4 neg w2 neg d w2 0 d w4 neg w2 d w2 0 d w4 neg w2 d w4 neg w2 neg d cl f} def
/m40 {mp x y m w4 w2 d w4 w4 neg d w2 neg w4 neg d w2 w4 neg d w4 neg w4 neg d w4 neg w2 d w4 neg w2 neg d w4 neg w4 d w2 w4 d w2 neg w4 d w4 w4 d w4 w2 neg d cl s} def
/m41 {mp x y m w4 w2 d w4 w4 neg d w2 neg w4 neg d w2 w4 neg d w4 neg w4 neg d w4 neg w2 d w4 neg w2 neg d w4 neg w4 d w2 w4 d w2 neg w4 d w4 w4 d w4 w2 neg d cl f} def
/m42 {mp x y w2 add m w8 neg w2 -3 4 div mul d w2 -3 4 div mul w8 neg d w2 3 4 div mul w8 neg d w8 w2 -3 4 div mul d w8 w2 3 4 div mul d w2 3 4 div mul w8 d w2 -3 4 div mul w8 d w8 neg w2 3 4 div mul d cl s} def
/m43 {mp x y w2 add m w8 neg w2 -3 4 div mul d w2 -3 4 div mul w8 neg d w2 3 4 div mul w8 neg d w8 w2 -3 4 div mul d w8 w2 3 4 div mul d w2 3 4 div mul w8 d w2 -3 4 div mul w8 d w8 neg w2 3 4 div mul d cl f} def
/m44 {mp x y m w6 neg w2 d w2 2 3 div mul 0 d w6 neg w2 neg d w2 w6 d 0 w2 -2 3 div mul d w2 neg w6 d w6 w2 neg d w2 -2 3 div mul 0 d w6 w2 d w2 neg w6 neg d 0 w2 2 3 div mul d w2 w6 neg d cl s} def
/m45 {mp x y m w6 neg w2 d w2 2 3 div mul 0 d w6 neg w2 neg d w2 w6 d 0 w2 -2 3 div mul d w2 neg w6 d w6 w2 neg d w2 -2 3 div mul 0 d w6 w2 d w2 neg w6 neg d 0 w2 2 3 div mul d w2 w6 neg d cl f} def
/m46 {mp x y w4 add m w4 neg w4 d w4 neg w4 neg d  w4 w4 neg d w4 neg w4 neg d w4 w4 neg d w4 w4 d w4 w4 neg d w4 w4 d w4 neg w4 d w4 w4 d w4 neg w4 d w4 neg w4 neg d cl s} def
/m47 {mp x y w4 add m w4 neg w4 d w4 neg w4 neg d w4 w4 neg d w4 neg w4 neg d  w4 w4 neg d w4 w4 d w4 w4 neg d w4 w4 d w4 neg w4 d w4 w4 d w4 neg w4 d w4 neg w4 neg d cl f} def
/m48 {mp x y w4 add m w4 neg w4 d w4 neg w4 neg d w4 w4 neg d  w4 neg w4 neg d w4 w4 neg d w4 w4 d w4 w4 neg d w4 w4 d w4 neg w4 d w4 w4 d w4 neg w4 d w4 neg w4 neg d  w4 w4 neg d w4 neg w4 neg d w4 neg w4 d w4 w4 d cl f} def
/m49 {mp x w2 sub w3 add y w2 sub w3 add m  0 w3 neg d w3 0 d 0 w3 d w3 0 d 0 w3 d w3 neg 0 d 0 w3 d w3 neg 0 d 0 w3 neg d w3 neg 0 d 0 w3 neg d w3 0 d 0 w3 d w3 0 d 0 w3 neg d w3 neg 0 d cl f } def
/m2 {mp x y w2 sub m 0 w d x w2 sub y m w 0 d s} def
/m5 {mp x w2 .707 mul sub y w2 .707 mul sub m w 1.44 div w 1.44 div d x w2 .707 mul sub y w2 .707 mul add m w 1.44 div w 1.44 div neg d s} def
%%IncludeResource: ProcSet (FontSetInit)
%%IncludeResource: font Times-Roman
%%IncludeResource: font Times-Italic
%%IncludeResource: font Times-Bold
%%IncludeResource: font Times-BoldItalic
%%IncludeResource: font Helvetica
%%IncludeResource: font Helvetica-Oblique
%%IncludeResource: font Helvetica-Bold
%%IncludeResource: font Helvetica-BoldOblique
%%IncludeResource: font Courier
%%IncludeResource: font Courier-Oblique
%%IncludeResource: font Courier-Bold
%%IncludeResource: font Courier-BoldOblique
%%IncludeResource: font Symbol
%%IncludeResource: font ZapfDingbats
/reEncode {exch findfont dup length dict begin {1 index /FID eq  {pop pop} {def} ifelse } forall /Encoding exch def currentdict end dup /FontName get exch definefont pop } def [/Times-Bold /Times-Italic /Times-BoldItalic /Helvetica /Helvetica-Oblique
 /Helvetica-Bold /Helvetica-BoldOblique /Courier /Courier-Oblique /Courier-Bold /Courier-BoldOblique /Times-Roman /AvantGarde-Book /AvantGarde-BookOblique /AvantGarde-Demi /AvantGarde-DemiOblique /Bookman-Demi /Bookman-DemiItalic /Bookman-Light
 /Bookman-LightItalic /Helvetica-Narrow /Helvetica-Narrow-Bold /Helvetica-Narrow-BoldOblique /Helvetica-Narrow-Oblique /NewCenturySchlbk-Roman /NewCenturySchlbk-Bold /NewCenturySchlbk-BoldItalic /NewCenturySchlbk-Italic /Palatino-Bold
 /Palatino-BoldItalic /Palatino-Italic /Palatino-Roman ] {ISOLatin1Encoding reEncode } forall
%%EndProlog
%%BeginSetup
%%EndSetup
newpath  gsave  .25 .25 scale  gsave  0 0 t black[  ] 0 sd 3 lw 1 1 1 c 2268 1538 0 0 bf black 1 1 1 c 1814 1230 227 154 bf black 1814 1230 227 154 bl 1 1 1 c 0.977 0.977044 0.0583656 c 151 102 227 154 bf 0.0526375 0.656131 0.763481 c 151 102 378 154
 bf 0.322347 0.730556 0.570878 c 151 102 529 154 bf 151 102 680 154 bf 152 102 831 154 bf 0.1802 0.7178 0.6425 c 151 102 983 154 bf 0.033475 0.616063 0.800231 c 151 102 1134 154 bf 0.0526375 0.656131 0.763481 c 151 102 1285 154 bf 0.1802 0.7178
 0.6425 c 151 102 1436 154 bf 152 102 1587 154 bf 151 102 1739 154 bf 151 102 1890 154 bf 0.0526375 0.656131 0.763481 c 151 103 227 256 bf 0.977 0.977044 0.0583656 c 151 103 378 256 bf 0.1802 0.7178 0.6425 c 151 103 529 256 bf 0.322347 0.730556
 0.570878 c 151 103 680 256 bf 152 103 831 256 bf 0.1802 0.7178 0.6425 c 151 103 983 256 bf 0.322347 0.730556 0.570878 c 151 103 1134 256 bf 0.116419 0.686966 0.702991 c 151 103 1285 256 bf 151 103 1436 256 bf 0.1802 0.7178 0.6425 c 152 103 1587 256
 bf 0.322347 0.730556 0.570878 c 151 103 1739 256 bf 151 103 1890 256 bf 151 102 227 359 bf 0.1802 0.7178 0.6425 c 151 102 378 359 bf 0.977 0.977044 0.0583656 c 151 102 529 359 bf 0.1802 0.7178 0.6425 c 151 102 680 359 bf 0.322347 0.730556 0.570878 c
 152 102 831 359 bf 151 102 983 359 bf 151 102 1134 359 bf 0.1802 0.7178 0.6425 c 151 102 1285 359 bf 151 102 1436 359 bf 0.322347 0.730556 0.570878 c 152 102 1587 359 bf 151 102 1739 359 bf 0.1802 0.7178 0.6425 c 151 102 1890 359 bf 0.322347
 0.730556 0.570878 c 151 103 227 461 bf 151 103 378 461 bf 0.1802 0.7178 0.6425 c 151 103 529 461 bf 0.977 0.977044 0.0583656 c 151 103 680 461 bf 0.116419 0.686966 0.702991 c 152 103 831 461 bf 0.1802 0.7178 0.6425 c 151 103 983 461 bf 151 103 1134
 461 bf 0.116419 0.686966 0.702991 c 151 103 1285 461 bf 151 103 1436 461 bf 0.322347 0.730556 0.570878 c 152 103 1587 461 bf 0.1802 0.7178 0.6425 c 151 103 1739 461 bf 151 103 1890 461 bf 0.322347 0.730556 0.570878 c 151 102 227 564 bf 151 102 378
 564 bf 151 102 529 564 bf 0.116419 0.686966 0.702991 c 151 102 680 564 bf 0.977 0.977044 0.0583656 c 152 102 831 564 bf 0.1802 0.7178 0.6425 c 151 102 983 564 bf 151 102 1134 564 bf 151 102 1285 564 bf 0.322347 0.730556 0.570878 c 151 102 1436 564
 bf 0.0526375 0.656131 0.763481 c 152 102 1587 564 bf 0.322347 0.730556 0.570878 c 151 102 1739 564 bf 0.1802 0.7178 0.6425 c 151 102 1890 564 bf 151 103 227 666 bf 151 103 378 666 bf 0.322347 0.730556 0.570878 c 151 103 529 666 bf 0.1802 0.7178
 0.6425 c 151 103 680 666 bf 152 103 831 666 bf 0.977 0.977044 0.0583656 c 151 103 983 666 bf 0.322347 0.730556 0.570878 c 151 103 1134 666 bf 0.1802 0.7178 0.6425 c 151 103 1285 666 bf 151 103 1436 666 bf 152 103 1587 666 bf 151 103 1739 666 bf 151
 103 1890 666 bf 0.033475 0.616063 0.800231 c 151 102 227 769 bf 0.322347 0.730556 0.570878 c 151 102 378 769 bf 151 102 529 769 bf 0.1802 0.7178 0.6425 c 151 102 680 769 bf 152 102 831 769 bf 0.322347 0.730556 0.570878 c 151 102 983 769 bf 0.977
 0.977044 0.0583656 c 151 102 1134 769 bf 0.322347 0.730556 0.570878 c 151 102 1285 769 bf 0.701397 0.739462 0.397147 c 151 102 1436 769 bf 0.453559 0.742331 0.504766 c 152 102 1587 769 bf 0.322347 0.730556 0.570878 c 151 102 1739 769 bf 0.8186
 0.7328 0.3499 c 151 102 1890 769 bf 0.0526375 0.656131 0.763481 c 151 103 227 871 bf 0.116419 0.686966 0.702991 c 151 103 378 871 bf 0.1802 0.7178 0.6425 c 151 103 529 871 bf 0.116419 0.686966 0.702991 c 151 103 680 871 bf 0.1802 0.7178 0.6425 c 152
 103 831 871 bf 151 103 983 871 bf 0.322347 0.730556 0.570878 c 151 103 1134 871 bf 0.977 0.977044 0.0583656 c 151 103 1285 871 bf 0.453559 0.742331 0.504766 c 151 103 1436 871 bf 0.322347 0.730556 0.570878 c 152 103 1587 871 bf 0.1802 0.7178 0.6425
 c 151 103 1739 871 bf 0.322347 0.730556 0.570878 c 151 103 1890 871 bf 0.1802 0.7178 0.6425 c 151 103 227 974 bf 0.116419 0.686966 0.702991 c 151 103 378 974 bf 0.1802 0.7178 0.6425 c 151 103 529 974 bf 0.116419 0.686966 0.702991 c 151 103 680 974
 bf 0.322347 0.730556 0.570878 c 152 103 831 974 bf 0.1802 0.7178 0.6425 c 151 103 983 974 bf 0.701397 0.739462 0.397147 c 151 103 1134 974 bf 0.453559 0.742331 0.504766 c 151 103 1285 974 bf 0.977 0.977044 0.0583656 c 151 103 1436 974 bf 0.453559
 0.742331 0.504766 c 152 103 1587 974 bf 151 103 1739 974 bf 0.8186 0.7328 0.3499 c 151 103 1890 974 bf 0.1802 0.7178 0.6425 c 151 102 227 1077 bf 151 102 378 1077 bf 0.322347 0.730556 0.570878 c 151 102 529 1077 bf 151 102 680 1077 bf 0.0526375
 0.656131 0.763481 c 152 102 831 1077 bf 0.1802 0.7178 0.6425 c 151 102 983 1077 bf 0.453559 0.742331 0.504766 c 151 102 1134 1077 bf 0.322347 0.730556 0.570878 c 151 102 1285 1077 bf 0.453559 0.742331 0.504766 c 151 102 1436 1077 bf 0.977 0.977044
 0.0583656 c 152 102 1587 1077 bf 0.322347 0.730556 0.570878 c 151 102 1739 1077 bf 0.453559 0.742331 0.504766 c 151 102 1890 1077 bf 0.1802 0.7178 0.6425 c 151 103 227 1179 bf 0.322347 0.730556 0.570878 c 151 103 378 1179 bf 151 103 529 1179 bf
 0.1802 0.7178 0.6425 c 151 103 680 1179 bf 0.322347 0.730556 0.570878 c 152 103 831 1179 bf 0.1802 0.7178 0.6425 c 151 103 983 1179 bf 0.322347 0.730556 0.570878 c 151 103 1134 1179 bf 0.1802 0.7178 0.6425 c 151 103 1285 1179 bf 0.453559 0.742331
 0.504766 c 151 103 1436 1179 bf 0.322347 0.730556 0.570878 c 152 103 1587 1179 bf 0.977 0.977044 0.0583656 c 151 103 1739 1179 bf 0.116419 0.686966 0.702991 c 151 103 1890 1179 bf 0.1802 0.7178 0.6425 c 151 102 227 1282 bf 0.322347 0.730556 0.570878
 c 151 102 378 1282 bf 0.1802 0.7178 0.6425 c 151 102 529 1282 bf 151 102 680 1282 bf 152 102 831 1282 bf 151 102 983 1282 bf 0.8186 0.7328 0.3499 c 151 102 1134 1282 bf 0.322347 0.730556 0.570878 c 151 102 1285 1282 bf 0.8186 0.7328 0.3499 c 151 102
 1436 1282 bf 0.453559 0.742331 0.504766 c 152 102 1587 1282 bf 0.116419 0.686966 0.702991 c 151 102 1739 1282 bf 0.977 0.977044 0.0583656 c 151 102 1890 1282 bf 0.150523 0.241303 0.660565 c 102 61 2052 154 bf 0.0880387 0.322448 0.802768 c 102 62
 2052 215 bf 0.0633125 0.391444 0.861859 c 102 61 2052 277 bf 0.0703625 0.445519 0.850647 c 102 62 2052 338 bf 0.078 0.5041 0.8385 c 102 61 2052 400 bf 0.0557375 0.560081 0.819366 c 102 62 2052 461 bf 0.033475 0.616063 0.800231 c 102 61 2052 523 bf
 0.0526375 0.656131 0.763481 c 102 62 2052 584 bf 0.116419 0.686966 0.702991 c 102 61 2052 646 bf 0.1802 0.7178 0.6425 c 102 62 2052 707 bf 0.322347 0.730556 0.570878 c 102 61 2052 769 bf 0.453559 0.742331 0.504766 c 102 62 2052 830 bf 0.584194
 0.746125 0.444394 c 102 61 2052 892 bf 0.701397 0.739462 0.397147 c 102 62 2052 953 bf 0.8186 0.7328 0.3499 c 102 62 2052 1015 bf 0.884975 0.752825 0.292488 c 102 61 2052 1077 bf 0.956881 0.774519 0.230291 c 102 62 2052 1138 bf 0.992 0.823138
 0.170006 c 102 61 2052 1200 bf 0.9842 0.903169 0.111953 c 102 62 2052 1261 bf 0.977 0.977044 0.0583656 c 102 61 2052 1323 bf black 2154 154 m 1230 Y s 2100 154 m 54 X s 2100 277 m 54 X s 2100 400 m 54 X s 2100 523 m 54 X s 2100 646 m 54 X s 2100 769
 m 54 X s 2100 892 m 54 X s 2100 1015 m 54 X s 2100 1138 m 54 X s 2100 1261 m 54 X s 2100 1384 m 54 X s 2100 154 m 54 X s
 gsave  2268 1538 0 0 C 2189.52 136.845 t 0 r /Helvetica findfont 48.8732 sf 0 0 m (1) show NC gr 
 gsave  2268 1538 0 0 C 2163.45 136.845 t 0 r /Symbol findfont 48.8732 sf 0 0 m (-) show NC gr 
 gsave  2268 1538 0 0 C 2189.52 257.399 t 0 r /Helvetica findfont 48.8732 sf 0 0 m (0.8) show NC gr 
 gsave  2268 1538 0 0 C 2163.45 257.399 t 0 r /Symbol findfont 48.8732 sf 0 0 m (-) show NC gr 
 gsave  2268 1538 0 0 C 2189.52 381.211 t 0 r /Helvetica findfont 48.8732 sf 0 0 m (0.6) show NC gr 
 gsave  2268 1538 0 0 C 2163.45 381.211 t 0 r /Symbol findfont 48.8732 sf 0 0 m (-) show NC gr 
 gsave  2268 1538 0 0 C 2189.52 505.023 t 0 r /Helvetica findfont 48.8732 sf 0 0 m (0.4) show NC gr 
 gsave  2268 1538 0 0 C 2163.45 505.023 t 0 r /Symbol findfont 48.8732 sf 0 0 m (-) show NC gr 
 gsave  2268 1538 0 0 C 2189.52 628.835 t 0 r /Helvetica findfont 48.8732 sf 0 0 m (0.2) show NC gr 
 gsave  2268 1538 0 0 C 2163.45 628.835 t 0 r /Symbol findfont 48.8732 sf 0 0 m (-) show NC gr 
 gsave  2268 1538 0 0 C 2163.45 749.389 t 0 r /Helvetica findfont 48.8732 sf 0 0 m (0) show NC gr 
 gsave  2268 1538 0 0 C 2163.45 873.201 t 0 r /Helvetica findfont 48.8732 sf 0 0 m (0.2) show NC gr 
 gsave  2268 1538 0 0 C 2163.45 997.013 t 0 r /Helvetica findfont 48.8732 sf 0 0 m (0.4) show NC gr 
 gsave  2268 1538 0 0 C 2163.45 1120.83 t 0 r /Helvetica findfont 48.8732 sf 0 0 m (0.6) show NC gr 
 gsave  2268 1538 0 0 C 2163.45 1244.64 t 0 r /Helvetica findfont 48.8732 sf 0 0 m (0.8) show NC gr 
 gsave  2268 1538 0 0 C 2163.45 1365.19 t 0 r /Helvetica findfont 48.8732 sf 0 0 m (1) show NC gr  1 1 1 c black
 gsave  2268 1538 0 0 C 270.432 192.235 t 0 r /Helvetica-Bold findfont 29.3239 sf 0 0 m (1.00) show NC gr 
 gsave  2268 1538 0 0 C 420.31 192.235 t 0 r /Helvetica-Bold findfont 29.3239 sf 0 0 m (\2550.25) show NC gr 
 gsave  2268 1538 0 0 C 573.446 192.235 t 0 r /Helvetica-Bold findfont 29.3239 sf 0 0 m (0.02) show NC gr 
 gsave  2268 1538 0 0 C 726.582 192.235 t 0 r /Helvetica-Bold findfont 29.3239 sf 0 0 m (0.07) show NC gr 
 gsave  2268 1538 0 0 C 876.459 192.235 t 0 r /Helvetica-Bold findfont 29.3239 sf 0 0 m (0.03) show NC gr 
 gsave  2268 1538 0 0 C 1023.08 192.235 t 0 r /Helvetica-Bold findfont 29.3239 sf 0 0 m (\2550.01) show NC gr 
 gsave  2268 1538 0 0 C 1176.22 192.235 t 0 r /Helvetica-Bold findfont 29.3239 sf 0 0 m (\2550.32) show NC gr 
 gsave  2268 1538 0 0 C 1326.09 192.235 t 0 r /Helvetica-Bold findfont 29.3239 sf 0 0 m (\2550.29) show NC gr 
 gsave  2268 1538 0 0 C 1479.23 192.235 t 0 r /Helvetica-Bold findfont 29.3239 sf 0 0 m (\2550.00) show NC gr 
 gsave  2268 1538 0 0 C 1629.11 192.235 t 0 r /Helvetica-Bold findfont 29.3239 sf 0 0 m (\2550.02) show NC gr 
 gsave  2268 1538 0 0 C 1778.98 192.235 t 0 r /Helvetica-Bold findfont 29.3239 sf 0 0 m (\2550.02) show NC gr 
 gsave  2268 1538 0 0 C 1932.12 192.235 t 0 r /Helvetica-Bold findfont 29.3239 sf 0 0 m (\2550.07) show NC gr 
 gsave  2268 1538 0 0 C 267.173 296.497 t 0 r /Helvetica-Bold findfont 29.3239 sf 0 0 m (\2550.25) show NC gr 
 gsave  2268 1538 0 0 C 423.568 296.497 t 0 r /Helvetica-Bold findfont 29.3239 sf 0 0 m (1.00) show NC gr 
 gsave  2268 1538 0 0 C 570.187 296.497 t 0 r /Helvetica-Bold findfont 29.3239 sf 0 0 m (\2550.08) show NC gr 
 gsave  2268 1538 0 0 C 726.582 296.497 t 0 r /Helvetica-Bold findfont 29.3239 sf 0 0 m (0.02) show NC gr 
 gsave  2268 1538 0 0 C 876.459 296.497 t 0 r /Helvetica-Bold findfont 29.3239 sf 0 0 m (0.04) show NC gr 
 gsave  2268 1538 0 0 C 1023.08 296.497 t 0 r /Helvetica-Bold findfont 29.3239 sf 0 0 m (\2550.03) show NC gr 
 gsave  2268 1538 0 0 C 1179.47 296.497 t 0 r /Helvetica-Bold findfont 29.3239 sf 0 0 m (0.06) show NC gr 
 gsave  2268 1538 0 0 C 1326.09 296.497 t 0 r /Helvetica-Bold findfont 29.3239 sf 0 0 m (\2550.16) show NC gr 
 gsave  2268 1538 0 0 C 1479.23 296.497 t 0 r /Helvetica-Bold findfont 29.3239 sf 0 0 m (\2550.19) show NC gr 
 gsave  2268 1538 0 0 C 1629.11 296.497 t 0 r /Helvetica-Bold findfont 29.3239 sf 0 0 m (\2550.02) show NC gr 
 gsave  2268 1538 0 0 C 1782.24 296.497 t 0 r /Helvetica-Bold findfont 29.3239 sf 0 0 m (0.03) show NC gr 
 gsave  2268 1538 0 0 C 1935.38 296.497 t 0 r /Helvetica-Bold findfont 29.3239 sf 0 0 m (0.00) show NC gr 
 gsave  2268 1538 0 0 C 270.432 397.502 t 0 r /Helvetica-Bold findfont 29.3239 sf 0 0 m (0.02) show NC gr 
 gsave  2268 1538 0 0 C 420.31 397.502 t 0 r /Helvetica-Bold findfont 29.3239 sf 0 0 m (\2550.08) show NC gr 
 gsave  2268 1538 0 0 C 573.446 397.502 t 0 r /Helvetica-Bold findfont 29.3239 sf 0 0 m (1.00) show NC gr 
 gsave  2268 1538 0 0 C 723.323 397.502 t 0 r /Helvetica-Bold findfont 29.3239 sf 0 0 m (\2550.05) show NC gr 
 gsave  2268 1538 0 0 C 879.718 397.502 t 0 r /Helvetica-Bold findfont 29.3239 sf 0 0 m (0.01) show NC gr 
 gsave  2268 1538 0 0 C 1026.34 397.502 t 0 r /Helvetica-Bold findfont 29.3239 sf 0 0 m (0.00) show NC gr 
 gsave  2268 1538 0 0 C 1179.47 397.502 t 0 r /Helvetica-Bold findfont 29.3239 sf 0 0 m (0.00) show NC gr 
 gsave  2268 1538 0 0 C 1326.09 397.502 t 0 r /Helvetica-Bold findfont 29.3239 sf 0 0 m (\2550.01) show NC gr 
 gsave  2268 1538 0 0 C 1479.23 397.502 t 0 r /Helvetica-Bold findfont 29.3239 sf 0 0 m (\2550.01) show NC gr 
 gsave  2268 1538 0 0 C 1632.36 397.502 t 0 r /Helvetica-Bold findfont 29.3239 sf 0 0 m (0.00) show NC gr 
 gsave  2268 1538 0 0 C 1782.24 397.502 t 0 r /Helvetica-Bold findfont 29.3239 sf 0 0 m (0.00) show NC gr 
 gsave  2268 1538 0 0 C 1932.12 397.502 t 0 r /Helvetica-Bold findfont 29.3239 sf 0 0 m (\2550.00) show NC gr 
 gsave  2268 1538 0 0 C 270.432 501.765 t 0 r /Helvetica-Bold findfont 29.3239 sf 0 0 m (0.07) show NC gr 
 gsave  2268 1538 0 0 C 423.568 501.765 t 0 r /Helvetica-Bold findfont 29.3239 sf 0 0 m (0.02) show NC gr 
 gsave  2268 1538 0 0 C 570.187 501.765 t 0 r /Helvetica-Bold findfont 29.3239 sf 0 0 m (\2550.05) show NC gr 
 gsave  2268 1538 0 0 C 726.582 501.765 t 0 r /Helvetica-Bold findfont 29.3239 sf 0 0 m (1.00) show NC gr 
 gsave  2268 1538 0 0 C 873.201 501.765 t 0 r /Helvetica-Bold findfont 29.3239 sf 0 0 m (\2550.15) show NC gr 
 gsave  2268 1538 0 0 C 1023.08 501.765 t 0 r /Helvetica-Bold findfont 29.3239 sf 0 0 m (\2550.01) show NC gr 
 gsave  2268 1538 0 0 C 1176.22 501.765 t 0 r /Helvetica-Bold findfont 29.3239 sf 0 0 m (\2550.01) show NC gr 
 gsave  2268 1538 0 0 C 1326.09 501.765 t 0 r /Helvetica-Bold findfont 29.3239 sf 0 0 m (\2550.19) show NC gr 
 gsave  2268 1538 0 0 C 1479.23 501.765 t 0 r /Helvetica-Bold findfont 29.3239 sf 0 0 m (\2550.13) show NC gr 
 gsave  2268 1538 0 0 C 1635.62 501.765 t 0 r /Helvetica-Bold findfont 29.3239 sf 0 0 m (0.01) show NC gr 
 gsave  2268 1538 0 0 C 1778.98 501.765 t 0 r /Helvetica-Bold findfont 29.3239 sf 0 0 m (\2550.01) show NC gr 
 gsave  2268 1538 0 0 C 1932.12 501.765 t 0 r /Helvetica-Bold findfont 29.3239 sf 0 0 m (\2550.01) show NC gr 
 gsave  2268 1538 0 0 C 270.432 602.769 t 0 r /Helvetica-Bold findfont 29.3239 sf 0 0 m (0.03) show NC gr 
 gsave  2268 1538 0 0 C 423.568 602.769 t 0 r /Helvetica-Bold findfont 29.3239 sf 0 0 m (0.04) show NC gr 
 gsave  2268 1538 0 0 C 576.704 602.769 t 0 r /Helvetica-Bold findfont 29.3239 sf 0 0 m (0.01) show NC gr 
 gsave  2268 1538 0 0 C 723.323 602.769 t 0 r /Helvetica-Bold findfont 29.3239 sf 0 0 m (\2550.15) show NC gr 
 gsave  2268 1538 0 0 C 876.459 602.769 t 0 r /Helvetica-Bold findfont 29.3239 sf 0 0 m (1.00) show NC gr 
 gsave  2268 1538 0 0 C 1023.08 602.769 t 0 r /Helvetica-Bold findfont 29.3239 sf 0 0 m (\2550.03) show NC gr 
 gsave  2268 1538 0 0 C 1176.22 602.769 t 0 r /Helvetica-Bold findfont 29.3239 sf 0 0 m (\2550.01) show NC gr 
 gsave  2268 1538 0 0 C 1326.09 602.769 t 0 r /Helvetica-Bold findfont 29.3239 sf 0 0 m (\2550.07) show NC gr 
 gsave  2268 1538 0 0 C 1479.23 602.769 t 0 r /Helvetica-Bold findfont 29.3239 sf 0 0 m (\2550.00) show NC gr 
 gsave  2268 1538 0 0 C 1629.11 602.769 t 0 r /Helvetica-Bold findfont 29.3239 sf 0 0 m (\2550.22) show NC gr 
 gsave  2268 1538 0 0 C 1785.5 602.769 t 0 r /Helvetica-Bold findfont 29.3239 sf 0 0 m (0.01) show NC gr 
 gsave  2268 1538 0 0 C 1932.12 602.769 t 0 r /Helvetica-Bold findfont 29.3239 sf 0 0 m (\2550.01) show NC gr 
 gsave  2268 1538 0 0 C 267.173 707.032 t 0 r /Helvetica-Bold findfont 29.3239 sf 0 0 m (\2550.01) show NC gr 
 gsave  2268 1538 0 0 C 420.31 707.032 t 0 r /Helvetica-Bold findfont 29.3239 sf 0 0 m (\2550.03) show NC gr 
 gsave  2268 1538 0 0 C 573.446 707.032 t 0 r /Helvetica-Bold findfont 29.3239 sf 0 0 m (0.00) show NC gr 
 gsave  2268 1538 0 0 C 723.323 707.032 t 0 r /Helvetica-Bold findfont 29.3239 sf 0 0 m (\2550.01) show NC gr 
 gsave  2268 1538 0 0 C 873.201 707.032 t 0 r /Helvetica-Bold findfont 29.3239 sf 0 0 m (\2550.03) show NC gr 
 gsave  2268 1538 0 0 C 1026.34 707.032 t 0 r /Helvetica-Bold findfont 29.3239 sf 0 0 m (1.00) show NC gr 
 gsave  2268 1538 0 0 C 1179.47 707.032 t 0 r /Helvetica-Bold findfont 29.3239 sf 0 0 m (0.04) show NC gr 
 gsave  2268 1538 0 0 C 1326.09 707.032 t 0 r /Helvetica-Bold findfont 29.3239 sf 0 0 m (\2550.05) show NC gr 
 gsave  2268 1538 0 0 C 1479.23 707.032 t 0 r /Helvetica-Bold findfont 29.3239 sf 0 0 m (\2550.03) show NC gr 
 gsave  2268 1538 0 0 C 1629.11 707.032 t 0 r /Helvetica-Bold findfont 29.3239 sf 0 0 m (\2550.04) show NC gr 
 gsave  2268 1538 0 0 C 1778.98 707.032 t 0 r /Helvetica-Bold findfont 29.3239 sf 0 0 m (\2550.02) show NC gr 
 gsave  2268 1538 0 0 C 1932.12 707.032 t 0 r /Helvetica-Bold findfont 29.3239 sf 0 0 m (\2550.00) show NC gr 
 gsave  2268 1538 0 0 C 267.173 808.037 t 0 r /Helvetica-Bold findfont 29.3239 sf 0 0 m (\2550.32) show NC gr 
 gsave  2268 1538 0 0 C 423.568 808.037 t 0 r /Helvetica-Bold findfont 29.3239 sf 0 0 m (0.06) show NC gr 
 gsave  2268 1538 0 0 C 573.446 808.037 t 0 r /Helvetica-Bold findfont 29.3239 sf 0 0 m (0.00) show NC gr 
 gsave  2268 1538 0 0 C 723.323 808.037 t 0 r /Helvetica-Bold findfont 29.3239 sf 0 0 m (\2550.01) show NC gr 
 gsave  2268 1538 0 0 C 873.201 808.037 t 0 r /Helvetica-Bold findfont 29.3239 sf 0 0 m (\2550.01) show NC gr 
 gsave  2268 1538 0 0 C 1026.34 808.037 t 0 r /Helvetica-Bold findfont 29.3239 sf 0 0 m (0.04) show NC gr 
 gsave  2268 1538 0 0 C 1179.47 808.037 t 0 r /Helvetica-Bold findfont 29.3239 sf 0 0 m (1.00) show NC gr 
 gsave  2268 1538 0 0 C 1329.35 808.037 t 0 r /Helvetica-Bold findfont 29.3239 sf 0 0 m (0.03) show NC gr 
 gsave  2268 1538 0 0 C 1482.49 808.037 t 0 r /Helvetica-Bold findfont 29.3239 sf 0 0 m (0.35) show NC gr 
 gsave  2268 1538 0 0 C 1632.36 808.037 t 0 r /Helvetica-Bold findfont 29.3239 sf 0 0 m (0.10) show NC gr 
 gsave  2268 1538 0 0 C 1782.24 808.037 t 0 r /Helvetica-Bold findfont 29.3239 sf 0 0 m (0.07) show NC gr 
 gsave  2268 1538 0 0 C 1935.38 808.037 t 0 r /Helvetica-Bold findfont 29.3239 sf 0 0 m (0.47) show NC gr 
 gsave  2268 1538 0 0 C 267.173 912.3 t 0 r /Helvetica-Bold findfont 29.3239 sf 0 0 m (\2550.29) show NC gr 
 gsave  2268 1538 0 0 C 420.31 912.3 t 0 r /Helvetica-Bold findfont 29.3239 sf 0 0 m (\2550.16) show NC gr 
 gsave  2268 1538 0 0 C 570.187 912.3 t 0 r /Helvetica-Bold findfont 29.3239 sf 0 0 m (\2550.01) show NC gr 
 gsave  2268 1538 0 0 C 723.323 912.3 t 0 r /Helvetica-Bold findfont 29.3239 sf 0 0 m (\2550.19) show NC gr 
 gsave  2268 1538 0 0 C 873.201 912.3 t 0 r /Helvetica-Bold findfont 29.3239 sf 0 0 m (\2550.07) show NC gr 
 gsave  2268 1538 0 0 C 1023.08 912.3 t 0 r /Helvetica-Bold findfont 29.3239 sf 0 0 m (\2550.05) show NC gr 
 gsave  2268 1538 0 0 C 1179.47 912.3 t 0 r /Helvetica-Bold findfont 29.3239 sf 0 0 m (0.03) show NC gr 
 gsave  2268 1538 0 0 C 1329.35 912.3 t 0 r /Helvetica-Bold findfont 29.3239 sf 0 0 m (1.00) show NC gr 
 gsave  2268 1538 0 0 C 1482.49 912.3 t 0 r /Helvetica-Bold findfont 29.3239 sf 0 0 m (0.13) show NC gr 
 gsave  2268 1538 0 0 C 1632.36 912.3 t 0 r /Helvetica-Bold findfont 29.3239 sf 0 0 m (0.06) show NC gr 
 gsave  2268 1538 0 0 C 1778.98 912.3 t 0 r /Helvetica-Bold findfont 29.3239 sf 0 0 m (\2550.01) show NC gr 
 gsave  2268 1538 0 0 C 1935.38 912.3 t 0 r /Helvetica-Bold findfont 29.3239 sf 0 0 m (0.04) show NC gr 
 gsave  2268 1538 0 0 C 267.173 1013.3 t 0 r /Helvetica-Bold findfont 29.3239 sf 0 0 m (\2550.00) show NC gr 
 gsave  2268 1538 0 0 C 420.31 1013.3 t 0 r /Helvetica-Bold findfont 29.3239 sf 0 0 m (\2550.19) show NC gr 
 gsave  2268 1538 0 0 C 570.187 1013.3 t 0 r /Helvetica-Bold findfont 29.3239 sf 0 0 m (\2550.01) show NC gr 
 gsave  2268 1538 0 0 C 723.323 1013.3 t 0 r /Helvetica-Bold findfont 29.3239 sf 0 0 m (\2550.13) show NC gr 
 gsave  2268 1538 0 0 C 873.201 1013.3 t 0 r /Helvetica-Bold findfont 29.3239 sf 0 0 m (\2550.00) show NC gr 
 gsave  2268 1538 0 0 C 1023.08 1013.3 t 0 r /Helvetica-Bold findfont 29.3239 sf 0 0 m (\2550.03) show NC gr 
 gsave  2268 1538 0 0 C 1179.47 1013.3 t 0 r /Helvetica-Bold findfont 29.3239 sf 0 0 m (0.35) show NC gr 
 gsave  2268 1538 0 0 C 1329.35 1013.3 t 0 r /Helvetica-Bold findfont 29.3239 sf 0 0 m (0.13) show NC gr 
 gsave  2268 1538 0 0 C 1482.49 1013.3 t 0 r /Helvetica-Bold findfont 29.3239 sf 0 0 m (1.00) show NC gr 
 gsave  2268 1538 0 0 C 1632.36 1013.3 t 0 r /Helvetica-Bold findfont 29.3239 sf 0 0 m (0.14) show NC gr 
 gsave  2268 1538 0 0 C 1782.24 1013.3 t 0 r /Helvetica-Bold findfont 29.3239 sf 0 0 m (0.12) show NC gr 
 gsave  2268 1538 0 0 C 1935.38 1013.3 t 0 r /Helvetica-Bold findfont 29.3239 sf 0 0 m (0.47) show NC gr 
 gsave  2268 1538 0 0 C 267.173 1117.57 t 0 r /Helvetica-Bold findfont 29.3239 sf 0 0 m (\2550.02) show NC gr 
 gsave  2268 1538 0 0 C 420.31 1117.57 t 0 r /Helvetica-Bold findfont 29.3239 sf 0 0 m (\2550.02) show NC gr 
 gsave  2268 1538 0 0 C 573.446 1117.57 t 0 r /Helvetica-Bold findfont 29.3239 sf 0 0 m (0.00) show NC gr 
 gsave  2268 1538 0 0 C 729.84 1117.57 t 0 r /Helvetica-Bold findfont 29.3239 sf 0 0 m (0.01) show NC gr 
 gsave  2268 1538 0 0 C 873.201 1117.57 t 0 r /Helvetica-Bold findfont 29.3239 sf 0 0 m (\2550.22) show NC gr 
 gsave  2268 1538 0 0 C 1023.08 1117.57 t 0 r /Helvetica-Bold findfont 29.3239 sf 0 0 m (\2550.04) show NC gr 
 gsave  2268 1538 0 0 C 1179.47 1117.57 t 0 r /Helvetica-Bold findfont 29.3239 sf 0 0 m (0.10) show NC gr 
 gsave  2268 1538 0 0 C 1329.35 1117.57 t 0 r /Helvetica-Bold findfont 29.3239 sf 0 0 m (0.06) show NC gr 
 gsave  2268 1538 0 0 C 1482.49 1117.57 t 0 r /Helvetica-Bold findfont 29.3239 sf 0 0 m (0.14) show NC gr 
 gsave  2268 1538 0 0 C 1632.36 1117.57 t 0 r /Helvetica-Bold findfont 29.3239 sf 0 0 m (1.00) show NC gr 
 gsave  2268 1538 0 0 C 1782.24 1117.57 t 0 r /Helvetica-Bold findfont 29.3239 sf 0 0 m (0.04) show NC gr 
 gsave  2268 1538 0 0 C 1935.38 1117.57 t 0 r /Helvetica-Bold findfont 29.3239 sf 0 0 m (0.18) show NC gr 
 gsave  2268 1538 0 0 C 267.173 1218.57 t 0 r /Helvetica-Bold findfont 29.3239 sf 0 0 m (\2550.02) show NC gr 
 gsave  2268 1538 0 0 C 423.568 1218.57 t 0 r /Helvetica-Bold findfont 29.3239 sf 0 0 m (0.03) show NC gr 
 gsave  2268 1538 0 0 C 573.446 1218.57 t 0 r /Helvetica-Bold findfont 29.3239 sf 0 0 m (0.00) show NC gr 
 gsave  2268 1538 0 0 C 723.323 1218.57 t 0 r /Helvetica-Bold findfont 29.3239 sf 0 0 m (\2550.01) show NC gr 
 gsave  2268 1538 0 0 C 879.718 1218.57 t 0 r /Helvetica-Bold findfont 29.3239 sf 0 0 m (0.01) show NC gr 
 gsave  2268 1538 0 0 C 1023.08 1218.57 t 0 r /Helvetica-Bold findfont 29.3239 sf 0 0 m (\2550.02) show NC gr 
 gsave  2268 1538 0 0 C 1179.47 1218.57 t 0 r /Helvetica-Bold findfont 29.3239 sf 0 0 m (0.07) show NC gr 
 gsave  2268 1538 0 0 C 1326.09 1218.57 t 0 r /Helvetica-Bold findfont 29.3239 sf 0 0 m (\2550.01) show NC gr 
 gsave  2268 1538 0 0 C 1482.49 1218.57 t 0 r /Helvetica-Bold findfont 29.3239 sf 0 0 m (0.12) show NC gr 
 gsave  2268 1538 0 0 C 1632.36 1218.57 t 0 r /Helvetica-Bold findfont 29.3239 sf 0 0 m (0.04) show NC gr 
 gsave  2268 1538 0 0 C 1782.24 1218.57 t 0 r /Helvetica-Bold findfont 29.3239 sf 0 0 m (1.00) show NC gr 
 gsave  2268 1538 0 0 C 1932.12 1218.57 t 0 r /Helvetica-Bold findfont 29.3239 sf 0 0 m (\2550.16) show NC gr 
 gsave  2268 1538 0 0 C 267.173 1322.83 t 0 r /Helvetica-Bold findfont 29.3239 sf 0 0 m (\2550.07) show NC gr 
 gsave  2268 1538 0 0 C 423.568 1322.83 t 0 r /Helvetica-Bold findfont 29.3239 sf 0 0 m (0.00) show NC gr 
 gsave  2268 1538 0 0 C 570.187 1322.83 t 0 r /Helvetica-Bold findfont 29.3239 sf 0 0 m (\2550.00) show NC gr 
 gsave  2268 1538 0 0 C 723.323 1322.83 t 0 r /Helvetica-Bold findfont 29.3239 sf 0 0 m (\2550.01) show NC gr 
 gsave  2268 1538 0 0 C 873.201 1322.83 t 0 r /Helvetica-Bold findfont 29.3239 sf 0 0 m (\2550.01) show NC gr 
 gsave  2268 1538 0 0 C 1023.08 1322.83 t 0 r /Helvetica-Bold findfont 29.3239 sf 0 0 m (\2550.00) show NC gr 
 gsave  2268 1538 0 0 C 1179.47 1322.83 t 0 r /Helvetica-Bold findfont 29.3239 sf 0 0 m (0.47) show NC gr 
 gsave  2268 1538 0 0 C 1329.35 1322.83 t 0 r /Helvetica-Bold findfont 29.3239 sf 0 0 m (0.04) show NC gr 
 gsave  2268 1538 0 0 C 1482.49 1322.83 t 0 r /Helvetica-Bold findfont 29.3239 sf 0 0 m (0.47) show NC gr 
 gsave  2268 1538 0 0 C 1632.36 1322.83 t 0 r /Helvetica-Bold findfont 29.3239 sf 0 0 m (0.18) show NC gr 
 gsave  2268 1538 0 0 C 1778.98 1322.83 t 0 r /Helvetica-Bold findfont 29.3239 sf 0 0 m (\2550.16) show NC gr 
 gsave  2268 1538 0 0 C 1935.38 1322.83 t 0 r /Helvetica-Bold findfont 29.3239 sf 0 0 m (1.00) show NC gr  227 154 m 1814 X s
 gsave  2268 1538 0 0 C 293.239 127.07 t -19 r /Helvetica findfont 32.5821 sf 0 0 m (sigma_bin0) show NC gr 
 gsave  2268 1538 0 0 C 446.375 127.07 t -19 r /Helvetica findfont 32.5821 sf 0 0 m (sigma_bin1) show NC gr 
 gsave  2268 1538 0 0 C 596.253 127.07 t -19 r /Helvetica findfont 32.5821 sf 0 0 m (sigma_bin2) show NC gr 
 gsave  2268 1538 0 0 C 749.389 127.07 t -19 r /Helvetica findfont 32.5821 sf 0 0 m (sigma_bin3) show NC gr 
 gsave  2268 1538 0 0 C 899.267 127.07 t -19 r /Helvetica findfont 32.5821 sf 0 0 m (sigma_bin4) show NC gr 
 gsave  2268 1538 0 0 C 1049.14 127.07 t -19 r /Helvetica findfont 32.5821 sf 0 0 m (mu_Zjets) show NC gr 
 gsave  2268 1538 0 0 C 1202.28 127.07 t -19 r /Helvetica findfont 32.5821 sf 0 0 m (mu_wwTop_SR_0) show NC gr 
 gsave  2268 1538 0 0 C 1352.16 127.07 t -19 r /Helvetica findfont 32.5821 sf 0 0 m (mu_ggf) show NC gr 
 gsave  2268 1538 0 0 C 1505.29 127.07 t -19 r /Helvetica findfont 32.5821 sf 0 0 m (mu_wwTop_SR_1) show NC gr 
 gsave  2268 1538 0 0 C 1655.17 127.07 t -19 r /Helvetica findfont 32.5821 sf 0 0 m (mu_wwTop_SR_2) show NC gr 
 gsave  2268 1538 0 0 C 1805.05 127.07 t -19 r /Helvetica findfont 32.5821 sf 0 0 m (mu_Zjets_CRGGF1) show NC gr 
 gsave  2268 1538 0 0 C 1958.19 127.07 t -19 r /Helvetica findfont 32.5821 sf 0 0 m (mu_wwTop_CRGGF) show NC gr  227 191 m -37 Y s 378 191 m -37 Y s 529 191 m -37 Y s 680 191 m -37 Y s 831 191 m -37 Y s 983 191 m -37 Y s 1134 191 m -37 Y s 1285 191 m
 -37 Y s 1436 191 m -37 Y s 1587 191 m -37 Y s 1739 191 m -37 Y s 1890 191 m -37 Y s 2041 191 m -37 Y s 227 154 m 1230 Y s
 gsave  2268 1538 0 0 C 32.5821 195.493 t 0 r /Helvetica findfont 32.5821 sf 0 0 m (sigma_bin0) show NC gr 
 gsave  2268 1538 0 0 C 39.0986 299.756 t 0 r /Helvetica findfont 32.5821 sf 0 0 m (sigma_bin1) show NC gr 
 gsave  2268 1538 0 0 C 32.5821 400.76 t 0 r /Helvetica findfont 32.5821 sf 0 0 m (sigma_bin2) show NC gr 
 gsave  2268 1538 0 0 C 32.5821 505.023 t 0 r /Helvetica findfont 32.5821 sf 0 0 m (sigma_bin3) show NC gr 
 gsave  2268 1538 0 0 C 32.5821 606.028 t 0 r /Helvetica findfont 32.5821 sf 0 0 m (sigma_bin4) show NC gr 
 gsave  2268 1538 0 0 C 65.1643 710.291 t 0 r /Helvetica findfont 32.5821 sf 0 0 m (mu_Zjets) show NC gr 
 gsave  2268 1538 0 0 C -65.1643 811.295 t 0 r /Helvetica findfont 32.5821 sf 0 0 m (mu_wwTop_SR_0) show NC gr 
 gsave  2268 1538 0 0 C 91.23 915.558 t 0 r /Helvetica findfont 32.5821 sf 0 0 m (mu_ggf) show NC gr 
 gsave  2268 1538 0 0 C -61.9061 1016.56 t 0 r /Helvetica findfont 32.5821 sf 0 0 m (mu_wwTop_SR_1) show NC gr 
 gsave  2268 1538 0 0 C -65.1643 1120.83 t 0 r /Helvetica findfont 32.5821 sf 0 0 m (mu_wwTop_SR_2) show NC gr 
 gsave  2268 1538 0 0 C -81.4553 1221.83 t 0 r /Helvetica findfont 32.5821 sf 0 0 m (mu_Zjets_CRGGF1) show NC gr 
 gsave  2268 1538 0 0 C -101.005 1326.09 t 0 r /Helvetica findfont 32.5821 sf 0 0 m (mu_wwTop_CRGGF) show NC gr  281 154 m -54 X s 281 256 m -54 X s 281 359 m -54 X s 281 461 m -54 X s 281 564 m -54 X s 281 666 m -54 X s 281 769 m -54 X s 281 871 m
 -54 X s 281 974 m -54 X s 281 1077 m -54 X s 281 1179 m -54 X s 281 1282 m -54 X s 281 1384 m -54 X s
 gr  gr showpage
end
%%EOF
