%!PS-Adobe-2.0 EPSF-2.0
%%BoundingBox:  0 0 567 384
%%Title: cCorr_matrix_lep0_pt.eps: 
%%Creator: ROOT Version 6.24/06
%%CreationDate: Tue Jan  4 07:40:21 2022
%%DocumentNeededResources: ProcSet (FontSetInit)
%%EndComments
%%BeginProlog
80 dict begin
/s {stroke} def /l {lineto} def /m {moveto} def /t {translate} def
/r {rotate} def /rl {roll}  def /R {repeat} def
/d {rlineto} def /rm {rmoveto} def /gr {grestore} def /f {eofill} def
/c {setrgbcolor} def /black {0 setgray} def /sd {setdash} def
/cl {closepath} def /sf {scalefont setfont} def /lw {setlinewidth} def
/box {m dup 0 exch d exch 0 d 0 exch neg d cl} def
/NC{systemdict begin initclip end}def/C{NC box clip newpath}def
/bl {box s} def /bf {gsave box gsave f grestore 1 lw [] 0 sd s grestore} def /Y { 0 exch d} def /X { 0 d} def 
/K {{pop pop 0 moveto} exch kshow} bind def
/ita {/ang 15 def gsave [1 0 ang dup sin exch cos div 1 0 0] concat} def 
/mp {newpath /y exch def /x exch def} def
/side {[w .77 mul w .23 mul] .385 w mul sd w 0 l currentpoint t -144 r} def
/mr {mp x y w2 0 360 arc} def /m24 {mr s} def /m20 {mr f} def
/mb {mp x y w2 add m w2 neg 0 d 0 w neg d w 0 d 0 w d cl} def
/mt {mp x y w2 add m w2 neg w neg d w 0 d cl} def
/w4 {w 4 div} def
/w6 {w 6 div} def
/w8 {w 8 div} def
/m21 {mb f} def /m25 {mb s} def /m22 {mt f} def /m26{mt s} def
/m23 {mp x y w2 sub m w2 w d w neg 0 d cl f} def
/m27 {mp x y w2 add m w3 neg w2 neg d w3 w2 neg d w3 w2 d cl s} def
/m28 {mp x w2 sub y w2 sub w3 add m w3 0 d  0 w3 neg d w3 0 d 0 w3 d w3 0 d  0 w3 d w3 neg 0 d 0 w3 d w3 neg 0 d 0 w3 neg d w3 neg 0 d cl s } def
/m29 {mp gsave x w2 sub y w2 add w3 sub m currentpoint t 4 {side} repeat cl fill gr} def
/m30 {mp gsave x w2 sub y w2 add w3 sub m currentpoint t 4 {side} repeat cl s gr} def
/m31 {mp x y w2 sub m 0 w d x w2 sub y m w 0 d x w2 .707 mul sub y w2 .707 mul add m w 1.44 div w 1.44 div neg d x w2 .707 mul sub y w2 .707 mul sub m w 1.44 div w 1.44 div d s} def
/m32 {mp x y w2 sub m w2 w d w neg 0 d cl s} def
/m33 {mp x y w2 add m w3 neg w2 neg d w3 w2 neg d w3 w2 d cl f} def
/m34 {mp x w2 sub y w2 sub w3 add m w3 0 d  0 w3 neg d w3 0 d 0 w3 d w3 0 d  0 w3 d w3 neg 0 d 0 w3 d w3 neg 0 d 0 w3 neg d w3 neg 0 d cl f } def
/m35 {mp x y w2 add m w2 neg w2 neg d w2 w2 neg d w2 w2 d w2 neg w2 d x y w2 sub m 0 w d x w2 sub y m w 0 d s} def
/m36 {mb x w2 sub y w2 add m w w neg d x w2 sub y w2 sub m w w d s} def
/m37 {mp x y m w4 neg w2 d w4 neg w2 neg d w2 0 d  w4 neg w2 neg d w2 0 d w4 neg w2 d w2 0 d w4 neg w2 d w4 neg w2 neg d cl s} def
/m38 {mp x w4 sub y w2 add m w4 neg w4 neg d 0 w2 neg d w4 w4 neg d w2 0 d w4 w4 d 0 w2 d w4 neg w4 d w2 neg 0 d x y w2 sub m 0 w d x w2 sub y m w 0 d cl s} def
/m39 {mp x y m w4 neg w2 d w4 neg w2 neg d w2 0 d  w4 neg w2 neg d w2 0 d w4 neg w2 d w2 0 d w4 neg w2 d w4 neg w2 neg d cl f} def
/m40 {mp x y m w4 w2 d w4 w4 neg d w2 neg w4 neg d w2 w4 neg d w4 neg w4 neg d w4 neg w2 d w4 neg w2 neg d w4 neg w4 d w2 w4 d w2 neg w4 d w4 w4 d w4 w2 neg d cl s} def
/m41 {mp x y m w4 w2 d w4 w4 neg d w2 neg w4 neg d w2 w4 neg d w4 neg w4 neg d w4 neg w2 d w4 neg w2 neg d w4 neg w4 d w2 w4 d w2 neg w4 d w4 w4 d w4 w2 neg d cl f} def
/m42 {mp x y w2 add m w8 neg w2 -3 4 div mul d w2 -3 4 div mul w8 neg d w2 3 4 div mul w8 neg d w8 w2 -3 4 div mul d w8 w2 3 4 div mul d w2 3 4 div mul w8 d w2 -3 4 div mul w8 d w8 neg w2 3 4 div mul d cl s} def
/m43 {mp x y w2 add m w8 neg w2 -3 4 div mul d w2 -3 4 div mul w8 neg d w2 3 4 div mul w8 neg d w8 w2 -3 4 div mul d w8 w2 3 4 div mul d w2 3 4 div mul w8 d w2 -3 4 div mul w8 d w8 neg w2 3 4 div mul d cl f} def
/m44 {mp x y m w6 neg w2 d w2 2 3 div mul 0 d w6 neg w2 neg d w2 w6 d 0 w2 -2 3 div mul d w2 neg w6 d w6 w2 neg d w2 -2 3 div mul 0 d w6 w2 d w2 neg w6 neg d 0 w2 2 3 div mul d w2 w6 neg d cl s} def
/m45 {mp x y m w6 neg w2 d w2 2 3 div mul 0 d w6 neg w2 neg d w2 w6 d 0 w2 -2 3 div mul d w2 neg w6 d w6 w2 neg d w2 -2 3 div mul 0 d w6 w2 d w2 neg w6 neg d 0 w2 2 3 div mul d w2 w6 neg d cl f} def
/m46 {mp x y w4 add m w4 neg w4 d w4 neg w4 neg d  w4 w4 neg d w4 neg w4 neg d w4 w4 neg d w4 w4 d w4 w4 neg d w4 w4 d w4 neg w4 d w4 w4 d w4 neg w4 d w4 neg w4 neg d cl s} def
/m47 {mp x y w4 add m w4 neg w4 d w4 neg w4 neg d w4 w4 neg d w4 neg w4 neg d  w4 w4 neg d w4 w4 d w4 w4 neg d w4 w4 d w4 neg w4 d w4 w4 d w4 neg w4 d w4 neg w4 neg d cl f} def
/m48 {mp x y w4 add m w4 neg w4 d w4 neg w4 neg d w4 w4 neg d  w4 neg w4 neg d w4 w4 neg d w4 w4 d w4 w4 neg d w4 w4 d w4 neg w4 d w4 w4 d w4 neg w4 d w4 neg w4 neg d  w4 w4 neg d w4 neg w4 neg d w4 neg w4 d w4 w4 d cl f} def
/m49 {mp x w2 sub w3 add y w2 sub w3 add m  0 w3 neg d w3 0 d 0 w3 d w3 0 d 0 w3 d w3 neg 0 d 0 w3 d w3 neg 0 d 0 w3 neg d w3 neg 0 d 0 w3 neg d w3 0 d 0 w3 d w3 0 d 0 w3 neg d w3 neg 0 d cl f } def
/m2 {mp x y w2 sub m 0 w d x w2 sub y m w 0 d s} def
/m5 {mp x w2 .707 mul sub y w2 .707 mul sub m w 1.44 div w 1.44 div d x w2 .707 mul sub y w2 .707 mul add m w 1.44 div w 1.44 div neg d s} def
%%IncludeResource: ProcSet (FontSetInit)
%%IncludeResource: font Times-Roman
%%IncludeResource: font Times-Italic
%%IncludeResource: font Times-Bold
%%IncludeResource: font Times-BoldItalic
%%IncludeResource: font Helvetica
%%IncludeResource: font Helvetica-Oblique
%%IncludeResource: font Helvetica-Bold
%%IncludeResource: font Helvetica-BoldOblique
%%IncludeResource: font Courier
%%IncludeResource: font Courier-Oblique
%%IncludeResource: font Courier-Bold
%%IncludeResource: font Courier-BoldOblique
%%IncludeResource: font Symbol
%%IncludeResource: font ZapfDingbats
/reEncode {exch findfont dup length dict begin {1 index /FID eq  {pop pop} {def} ifelse } forall /Encoding exch def currentdict end dup /FontName get exch definefont pop } def [/Times-Bold /Times-Italic /Times-BoldItalic /Helvetica /Helvetica-Oblique
 /Helvetica-Bold /Helvetica-BoldOblique /Courier /Courier-Oblique /Courier-Bold /Courier-BoldOblique /Times-Roman /AvantGarde-Book /AvantGarde-BookOblique /AvantGarde-Demi /AvantGarde-DemiOblique /Bookman-Demi /Bookman-DemiItalic /Bookman-Light
 /Bookman-LightItalic /Helvetica-Narrow /Helvetica-Narrow-Bold /Helvetica-Narrow-BoldOblique /Helvetica-Narrow-Oblique /NewCenturySchlbk-Roman /NewCenturySchlbk-Bold /NewCenturySchlbk-BoldItalic /NewCenturySchlbk-Italic /Palatino-Bold
 /Palatino-BoldItalic /Palatino-Italic /Palatino-Roman ] {ISOLatin1Encoding reEncode } forall
%%EndProlog
%%BeginSetup
%%EndSetup
newpath  gsave  .25 .25 scale  gsave  0 0 t black[  ] 0 sd 3 lw 1 1 1 c 2268 1538 0 0 bf black 1 1 1 c 1814 1230 227 154 bf black 1814 1230 227 154 bl 1 1 1 c 0.977 0.977044 0.0583656 c 139 94 227 154 bf 0.322347 0.730556 0.570878 c 140 94 366 154 bf
 139 94 506 154 bf 140 94 645 154 bf 140 94 785 154 bf 139 94 925 154 bf 0.1802 0.7178 0.6425 c 140 94 1064 154 bf 0.0526375 0.656131 0.763481 c 139 94 1204 154 bf 0.116419 0.686966 0.702991 c 140 94 1343 154 bf 0.1802 0.7178 0.6425 c 139 94 1483 154
 bf 140 94 1622 154 bf 139 94 1762 154 bf 140 94 1901 154 bf 0.322347 0.730556 0.570878 c 139 95 227 248 bf 0.977 0.977044 0.0583656 c 140 95 366 248 bf 0.116419 0.686966 0.702991 c 139 95 506 248 bf 0.322347 0.730556 0.570878 c 140 95 645 248 bf 140
 95 785 248 bf 139 95 925 248 bf 0.1802 0.7178 0.6425 c 140 95 1064 248 bf 0.116419 0.686966 0.702991 c 139 95 1204 248 bf 140 95 1343 248 bf 0.322347 0.730556 0.570878 c 139 95 1483 248 bf 0.1802 0.7178 0.6425 c 140 95 1622 248 bf 139 95 1762 248 bf
 140 95 1901 248 bf 0.322347 0.730556 0.570878 c 139 95 227 343 bf 0.116419 0.686966 0.702991 c 140 95 366 343 bf 0.977 0.977044 0.0583656 c 139 95 506 343 bf 0.116419 0.686966 0.702991 c 140 95 645 343 bf 0.322347 0.730556 0.570878 c 140 95 785 343
 bf 139 95 925 343 bf 0.1802 0.7178 0.6425 c 140 95 1064 343 bf 0.322347 0.730556 0.570878 c 139 95 1204 343 bf 0.116419 0.686966 0.702991 c 140 95 1343 343 bf 139 95 1483 343 bf 0.1802 0.7178 0.6425 c 140 95 1622 343 bf 139 95 1762 343 bf 140 95
 1901 343 bf 0.322347 0.730556 0.570878 c 139 94 227 438 bf 140 94 366 438 bf 0.116419 0.686966 0.702991 c 139 94 506 438 bf 0.977 0.977044 0.0583656 c 140 94 645 438 bf 0.1802 0.7178 0.6425 c 140 94 785 438 bf 0.322347 0.730556 0.570878 c 139 94 925
 438 bf 0.1802 0.7178 0.6425 c 140 94 1064 438 bf 139 94 1204 438 bf 140 94 1343 438 bf 0.116419 0.686966 0.702991 c 139 94 1483 438 bf 0.1802 0.7178 0.6425 c 140 94 1622 438 bf 0.322347 0.730556 0.570878 c 139 94 1762 438 bf 0.1802 0.7178 0.6425 c
 140 94 1901 438 bf 0.322347 0.730556 0.570878 c 139 95 227 532 bf 140 95 366 532 bf 139 95 506 532 bf 0.1802 0.7178 0.6425 c 140 95 645 532 bf 0.977 0.977044 0.0583656 c 140 95 785 532 bf 0.1802 0.7178 0.6425 c 139 95 925 532 bf 140 95 1064 532 bf
 0.322347 0.730556 0.570878 c 139 95 1204 532 bf 0.116419 0.686966 0.702991 c 140 95 1343 532 bf 0.322347 0.730556 0.570878 c 139 95 1483 532 bf 0.116419 0.686966 0.702991 c 140 95 1622 532 bf 0.322347 0.730556 0.570878 c 139 95 1762 532 bf 0.1802
 0.7178 0.6425 c 140 95 1901 532 bf 0.322347 0.730556 0.570878 c 139 95 227 627 bf 140 95 366 627 bf 139 95 506 627 bf 140 95 645 627 bf 0.1802 0.7178 0.6425 c 140 95 785 627 bf 0.977 0.977044 0.0583656 c 139 95 925 627 bf 0.322347 0.730556 0.570878
 c 140 95 1064 627 bf 139 95 1204 627 bf 0.1802 0.7178 0.6425 c 140 95 1343 627 bf 0.322347 0.730556 0.570878 c 139 95 1483 627 bf 0.1802 0.7178 0.6425 c 140 95 1622 627 bf 0.322347 0.730556 0.570878 c 139 95 1762 627 bf 140 95 1901 627 bf 0.1802
 0.7178 0.6425 c 139 94 227 722 bf 140 94 366 722 bf 139 94 506 722 bf 140 94 645 722 bf 140 94 785 722 bf 0.322347 0.730556 0.570878 c 139 94 925 722 bf 0.977 0.977044 0.0583656 c 140 94 1064 722 bf 0.1802 0.7178 0.6425 c 139 94 1204 722 bf 140 94
 1343 722 bf 0.322347 0.730556 0.570878 c 139 94 1483 722 bf 0.1802 0.7178 0.6425 c 140 94 1622 722 bf 139 94 1762 722 bf 140 94 1901 722 bf 0.0526375 0.656131 0.763481 c 139 95 227 816 bf 0.116419 0.686966 0.702991 c 140 95 366 816 bf 0.322347
 0.730556 0.570878 c 139 95 506 816 bf 0.1802 0.7178 0.6425 c 140 95 645 816 bf 0.322347 0.730556 0.570878 c 140 95 785 816 bf 139 95 925 816 bf 0.1802 0.7178 0.6425 c 140 95 1064 816 bf 0.977 0.977044 0.0583656 c 139 95 1204 816 bf 0.1802 0.7178
 0.6425 c 140 95 1343 816 bf 0.584194 0.746125 0.444394 c 139 95 1483 816 bf 140 95 1622 816 bf 0.322347 0.730556 0.570878 c 139 95 1762 816 bf 0.701397 0.739462 0.397147 c 140 95 1901 816 bf 0.116419 0.686966 0.702991 c 139 95 227 911 bf 140 95 366
 911 bf 139 95 506 911 bf 0.1802 0.7178 0.6425 c 140 95 645 911 bf 0.116419 0.686966 0.702991 c 140 95 785 911 bf 0.1802 0.7178 0.6425 c 139 95 925 911 bf 140 95 1064 911 bf 139 95 1204 911 bf 0.977 0.977044 0.0583656 c 140 95 1343 911 bf 0.322347
 0.730556 0.570878 c 139 95 1483 911 bf 0.453559 0.742331 0.504766 c 140 95 1622 911 bf 0.1802 0.7178 0.6425 c 139 95 1762 911 bf 0.322347 0.730556 0.570878 c 140 95 1901 911 bf 0.1802 0.7178 0.6425 c 139 94 227 1006 bf 0.322347 0.730556 0.570878 c
 140 94 366 1006 bf 0.116419 0.686966 0.702991 c 139 94 506 1006 bf 140 94 645 1006 bf 0.322347 0.730556 0.570878 c 140 94 785 1006 bf 139 94 925 1006 bf 140 94 1064 1006 bf 0.584194 0.746125 0.444394 c 139 94 1204 1006 bf 0.322347 0.730556 0.570878
 c 140 94 1343 1006 bf 0.977 0.977044 0.0583656 c 139 94 1483 1006 bf 0.584194 0.746125 0.444394 c 140 94 1622 1006 bf 0.322347 0.730556 0.570878 c 139 94 1762 1006 bf 0.701397 0.739462 0.397147 c 140 94 1901 1006 bf 0.1802 0.7178 0.6425 c 139 95 227
 1100 bf 140 95 366 1100 bf 139 95 506 1100 bf 140 95 645 1100 bf 0.116419 0.686966 0.702991 c 140 95 785 1100 bf 0.1802 0.7178 0.6425 c 139 95 925 1100 bf 140 95 1064 1100 bf 0.584194 0.746125 0.444394 c 139 95 1204 1100 bf 0.453559 0.742331
 0.504766 c 140 95 1343 1100 bf 0.584194 0.746125 0.444394 c 139 95 1483 1100 bf 0.977 0.977044 0.0583656 c 140 95 1622 1100 bf 0.322347 0.730556 0.570878 c 139 95 1762 1100 bf 0.701397 0.739462 0.397147 c 140 95 1901 1100 bf 0.1802 0.7178 0.6425 c
 139 94 227 1195 bf 140 94 366 1195 bf 139 94 506 1195 bf 0.322347 0.730556 0.570878 c 140 94 645 1195 bf 140 94 785 1195 bf 139 94 925 1195 bf 0.1802 0.7178 0.6425 c 140 94 1064 1195 bf 0.322347 0.730556 0.570878 c 139 94 1204 1195 bf 0.1802 0.7178
 0.6425 c 140 94 1343 1195 bf 0.322347 0.730556 0.570878 c 139 94 1483 1195 bf 140 94 1622 1195 bf 0.977 0.977044 0.0583656 c 139 94 1762 1195 bf 0.116419 0.686966 0.702991 c 140 94 1901 1195 bf 0.1802 0.7178 0.6425 c 139 95 227 1289 bf 140 95 366
 1289 bf 139 95 506 1289 bf 140 95 645 1289 bf 140 95 785 1289 bf 0.322347 0.730556 0.570878 c 139 95 925 1289 bf 0.1802 0.7178 0.6425 c 140 95 1064 1289 bf 0.701397 0.739462 0.397147 c 139 95 1204 1289 bf 0.322347 0.730556 0.570878 c 140 95 1343
 1289 bf 0.701397 0.739462 0.397147 c 139 95 1483 1289 bf 140 95 1622 1289 bf 0.116419 0.686966 0.702991 c 139 95 1762 1289 bf 0.977 0.977044 0.0583656 c 140 95 1901 1289 bf 0.150523 0.241303 0.660565 c 102 61 2052 154 bf 0.0880387 0.322448 0.802768
 c 102 62 2052 215 bf 0.0633125 0.391444 0.861859 c 102 61 2052 277 bf 0.0703625 0.445519 0.850647 c 102 62 2052 338 bf 0.078 0.5041 0.8385 c 102 61 2052 400 bf 0.0557375 0.560081 0.819366 c 102 62 2052 461 bf 0.033475 0.616063 0.800231 c 102 61 2052
 523 bf 0.0526375 0.656131 0.763481 c 102 62 2052 584 bf 0.116419 0.686966 0.702991 c 102 61 2052 646 bf 0.1802 0.7178 0.6425 c 102 62 2052 707 bf 0.322347 0.730556 0.570878 c 102 61 2052 769 bf 0.453559 0.742331 0.504766 c 102 62 2052 830 bf
 0.584194 0.746125 0.444394 c 102 61 2052 892 bf 0.701397 0.739462 0.397147 c 102 62 2052 953 bf 0.8186 0.7328 0.3499 c 102 62 2052 1015 bf 0.884975 0.752825 0.292488 c 102 61 2052 1077 bf 0.956881 0.774519 0.230291 c 102 62 2052 1138 bf 0.992
 0.823138 0.170006 c 102 61 2052 1200 bf 0.9842 0.903169 0.111953 c 102 62 2052 1261 bf 0.977 0.977044 0.0583656 c 102 61 2052 1323 bf black 2154 154 m 1230 Y s 2100 154 m 54 X s 2100 277 m 54 X s 2100 400 m 54 X s 2100 523 m 54 X s 2100 646 m 54 X s
 2100 769 m 54 X s 2100 892 m 54 X s 2100 1015 m 54 X s 2100 1138 m 54 X s 2100 1261 m 54 X s 2100 1384 m 54 X s 2100 154 m 54 X s
 gsave  2268 1538 0 0 C 2189.52 136.845 t 0 r /Helvetica findfont 48.8732 sf 0 0 m (1) show NC gr 
 gsave  2268 1538 0 0 C 2163.45 136.845 t 0 r /Symbol findfont 48.8732 sf 0 0 m (-) show NC gr 
 gsave  2268 1538 0 0 C 2189.52 257.399 t 0 r /Helvetica findfont 48.8732 sf 0 0 m (0.8) show NC gr 
 gsave  2268 1538 0 0 C 2163.45 257.399 t 0 r /Symbol findfont 48.8732 sf 0 0 m (-) show NC gr 
 gsave  2268 1538 0 0 C 2189.52 381.211 t 0 r /Helvetica findfont 48.8732 sf 0 0 m (0.6) show NC gr 
 gsave  2268 1538 0 0 C 2163.45 381.211 t 0 r /Symbol findfont 48.8732 sf 0 0 m (-) show NC gr 
 gsave  2268 1538 0 0 C 2189.52 505.023 t 0 r /Helvetica findfont 48.8732 sf 0 0 m (0.4) show NC gr 
 gsave  2268 1538 0 0 C 2163.45 505.023 t 0 r /Symbol findfont 48.8732 sf 0 0 m (-) show NC gr 
 gsave  2268 1538 0 0 C 2189.52 628.835 t 0 r /Helvetica findfont 48.8732 sf 0 0 m (0.2) show NC gr 
 gsave  2268 1538 0 0 C 2163.45 628.835 t 0 r /Symbol findfont 48.8732 sf 0 0 m (-) show NC gr 
 gsave  2268 1538 0 0 C 2163.45 749.389 t 0 r /Helvetica findfont 48.8732 sf 0 0 m (0) show NC gr 
 gsave  2268 1538 0 0 C 2163.45 873.201 t 0 r /Helvetica findfont 48.8732 sf 0 0 m (0.2) show NC gr 
 gsave  2268 1538 0 0 C 2163.45 997.013 t 0 r /Helvetica findfont 48.8732 sf 0 0 m (0.4) show NC gr 
 gsave  2268 1538 0 0 C 2163.45 1120.83 t 0 r /Helvetica findfont 48.8732 sf 0 0 m (0.6) show NC gr 
 gsave  2268 1538 0 0 C 2163.45 1244.64 t 0 r /Helvetica findfont 48.8732 sf 0 0 m (0.8) show NC gr 
 gsave  2268 1538 0 0 C 2163.45 1365.19 t 0 r /Helvetica findfont 48.8732 sf 0 0 m (1) show NC gr  1 1 1 c black
 gsave  2268 1538 0 0 C 267.173 188.976 t 0 r /Helvetica-Bold findfont 29.3239 sf 0 0 m (1.00) show NC gr 
 gsave  2268 1538 0 0 C 407.277 188.976 t 0 r /Helvetica-Bold findfont 29.3239 sf 0 0 m (0.01) show NC gr 
 gsave  2268 1538 0 0 C 544.122 188.976 t 0 r /Helvetica-Bold findfont 29.3239 sf 0 0 m (0.05) show NC gr 
 gsave  2268 1538 0 0 C 684.225 188.976 t 0 r /Helvetica-Bold findfont 29.3239 sf 0 0 m (0.03) show NC gr 
 gsave  2268 1538 0 0 C 824.328 188.976 t 0 r /Helvetica-Bold findfont 29.3239 sf 0 0 m (0.03) show NC gr 
 gsave  2268 1538 0 0 C 964.431 188.976 t 0 r /Helvetica-Bold findfont 29.3239 sf 0 0 m (0.00) show NC gr 
 gsave  2268 1538 0 0 C 1101.28 188.976 t 0 r /Helvetica-Bold findfont 29.3239 sf 0 0 m (\2550.04) show NC gr 
 gsave  2268 1538 0 0 C 1238.12 188.976 t 0 r /Helvetica-Bold findfont 29.3239 sf 0 0 m (\2550.25) show NC gr 
 gsave  2268 1538 0 0 C 1378.22 188.976 t 0 r /Helvetica-Bold findfont 29.3239 sf 0 0 m (\2550.20) show NC gr 
 gsave  2268 1538 0 0 C 1518.33 188.976 t 0 r /Helvetica-Bold findfont 29.3239 sf 0 0 m (\2550.00) show NC gr 
 gsave  2268 1538 0 0 C 1658.43 188.976 t 0 r /Helvetica-Bold findfont 29.3239 sf 0 0 m (\2550.03) show NC gr 
 gsave  2268 1538 0 0 C 1798.53 188.976 t 0 r /Helvetica-Bold findfont 29.3239 sf 0 0 m (\2550.02) show NC gr 
 gsave  2268 1538 0 0 C 1935.38 188.976 t 0 r /Helvetica-Bold findfont 29.3239 sf 0 0 m (\2550.04) show NC gr 
 gsave  2268 1538 0 0 C 270.432 283.465 t 0 r /Helvetica-Bold findfont 29.3239 sf 0 0 m (0.01) show NC gr 
 gsave  2268 1538 0 0 C 404.018 283.465 t 0 r /Helvetica-Bold findfont 29.3239 sf 0 0 m (1.00) show NC gr 
 gsave  2268 1538 0 0 C 540.863 283.465 t 0 r /Helvetica-Bold findfont 29.3239 sf 0 0 m (\2550.11) show NC gr 
 gsave  2268 1538 0 0 C 684.225 283.465 t 0 r /Helvetica-Bold findfont 29.3239 sf 0 0 m (0.02) show NC gr 
 gsave  2268 1538 0 0 C 824.328 283.465 t 0 r /Helvetica-Bold findfont 29.3239 sf 0 0 m (0.02) show NC gr 
 gsave  2268 1538 0 0 C 964.431 283.465 t 0 r /Helvetica-Bold findfont 29.3239 sf 0 0 m (0.00) show NC gr 
 gsave  2268 1538 0 0 C 1101.28 283.465 t 0 r /Helvetica-Bold findfont 29.3239 sf 0 0 m (\2550.00) show NC gr 
 gsave  2268 1538 0 0 C 1238.12 283.465 t 0 r /Helvetica-Bold findfont 29.3239 sf 0 0 m (\2550.20) show NC gr 
 gsave  2268 1538 0 0 C 1378.22 283.465 t 0 r /Helvetica-Bold findfont 29.3239 sf 0 0 m (\2550.13) show NC gr 
 gsave  2268 1538 0 0 C 1521.59 283.465 t 0 r /Helvetica-Bold findfont 29.3239 sf 0 0 m (0.00) show NC gr 
 gsave  2268 1538 0 0 C 1658.43 283.465 t 0 r /Helvetica-Bold findfont 29.3239 sf 0 0 m (\2550.02) show NC gr 
 gsave  2268 1538 0 0 C 1798.53 283.465 t 0 r /Helvetica-Bold findfont 29.3239 sf 0 0 m (\2550.02) show NC gr 
 gsave  2268 1538 0 0 C 1935.38 283.465 t 0 r /Helvetica-Bold findfont 29.3239 sf 0 0 m (\2550.01) show NC gr 
 gsave  2268 1538 0 0 C 267.173 377.953 t 0 r /Helvetica-Bold findfont 29.3239 sf 0 0 m (0.05) show NC gr 
 gsave  2268 1538 0 0 C 400.76 377.953 t 0 r /Helvetica-Bold findfont 29.3239 sf 0 0 m (\2550.11) show NC gr 
 gsave  2268 1538 0 0 C 544.122 377.953 t 0 r /Helvetica-Bold findfont 29.3239 sf 0 0 m (1.00) show NC gr 
 gsave  2268 1538 0 0 C 680.967 377.953 t 0 r /Helvetica-Bold findfont 29.3239 sf 0 0 m (\2550.11) show NC gr 
 gsave  2268 1538 0 0 C 824.328 377.953 t 0 r /Helvetica-Bold findfont 29.3239 sf 0 0 m (0.03) show NC gr 
 gsave  2268 1538 0 0 C 964.431 377.953 t 0 r /Helvetica-Bold findfont 29.3239 sf 0 0 m (0.00) show NC gr 
 gsave  2268 1538 0 0 C 1101.28 377.953 t 0 r /Helvetica-Bold findfont 29.3239 sf 0 0 m (\2550.03) show NC gr 
 gsave  2268 1538 0 0 C 1241.38 377.953 t 0 r /Helvetica-Bold findfont 29.3239 sf 0 0 m (0.02) show NC gr 
 gsave  2268 1538 0 0 C 1378.22 377.953 t 0 r /Helvetica-Bold findfont 29.3239 sf 0 0 m (\2550.16) show NC gr 
 gsave  2268 1538 0 0 C 1518.33 377.953 t 0 r /Helvetica-Bold findfont 29.3239 sf 0 0 m (\2550.16) show NC gr 
 gsave  2268 1538 0 0 C 1658.43 377.953 t 0 r /Helvetica-Bold findfont 29.3239 sf 0 0 m (\2550.02) show NC gr 
 gsave  2268 1538 0 0 C 1798.53 377.953 t 0 r /Helvetica-Bold findfont 29.3239 sf 0 0 m (\2550.05) show NC gr 
 gsave  2268 1538 0 0 C 1935.38 377.953 t 0 r /Helvetica-Bold findfont 29.3239 sf 0 0 m (\2550.01) show NC gr 
 gsave  2268 1538 0 0 C 267.173 472.441 t 0 r /Helvetica-Bold findfont 29.3239 sf 0 0 m (0.03) show NC gr 
 gsave  2268 1538 0 0 C 404.018 472.441 t 0 r /Helvetica-Bold findfont 29.3239 sf 0 0 m (0.02) show NC gr 
 gsave  2268 1538 0 0 C 540.863 472.441 t 0 r /Helvetica-Bold findfont 29.3239 sf 0 0 m (\2550.11) show NC gr 
 gsave  2268 1538 0 0 C 684.225 472.441 t 0 r /Helvetica-Bold findfont 29.3239 sf 0 0 m (1.00) show NC gr 
 gsave  2268 1538 0 0 C 821.07 472.441 t 0 r /Helvetica-Bold findfont 29.3239 sf 0 0 m (\2550.10) show NC gr 
 gsave  2268 1538 0 0 C 964.431 472.441 t 0 r /Helvetica-Bold findfont 29.3239 sf 0 0 m (0.00) show NC gr 
 gsave  2268 1538 0 0 C 1101.28 472.441 t 0 r /Helvetica-Bold findfont 29.3239 sf 0 0 m (\2550.03) show NC gr 
 gsave  2268 1538 0 0 C 1238.12 472.441 t 0 r /Helvetica-Bold findfont 29.3239 sf 0 0 m (\2550.02) show NC gr 
 gsave  2268 1538 0 0 C 1378.22 472.441 t 0 r /Helvetica-Bold findfont 29.3239 sf 0 0 m (\2550.07) show NC gr 
 gsave  2268 1538 0 0 C 1518.33 472.441 t 0 r /Helvetica-Bold findfont 29.3239 sf 0 0 m (\2550.16) show NC gr 
 gsave  2268 1538 0 0 C 1658.43 472.441 t 0 r /Helvetica-Bold findfont 29.3239 sf 0 0 m (\2550.02) show NC gr 
 gsave  2268 1538 0 0 C 1801.79 472.441 t 0 r /Helvetica-Bold findfont 29.3239 sf 0 0 m (0.03) show NC gr 
 gsave  2268 1538 0 0 C 1935.38 472.441 t 0 r /Helvetica-Bold findfont 29.3239 sf 0 0 m (\2550.01) show NC gr 
 gsave  2268 1538 0 0 C 267.173 566.929 t 0 r /Helvetica-Bold findfont 29.3239 sf 0 0 m (0.03) show NC gr 
 gsave  2268 1538 0 0 C 404.018 566.929 t 0 r /Helvetica-Bold findfont 29.3239 sf 0 0 m (0.02) show NC gr 
 gsave  2268 1538 0 0 C 544.122 566.929 t 0 r /Helvetica-Bold findfont 29.3239 sf 0 0 m (0.03) show NC gr 
 gsave  2268 1538 0 0 C 680.967 566.929 t 0 r /Helvetica-Bold findfont 29.3239 sf 0 0 m (\2550.10) show NC gr 
 gsave  2268 1538 0 0 C 824.328 566.929 t 0 r /Helvetica-Bold findfont 29.3239 sf 0 0 m (1.00) show NC gr 
 gsave  2268 1538 0 0 C 961.173 566.929 t 0 r /Helvetica-Bold findfont 29.3239 sf 0 0 m (\2550.00) show NC gr 
 gsave  2268 1538 0 0 C 1101.28 566.929 t 0 r /Helvetica-Bold findfont 29.3239 sf 0 0 m (\2550.02) show NC gr 
 gsave  2268 1538 0 0 C 1241.38 566.929 t 0 r /Helvetica-Bold findfont 29.3239 sf 0 0 m (0.00) show NC gr 
 gsave  2268 1538 0 0 C 1378.22 566.929 t 0 r /Helvetica-Bold findfont 29.3239 sf 0 0 m (\2550.14) show NC gr 
 gsave  2268 1538 0 0 C 1521.59 566.929 t 0 r /Helvetica-Bold findfont 29.3239 sf 0 0 m (0.00) show NC gr 
 gsave  2268 1538 0 0 C 1658.43 566.929 t 0 r /Helvetica-Bold findfont 29.3239 sf 0 0 m (\2550.19) show NC gr 
 gsave  2268 1538 0 0 C 1801.79 566.929 t 0 r /Helvetica-Bold findfont 29.3239 sf 0 0 m (0.02) show NC gr 
 gsave  2268 1538 0 0 C 1935.38 566.929 t 0 r /Helvetica-Bold findfont 29.3239 sf 0 0 m (\2550.03) show NC gr 
 gsave  2268 1538 0 0 C 267.173 661.417 t 0 r /Helvetica-Bold findfont 29.3239 sf 0 0 m (0.00) show NC gr 
 gsave  2268 1538 0 0 C 404.018 661.417 t 0 r /Helvetica-Bold findfont 29.3239 sf 0 0 m (0.00) show NC gr 
 gsave  2268 1538 0 0 C 544.122 661.417 t 0 r /Helvetica-Bold findfont 29.3239 sf 0 0 m (0.00) show NC gr 
 gsave  2268 1538 0 0 C 684.225 661.417 t 0 r /Helvetica-Bold findfont 29.3239 sf 0 0 m (0.00) show NC gr 
 gsave  2268 1538 0 0 C 821.07 661.417 t 0 r /Helvetica-Bold findfont 29.3239 sf 0 0 m (\2550.00) show NC gr 
 gsave  2268 1538 0 0 C 964.431 661.417 t 0 r /Helvetica-Bold findfont 29.3239 sf 0 0 m (1.00) show NC gr 
 gsave  2268 1538 0 0 C 1101.28 661.417 t 0 r /Helvetica-Bold findfont 29.3239 sf 0 0 m (\2550.00) show NC gr 
 gsave  2268 1538 0 0 C 1238.12 661.417 t 0 r /Helvetica-Bold findfont 29.3239 sf 0 0 m (\2550.00) show NC gr 
 gsave  2268 1538 0 0 C 1378.22 661.417 t 0 r /Helvetica-Bold findfont 29.3239 sf 0 0 m (\2550.00) show NC gr 
 gsave  2268 1538 0 0 C 1521.59 661.417 t 0 r /Helvetica-Bold findfont 29.3239 sf 0 0 m (0.00) show NC gr 
 gsave  2268 1538 0 0 C 1658.43 661.417 t 0 r /Helvetica-Bold findfont 29.3239 sf 0 0 m (\2550.00) show NC gr 
 gsave  2268 1538 0 0 C 1798.53 661.417 t 0 r /Helvetica-Bold findfont 29.3239 sf 0 0 m (\2550.00) show NC gr 
 gsave  2268 1538 0 0 C 1938.64 661.417 t 0 r /Helvetica-Bold findfont 29.3239 sf 0 0 m (0.00) show NC gr 
 gsave  2268 1538 0 0 C 263.915 755.906 t 0 r /Helvetica-Bold findfont 29.3239 sf 0 0 m (\2550.04) show NC gr 
 gsave  2268 1538 0 0 C 400.76 755.906 t 0 r /Helvetica-Bold findfont 29.3239 sf 0 0 m (\2550.00) show NC gr 
 gsave  2268 1538 0 0 C 540.863 755.906 t 0 r /Helvetica-Bold findfont 29.3239 sf 0 0 m (\2550.03) show NC gr 
 gsave  2268 1538 0 0 C 680.967 755.906 t 0 r /Helvetica-Bold findfont 29.3239 sf 0 0 m (\2550.03) show NC gr 
 gsave  2268 1538 0 0 C 821.07 755.906 t 0 r /Helvetica-Bold findfont 29.3239 sf 0 0 m (\2550.02) show NC gr 
 gsave  2268 1538 0 0 C 961.173 755.906 t 0 r /Helvetica-Bold findfont 29.3239 sf 0 0 m (\2550.00) show NC gr 
 gsave  2268 1538 0 0 C 1104.53 755.906 t 0 r /Helvetica-Bold findfont 29.3239 sf 0 0 m (1.00) show NC gr 
 gsave  2268 1538 0 0 C 1238.12 755.906 t 0 r /Helvetica-Bold findfont 29.3239 sf 0 0 m (\2550.04) show NC gr 
 gsave  2268 1538 0 0 C 1378.22 755.906 t 0 r /Helvetica-Bold findfont 29.3239 sf 0 0 m (\2550.03) show NC gr 
 gsave  2268 1538 0 0 C 1521.59 755.906 t 0 r /Helvetica-Bold findfont 29.3239 sf 0 0 m (0.03) show NC gr 
 gsave  2268 1538 0 0 C 1658.43 755.906 t 0 r /Helvetica-Bold findfont 29.3239 sf 0 0 m (\2550.01) show NC gr 
 gsave  2268 1538 0 0 C 1798.53 755.906 t 0 r /Helvetica-Bold findfont 29.3239 sf 0 0 m (\2550.03) show NC gr 
 gsave  2268 1538 0 0 C 1935.38 755.906 t 0 r /Helvetica-Bold findfont 29.3239 sf 0 0 m (\2550.00) show NC gr 
 gsave  2268 1538 0 0 C 263.915 853.652 t 0 r /Helvetica-Bold findfont 29.3239 sf 0 0 m (\2550.25) show NC gr 
 gsave  2268 1538 0 0 C 400.76 853.652 t 0 r /Helvetica-Bold findfont 29.3239 sf 0 0 m (\2550.20) show NC gr 
 gsave  2268 1538 0 0 C 544.122 853.652 t 0 r /Helvetica-Bold findfont 29.3239 sf 0 0 m (0.02) show NC gr 
 gsave  2268 1538 0 0 C 680.967 853.652 t 0 r /Helvetica-Bold findfont 29.3239 sf 0 0 m (\2550.02) show NC gr 
 gsave  2268 1538 0 0 C 824.328 853.652 t 0 r /Helvetica-Bold findfont 29.3239 sf 0 0 m (0.00) show NC gr 
 gsave  2268 1538 0 0 C 961.173 853.652 t 0 r /Helvetica-Bold findfont 29.3239 sf 0 0 m (\2550.00) show NC gr 
 gsave  2268 1538 0 0 C 1101.28 853.652 t 0 r /Helvetica-Bold findfont 29.3239 sf 0 0 m (\2550.04) show NC gr 
 gsave  2268 1538 0 0 C 1241.38 853.652 t 0 r /Helvetica-Bold findfont 29.3239 sf 0 0 m (1.00) show NC gr 
 gsave  2268 1538 0 0 C 1378.22 853.652 t 0 r /Helvetica-Bold findfont 29.3239 sf 0 0 m (\2550.00) show NC gr 
 gsave  2268 1538 0 0 C 1521.59 853.652 t 0 r /Helvetica-Bold findfont 29.3239 sf 0 0 m (0.25) show NC gr 
 gsave  2268 1538 0 0 C 1661.69 853.652 t 0 r /Helvetica-Bold findfont 29.3239 sf 0 0 m (0.22) show NC gr 
 gsave  2268 1538 0 0 C 1801.79 853.652 t 0 r /Helvetica-Bold findfont 29.3239 sf 0 0 m (0.07) show NC gr 
 gsave  2268 1538 0 0 C 1938.64 853.652 t 0 r /Helvetica-Bold findfont 29.3239 sf 0 0 m (0.38) show NC gr 
 gsave  2268 1538 0 0 C 263.915 948.14 t 0 r /Helvetica-Bold findfont 29.3239 sf 0 0 m (\2550.20) show NC gr 
 gsave  2268 1538 0 0 C 400.76 948.14 t 0 r /Helvetica-Bold findfont 29.3239 sf 0 0 m (\2550.13) show NC gr 
 gsave  2268 1538 0 0 C 540.863 948.14 t 0 r /Helvetica-Bold findfont 29.3239 sf 0 0 m (\2550.16) show NC gr 
 gsave  2268 1538 0 0 C 680.967 948.14 t 0 r /Helvetica-Bold findfont 29.3239 sf 0 0 m (\2550.07) show NC gr 
 gsave  2268 1538 0 0 C 821.07 948.14 t 0 r /Helvetica-Bold findfont 29.3239 sf 0 0 m (\2550.14) show NC gr 
 gsave  2268 1538 0 0 C 961.173 948.14 t 0 r /Helvetica-Bold findfont 29.3239 sf 0 0 m (\2550.00) show NC gr 
 gsave  2268 1538 0 0 C 1101.28 948.14 t 0 r /Helvetica-Bold findfont 29.3239 sf 0 0 m (\2550.03) show NC gr 
 gsave  2268 1538 0 0 C 1238.12 948.14 t 0 r /Helvetica-Bold findfont 29.3239 sf 0 0 m (\2550.00) show NC gr 
 gsave  2268 1538 0 0 C 1381.48 948.14 t 0 r /Helvetica-Bold findfont 29.3239 sf 0 0 m (1.00) show NC gr 
 gsave  2268 1538 0 0 C 1521.59 948.14 t 0 r /Helvetica-Bold findfont 29.3239 sf 0 0 m (0.05) show NC gr 
 gsave  2268 1538 0 0 C 1661.69 948.14 t 0 r /Helvetica-Bold findfont 29.3239 sf 0 0 m (0.14) show NC gr 
 gsave  2268 1538 0 0 C 1798.53 948.14 t 0 r /Helvetica-Bold findfont 29.3239 sf 0 0 m (\2550.01) show NC gr 
 gsave  2268 1538 0 0 C 1938.64 948.14 t 0 r /Helvetica-Bold findfont 29.3239 sf 0 0 m (0.02) show NC gr 
 gsave  2268 1538 0 0 C 263.915 1042.63 t 0 r /Helvetica-Bold findfont 29.3239 sf 0 0 m (\2550.00) show NC gr 
 gsave  2268 1538 0 0 C 404.018 1042.63 t 0 r /Helvetica-Bold findfont 29.3239 sf 0 0 m (0.00) show NC gr 
 gsave  2268 1538 0 0 C 540.863 1042.63 t 0 r /Helvetica-Bold findfont 29.3239 sf 0 0 m (\2550.16) show NC gr 
 gsave  2268 1538 0 0 C 680.967 1042.63 t 0 r /Helvetica-Bold findfont 29.3239 sf 0 0 m (\2550.16) show NC gr 
 gsave  2268 1538 0 0 C 824.328 1042.63 t 0 r /Helvetica-Bold findfont 29.3239 sf 0 0 m (0.00) show NC gr 
 gsave  2268 1538 0 0 C 964.431 1042.63 t 0 r /Helvetica-Bold findfont 29.3239 sf 0 0 m (0.00) show NC gr 
 gsave  2268 1538 0 0 C 1104.53 1042.63 t 0 r /Helvetica-Bold findfont 29.3239 sf 0 0 m (0.03) show NC gr 
 gsave  2268 1538 0 0 C 1241.38 1042.63 t 0 r /Helvetica-Bold findfont 29.3239 sf 0 0 m (0.25) show NC gr 
 gsave  2268 1538 0 0 C 1381.48 1042.63 t 0 r /Helvetica-Bold findfont 29.3239 sf 0 0 m (0.05) show NC gr 
 gsave  2268 1538 0 0 C 1521.59 1042.63 t 0 r /Helvetica-Bold findfont 29.3239 sf 0 0 m (1.00) show NC gr 
 gsave  2268 1538 0 0 C 1661.69 1042.63 t 0 r /Helvetica-Bold findfont 29.3239 sf 0 0 m (0.25) show NC gr 
 gsave  2268 1538 0 0 C 1801.79 1042.63 t 0 r /Helvetica-Bold findfont 29.3239 sf 0 0 m (0.06) show NC gr 
 gsave  2268 1538 0 0 C 1938.64 1042.63 t 0 r /Helvetica-Bold findfont 29.3239 sf 0 0 m (0.37) show NC gr 
 gsave  2268 1538 0 0 C 263.915 1137.12 t 0 r /Helvetica-Bold findfont 29.3239 sf 0 0 m (\2550.03) show NC gr 
 gsave  2268 1538 0 0 C 400.76 1137.12 t 0 r /Helvetica-Bold findfont 29.3239 sf 0 0 m (\2550.02) show NC gr 
 gsave  2268 1538 0 0 C 540.863 1137.12 t 0 r /Helvetica-Bold findfont 29.3239 sf 0 0 m (\2550.02) show NC gr 
 gsave  2268 1538 0 0 C 680.967 1137.12 t 0 r /Helvetica-Bold findfont 29.3239 sf 0 0 m (\2550.02) show NC gr 
 gsave  2268 1538 0 0 C 821.07 1137.12 t 0 r /Helvetica-Bold findfont 29.3239 sf 0 0 m (\2550.19) show NC gr 
 gsave  2268 1538 0 0 C 961.173 1137.12 t 0 r /Helvetica-Bold findfont 29.3239 sf 0 0 m (\2550.00) show NC gr 
 gsave  2268 1538 0 0 C 1101.28 1137.12 t 0 r /Helvetica-Bold findfont 29.3239 sf 0 0 m (\2550.01) show NC gr 
 gsave  2268 1538 0 0 C 1241.38 1137.12 t 0 r /Helvetica-Bold findfont 29.3239 sf 0 0 m (0.22) show NC gr 
 gsave  2268 1538 0 0 C 1381.48 1137.12 t 0 r /Helvetica-Bold findfont 29.3239 sf 0 0 m (0.14) show NC gr 
 gsave  2268 1538 0 0 C 1521.59 1137.12 t 0 r /Helvetica-Bold findfont 29.3239 sf 0 0 m (0.25) show NC gr 
 gsave  2268 1538 0 0 C 1661.69 1137.12 t 0 r /Helvetica-Bold findfont 29.3239 sf 0 0 m (1.00) show NC gr 
 gsave  2268 1538 0 0 C 1801.79 1137.12 t 0 r /Helvetica-Bold findfont 29.3239 sf 0 0 m (0.10) show NC gr 
 gsave  2268 1538 0 0 C 1938.64 1137.12 t 0 r /Helvetica-Bold findfont 29.3239 sf 0 0 m (0.37) show NC gr 
 gsave  2268 1538 0 0 C 263.915 1231.6 t 0 r /Helvetica-Bold findfont 29.3239 sf 0 0 m (\2550.02) show NC gr 
 gsave  2268 1538 0 0 C 400.76 1231.6 t 0 r /Helvetica-Bold findfont 29.3239 sf 0 0 m (\2550.02) show NC gr 
 gsave  2268 1538 0 0 C 540.863 1231.6 t 0 r /Helvetica-Bold findfont 29.3239 sf 0 0 m (\2550.05) show NC gr 
 gsave  2268 1538 0 0 C 684.225 1231.6 t 0 r /Helvetica-Bold findfont 29.3239 sf 0 0 m (0.03) show NC gr 
 gsave  2268 1538 0 0 C 824.328 1231.6 t 0 r /Helvetica-Bold findfont 29.3239 sf 0 0 m (0.02) show NC gr 
 gsave  2268 1538 0 0 C 961.173 1231.6 t 0 r /Helvetica-Bold findfont 29.3239 sf 0 0 m (\2550.00) show NC gr 
 gsave  2268 1538 0 0 C 1101.28 1231.6 t 0 r /Helvetica-Bold findfont 29.3239 sf 0 0 m (\2550.03) show NC gr 
 gsave  2268 1538 0 0 C 1241.38 1231.6 t 0 r /Helvetica-Bold findfont 29.3239 sf 0 0 m (0.07) show NC gr 
 gsave  2268 1538 0 0 C 1378.22 1231.6 t 0 r /Helvetica-Bold findfont 29.3239 sf 0 0 m (\2550.01) show NC gr 
 gsave  2268 1538 0 0 C 1521.59 1231.6 t 0 r /Helvetica-Bold findfont 29.3239 sf 0 0 m (0.06) show NC gr 
 gsave  2268 1538 0 0 C 1661.69 1231.6 t 0 r /Helvetica-Bold findfont 29.3239 sf 0 0 m (0.10) show NC gr 
 gsave  2268 1538 0 0 C 1801.79 1231.6 t 0 r /Helvetica-Bold findfont 29.3239 sf 0 0 m (1.00) show NC gr 
 gsave  2268 1538 0 0 C 1935.38 1231.6 t 0 r /Helvetica-Bold findfont 29.3239 sf 0 0 m (\2550.18) show NC gr 
 gsave  2268 1538 0 0 C 263.915 1326.09 t 0 r /Helvetica-Bold findfont 29.3239 sf 0 0 m (\2550.04) show NC gr 
 gsave  2268 1538 0 0 C 400.76 1326.09 t 0 r /Helvetica-Bold findfont 29.3239 sf 0 0 m (\2550.01) show NC gr 
 gsave  2268 1538 0 0 C 540.863 1326.09 t 0 r /Helvetica-Bold findfont 29.3239 sf 0 0 m (\2550.01) show NC gr 
 gsave  2268 1538 0 0 C 680.967 1326.09 t 0 r /Helvetica-Bold findfont 29.3239 sf 0 0 m (\2550.01) show NC gr 
 gsave  2268 1538 0 0 C 821.07 1326.09 t 0 r /Helvetica-Bold findfont 29.3239 sf 0 0 m (\2550.03) show NC gr 
 gsave  2268 1538 0 0 C 964.431 1326.09 t 0 r /Helvetica-Bold findfont 29.3239 sf 0 0 m (0.00) show NC gr 
 gsave  2268 1538 0 0 C 1101.28 1326.09 t 0 r /Helvetica-Bold findfont 29.3239 sf 0 0 m (\2550.00) show NC gr 
 gsave  2268 1538 0 0 C 1241.38 1326.09 t 0 r /Helvetica-Bold findfont 29.3239 sf 0 0 m (0.38) show NC gr 
 gsave  2268 1538 0 0 C 1381.48 1326.09 t 0 r /Helvetica-Bold findfont 29.3239 sf 0 0 m (0.02) show NC gr 
 gsave  2268 1538 0 0 C 1521.59 1326.09 t 0 r /Helvetica-Bold findfont 29.3239 sf 0 0 m (0.37) show NC gr 
 gsave  2268 1538 0 0 C 1661.69 1326.09 t 0 r /Helvetica-Bold findfont 29.3239 sf 0 0 m (0.37) show NC gr 
 gsave  2268 1538 0 0 C 1798.53 1326.09 t 0 r /Helvetica-Bold findfont 29.3239 sf 0 0 m (\2550.18) show NC gr 
 gsave  2268 1538 0 0 C 1938.64 1326.09 t 0 r /Helvetica-Bold findfont 29.3239 sf 0 0 m (1.00) show NC gr  227 154 m 1814 X s
 gsave  2268 1538 0 0 C 289.981 127.07 t -19 r /Helvetica findfont 32.5821 sf 0 0 m (sigma_bin0) show NC gr 
 gsave  2268 1538 0 0 C 426.826 127.07 t -19 r /Helvetica findfont 32.5821 sf 0 0 m (sigma_bin1) show NC gr 
 gsave  2268 1538 0 0 C 566.929 127.07 t -19 r /Helvetica findfont 32.5821 sf 0 0 m (sigma_bin2) show NC gr 
 gsave  2268 1538 0 0 C 707.032 127.07 t -19 r /Helvetica findfont 32.5821 sf 0 0 m (sigma_bin3) show NC gr 
 gsave  2268 1538 0 0 C 847.135 127.07 t -19 r /Helvetica findfont 32.5821 sf 0 0 m (sigma_bin4) show NC gr 
 gsave  2268 1538 0 0 C 987.239 127.07 t -19 r /Helvetica findfont 32.5821 sf 0 0 m (sigma_bin5) show NC gr 
 gsave  2268 1538 0 0 C 1127.34 127.07 t -19 r /Helvetica findfont 32.5821 sf 0 0 m (mu_Zjets) show NC gr 
 gsave  2268 1538 0 0 C 1264.19 127.07 t -19 r /Helvetica findfont 32.5821 sf 0 0 m (mu_wwTop_SR_0) show NC gr 
 gsave  2268 1538 0 0 C 1404.29 127.07 t -19 r /Helvetica findfont 32.5821 sf 0 0 m (mu_ggf) show NC gr 
 gsave  2268 1538 0 0 C 1544.39 127.07 t -19 r /Helvetica findfont 32.5821 sf 0 0 m (mu_wwTop_SR_1) show NC gr 
 gsave  2268 1538 0 0 C 1684.5 127.07 t -19 r /Helvetica findfont 32.5821 sf 0 0 m (mu_wwTop_SR_2) show NC gr 
 gsave  2268 1538 0 0 C 1824.6 127.07 t -19 r /Helvetica findfont 32.5821 sf 0 0 m (mu_Zjets_CRGGF1) show NC gr 
 gsave  2268 1538 0 0 C 1961.44 127.07 t -19 r /Helvetica findfont 32.5821 sf 0 0 m (mu_wwTop_CRGGF) show NC gr  227 191 m -37 Y s 366 191 m -37 Y s 506 191 m -37 Y s 645 191 m -37 Y s 785 191 m -37 Y s 925 191 m -37 Y s 1064 191 m -37 Y s 1204 191 m
 -37 Y s 1343 191 m -37 Y s 1483 191 m -37 Y s 1622 191 m -37 Y s 1762 191 m -37 Y s 1901 191 m -37 Y s 2041 191 m -37 Y s 227 154 m 1230 Y s
 gsave  2268 1538 0 0 C 32.5821 192.235 t 0 r /Helvetica findfont 32.5821 sf 0 0 m (sigma_bin0) show NC gr 
 gsave  2268 1538 0 0 C 39.0986 286.723 t 0 r /Helvetica findfont 32.5821 sf 0 0 m (sigma_bin1) show NC gr 
 gsave  2268 1538 0 0 C 32.5821 381.211 t 0 r /Helvetica findfont 32.5821 sf 0 0 m (sigma_bin2) show NC gr 
 gsave  2268 1538 0 0 C 32.5821 475.699 t 0 r /Helvetica findfont 32.5821 sf 0 0 m (sigma_bin3) show NC gr 
 gsave  2268 1538 0 0 C 32.5821 570.187 t 0 r /Helvetica findfont 32.5821 sf 0 0 m (sigma_bin4) show NC gr 
 gsave  2268 1538 0 0 C 32.5821 664.676 t 0 r /Helvetica findfont 32.5821 sf 0 0 m (sigma_bin5) show NC gr 
 gsave  2268 1538 0 0 C 65.1643 759.164 t 0 r /Helvetica findfont 32.5821 sf 0 0 m (mu_Zjets) show NC gr 
 gsave  2268 1538 0 0 C -65.1643 856.91 t 0 r /Helvetica findfont 32.5821 sf 0 0 m (mu_wwTop_SR_0) show NC gr 
 gsave  2268 1538 0 0 C 91.23 951.398 t 0 r /Helvetica findfont 32.5821 sf 0 0 m (mu_ggf) show NC gr 
 gsave  2268 1538 0 0 C -61.9061 1045.89 t 0 r /Helvetica findfont 32.5821 sf 0 0 m (mu_wwTop_SR_1) show NC gr 
 gsave  2268 1538 0 0 C -65.1643 1140.37 t 0 r /Helvetica findfont 32.5821 sf 0 0 m (mu_wwTop_SR_2) show NC gr 
 gsave  2268 1538 0 0 C -81.4553 1234.86 t 0 r /Helvetica findfont 32.5821 sf 0 0 m (mu_Zjets_CRGGF1) show NC gr 
 gsave  2268 1538 0 0 C -101.005 1329.35 t 0 r /Helvetica findfont 32.5821 sf 0 0 m (mu_wwTop_CRGGF) show NC gr  281 154 m -54 X s 281 248 m -54 X s 281 343 m -54 X s 281 438 m -54 X s 281 532 m -54 X s 281 627 m -54 X s 281 722 m -54 X s 281 816 m
 -54 X s 281 911 m -54 X s 281 1006 m -54 X s 281 1100 m -54 X s 281 1195 m -54 X s 281 1289 m -54 X s 281 1384 m -54 X s
 gr  gr showpage
end
%%EOF
