%!PS-Adobe-2.0 EPSF-2.0
%%BoundingBox:  0 0 567 384
%%Title: cCorr_matrix_DYll.eps: 
%%Creator: ROOT Version 6.24/06
%%CreationDate: Mon Jan  3 21:08:36 2022
%%DocumentNeededResources: ProcSet (FontSetInit)
%%EndComments
%%BeginProlog
80 dict begin
/s {stroke} def /l {lineto} def /m {moveto} def /t {translate} def
/r {rotate} def /rl {roll}  def /R {repeat} def
/d {rlineto} def /rm {rmoveto} def /gr {grestore} def /f {eofill} def
/c {setrgbcolor} def /black {0 setgray} def /sd {setdash} def
/cl {closepath} def /sf {scalefont setfont} def /lw {setlinewidth} def
/box {m dup 0 exch d exch 0 d 0 exch neg d cl} def
/NC{systemdict begin initclip end}def/C{NC box clip newpath}def
/bl {box s} def /bf {gsave box gsave f grestore 1 lw [] 0 sd s grestore} def /Y { 0 exch d} def /X { 0 d} def 
/K {{pop pop 0 moveto} exch kshow} bind def
/ita {/ang 15 def gsave [1 0 ang dup sin exch cos div 1 0 0] concat} def 
/mp {newpath /y exch def /x exch def} def
/side {[w .77 mul w .23 mul] .385 w mul sd w 0 l currentpoint t -144 r} def
/mr {mp x y w2 0 360 arc} def /m24 {mr s} def /m20 {mr f} def
/mb {mp x y w2 add m w2 neg 0 d 0 w neg d w 0 d 0 w d cl} def
/mt {mp x y w2 add m w2 neg w neg d w 0 d cl} def
/w4 {w 4 div} def
/w6 {w 6 div} def
/w8 {w 8 div} def
/m21 {mb f} def /m25 {mb s} def /m22 {mt f} def /m26{mt s} def
/m23 {mp x y w2 sub m w2 w d w neg 0 d cl f} def
/m27 {mp x y w2 add m w3 neg w2 neg d w3 w2 neg d w3 w2 d cl s} def
/m28 {mp x w2 sub y w2 sub w3 add m w3 0 d  0 w3 neg d w3 0 d 0 w3 d w3 0 d  0 w3 d w3 neg 0 d 0 w3 d w3 neg 0 d 0 w3 neg d w3 neg 0 d cl s } def
/m29 {mp gsave x w2 sub y w2 add w3 sub m currentpoint t 4 {side} repeat cl fill gr} def
/m30 {mp gsave x w2 sub y w2 add w3 sub m currentpoint t 4 {side} repeat cl s gr} def
/m31 {mp x y w2 sub m 0 w d x w2 sub y m w 0 d x w2 .707 mul sub y w2 .707 mul add m w 1.44 div w 1.44 div neg d x w2 .707 mul sub y w2 .707 mul sub m w 1.44 div w 1.44 div d s} def
/m32 {mp x y w2 sub m w2 w d w neg 0 d cl s} def
/m33 {mp x y w2 add m w3 neg w2 neg d w3 w2 neg d w3 w2 d cl f} def
/m34 {mp x w2 sub y w2 sub w3 add m w3 0 d  0 w3 neg d w3 0 d 0 w3 d w3 0 d  0 w3 d w3 neg 0 d 0 w3 d w3 neg 0 d 0 w3 neg d w3 neg 0 d cl f } def
/m35 {mp x y w2 add m w2 neg w2 neg d w2 w2 neg d w2 w2 d w2 neg w2 d x y w2 sub m 0 w d x w2 sub y m w 0 d s} def
/m36 {mb x w2 sub y w2 add m w w neg d x w2 sub y w2 sub m w w d s} def
/m37 {mp x y m w4 neg w2 d w4 neg w2 neg d w2 0 d  w4 neg w2 neg d w2 0 d w4 neg w2 d w2 0 d w4 neg w2 d w4 neg w2 neg d cl s} def
/m38 {mp x w4 sub y w2 add m w4 neg w4 neg d 0 w2 neg d w4 w4 neg d w2 0 d w4 w4 d 0 w2 d w4 neg w4 d w2 neg 0 d x y w2 sub m 0 w d x w2 sub y m w 0 d cl s} def
/m39 {mp x y m w4 neg w2 d w4 neg w2 neg d w2 0 d  w4 neg w2 neg d w2 0 d w4 neg w2 d w2 0 d w4 neg w2 d w4 neg w2 neg d cl f} def
/m40 {mp x y m w4 w2 d w4 w4 neg d w2 neg w4 neg d w2 w4 neg d w4 neg w4 neg d w4 neg w2 d w4 neg w2 neg d w4 neg w4 d w2 w4 d w2 neg w4 d w4 w4 d w4 w2 neg d cl s} def
/m41 {mp x y m w4 w2 d w4 w4 neg d w2 neg w4 neg d w2 w4 neg d w4 neg w4 neg d w4 neg w2 d w4 neg w2 neg d w4 neg w4 d w2 w4 d w2 neg w4 d w4 w4 d w4 w2 neg d cl f} def
/m42 {mp x y w2 add m w8 neg w2 -3 4 div mul d w2 -3 4 div mul w8 neg d w2 3 4 div mul w8 neg d w8 w2 -3 4 div mul d w8 w2 3 4 div mul d w2 3 4 div mul w8 d w2 -3 4 div mul w8 d w8 neg w2 3 4 div mul d cl s} def
/m43 {mp x y w2 add m w8 neg w2 -3 4 div mul d w2 -3 4 div mul w8 neg d w2 3 4 div mul w8 neg d w8 w2 -3 4 div mul d w8 w2 3 4 div mul d w2 3 4 div mul w8 d w2 -3 4 div mul w8 d w8 neg w2 3 4 div mul d cl f} def
/m44 {mp x y m w6 neg w2 d w2 2 3 div mul 0 d w6 neg w2 neg d w2 w6 d 0 w2 -2 3 div mul d w2 neg w6 d w6 w2 neg d w2 -2 3 div mul 0 d w6 w2 d w2 neg w6 neg d 0 w2 2 3 div mul d w2 w6 neg d cl s} def
/m45 {mp x y m w6 neg w2 d w2 2 3 div mul 0 d w6 neg w2 neg d w2 w6 d 0 w2 -2 3 div mul d w2 neg w6 d w6 w2 neg d w2 -2 3 div mul 0 d w6 w2 d w2 neg w6 neg d 0 w2 2 3 div mul d w2 w6 neg d cl f} def
/m46 {mp x y w4 add m w4 neg w4 d w4 neg w4 neg d  w4 w4 neg d w4 neg w4 neg d w4 w4 neg d w4 w4 d w4 w4 neg d w4 w4 d w4 neg w4 d w4 w4 d w4 neg w4 d w4 neg w4 neg d cl s} def
/m47 {mp x y w4 add m w4 neg w4 d w4 neg w4 neg d w4 w4 neg d w4 neg w4 neg d  w4 w4 neg d w4 w4 d w4 w4 neg d w4 w4 d w4 neg w4 d w4 w4 d w4 neg w4 d w4 neg w4 neg d cl f} def
/m48 {mp x y w4 add m w4 neg w4 d w4 neg w4 neg d w4 w4 neg d  w4 neg w4 neg d w4 w4 neg d w4 w4 d w4 w4 neg d w4 w4 d w4 neg w4 d w4 w4 d w4 neg w4 d w4 neg w4 neg d  w4 w4 neg d w4 neg w4 neg d w4 neg w4 d w4 w4 d cl f} def
/m49 {mp x w2 sub w3 add y w2 sub w3 add m  0 w3 neg d w3 0 d 0 w3 d w3 0 d 0 w3 d w3 neg 0 d 0 w3 d w3 neg 0 d 0 w3 neg d w3 neg 0 d 0 w3 neg d w3 0 d 0 w3 d w3 0 d 0 w3 neg d w3 neg 0 d cl f } def
/m2 {mp x y w2 sub m 0 w d x w2 sub y m w 0 d s} def
/m5 {mp x w2 .707 mul sub y w2 .707 mul sub m w 1.44 div w 1.44 div d x w2 .707 mul sub y w2 .707 mul add m w 1.44 div w 1.44 div neg d s} def
%%IncludeResource: ProcSet (FontSetInit)
%%IncludeResource: font Times-Roman
%%IncludeResource: font Times-Italic
%%IncludeResource: font Times-Bold
%%IncludeResource: font Times-BoldItalic
%%IncludeResource: font Helvetica
%%IncludeResource: font Helvetica-Oblique
%%IncludeResource: font Helvetica-Bold
%%IncludeResource: font Helvetica-BoldOblique
%%IncludeResource: font Courier
%%IncludeResource: font Courier-Oblique
%%IncludeResource: font Courier-Bold
%%IncludeResource: font Courier-BoldOblique
%%IncludeResource: font Symbol
%%IncludeResource: font ZapfDingbats
/reEncode {exch findfont dup length dict begin {1 index /FID eq  {pop pop} {def} ifelse } forall /Encoding exch def currentdict end dup /FontName get exch definefont pop } def [/Times-Bold /Times-Italic /Times-BoldItalic /Helvetica /Helvetica-Oblique
 /Helvetica-Bold /Helvetica-BoldOblique /Courier /Courier-Oblique /Courier-Bold /Courier-BoldOblique /Times-Roman /AvantGarde-Book /AvantGarde-BookOblique /AvantGarde-Demi /AvantGarde-DemiOblique /Bookman-Demi /Bookman-DemiItalic /Bookman-Light
 /Bookman-LightItalic /Helvetica-Narrow /Helvetica-Narrow-Bold /Helvetica-Narrow-BoldOblique /Helvetica-Narrow-Oblique /NewCenturySchlbk-Roman /NewCenturySchlbk-Bold /NewCenturySchlbk-BoldItalic /NewCenturySchlbk-Italic /Palatino-Bold
 /Palatino-BoldItalic /Palatino-Italic /Palatino-Roman ] {ISOLatin1Encoding reEncode } forall
%%EndProlog
%%BeginSetup
%%EndSetup
newpath  gsave  .25 .25 scale  gsave  0 0 t black[  ] 0 sd 3 lw 1 1 1 c 2268 1538 0 0 bf black 1 1 1 c 1814 1230 227 154 bf black 1814 1230 227 154 bl 1 1 1 c 0.977 0.977044 0.0583656 c 165 112 227 154 bf 0.453559 0.742331 0.504766 c 165 112 392 154
 bf 165 112 557 154 bf 0.322347 0.730556 0.570878 c 164 112 722 154 bf 165 112 886 154 bf 165 112 1051 154 bf 0.116419 0.686966 0.702991 c 165 112 1216 154 bf 165 112 1381 154 bf 0.322347 0.730556 0.570878 c 165 112 1546 154 bf 165 112 1711 154 bf
 0.1802 0.7178 0.6425 c 165 112 1876 154 bf 0.453559 0.742331 0.504766 c 165 111 227 266 bf 0.977 0.977044 0.0583656 c 165 111 392 266 bf 0.322347 0.730556 0.570878 c 165 111 557 266 bf 164 111 722 266 bf 165 111 886 266 bf 165 111 1051 266 bf
 0.116419 0.686966 0.702991 c 165 111 1216 266 bf 0.1802 0.7178 0.6425 c 165 111 1381 266 bf 0.322347 0.730556 0.570878 c 165 111 1546 266 bf 165 111 1711 266 bf 0.1802 0.7178 0.6425 c 165 111 1876 266 bf 0.453559 0.742331 0.504766 c 165 112 227 377
 bf 0.322347 0.730556 0.570878 c 165 112 392 377 bf 0.977 0.977044 0.0583656 c 165 112 557 377 bf 0.322347 0.730556 0.570878 c 164 112 722 377 bf 165 112 886 377 bf 0.1802 0.7178 0.6425 c 165 112 1051 377 bf 0.116419 0.686966 0.702991 c 165 112 1216
 377 bf 0.1802 0.7178 0.6425 c 165 112 1381 377 bf 0.322347 0.730556 0.570878 c 165 112 1546 377 bf 165 112 1711 377 bf 0.1802 0.7178 0.6425 c 165 112 1876 377 bf 0.322347 0.730556 0.570878 c 165 112 227 489 bf 165 112 392 489 bf 165 112 557 489 bf
 0.977 0.977044 0.0583656 c 164 112 722 489 bf 0.322347 0.730556 0.570878 c 165 112 886 489 bf 0.1802 0.7178 0.6425 c 165 112 1051 489 bf 0.322347 0.730556 0.570878 c 165 112 1216 489 bf 0.1802 0.7178 0.6425 c 165 112 1381 489 bf 165 112 1546 489 bf
 0.322347 0.730556 0.570878 c 165 112 1711 489 bf 165 112 1876 489 bf 165 112 227 601 bf 165 112 392 601 bf 165 112 557 601 bf 164 112 722 601 bf 0.977 0.977044 0.0583656 c 165 112 886 601 bf 0.1802 0.7178 0.6425 c 165 112 1051 601 bf 0.322347
 0.730556 0.570878 c 165 112 1216 601 bf 165 112 1381 601 bf 0.1802 0.7178 0.6425 c 165 112 1546 601 bf 0.322347 0.730556 0.570878 c 165 112 1711 601 bf 0.1802 0.7178 0.6425 c 165 112 1876 601 bf 0.322347 0.730556 0.570878 c 165 112 227 713 bf 165
 112 392 713 bf 0.1802 0.7178 0.6425 c 165 112 557 713 bf 164 112 722 713 bf 165 112 886 713 bf 0.977 0.977044 0.0583656 c 165 112 1051 713 bf 0.1802 0.7178 0.6425 c 165 112 1216 713 bf 165 112 1381 713 bf 165 112 1546 713 bf 165 112 1711 713 bf 165
 112 1876 713 bf 0.116419 0.686966 0.702991 c 165 112 227 825 bf 165 112 392 825 bf 165 112 557 825 bf 0.322347 0.730556 0.570878 c 164 112 722 825 bf 165 112 886 825 bf 0.1802 0.7178 0.6425 c 165 112 1051 825 bf 0.977 0.977044 0.0583656 c 165 112
 1216 825 bf 0.322347 0.730556 0.570878 c 165 112 1381 825 bf 0.453559 0.742331 0.504766 c 165 112 1546 825 bf 0.322347 0.730556 0.570878 c 165 112 1711 825 bf 0.8186 0.7328 0.3499 c 165 112 1876 825 bf 0.116419 0.686966 0.702991 c 165 112 227 937 bf
 0.1802 0.7178 0.6425 c 165 112 392 937 bf 165 112 557 937 bf 164 112 722 937 bf 0.322347 0.730556 0.570878 c 165 112 886 937 bf 0.1802 0.7178 0.6425 c 165 112 1051 937 bf 0.322347 0.730556 0.570878 c 165 112 1216 937 bf 0.977 0.977044 0.0583656 c
 165 112 1381 937 bf 0.322347 0.730556 0.570878 c 165 112 1546 937 bf 0.1802 0.7178 0.6425 c 165 112 1711 937 bf 0.322347 0.730556 0.570878 c 165 112 1876 937 bf 165 111 227 1049 bf 165 111 392 1049 bf 165 111 557 1049 bf 0.1802 0.7178 0.6425 c 164
 111 722 1049 bf 165 111 886 1049 bf 165 111 1051 1049 bf 0.453559 0.742331 0.504766 c 165 111 1216 1049 bf 0.322347 0.730556 0.570878 c 165 111 1381 1049 bf 0.977 0.977044 0.0583656 c 165 111 1546 1049 bf 0.322347 0.730556 0.570878 c 165 111 1711
 1049 bf 165 111 1876 1049 bf 165 112 227 1160 bf 165 112 392 1160 bf 165 112 557 1160 bf 164 112 722 1160 bf 165 112 886 1160 bf 0.1802 0.7178 0.6425 c 165 112 1051 1160 bf 0.322347 0.730556 0.570878 c 165 112 1216 1160 bf 0.1802 0.7178 0.6425 c 165
 112 1381 1160 bf 0.322347 0.730556 0.570878 c 165 112 1546 1160 bf 0.977 0.977044 0.0583656 c 165 112 1711 1160 bf 0.116419 0.686966 0.702991 c 165 112 1876 1160 bf 0.1802 0.7178 0.6425 c 165 112 227 1272 bf 165 112 392 1272 bf 165 112 557 1272 bf
 0.322347 0.730556 0.570878 c 164 112 722 1272 bf 0.1802 0.7178 0.6425 c 165 112 886 1272 bf 165 112 1051 1272 bf 0.8186 0.7328 0.3499 c 165 112 1216 1272 bf 0.322347 0.730556 0.570878 c 165 112 1381 1272 bf 165 112 1546 1272 bf 0.116419 0.686966
 0.702991 c 165 112 1711 1272 bf 0.977 0.977044 0.0583656 c 165 112 1876 1272 bf 0.150523 0.241303 0.660565 c 102 61 2052 154 bf 0.0880387 0.322448 0.802768 c 102 62 2052 215 bf 0.0633125 0.391444 0.861859 c 102 61 2052 277 bf 0.0703625 0.445519
 0.850647 c 102 62 2052 338 bf 0.078 0.5041 0.8385 c 102 61 2052 400 bf 0.0557375 0.560081 0.819366 c 102 62 2052 461 bf 0.033475 0.616063 0.800231 c 102 61 2052 523 bf 0.0526375 0.656131 0.763481 c 102 62 2052 584 bf 0.116419 0.686966 0.702991 c 102
 61 2052 646 bf 0.1802 0.7178 0.6425 c 102 62 2052 707 bf 0.322347 0.730556 0.570878 c 102 61 2052 769 bf 0.453559 0.742331 0.504766 c 102 62 2052 830 bf 0.584194 0.746125 0.444394 c 102 61 2052 892 bf 0.701397 0.739462 0.397147 c 102 62 2052 953 bf
 0.8186 0.7328 0.3499 c 102 62 2052 1015 bf 0.884975 0.752825 0.292488 c 102 61 2052 1077 bf 0.956881 0.774519 0.230291 c 102 62 2052 1138 bf 0.992 0.823138 0.170006 c 102 61 2052 1200 bf 0.9842 0.903169 0.111953 c 102 62 2052 1261 bf 0.977 0.977044
 0.0583656 c 102 61 2052 1323 bf black 2154 154 m 1230 Y s 2100 154 m 54 X s 2100 277 m 54 X s 2100 400 m 54 X s 2100 523 m 54 X s 2100 646 m 54 X s 2100 769 m 54 X s 2100 892 m 54 X s 2100 1015 m 54 X s 2100 1138 m 54 X s 2100 1261 m 54 X s 2100
 1384 m 54 X s 2100 154 m 54 X s
 gsave  2268 1538 0 0 C 2189.52 136.845 t 0 r /Helvetica findfont 48.8732 sf 0 0 m (1) show NC gr 
 gsave  2268 1538 0 0 C 2163.45 136.845 t 0 r /Symbol findfont 48.8732 sf 0 0 m (-) show NC gr 
 gsave  2268 1538 0 0 C 2189.52 257.399 t 0 r /Helvetica findfont 48.8732 sf 0 0 m (0.8) show NC gr 
 gsave  2268 1538 0 0 C 2163.45 257.399 t 0 r /Symbol findfont 48.8732 sf 0 0 m (-) show NC gr 
 gsave  2268 1538 0 0 C 2189.52 381.211 t 0 r /Helvetica findfont 48.8732 sf 0 0 m (0.6) show NC gr 
 gsave  2268 1538 0 0 C 2163.45 381.211 t 0 r /Symbol findfont 48.8732 sf 0 0 m (-) show NC gr 
 gsave  2268 1538 0 0 C 2189.52 505.023 t 0 r /Helvetica findfont 48.8732 sf 0 0 m (0.4) show NC gr 
 gsave  2268 1538 0 0 C 2163.45 505.023 t 0 r /Symbol findfont 48.8732 sf 0 0 m (-) show NC gr 
 gsave  2268 1538 0 0 C 2189.52 628.835 t 0 r /Helvetica findfont 48.8732 sf 0 0 m (0.2) show NC gr 
 gsave  2268 1538 0 0 C 2163.45 628.835 t 0 r /Symbol findfont 48.8732 sf 0 0 m (-) show NC gr 
 gsave  2268 1538 0 0 C 2163.45 749.389 t 0 r /Helvetica findfont 48.8732 sf 0 0 m (0) show NC gr 
 gsave  2268 1538 0 0 C 2163.45 873.201 t 0 r /Helvetica findfont 48.8732 sf 0 0 m (0.2) show NC gr 
 gsave  2268 1538 0 0 C 2163.45 997.013 t 0 r /Helvetica findfont 48.8732 sf 0 0 m (0.4) show NC gr 
 gsave  2268 1538 0 0 C 2163.45 1120.83 t 0 r /Helvetica findfont 48.8732 sf 0 0 m (0.6) show NC gr 
 gsave  2268 1538 0 0 C 2163.45 1244.64 t 0 r /Helvetica findfont 48.8732 sf 0 0 m (0.8) show NC gr 
 gsave  2268 1538 0 0 C 2163.45 1365.19 t 0 r /Helvetica findfont 48.8732 sf 0 0 m (1) show NC gr  1 1 1 c black
 gsave  2268 1538 0 0 C 276.948 198.751 t 0 r /Helvetica-Bold findfont 29.3239 sf 0 0 m (1.00) show NC gr 
 gsave  2268 1538 0 0 C 443.117 198.751 t 0 r /Helvetica-Bold findfont 29.3239 sf 0 0 m (0.14) show NC gr 
 gsave  2268 1538 0 0 C 612.544 198.751 t 0 r /Helvetica-Bold findfont 29.3239 sf 0 0 m (0.11) show NC gr 
 gsave  2268 1538 0 0 C 772.197 198.751 t 0 r /Helvetica-Bold findfont 29.3239 sf 0 0 m (0.00) show NC gr 
 gsave  2268 1538 0 0 C 938.365 198.751 t 0 r /Helvetica-Bold findfont 29.3239 sf 0 0 m (0.00) show NC gr 
 gsave  2268 1538 0 0 C 1104.53 198.751 t 0 r /Helvetica-Bold findfont 29.3239 sf 0 0 m (0.03) show NC gr 
 gsave  2268 1538 0 0 C 1264.19 198.751 t 0 r /Helvetica-Bold findfont 29.3239 sf 0 0 m (\2550.18) show NC gr 
 gsave  2268 1538 0 0 C 1430.36 198.751 t 0 r /Helvetica-Bold findfont 29.3239 sf 0 0 m (\2550.18) show NC gr 
 gsave  2268 1538 0 0 C 1599.78 198.751 t 0 r /Helvetica-Bold findfont 29.3239 sf 0 0 m (0.01) show NC gr 
 gsave  2268 1538 0 0 C 1759.44 198.751 t 0 r /Helvetica-Bold findfont 29.3239 sf 0 0 m (\2550.00) show NC gr 
 gsave  2268 1538 0 0 C 1925.6 198.751 t 0 r /Helvetica-Bold findfont 29.3239 sf 0 0 m (\2550.02) show NC gr 
 gsave  2268 1538 0 0 C 276.948 309.53 t 0 r /Helvetica-Bold findfont 29.3239 sf 0 0 m (0.14) show NC gr 
 gsave  2268 1538 0 0 C 443.117 309.53 t 0 r /Helvetica-Bold findfont 29.3239 sf 0 0 m (1.00) show NC gr 
 gsave  2268 1538 0 0 C 609.286 309.53 t 0 r /Helvetica-Bold findfont 29.3239 sf 0 0 m (0.10) show NC gr 
 gsave  2268 1538 0 0 C 772.197 309.53 t 0 r /Helvetica-Bold findfont 29.3239 sf 0 0 m (0.00) show NC gr 
 gsave  2268 1538 0 0 C 938.365 309.53 t 0 r /Helvetica-Bold findfont 29.3239 sf 0 0 m (0.00) show NC gr 
 gsave  2268 1538 0 0 C 1104.53 309.53 t 0 r /Helvetica-Bold findfont 29.3239 sf 0 0 m (0.02) show NC gr 
 gsave  2268 1538 0 0 C 1264.19 309.53 t 0 r /Helvetica-Bold findfont 29.3239 sf 0 0 m (\2550.15) show NC gr 
 gsave  2268 1538 0 0 C 1430.36 309.53 t 0 r /Helvetica-Bold findfont 29.3239 sf 0 0 m (\2550.10) show NC gr 
 gsave  2268 1538 0 0 C 1599.78 309.53 t 0 r /Helvetica-Bold findfont 29.3239 sf 0 0 m (0.01) show NC gr 
 gsave  2268 1538 0 0 C 1762.69 309.53 t 0 r /Helvetica-Bold findfont 29.3239 sf 0 0 m (0.00) show NC gr 
 gsave  2268 1538 0 0 C 1925.6 309.53 t 0 r /Helvetica-Bold findfont 29.3239 sf 0 0 m (\2550.04) show NC gr 
 gsave  2268 1538 0 0 C 280.206 423.568 t 0 r /Helvetica-Bold findfont 29.3239 sf 0 0 m (0.11) show NC gr 
 gsave  2268 1538 0 0 C 443.117 423.568 t 0 r /Helvetica-Bold findfont 29.3239 sf 0 0 m (0.10) show NC gr 
 gsave  2268 1538 0 0 C 609.286 423.568 t 0 r /Helvetica-Bold findfont 29.3239 sf 0 0 m (1.00) show NC gr 
 gsave  2268 1538 0 0 C 772.197 423.568 t 0 r /Helvetica-Bold findfont 29.3239 sf 0 0 m (0.00) show NC gr 
 gsave  2268 1538 0 0 C 938.365 423.568 t 0 r /Helvetica-Bold findfont 29.3239 sf 0 0 m (0.00) show NC gr 
 gsave  2268 1538 0 0 C 1101.28 423.568 t 0 r /Helvetica-Bold findfont 29.3239 sf 0 0 m (\2550.00) show NC gr 
 gsave  2268 1538 0 0 C 1264.19 423.568 t 0 r /Helvetica-Bold findfont 29.3239 sf 0 0 m (\2550.14) show NC gr 
 gsave  2268 1538 0 0 C 1430.36 423.568 t 0 r /Helvetica-Bold findfont 29.3239 sf 0 0 m (\2550.07) show NC gr 
 gsave  2268 1538 0 0 C 1596.52 423.568 t 0 r /Helvetica-Bold findfont 29.3239 sf 0 0 m (0.02) show NC gr 
 gsave  2268 1538 0 0 C 1762.69 423.568 t 0 r /Helvetica-Bold findfont 29.3239 sf 0 0 m (0.03) show NC gr 
 gsave  2268 1538 0 0 C 1925.6 423.568 t 0 r /Helvetica-Bold findfont 29.3239 sf 0 0 m (\2550.05) show NC gr 
 gsave  2268 1538 0 0 C 276.948 534.347 t 0 r /Helvetica-Bold findfont 29.3239 sf 0 0 m (0.00) show NC gr 
 gsave  2268 1538 0 0 C 443.117 534.347 t 0 r /Helvetica-Bold findfont 29.3239 sf 0 0 m (0.00) show NC gr 
 gsave  2268 1538 0 0 C 609.286 534.347 t 0 r /Helvetica-Bold findfont 29.3239 sf 0 0 m (0.00) show NC gr 
 gsave  2268 1538 0 0 C 772.197 534.347 t 0 r /Helvetica-Bold findfont 29.3239 sf 0 0 m (1.00) show NC gr 
 gsave  2268 1538 0 0 C 938.365 534.347 t 0 r /Helvetica-Bold findfont 29.3239 sf 0 0 m (0.00) show NC gr 
 gsave  2268 1538 0 0 C 1101.28 534.347 t 0 r /Helvetica-Bold findfont 29.3239 sf 0 0 m (\2550.00) show NC gr 
 gsave  2268 1538 0 0 C 1267.45 534.347 t 0 r /Helvetica-Bold findfont 29.3239 sf 0 0 m (0.00) show NC gr 
 gsave  2268 1538 0 0 C 1430.36 534.347 t 0 r /Helvetica-Bold findfont 29.3239 sf 0 0 m (\2550.00) show NC gr 
 gsave  2268 1538 0 0 C 1593.27 534.347 t 0 r /Helvetica-Bold findfont 29.3239 sf 0 0 m (\2550.01) show NC gr 
 gsave  2268 1538 0 0 C 1762.69 534.347 t 0 r /Helvetica-Bold findfont 29.3239 sf 0 0 m (0.00) show NC gr 
 gsave  2268 1538 0 0 C 1928.86 534.347 t 0 r /Helvetica-Bold findfont 29.3239 sf 0 0 m (0.00) show NC gr 
 gsave  2268 1538 0 0 C 276.948 645.126 t 0 r /Helvetica-Bold findfont 29.3239 sf 0 0 m (0.00) show NC gr 
 gsave  2268 1538 0 0 C 443.117 645.126 t 0 r /Helvetica-Bold findfont 29.3239 sf 0 0 m (0.00) show NC gr 
 gsave  2268 1538 0 0 C 609.286 645.126 t 0 r /Helvetica-Bold findfont 29.3239 sf 0 0 m (0.00) show NC gr 
 gsave  2268 1538 0 0 C 772.197 645.126 t 0 r /Helvetica-Bold findfont 29.3239 sf 0 0 m (0.00) show NC gr 
 gsave  2268 1538 0 0 C 938.365 645.126 t 0 r /Helvetica-Bold findfont 29.3239 sf 0 0 m (1.00) show NC gr 
 gsave  2268 1538 0 0 C 1101.28 645.126 t 0 r /Helvetica-Bold findfont 29.3239 sf 0 0 m (\2550.00) show NC gr 
 gsave  2268 1538 0 0 C 1264.19 645.126 t 0 r /Helvetica-Bold findfont 29.3239 sf 0 0 m (\2550.00) show NC gr 
 gsave  2268 1538 0 0 C 1430.36 645.126 t 0 r /Helvetica-Bold findfont 29.3239 sf 0 0 m (\2550.00) show NC gr 
 gsave  2268 1538 0 0 C 1593.27 645.126 t 0 r /Helvetica-Bold findfont 29.3239 sf 0 0 m (\2550.01) show NC gr 
 gsave  2268 1538 0 0 C 1762.69 645.126 t 0 r /Helvetica-Bold findfont 29.3239 sf 0 0 m (0.00) show NC gr 
 gsave  2268 1538 0 0 C 1925.6 645.126 t 0 r /Helvetica-Bold findfont 29.3239 sf 0 0 m (\2550.00) show NC gr 
 gsave  2268 1538 0 0 C 276.948 755.906 t 0 r /Helvetica-Bold findfont 29.3239 sf 0 0 m (0.03) show NC gr 
 gsave  2268 1538 0 0 C 443.117 755.906 t 0 r /Helvetica-Bold findfont 29.3239 sf 0 0 m (0.02) show NC gr 
 gsave  2268 1538 0 0 C 606.028 755.906 t 0 r /Helvetica-Bold findfont 29.3239 sf 0 0 m (\2550.00) show NC gr 
 gsave  2268 1538 0 0 C 768.938 755.906 t 0 r /Helvetica-Bold findfont 29.3239 sf 0 0 m (\2550.00) show NC gr 
 gsave  2268 1538 0 0 C 935.107 755.906 t 0 r /Helvetica-Bold findfont 29.3239 sf 0 0 m (\2550.00) show NC gr 
 gsave  2268 1538 0 0 C 1104.53 755.906 t 0 r /Helvetica-Bold findfont 29.3239 sf 0 0 m (1.00) show NC gr 
 gsave  2268 1538 0 0 C 1264.19 755.906 t 0 r /Helvetica-Bold findfont 29.3239 sf 0 0 m (\2550.02) show NC gr 
 gsave  2268 1538 0 0 C 1430.36 755.906 t 0 r /Helvetica-Bold findfont 29.3239 sf 0 0 m (\2550.02) show NC gr 
 gsave  2268 1538 0 0 C 1593.27 755.906 t 0 r /Helvetica-Bold findfont 29.3239 sf 0 0 m (\2550.08) show NC gr 
 gsave  2268 1538 0 0 C 1759.44 755.906 t 0 r /Helvetica-Bold findfont 29.3239 sf 0 0 m (\2550.01) show NC gr 
 gsave  2268 1538 0 0 C 1925.6 755.906 t 0 r /Helvetica-Bold findfont 29.3239 sf 0 0 m (\2550.01) show NC gr 
 gsave  2268 1538 0 0 C 273.69 869.943 t 0 r /Helvetica-Bold findfont 29.3239 sf 0 0 m (\2550.18) show NC gr 
 gsave  2268 1538 0 0 C 439.859 869.943 t 0 r /Helvetica-Bold findfont 29.3239 sf 0 0 m (\2550.15) show NC gr 
 gsave  2268 1538 0 0 C 606.028 869.943 t 0 r /Helvetica-Bold findfont 29.3239 sf 0 0 m (\2550.14) show NC gr 
 gsave  2268 1538 0 0 C 772.197 869.943 t 0 r /Helvetica-Bold findfont 29.3239 sf 0 0 m (0.00) show NC gr 
 gsave  2268 1538 0 0 C 935.107 869.943 t 0 r /Helvetica-Bold findfont 29.3239 sf 0 0 m (\2550.00) show NC gr 
 gsave  2268 1538 0 0 C 1101.28 869.943 t 0 r /Helvetica-Bold findfont 29.3239 sf 0 0 m (\2550.02) show NC gr 
 gsave  2268 1538 0 0 C 1267.45 869.943 t 0 r /Helvetica-Bold findfont 29.3239 sf 0 0 m (1.00) show NC gr 
 gsave  2268 1538 0 0 C 1433.61 869.943 t 0 r /Helvetica-Bold findfont 29.3239 sf 0 0 m (0.06) show NC gr 
 gsave  2268 1538 0 0 C 1596.52 869.943 t 0 r /Helvetica-Bold findfont 29.3239 sf 0 0 m (0.12) show NC gr 
 gsave  2268 1538 0 0 C 1762.69 869.943 t 0 r /Helvetica-Bold findfont 29.3239 sf 0 0 m (0.05) show NC gr 
 gsave  2268 1538 0 0 C 1928.86 869.943 t 0 r /Helvetica-Bold findfont 29.3239 sf 0 0 m (0.46) show NC gr 
 gsave  2268 1538 0 0 C 273.69 980.722 t 0 r /Helvetica-Bold findfont 29.3239 sf 0 0 m (\2550.18) show NC gr 
 gsave  2268 1538 0 0 C 439.859 980.722 t 0 r /Helvetica-Bold findfont 29.3239 sf 0 0 m (\2550.10) show NC gr 
 gsave  2268 1538 0 0 C 606.028 980.722 t 0 r /Helvetica-Bold findfont 29.3239 sf 0 0 m (\2550.07) show NC gr 
 gsave  2268 1538 0 0 C 768.938 980.722 t 0 r /Helvetica-Bold findfont 29.3239 sf 0 0 m (\2550.00) show NC gr 
 gsave  2268 1538 0 0 C 935.107 980.722 t 0 r /Helvetica-Bold findfont 29.3239 sf 0 0 m (\2550.00) show NC gr 
 gsave  2268 1538 0 0 C 1101.28 980.722 t 0 r /Helvetica-Bold findfont 29.3239 sf 0 0 m (\2550.02) show NC gr 
 gsave  2268 1538 0 0 C 1267.45 980.722 t 0 r /Helvetica-Bold findfont 29.3239 sf 0 0 m (0.06) show NC gr 
 gsave  2268 1538 0 0 C 1433.61 980.722 t 0 r /Helvetica-Bold findfont 29.3239 sf 0 0 m (1.00) show NC gr 
 gsave  2268 1538 0 0 C 1596.52 980.722 t 0 r /Helvetica-Bold findfont 29.3239 sf 0 0 m (0.02) show NC gr 
 gsave  2268 1538 0 0 C 1759.44 980.722 t 0 r /Helvetica-Bold findfont 29.3239 sf 0 0 m (\2550.07) show NC gr 
 gsave  2268 1538 0 0 C 1928.86 980.722 t 0 r /Helvetica-Bold findfont 29.3239 sf 0 0 m (0.03) show NC gr 
 gsave  2268 1538 0 0 C 280.206 1091.5 t 0 r /Helvetica-Bold findfont 29.3239 sf 0 0 m (0.01) show NC gr 
 gsave  2268 1538 0 0 C 446.375 1091.5 t 0 r /Helvetica-Bold findfont 29.3239 sf 0 0 m (0.01) show NC gr 
 gsave  2268 1538 0 0 C 609.286 1091.5 t 0 r /Helvetica-Bold findfont 29.3239 sf 0 0 m (0.02) show NC gr 
 gsave  2268 1538 0 0 C 768.938 1091.5 t 0 r /Helvetica-Bold findfont 29.3239 sf 0 0 m (\2550.01) show NC gr 
 gsave  2268 1538 0 0 C 935.107 1091.5 t 0 r /Helvetica-Bold findfont 29.3239 sf 0 0 m (\2550.01) show NC gr 
 gsave  2268 1538 0 0 C 1101.28 1091.5 t 0 r /Helvetica-Bold findfont 29.3239 sf 0 0 m (\2550.08) show NC gr 
 gsave  2268 1538 0 0 C 1267.45 1091.5 t 0 r /Helvetica-Bold findfont 29.3239 sf 0 0 m (0.12) show NC gr 
 gsave  2268 1538 0 0 C 1433.61 1091.5 t 0 r /Helvetica-Bold findfont 29.3239 sf 0 0 m (0.02) show NC gr 
 gsave  2268 1538 0 0 C 1596.52 1091.5 t 0 r /Helvetica-Bold findfont 29.3239 sf 0 0 m (1.00) show NC gr 
 gsave  2268 1538 0 0 C 1762.69 1091.5 t 0 r /Helvetica-Bold findfont 29.3239 sf 0 0 m (0.04) show NC gr 
 gsave  2268 1538 0 0 C 1928.86 1091.5 t 0 r /Helvetica-Bold findfont 29.3239 sf 0 0 m (0.10) show NC gr 
 gsave  2268 1538 0 0 C 273.69 1205.54 t 0 r /Helvetica-Bold findfont 29.3239 sf 0 0 m (\2550.00) show NC gr 
 gsave  2268 1538 0 0 C 443.117 1205.54 t 0 r /Helvetica-Bold findfont 29.3239 sf 0 0 m (0.00) show NC gr 
 gsave  2268 1538 0 0 C 609.286 1205.54 t 0 r /Helvetica-Bold findfont 29.3239 sf 0 0 m (0.03) show NC gr 
 gsave  2268 1538 0 0 C 772.197 1205.54 t 0 r /Helvetica-Bold findfont 29.3239 sf 0 0 m (0.00) show NC gr 
 gsave  2268 1538 0 0 C 938.365 1205.54 t 0 r /Helvetica-Bold findfont 29.3239 sf 0 0 m (0.00) show NC gr 
 gsave  2268 1538 0 0 C 1101.28 1205.54 t 0 r /Helvetica-Bold findfont 29.3239 sf 0 0 m (\2550.01) show NC gr 
 gsave  2268 1538 0 0 C 1267.45 1205.54 t 0 r /Helvetica-Bold findfont 29.3239 sf 0 0 m (0.05) show NC gr 
 gsave  2268 1538 0 0 C 1430.36 1205.54 t 0 r /Helvetica-Bold findfont 29.3239 sf 0 0 m (\2550.07) show NC gr 
 gsave  2268 1538 0 0 C 1596.52 1205.54 t 0 r /Helvetica-Bold findfont 29.3239 sf 0 0 m (0.04) show NC gr 
 gsave  2268 1538 0 0 C 1762.69 1205.54 t 0 r /Helvetica-Bold findfont 29.3239 sf 0 0 m (1.00) show NC gr 
 gsave  2268 1538 0 0 C 1925.6 1205.54 t 0 r /Helvetica-Bold findfont 29.3239 sf 0 0 m (\2550.19) show NC gr 
 gsave  2268 1538 0 0 C 273.69 1316.32 t 0 r /Helvetica-Bold findfont 29.3239 sf 0 0 m (\2550.02) show NC gr 
 gsave  2268 1538 0 0 C 439.859 1316.32 t 0 r /Helvetica-Bold findfont 29.3239 sf 0 0 m (\2550.04) show NC gr 
 gsave  2268 1538 0 0 C 606.028 1316.32 t 0 r /Helvetica-Bold findfont 29.3239 sf 0 0 m (\2550.05) show NC gr 
 gsave  2268 1538 0 0 C 772.197 1316.32 t 0 r /Helvetica-Bold findfont 29.3239 sf 0 0 m (0.00) show NC gr 
 gsave  2268 1538 0 0 C 935.107 1316.32 t 0 r /Helvetica-Bold findfont 29.3239 sf 0 0 m (\2550.00) show NC gr 
 gsave  2268 1538 0 0 C 1101.28 1316.32 t 0 r /Helvetica-Bold findfont 29.3239 sf 0 0 m (\2550.01) show NC gr 
 gsave  2268 1538 0 0 C 1267.45 1316.32 t 0 r /Helvetica-Bold findfont 29.3239 sf 0 0 m (0.46) show NC gr 
 gsave  2268 1538 0 0 C 1433.61 1316.32 t 0 r /Helvetica-Bold findfont 29.3239 sf 0 0 m (0.03) show NC gr 
 gsave  2268 1538 0 0 C 1596.52 1316.32 t 0 r /Helvetica-Bold findfont 29.3239 sf 0 0 m (0.10) show NC gr 
 gsave  2268 1538 0 0 C 1759.44 1316.32 t 0 r /Helvetica-Bold findfont 29.3239 sf 0 0 m (\2550.19) show NC gr 
 gsave  2268 1538 0 0 C 1928.86 1316.32 t 0 r /Helvetica-Bold findfont 29.3239 sf 0 0 m (1.00) show NC gr  227 154 m 1814 X s
 gsave  2268 1538 0 0 C 299.756 127.07 t -19 r /Helvetica findfont 32.5821 sf 0 0 m (sigma_bin0) show NC gr 
 gsave  2268 1538 0 0 C 465.925 127.07 t -19 r /Helvetica findfont 32.5821 sf 0 0 m (sigma_bin1) show NC gr 
 gsave  2268 1538 0 0 C 632.093 127.07 t -19 r /Helvetica findfont 32.5821 sf 0 0 m (sigma_bin2) show NC gr 
 gsave  2268 1538 0 0 C 795.004 127.07 t -19 r /Helvetica findfont 32.5821 sf 0 0 m (sigma_bin3) show NC gr 
 gsave  2268 1538 0 0 C 961.173 127.07 t -19 r /Helvetica findfont 32.5821 sf 0 0 m (sigma_bin4) show NC gr 
 gsave  2268 1538 0 0 C 1127.34 127.07 t -19 r /Helvetica findfont 32.5821 sf 0 0 m (mu_Zjets) show NC gr 
 gsave  2268 1538 0 0 C 1290.25 127.07 t -19 r /Helvetica findfont 32.5821 sf 0 0 m (mu_wwTop_SR_0) show NC gr 
 gsave  2268 1538 0 0 C 1456.42 127.07 t -19 r /Helvetica findfont 32.5821 sf 0 0 m (mu_ggf) show NC gr 
 gsave  2268 1538 0 0 C 1619.33 127.07 t -19 r /Helvetica findfont 32.5821 sf 0 0 m (mu_wwTop_SR_1) show NC gr 
 gsave  2268 1538 0 0 C 1785.5 127.07 t -19 r /Helvetica findfont 32.5821 sf 0 0 m (mu_Zjets_CRGGF1) show NC gr 
 gsave  2268 1538 0 0 C 1951.67 127.07 t -19 r /Helvetica findfont 32.5821 sf 0 0 m (mu_wwTop_CRGGF) show NC gr  227 191 m -37 Y s 392 191 m -37 Y s 557 191 m -37 Y s 722 191 m -37 Y s 886 191 m -37 Y s 1051 191 m -37 Y s 1216 191 m -37 Y s 1381 191
 m -37 Y s 1546 191 m -37 Y s 1711 191 m -37 Y s 1876 191 m -37 Y s 2041 191 m -37 Y s 227 154 m 1230 Y s
 gsave  2268 1538 0 0 C 32.5821 202.009 t 0 r /Helvetica findfont 32.5821 sf 0 0 m (sigma_bin0) show NC gr 
 gsave  2268 1538 0 0 C 39.0986 312.788 t 0 r /Helvetica findfont 32.5821 sf 0 0 m (sigma_bin1) show NC gr 
 gsave  2268 1538 0 0 C 32.5821 426.826 t 0 r /Helvetica findfont 32.5821 sf 0 0 m (sigma_bin2) show NC gr 
 gsave  2268 1538 0 0 C 32.5821 537.605 t 0 r /Helvetica findfont 32.5821 sf 0 0 m (sigma_bin3) show NC gr 
 gsave  2268 1538 0 0 C 32.5821 648.384 t 0 r /Helvetica findfont 32.5821 sf 0 0 m (sigma_bin4) show NC gr 
 gsave  2268 1538 0 0 C 65.1643 759.164 t 0 r /Helvetica findfont 32.5821 sf 0 0 m (mu_Zjets) show NC gr 
 gsave  2268 1538 0 0 C -65.1643 873.201 t 0 r /Helvetica findfont 32.5821 sf 0 0 m (mu_wwTop_SR_0) show NC gr 
 gsave  2268 1538 0 0 C 91.23 983.98 t 0 r /Helvetica findfont 32.5821 sf 0 0 m (mu_ggf) show NC gr 
 gsave  2268 1538 0 0 C -61.9061 1094.76 t 0 r /Helvetica findfont 32.5821 sf 0 0 m (mu_wwTop_SR_1) show NC gr 
 gsave  2268 1538 0 0 C -81.4553 1208.8 t 0 r /Helvetica findfont 32.5821 sf 0 0 m (mu_Zjets_CRGGF1) show NC gr 
 gsave  2268 1538 0 0 C -101.005 1319.58 t 0 r /Helvetica findfont 32.5821 sf 0 0 m (mu_wwTop_CRGGF) show NC gr  281 154 m -54 X s 281 266 m -54 X s 281 377 m -54 X s 281 489 m -54 X s 281 601 m -54 X s 281 713 m -54 X s 281 825 m -54 X s 281 937 m
 -54 X s 281 1049 m -54 X s 281 1160 m -54 X s 281 1272 m -54 X s 281 1384 m -54 X s
 gr  gr showpage
end
%%EOF
